-1.713514401621832217e+00,-1.486086490074060906e+00,-2.091745397018771602e+00,8.457999183436470947e-02,3.273384620447197801e-01,8.473514854096408921e-01,4.759721219812478310e+00,4.361948081955935308e-02,5.301928170585081812e-01,2.527103712887471820e-01
2.934462963593926332e+00,-3.908972220419951960e+00,5.273963319620789125e-02,1.012921026946316916e+00,-2.550829554755725592e+00,3.144126063146679861e+00,1.926978240359279670e+00,2.525614244491795279e+00,-2.736936069961121376e+00,5.226573586315161890e+00
3.291251155656741201e+00,-2.603852363825116534e-01,2.049849330613090270e+00,-2.206068858347208117e+00,-2.504751435430095707e+00,3.736353727251257695e+00,-6.056773110768262747e+00,2.103430288753806998e+00,-3.058519739701032192e-02,2.870675558881498723e+00
8.704743956725424781e-02,1.889210667081528516e+00,-7.094679694990830843e-01,-5.622232743424988577e-01,-6.212026628242874882e-01,-2.056020997666402117e+00,1.225692077366875132e+00,-3.874424046321821358e+00,-4.570669631415105627e+00,-4.622116393597458739e+00
1.258163285653499441e+00,-9.927403167457030664e-01,1.848647110421960615e+00,3.872142040485749837e-01,-1.130337369505754364e+00,4.146241525612059498e+00,-5.727048084196495026e+00,4.203064558535660744e+00,1.470396934111913190e+00,3.682529792521380241e+00
2.112522959738504458e+00,1.667367811022423041e+00,7.288804333217859810e-01,-3.590824723134057095e+00,-1.087209148953785842e+00,-7.075225597517509346e-01,-2.071078764811532302e+00,-2.288668894649999341e+00,-9.664731409845050969e-02,-1.194827295046159144e+00
-1.275962571284101621e-01,-2.646947267114320823e+00,6.481629649626396983e-01,2.391594859069493761e+00,7.498914914412723176e-01,1.506514040952974476e+00,9.773804585803569367e-03,4.208279428564543068e+00,3.203031197649418793e+00,5.074470190587451413e+00
-2.977818656848205681e+00,1.563000215288037786e+00,3.886145980772706676e-01,2.622051982189772090e+00,2.220161340028929065e+00,-9.414528743066733485e-01,-2.300110084708262725e+00,9.832944746686076432e-01,1.527602368982403203e+00,-2.114641504242280590e+00
6.177921984564482827e-01,2.722954783926205380e+00,9.595423946720522679e-01,-1.719551000209887937e+00,1.118422285911896408e+00,-4.208609347369964837e+00,-1.292214071527008512e+00,-3.070195591652700173e+00,1.155749131476017100e+00,-2.601113337469832310e+00
4.643172901351507731e-01,-1.617376466019786463e+00,-1.675011489340511028e-01,1.355416404881970349e+00,7.089056207986090818e-01,-1.878002859535772506e+00,3.401091231544574711e+00,2.856673846867139321e-01,6.888725513600194583e-01,2.257167078938075555e+00
