1.278278978145235278e-01,-9.095291657159910725e-01,3.171978225619624503e+00,2.053805663730493336e+00,3.314985444854967600e-02,-3.445575589281502538e+00,5.536476144584797643e-01,-1.714614400678577955e+00,-1.209069927196465777e+00,-1.812081266177928418e-02
3.960022578678563110e-01,3.576371574638600448e-01,-3.484248791719725347e+00,-2.141996301745519027e+00,8.008675208807630730e-02,3.422416253117586571e+00,-7.964070798088545011e-01,6.023377046071616281e-01,6.321098595358172201e-01,-1.174885461884741300e+00
1.784980744770101158e+00,-6.345541643126878517e-01,-3.322229552148094456e+00,3.302702844254789549e-01,-3.455150896521291148e+00,4.038228198355542808e+00,-2.076402291439269909e+00,1.059707678963699218e+00,1.642143598771067081e+00,8.200927649431497546e-01
5.366417241288486961e-01,-7.489677892434662976e-01,-7.949263695609887215e-02,2.152017314100188039e-02,-8.812806017123854252e-01,4.094656133494245509e-03,-1.465701342992757006e+00,2.096206175396414739e+00,2.416952270125313440e+00,-2.508484100704964082e-01
-7.238073834422088515e-01,9.037633666382125508e-01,2.412101902784091312e+00,-1.454219812440225024e+00,2.216458138236497621e+00,-4.362949550328612425e+00,-1.495811988372408363e+00,-4.728394939410699993e-01,-9.098435686256770571e-01,1.532863688541511227e+00
3.655648578921629532e+00,-1.876569001068870035e+00,-6.567018495745101658e-01,1.366564515861469653e+00,-3.585672572043887563e+00,-1.132951575049926385e+00,-4.670266271246203971e+00,-4.622903631134299474e+00,-2.467106570004704125e+00,1.332460241581355787e+00
-3.033711582901885251e+00,4.502905800245532220e+00,-5.276843373815847116e+00,-3.806533182580877916e+00,1.046555459854278558e+00,7.472734979403084843e+00,2.449934556483068349e+00,5.096464122673252106e+00,1.807331991072965049e+00,3.392080355380305612e+00
-5.862629333407441690e-03,-1.603910072272652365e-01,-3.438042153581470473e+00,4.167952115062041607e-02,-1.206640534193620162e+00,5.497489638290886660e+00,1.854330218226746263e+00,1.843577490131705021e+00,1.714580231751649197e+00,-1.877755558015483439e+00
1.174555852811455803e-01,-2.558923159782064971e-01,2.626737648718983631e-01,-2.872515941013529805e-01,-2.315954959804287505e-01,-5.149111290162213805e-01,-1.151722992274294421e+00,1.740542714907010069e+00,1.767861338705990715e+00,1.781322156555279479e-01
4.284009964192642128e-01,1.707228015795084319e+00,5.622482202512010252e-01,-1.712802037810260858e+00,-4.573847778852202506e-01,-2.827011235876010442e+00,-4.407114578414315531e+00,-3.535071189816422210e-01,-9.685384186134328166e-01,5.533744682275798965e+00
