2.300147369240084783e-01,-2.785740372945765486e+00,-3.174475467118870742e-01,-1.097261464342541348e+00,7.550809767191883903e-01,6.539655372166014446e-01,-1.394403159880975851e+00,1.082498445104293605e+00,-2.149090857730244331e+00,-1.485787486427386339e+00
-1.015383343981776765e+00,-1.075625014261511136e+00,-1.938435865663865609e+00,6.514218464521691621e-01,-5.825896763082332175e-01,-8.816589331658957196e-01,-1.402562859556977681e+00,5.942381973178213483e-01,8.443526703886493345e-02,-1.441990088608310350e-01
-2.585283637820411928e-01,-2.473717854462124111e-01,-6.440920803328442634e-01,9.780800628338254255e-02,-1.494234954463850462e+00,2.395928831652789359e-01,7.139508719453330210e-01,-1.586562664110832133e-01,1.119203952326663087e-01,-1.096227698567350473e+00
4.105714969589158714e-01,3.243793691352183206e+00,3.067055261485198692e-01,-4.948766019417811801e-01,-6.853316004592663324e-01,4.386810740461003277e+00,-2.449699332448471267e+00,-1.301996253516948698e+00,-4.533799489917050840e-01,-3.986330531134134159e+00
-2.074963075469672402e-01,8.280189842825051993e-01,1.358855631887232240e+00,9.202298773156691869e-01,2.624600128011993938e+00,-2.251215117623901030e+00,-4.656512706001607604e-01,4.373227529443431960e-01,1.224769316179698642e+00,4.056449147606859817e+00
8.061883451041447213e-01,-3.358416837898003493e+00,7.179157598241230342e-01,-1.242376948141509896e+00,1.001382538387636245e+00,-1.106976955342328983e+00,1.614188963922488895e+00,1.016708641430684068e+00,-1.650270975945161034e+00,7.313143163807870328e-01
2.125554982301417262e+00,3.893198989605383353e+00,9.175404396965007869e-01,-1.125310059700077359e+00,1.480525119257952271e+00,1.568797710339564944e+00,9.686142936666350955e-01,-2.175064861295477936e+00,3.039123038404951127e-01,8.449588234176418355e-01
3.761804708816522957e+00,2.954013567381720495e+00,4.487580674406567716e-01,-2.834287298830266533e+00,1.133400133993263781e+00,1.949583383707393036e+00,3.481283898469408555e+00,-2.912468497381998755e+00,-9.475684607753339650e-01,2.597294454440538525e-01
1.608048698717199798e+00,1.812696783045123494e+00,3.214571336226265341e+00,-8.937458888947925617e-01,1.717809732127730138e+00,8.559755972109592825e-01,1.881513477627302589e+00,-8.150285199144893244e-01,2.584964447205058413e-02,1.216220555754331967e+00
1.657772200491189007e+00,1.068298210879083943e+00,2.086918009821017606e+00,-1.291823370139246085e+00,3.352847594951375854e+00,9.872829735361309256e-01,-8.330060933710217164e-01,-3.090851858621991854e-01,-1.041120087717237075e+00,1.250542753072032998e+00
