-6.778722004272613733e-01,1.993951845573947779e+00,-1.109074064321235786e+00,-4.557095346202313380e-01,-3.652476917935693734e+00,1.370435370769954364e+00,2.384496802530069459e+00,-5.194618531804895412e-02,1.298419080837571737e+00,5.145913737698046830e-01
1.656671005711662481e+00,4.551921587805233038e+00,-5.532501497095831944e+00,-1.379380688086595530e+00,-2.894944199045373701e+00,4.704046857002010640e+00,-2.015467526870663217e+00,3.978050618648626413e-01,2.499603862220940886e+00,-4.102613381829883110e+00
1.417438837721239686e+00,3.131631625350695725e+00,-2.635234921341901515e+00,-1.861493524555241308e+00,-5.744124204020748525e-01,3.125335283713077228e+00,-8.101264274706931889e-02,1.579767020432453650e+00,7.744294643647602339e-01,-3.194611225433286794e+00
5.397361301667131794e-01,-9.144608822407778170e-01,2.013095148310470428e+00,1.978429643905940338e+00,7.180825905811869525e-01,-2.697179901678809166e+00,-4.851876851869757479e-02,-8.460346160728873244e-01,-1.421046501834694054e+00,1.440401237330149797e+00
-3.443220873811724481e+00,-7.248437114967384076e+00,9.699091499478049716e-01,-3.482315277103400053e+00,7.243577569151219642e+00,8.882983865220728248e-01,-2.764530497505991224e+00,1.439632009471553120e+00,2.820889680342987260e-01,8.708342555251524786e-02
-1.949291134028759753e+00,-2.161763209028444876e+00,1.439308904277276202e+00,-2.852355090915446922e+00,2.148769772664343325e+00,9.466661206191960831e-01,-1.803902963264758519e-02,1.059855122348348111e+00,2.160486024414216000e-01,-3.659070551107143077e-01
-9.159426939913997145e-01,-1.881996505368910277e+00,1.018909743536069445e+00,2.759180907195752042e+00,-1.085201627757827136e+00,-2.674982651682372925e+00,1.742876109223470138e+00,-1.394214163342456292e+00,-3.776897767066300093e-01,3.764617756046501285e+00
-1.356089504613164909e+00,-3.813416223817975403e+00,4.127413022064461146e+00,-1.683331085606311950e+00,4.808187881904872008e+00,-1.754901014695936956e+00,6.132897245147733711e-01,1.394730070468015892e+00,-1.925531614047099493e+00,8.143437324209696904e-01
3.711885242731392420e+00,3.484644365412520983e+00,-2.868096884952501480e+00,-2.654083413704936278e-01,1.493070813622312087e+00,1.984518526068585142e+00,-2.886098017307357377e+00,1.222443073422331050e+00,-4.516951069563358567e-01,-4.605286560384903360e+00
-2.421994372829138431e+00,-3.683959987546865822e+00,6.221254966351473792e-01,-3.839166118742962652e-01,1.475230230129581654e+00,-4.960107619914662647e-01,1.383409943900048233e+00,2.649648778259989790e-01,3.060351761619540256e-01,2.544478094381293243e+00
