-4.368525339988051925e-01,3.264264119769355155e+00,-1.070961123773428447e-02,-2.608152567543323030e+00,6.715682207219140221e-01,-2.363766303047486694e+00,1.928888405921235227e+00,-5.172076778289534937e-01,-3.953211369647432250e+00,-7.861393659637074816e-01
-1.416636458439179735e+00,3.095959547358389408e+00,-9.943511451193945971e-01,-1.938325300533619844e-01,2.782929664487421295e-01,-1.808427599892090676e+00,4.067641367123842056e-02,6.647294211259846541e-02,-2.241357667070309478e+00,-4.804924980784099908e-01
3.645084626968506658e+00,-2.648089942306220301e+00,4.757020622074642491e-01,-2.065465429258167340e+00,-5.705175928707005850e-01,2.657377628018330995e+00,8.995776660436322070e-01,-1.533968017581532006e+00,-1.261356459887497561e+00,-7.194192924013336210e-01
7.578338730554037284e-01,-2.024481289262540784e+00,2.836037797599409771e+00,-4.944077571618255007e-02,-2.060922023728796848e+00,2.268336871111053643e+00,-1.962691316481057768e+00,-1.173000054195893149e+00,3.107382188628222242e+00,1.965222109237393155e+00
2.885128850433409387e+00,-2.834092308266707327e+00,1.980630053443487859e-01,-3.858011804069933604e+00,2.808717867784220168e+00,-1.090440048946023976e+00,6.202992742016331995e+00,1.255647508603948914e+00,-2.589870116581555415e+00,-2.734808484187239319e+00
1.747691289123441738e+00,-2.966568641492767000e+00,7.535933077553652604e-01,-3.951324440779671043e-01,3.367362485962689389e-01,1.460088782809132901e+00,7.779344152237361865e-01,-2.885369022829417096e-01,1.417573787937902674e+00,3.749527039583325783e-01
-3.056600669963088990e+00,6.156243498680646908e+00,9.161982149963653344e-01,-3.013946200751016491e-02,-2.452557558598509768e+00,-1.500322403404897642e+00,-3.592256361597148562e+00,-1.877592244509719510e+00,-1.746854771833107556e+00,1.829134952041616691e+00
-4.806122737236124820e-01,-5.185739626538757863e-01,1.202940301430716286e+00,-1.413965910118022862e+00,1.750391654719444912e+00,-2.024764721967342584e+00,2.878708902187335106e+00,1.022808655007525935e+00,3.641459599317770635e-01,9.942942017583483727e-02
-2.093970055219771531e+00,2.525609995743574476e+00,1.582630185996377614e-01,1.862279651811754144e+00,-2.158255573607790190e+00,2.187914340473103847e-01,-3.672624260215932690e+00,-4.539013071214385020e-01,9.202643870035418505e-01,1.090656756199973820e+00
-8.977504498465379568e-01,9.448060795804911205e-01,1.281191689249590260e+00,-9.762546736932146141e-01,-6.304221795969124909e-01,-1.109481120980325919e+00,5.588430662276288041e-01,8.946180168027371149e-01,-2.197047756167953558e-01,-6.492773151434370060e-01
