7.266941716802550744e-01,1.031140794319320708e+00,3.075595401034703080e+00,-3.793712411419343677e+00,2.178571670879528632e+00,-2.830334612782150927e+00,-3.724461882423706349e-01,-5.071705589805020065e-01,-1.642811724828713738e+00,4.669534369471614710e+00
3.256288801081717033e+00,5.013402550222718634e-01,-1.545220588219192948e+00,-8.183082822171298121e-01,-7.292303253060399282e-01,9.722049084872717017e-01,-4.724508442406816222e+00,-9.646287263300916681e-01,-1.498799319776177308e+00,9.371832809805979991e-01
-2.777894308879631069e+00,2.932745729192101081e+00,1.679467277151467375e-01,2.350477752896540373e+00,-8.947370310796948223e-01,1.254687336027193956e+00,1.521331928910897968e+00,-9.130262280816210385e-01,1.296740397682851320e+00,-3.044202640582425623e+00
1.243867536058843315e-01,1.787506915085166792e+00,5.394876893358188097e-01,9.916480851754340131e-01,-1.527214457575183149e+00,4.096949128071361579e-01,-2.527483540403885787e+00,-2.041700862691058493e-01,1.591933474683762340e+00,-2.461800090391922602e+00
1.495192836375872858e+00,2.269083413294174623e+00,-1.231094245009898946e+00,1.244223660261508380e-01,-1.294240659562265972e+00,1.069009668859382867e+00,-1.179034308948359921e+00,1.522637769542638075e+00,5.345888268565247570e-01,2.664357293839136887e-02
-2.799365063221183281e+00,-2.158131954391314000e+00,3.430782182060529095e+00,7.966484316391700959e-01,7.705740520707371477e-01,-1.800830603950674513e+00,-1.155803788237748986e+00,-3.586564837213090939e+00,8.169335467474057033e-01,-3.009940609299600389e+00
3.165803084612050511e-01,2.574656669671391729e+00,2.644735707762686516e+00,-2.189124069374158932e+00,6.610036982489330137e-01,-1.800915003522623348e+00,-1.026083350623072876e+00,-2.258709903759870130e-02,-4.260516190067498155e-02,2.132051829479140181e+00
-7.399641764018751733e-01,5.474369907371942068e-01,-6.153911153116943922e+00,1.190638905263484926e+00,1.588076108787927820e+00,4.168039292411338081e+00,5.836242358788591211e+00,-1.271916124153224636e+00,-5.011022877988432711e+00,3.285512485752152045e+00
-2.134399435597816641e+00,2.004570564184084691e-01,8.158929820790994381e-01,4.046814431652079325e-01,1.260385221307718240e+00,2.088011569935144252e-02,6.251543057221650157e-01,-3.499290742666036902e+00,-1.573990863087292524e+00,-2.706176700316818007e-01
-2.133069387753020241e+00,9.301080107620855741e-02,1.117541570157240205e+00,2.077757671148695306e-01,8.796914018962234127e-01,-6.066593970824077919e-01,2.625329416703705121e+00,-4.526589316165181565e-01,1.145337730260387599e-01,-4.566963245201470512e-02
