8.086354038077381290e-01,8.026082348614806961e-01,1.744579984964932606e+00,3.295053074463634157e-01,6.867770452670501902e-01,4.640647323938695834e+00,-1.708010700370641288e+00,5.695933709485259677e-02,-9.958401869394042372e-01,-4.352919717529317722e+00
1.233974883325656302e+00,-5.966863070030652416e-01,-2.073803233449716288e+00,3.426405414403258298e+00,1.938899026817357374e+00,-8.905943181947599818e-01,1.583508710376878015e-01,2.747917166657493304e+00,-4.641001841044037901e-01,3.580574077738495120e+00
-4.364800961205860474e+00,-1.905119138137467250e+00,6.126713882677466971e-01,5.231261779369988929e-02,-2.927867131965595338e+00,3.655235493010832393e+00,-3.031560556390934025e+00,1.706979033970123627e+00,5.703991808689824472e-01,-5.185919112156365252e-01
1.801320818730660189e+00,-1.666185276251812564e+00,-2.422613260570877891e+00,1.914909991017638369e+00,2.911350270429146736e+00,1.634226608738207798e+00,2.082228708229246494e-01,2.147133849978144049e+00,2.833094446255419285e+00,8.102024863856856218e-02
5.416080704870996909e-01,1.252881013304860680e-01,9.841762227371686489e-02,3.924610193474741937e+00,1.124614309754016661e+00,4.738483088663448584e+00,-1.921480455437023505e+00,2.695715901087019084e+00,-1.225363663691353189e+00,-4.249270994625966580e-01
-1.130581839259681587e+00,-1.194740031078441733e+00,-4.412563222445484712e-01,2.309192232821347446e+00,-4.872600305361657336e-02,4.204401261125069844e+00,-1.803846072001290102e+00,2.298840994316611930e+00,9.232762697662768581e-01,-3.091758693299291871e-01
-8.298929535954876480e-01,-1.285067457786940981e+00,7.130500894318199112e-01,-5.832412022108012239e-01,6.488217537768359300e-01,2.400520879902274807e+00,-3.441383551473489177e+00,2.195374676022538107e+00,-1.756523777913766127e+00,-2.987322593573863649e+00
-1.065470388695076487e+00,-1.454295220772818142e+00,-9.753187443707957982e-01,2.159379286395441522e+00,2.636281313197729181e-01,1.834237142198252402e+00,-1.763875983942732262e+00,2.847360260058658721e+00,-4.464955343338161686e-02,1.217003927562446686e+00
-9.515585087914113505e-02,-5.309606630258549842e-01,-6.711663833464917017e-01,1.397628624236855188e+00,5.337211550936596938e-01,-1.691413849752348986e-01,-7.603040580038509244e-01,1.708460292628459998e+00,-8.609701865754977312e-01,1.422414517711283244e+00
2.393571182739955283e+00,1.589965518431040170e+00,1.830703570353435783e+00,-1.445938136188333889e+00,1.634902376129151680e+00,1.026691400573130464e+00,-4.838066706138186568e-01,-1.284865161290660529e+00,-2.063302478767409021e+00,-4.374580732637245895e+00
