-9.643740441747864489e-01,2.045184252187037366e+00,4.040018016266590517e-01,-5.946235368470617288e+00,-6.687239075916771025e-01,-8.496739824478258818e-01,-4.029702128223060953e+00,8.678680155538142094e-01,-3.878204911995229764e+00,4.358139970312745248e+00
-3.106923108734772621e-01,-1.746581497127279281e+00,1.765599837654133530e+00,-3.820925463842132608e+00,-8.081214611661203806e-01,8.815990794870806058e-01,-1.028779106208563388e+00,2.209285733009672903e+00,4.620366675994542205e-01,3.175309697764783223e+00
2.084218044108067769e+00,1.179087424461669364e+00,1.975408564194262473e+00,-1.198299866236784528e+00,8.697237778618442938e-01,6.011757962932471333e-01,4.738408277783666023e+00,2.670866710668165500e-01,5.051243297239699226e-01,4.249082385126834005e+00
-2.302596131629878862e+00,1.994775053431154133e+00,-1.869340153051615383e+00,-2.801309289917492507e+00,-1.635500233739261233e+00,1.524868273214591508e+00,-8.683315208116757500e-01,-1.730978727997097177e+00,-3.832387279877282893e-01,-2.764498634774730235e+00
-1.533269141974470839e+00,4.542500645798107861e+00,-2.733772898211613622e+00,-3.027177143263123593e+00,-6.580355017959591546e-01,1.601703248191451268e+00,4.599280795337528094e-01,-2.420134234314144983e+00,-2.589682083848161120e+00,-2.607867806253183041e+00
-8.610144800881283089e-01,1.015374013153241606e+01,-2.931234573642076846e+00,1.094831281738986029e+00,-6.469759409006943240e-01,-2.101223652757441052e+00,4.316149289377033682e+00,-8.873698373476884171e+00,-1.591799906221412542e+00,-1.434579540624236760e+00
-1.713973283333103170e+00,3.823278813648529617e+00,-3.173051799079290802e+00,5.346209642193105793e+00,-9.424963700488360185e-01,-1.881484967199947622e+00,8.722147321125794939e-01,-6.377469833970346613e+00,1.410308956918206569e+00,-6.185497519494170149e+00
-8.216914035860440890e-01,-1.631331014894476850e+00,1.042322486607610399e+00,2.076076815969121636e+00,-1.446889839567554459e+00,-8.000005015904003702e-01,6.477550154239871683e-01,-1.578194087403351320e+00,4.201861360313213112e+00,-5.253412943952577852e-01
7.685399283168603546e-01,-8.371093083319982142e+00,2.658923261671315430e+00,1.510982646422489140e+00,4.659189558850926893e-01,-8.294330592933313318e-02,-3.952867919212947001e+00,6.030925515440928919e+00,2.223837644471565511e+00,1.231776360960701755e+00
-6.095638112950456655e-01,-3.512109284550730681e-01,8.350348119247872347e-01,-2.326026248353190717e-01,-8.213823266390273270e-01,-1.485686325552006526e+00,-1.681146974617979906e+00,-5.317837405888395930e-01,7.283142927201985417e-01,1.554058821559392012e+00
