-1.202853757812033519e-02,8.068152986880282596e-01,3.913321010340243822e-01,2.605219311180120734e+00,1.670714758173263426e-01,-6.346636351052056257e-01,-1.508302209858336296e+00,8.851220738397036492e-01,3.186282397241944508e+00,-5.544232502452965949e-01
3.309925274678630291e+00,3.229097428993451535e-01,-2.445857530152544701e+00,-8.888637709769536821e-01,3.371861040258086750e-01,3.214053315576997250e+00,-1.394373847407155864e+00,-2.139544120882382661e+00,6.876391409575960401e-01,3.460951392116642378e+00
4.138168703648683611e+00,-8.357989895313434614e-01,-3.110929841171012900e+00,2.906640812699063381e-01,9.516170277462149274e-02,3.068972296100670683e+00,-3.135141314816681124e+00,-1.325027613598809273e-01,1.729288571351023984e+00,3.527950832923657298e+00
-4.349966557898062192e+00,-3.694542335106844044e-01,3.819740317318943035e+00,-2.235541433649863130e+00,-9.717767760077794525e-01,-2.194020613059007196e+00,-2.951109508293844552e+00,2.101948475492425139e+00,-1.098870088795155464e+00,-4.204917166822039754e+00
-1.822722482657785470e+00,4.471529971949785853e-01,1.460984326881392681e+00,1.166783145322427329e+00,-4.613748211846743219e-01,-2.865746166155878960e+00,2.584308978636298715e+00,1.391438678642336058e-01,-1.692649514759293483e-01,-2.236849277834418448e+00
-7.745421786480773951e-01,1.070794691368589069e+00,1.143961441273393165e+00,-1.935678573200065866e-01,-1.022239121059111966e+00,-2.024316132360618692e+00,1.252365624009281309e+00,-1.759192065633137680e+00,2.013421404262524250e-01,-1.415229830284749912e+00
1.006031767504527608e+00,2.716150722863012734e-01,-7.213875934882459928e-01,5.946017277737580820e-01,4.046655073636097888e-01,1.146739015318572585e+00,-1.060817882488098496e+00,-1.071074096638620632e-01,1.195351189059261854e+00,1.076766623132173306e+00
-6.510517520208962683e-01,-1.554489035591113955e-01,4.575359110830340970e-01,4.874051875660340150e-03,3.500995340339955186e-01,4.157208246202643287e-01,-1.340939716101718471e+00,1.067779079459320712e+00,2.961593977811696754e-01,-3.194190846595271749e-01
3.862319148403368985e+00,-1.726339909908482406e+00,-2.642460636770604498e+00,-1.151764868313761569e+00,-2.067215301473278810e+00,-1.687882158491824658e-01,-5.380653979999387992e-01,-1.230779205716817426e+00,-6.627765333691963967e-01,1.784820481735795106e+00
-9.013317941845411241e-02,1.349326292403984606e+00,1.846010344761425115e-01,-2.202141397137634404e-01,-1.114232565083550508e-01,-6.791185618835208215e-01,3.001528865493507503e+00,-2.633647104761783986e+00,-5.355722883624524089e-01,6.406132586410001606e-02
