3.641936332605707483e-01,-5.279690123900949716e-01,2.265689148899947991e+00,-4.259089617335401812e+00,4.933692266027855933e-01,3.410561326448153796e+00,-2.348768295511158843e+00,1.346983351753267666e+00,1.546347670944325348e+00,2.269714524330608274e+00
3.254315661206150345e+00,2.771712808090331048e+00,-4.164518390812798287e+00,4.046393428882653076e+00,5.229858068097357204e+00,-3.662459769821373001e+00,-4.969947859025740655e-01,-1.976646321862549627e+00,-2.161985257597838217e+00,-8.086802404543810274e-01
1.823580190897291953e+00,1.858635015951954017e+00,-3.093482581499330752e+00,7.646157685713649288e-01,1.549675751390991785e+00,-1.417129105672596090e+00,1.849905469685163784e+00,4.127889348324513819e-01,1.474074431846771116e+00,6.868563344422455863e-01
3.460642381314714022e+00,1.156130271231236240e+00,5.187831219472396338e-01,-6.419281611788723030e-01,1.812563730613927726e+00,3.228010910543963607e-01,-2.606187685064406345e+00,4.887970321305967758e-02,3.628216860490680595e-01,8.848152643992883704e-01
1.304646731457353548e+00,-6.416767344961414876e-01,2.765775747945416807e+00,-7.062074397502253742e-01,-2.849645513302402566e+00,4.272245134673701150e-01,-1.593982235038287731e+00,7.970440904160593920e-01,8.978391665159576318e-01,-3.306492957541761757e-01
1.629468696288464802e+00,2.167426687361895254e-01,7.140793099328273108e-01,2.086197640833774791e+00,-4.700285315543391573e-01,-1.706337986279427898e+00,-1.474393207975253084e+00,-7.552308270665948342e-01,-1.215002280715861360e+00,-1.440840317617243738e+00
-1.983431273064105937e+00,-2.438359971213231780e+00,5.225034395923172426e+00,-7.987337318393633367e+00,-1.827108829047166871e+00,5.711683903198495393e+00,-3.929411306360639067e+00,3.405973869801773635e+00,2.996330319941393761e+00,3.152087730179981673e+00
1.360315797401344895e+00,2.092017265189775599e-01,3.177095040796703573e-01,3.260681516613613162e+00,-8.913277384746476351e-02,-4.494301462455767116e+00,-3.500430247894036562e+00,-6.149016856545341803e-02,-1.934535330495630090e+00,-2.749737263760926975e+00
3.412631535430499241e+00,2.317497146472432767e+00,-2.352877856758141206e+00,-1.176412469209267453e+00,3.172522057509128857e+00,1.957020801865373860e+00,1.776844368594582058e+00,-4.458302662524404325e-01,1.798752831774977690e+00,2.680713916658942431e+00
-8.165977558301755757e-01,5.649843398454146293e-01,-1.983273184704550829e+00,6.049781103925511161e-02,3.482779384593447602e+00,-4.242793521638789089e-01,-4.386718212721614774e-01,-4.382654293718166727e-01,-1.090521716733256818e+00,4.456740263761213572e-01
