-2.432176335912339393e-01,-1.313111812059331474e+00,1.510007172227726180e+00,-5.273329688727179665e-01,1.359887402579039950e+00,-2.986619360451489014e-01,1.951411309077598411e+00,-2.929265664470265929e+00,9.550197026683200363e-01,2.560734458634064681e-02
4.115713341664788416e+00,3.288610912831299693e+00,-3.743089419009217877e-01,-1.430654479404936952e+00,-7.836495364284948861e-01,6.870810620815354319e+00,2.868918237551993933e+00,-1.019004586768092135e+00,4.102843920836376057e+00,1.880586215159481212e+00
-1.172723267611262221e+00,-1.345383761772203535e+00,-1.122972616298198112e+00,-1.510114534569725997e+00,-4.150381367942798105e-01,-3.366394856641105271e+00,-4.651644517872883799e-01,-1.525379147191824547e+00,-1.066477837162094211e+00,-2.336426574542446177e-01
-5.187002021247462125e+00,-3.986398723358351770e+00,-4.001884534354035239e+00,-4.891279989191247068e+00,-8.321526027409225090e-01,-6.015498943555677158e+00,1.890381118150070705e+00,-2.259522234533957175e+00,-2.799483600147425477e+00,-7.849558754568558561e-02
-2.992600526275539519e+00,-1.126932362938079635e+00,-2.786270061503745232e+00,-8.622583389500932949e-01,-1.256910544101597971e+00,-3.027190051721995623e+00,-1.507320656865521080e+00,2.375353616619341857e+00,-2.929647314483887044e+00,-4.611006380115353354e-01
-1.343388646927753616e+00,-5.332417433154419406e-01,-3.153901627774435834e-01,4.543524419102544787e-01,-4.592787292854227932e-03,-1.067244736935558436e+00,-5.218831380962515309e-01,1.545974641316276488e+00,-1.237535073593622137e+00,-4.160055841334296955e-01
1.673410866648668005e+00,-5.168444722617799858e-01,2.254587855426966048e+00,4.468008371115226307e-01,9.273531748596898217e-01,-2.688537874372223691e+00,-8.454230188450639893e-01,-3.314829236477588648e+00,8.121966155505065954e-01,-4.842532053913038981e-01
2.827724498677722575e+00,2.029114216863030951e+00,4.828001751198037206e-01,-4.019996782391689338e-01,-3.831778898858487770e-01,1.366938065452854234e+00,9.703881508622247409e-01,3.757328597189369401e-01,1.937911870301285866e+00,4.890032796529640291e-01
-2.968255356570538517e+00,-1.048510593118760825e+00,-3.659220025071885374e+00,-1.311339389243829201e+00,-1.684225968192395229e+00,-1.416694107210239029e+00,-1.756153257485391084e+00,1.245341772716515916e+00,-2.676606058302657409e+00,2.393720797894963170e-02
6.672092658861763503e-01,1.369255739341449507e+00,-1.835502603106655695e-01,1.991755000700079048e+00,-5.507558700262660256e-01,2.814897664755273254e+00,-2.210671279788441801e+00,1.969754180610362004e+00,-2.737614686847971712e-01,8.632855733820206379e-02
