-7.876597786072143670e-01,-5.162882165655823252e-01,-2.519414131776335775e-01,1.042878832666999100e+00,-2.266594342586744082e-01,6.348890971128767768e-01,-7.914538534994225438e-01,1.173440641374167814e+00,1.931366168698776420e+00,3.519404235089981237e-01
-5.024205016997562723e-02,3.823952450961292993e+00,-1.093123831489577036e+00,5.674553055724936845e-01,5.338638490394568947e+00,-5.999361358517267817e+00,-3.048989853992352672e-01,-4.646078358753806370e+00,-1.619844364248765878e+00,-1.390026592532226601e+00
-2.524802677411207563e-01,3.744546239263796816e-01,4.236145362374338363e-01,1.250951829387036973e-01,2.290056930974861515e+00,-3.872479755266716950e+00,1.030752994927738087e+00,-1.062617360807451172e+00,1.128469090933255092e+00,-1.640417157280151139e+00
-6.156123285380062926e-01,3.993370242560334571e-01,-3.745337104070456946e-01,1.009408283006741458e+00,6.097495362203629865e-01,-1.689695363854774590e-01,-9.178921676362160609e-01,-9.408041249241216875e-02,8.512286028568087914e-01,3.325450512651124124e-01
-1.254876416582972887e-01,6.484019799121920613e-01,-3.093957297716201094e+00,-3.947969608208455661e+00,1.826048853617763479e+00,-1.414602568399973226e+00,3.205533103013453733e+00,-1.165655535977844659e+00,-8.535789882857179878e-01,-3.642072880484604980e+00
-4.693233942933900948e-01,2.022572042152900984e+00,-4.483148224809657911e+00,-4.432604576838201638e-01,3.738941899999523866e+00,-3.127793662690333765e+00,-1.111325920431427416e-01,1.122013552969037153e+00,2.957941033625417049e+00,-2.345657820002275074e+00
-1.571143125632741722e+00,-7.799070061277322274e-01,-9.720089821209095815e-01,1.394642489315043588e-01,-1.829332754767427183e+00,4.353027325022748251e+00,-9.103553741405724375e-01,2.961857285262671224e-01,1.706186625286942871e-01,1.007149177404034202e+00
-6.012804410974873504e-01,1.135949088820451980e+00,4.566527836073249524e+00,2.786307159918457010e+00,3.470925174998544360e+00,-6.640156852842172164e+00,2.021305242063179200e-02,-5.282677677199853150e+00,-8.264476670804908887e-01,-1.591301472501188696e-01
-3.730770918471235653e-01,2.315472680822425189e-01,-1.430536531918577214e+00,-4.095037464493397339e-01,9.559545957379779191e-01,-7.395981843075618567e-01,3.339535681573897463e-01,5.447049916556601090e-01,1.251731063562443236e+00,-1.031585831458166069e+00
-1.099785664094970195e-01,-1.891669731389230558e-01,-8.766017044941726288e-02,-4.446607580373996282e-01,5.499064860957421086e-01,-1.059643136461419388e+00,7.907191328807970931e-01,-1.261724415665613219e-02,5.715283840135931825e-01,-9.158232911841086565e-01
