-1.005746226266673871e-01,1.478046421375809105e+00,3.626679366275811223e-01,4.966913711778003782e-02,6.398474916521593059e+00,7.095915044415175288e+00,3.001022252919760547e-02,1.182946719786486911e+00,1.547741413084134710e+00,-4.723493920256061962e+00
1.175473654586575378e+00,1.218126570940853526e+00,-8.225382099507355660e-01,-1.414146270047339504e-01,-1.493553798260006005e+00,-5.480030467494463320e-01,-4.463109088914061218e+00,1.233105554670842707e+00,-4.295545803782903960e+00,6.427419019373064479e+00
-1.265513653867512023e+00,7.479939537980502262e-01,-4.014662645950726194e-01,3.316518366264636919e-01,9.526717934818342837e-01,2.444795070190096009e+00,-1.096940437601940932e+00,9.884058051559382330e-01,1.655395747225230085e-02,2.317432000460926123e+00
-9.017218863793724504e-03,-3.571191727338842714e-01,2.586955828757245279e-01,2.887224140585586962e-01,-3.446418051521062953e-01,-8.386710395083626368e-01,-5.056620215777464233e-01,-5.668163547880308295e-01,1.195389017965578393e+00,-5.227153890319123919e-01
6.509230659301828759e+00,9.694284394140909034e-02,3.593691174065211325e+00,2.231960040419152413e+00,1.941253025953910027e+00,-6.406312336687965292e+00,1.178498351872701022e+00,-5.952385203064070041e-01,3.028434016567741693e+00,-5.851548567821852842e+00
-1.436324767264596902e+00,-1.535894150394271129e+00,-1.357590821453266816e+00,-1.919024610712983581e+00,-3.599874396754754180e+00,-1.672822415769635196e+00,2.408639554349863765e+00,-1.312824253548560138e+00,-2.274745541700305296e+00,-2.328491515681011537e-01
-6.227133984580989434e+00,-7.172456208816734291e-01,-2.278277241867955549e+00,-1.427687454824325464e+00,-2.835825681507301077e+00,2.553175522976394607e+00,8.737565845067271297e+00,1.605993353186572881e+00,-2.153666988942044558e+00,4.192912363105162576e+00
-6.174846532949833655e-01,-5.592598009549364368e-01,2.064457607946702800e-01,1.007289777523072694e-01,4.703547243720143101e-01,4.221852223333310006e-01,-2.689556313278426147e-01,-9.335835825437381885e-01,2.188007905529328667e+00,-2.282338266108622005e+00
-1.398413374363222994e+00,6.928390211011752342e-01,5.621713370670061716e-01,1.520998724488921372e+00,2.659261560428812565e+00,2.959187665093618858e+00,-2.016028229413009853e+00,5.374079803519384857e-01,3.780041009380381567e+00,2.539675495736771760e-01
2.104836967946734028e+00,6.351103891072535923e-01,1.208760494660022333e+00,1.262412432204114143e+00,2.270298924192832302e-01,-2.582259238327594630e+00,1.163214402122907165e+00,1.019376404645597756e+00,-6.627561928826186666e-03,1.138507656214158947e+00
