-1.687747838474803919e+00,5.294986812075224147e-01,2.786980583384072840e+00,1.044409112467309608e+00,-4.589874294899375151e+00,1.763629195594124788e+00,3.075775224603944480e+00,-3.736812233264808381e+00,-9.421720739818369994e-01,2.403218663594197224e+00
-9.874664758854055924e-01,-1.828875830575177552e+00,9.796995747295877965e-02,1.667452789325548190e+00,3.992636514895144817e-01,1.370162313199792870e+00,9.964696111587260097e-01,-3.509114701170180428e+00,6.520761030924999702e-01,1.434407344444354360e+00
1.653852305407217393e-01,1.409945879973737659e+00,1.059629865271670912e+00,9.517494176564302855e-01,-7.029706736064330386e+00,1.409423776099624215e-01,2.490504699946588296e+00,1.196232146345014513e+00,-1.898334301414204672e+00,8.689048144096196413e-01
-4.772941383743211086e-01,5.003780959177148713e-01,1.329143984239604670e+00,-1.736739620628686420e-01,5.124987306099786366e-01,6.718962061639809358e-01,1.411553625572109505e+00,-9.552203771162814938e-01,-1.163646762738790086e+00,7.961757296276184004e-01
-6.572335643451792109e-01,-3.667415556677182664e-01,6.733019542515257250e-01,7.340053302377993472e-01,9.179531694159044353e-01,9.980919199344723269e-01,1.455101890881707050e-01,-2.017670657951641910e+00,2.809486249046231343e+00,4.213041429122792447e-01
-9.269598788775806897e-02,-4.984622482673155552e-01,-3.211955658786742607e-01,6.959521072197343283e-01,-1.442337911690646290e+00,1.323032201578171474e-01,1.460470989582625667e-01,-4.729048908877031554e-01,2.079915927763348327e-01,2.734723444105428003e-01
-1.282002946416566980e+00,2.229194943519920979e+00,3.629713286181874388e+00,9.652319681728604994e-01,-2.606253416991982874e+00,2.106263080311778779e+00,1.623848120283474028e+00,-2.443349346419194212e+00,6.729177272916491148e+00,7.533083046089799062e-01
-8.480405690144685593e-01,-5.057459064842952046e+00,-3.671130276665468539e+00,2.397428104061705589e+00,-1.913330190150757559e+00,-8.192835397045153401e-02,-2.005939482791522011e+00,-4.219245755281614940e+00,-6.559565925905890271e-01,1.029010969809068810e+00
3.217894842593007620e-01,-8.648228499233799882e-01,-2.191413821974236509e+00,-1.004553783904094555e+00,-1.686002739684807850e+00,-1.804027678061667750e+00,-3.083878505070948517e+00,9.811818306370678755e-01,-8.408893657843627967e-01,-1.153662276621355121e+00
1.115309736392697260e-02,3.082105227864245567e+00,1.378424078800573049e+00,1.549341307059504125e-01,-9.082484576881432403e+00,-4.839399523899887146e-01,-1.389745958464282172e+00,1.761237976105215042e+00,7.035233372391039630e+00,-1.308726878301676333e+00
