2.994758944131394873e+00,3.577202208383421844e+00,-4.615196384218558379e-01,-2.582543234740145577e-01,3.359907316796322263e+00,-2.584908630286015363e+00,3.915664741952420869e+00,-6.358108522130622831e+00,1.687199340628620092e-02,3.914984276260187634e+00
-5.115132611747276181e-01,1.497930158001563372e+00,1.276008357171231289e+00,3.299470490703849124e-01,8.046143661863218721e-01,2.838941946114244885e+00,-1.908959450712701678e-01,-3.281677455423910317e+00,4.979424399601404261e+00,2.000017642723525002e-01
-1.497603381799655242e+00,-4.931925829421347274e+00,-5.275977785603997106e+00,-8.341328137261549980e-01,-1.095953007509444355e+00,-6.014164734579033889e-01,2.173829252850733695e+00,-1.782814555928889044e+00,-1.305272893470856843e+00,4.916448943285296025e+00
-1.106704515020727975e+00,2.099274774585498105e-02,6.430412540387131060e+00,-2.788712239688693195e+00,2.891895784991390661e-01,-1.285362176625888253e-01,-1.245854589209693941e+00,3.809451529969046568e+00,1.116142354017066962e+00,-3.673930531484445705e+00
-2.437304158935763798e+00,-4.434652466814902994e+00,1.575428575514751683e+00,-3.591137682310733048e+00,-6.139075428846269000e-01,-9.611698308063575391e-01,7.914709295587721849e-01,2.384602893043265226e+00,-3.988035787953718714e-01,8.028547380870580952e-01
2.042613919259646860e+00,2.754296053674921918e+00,2.052925130264363851e+00,5.351324906844777685e-01,5.628995618246150912e-01,-1.414486280580652400e+00,-3.882187328324940845e-01,1.119926999155739233e+00,-1.885746653876635870e+00,-2.078075361802956600e+00
8.612842850955049201e-01,4.180097154124395864e-01,-4.250248706622030692e-01,3.295570052326018406e-01,1.945459633401026844e-02,1.609187314827870974e-01,6.457410835261339077e-01,-1.811925589719109997e+00,2.703584795022644371e-01,8.911199037541440715e-01
-3.475476031610424066e+00,2.358581896253738819e+00,5.994418075184253070e+00,-6.545484148198401630e-01,1.434180003338418885e+00,5.556567767434557936e+00,-3.037160752739374470e+00,-1.463370705768656244e-01,9.649969827918830845e+00,-3.889059991676605765e+00
-8.762802248626667678e-01,-9.542504031849399215e-01,-1.102133280443137409e+00,2.143871190957906236e+00,-2.566150925399619087e+00,3.993595294464566958e+00,-2.612904273388842569e+00,4.656312128229400660e-01,2.376164377506743808e+00,-1.686963313219956184e+00
4.087285388077455117e+00,2.296807529682317384e+00,1.271846740593227665e-01,1.752934970069603526e+00,-9.476927684979535860e-01,-1.376257424069530777e-01,6.898532809192221560e-01,-2.958153203925470986e+00,-1.572459359087703845e+00,7.976844377689601417e-02
