-6.270903215239678197e-01,1.483706498856770528e+00,-2.115137047894458944e-01,6.311820646046523153e-01,8.318797335708767449e-01,-7.174141670862425046e-01,8.446663610635912756e-01,-1.333290769765154149e-01,3.862643255640680340e-01,-8.995433628314558616e-01
-1.725035538191830309e+00,8.552621131503056473e-01,-6.041122151156621545e-01,-9.748304077576305238e-01,1.549009629730175641e+00,-7.240993029441071815e-01,-1.108590417871267775e+00,-8.884794706642391571e-01,4.210151936800092809e-01,-8.381811492683722831e-01
-1.444227180699632740e+00,1.612494390642208231e+00,2.904378214288302562e+00,2.641035352639315548e+00,2.833774549688918398e+00,6.696849261882911186e-01,1.198344927892657896e+00,-2.645924561974515754e+00,-3.830388806045105454e+00,8.117142527234584293e-01
3.122517072938761906e+00,4.504836782813917750e+00,-3.575593361082971544e+00,-3.890265582002614408e+00,4.313573106564037474e+00,-2.043239426369999556e+00,9.739537769375583576e-02,3.589119443267109411e+00,5.534867320395567170e+00,-2.802819227686241810e+00
-2.075712783982728293e-01,2.125997567010692535e+00,-6.914453805676287201e-01,-7.730390046164168361e-01,2.680119531957156909e+00,-2.084905766381584258e-01,-4.199940209136510672e-01,1.401830865125689662e+00,5.624329922889056421e-01,-1.008199869725082687e+00
-1.013730584703215198e+00,-1.244352541109034149e+00,-4.593730965376284503e-02,1.042926181631552041e+00,-2.151655657331579263e+00,5.429001609286001617e-01,-1.227202610727372856e-01,1.032150799441238442e+00,-5.837075805980760368e-01,7.820407508099500027e-02
3.358019152315476763e-01,9.121024534294348562e-01,2.039158784009501846e-01,-4.956095659255898012e-01,1.331586224130206331e+00,-9.626750240540695724e-01,5.031577267124454078e-01,-2.185124585388896090e+00,5.296526582510315828e-01,-1.405568654004868689e-01
8.462384649491837552e-01,4.655696206283135297e+00,-3.981308921146651802e-01,-3.749886349947933462e-01,5.068686244596979584e+00,-1.062453485632384398e+00,1.265669448080944282e+00,6.977870876812901635e-01,1.059703771485341228e+00,-1.615180857254487456e+00
-4.718316706337086774e-01,6.645258817229088066e+00,-1.258694900038162201e+00,-1.562925140756445286e+00,8.092000273649103903e+00,-1.291247826781192654e+00,-5.879131211185650852e-02,1.806754547556501223e+00,1.422943833807350567e+00,-2.786677211327009296e+00
-3.522408509631282936e-01,-4.223827869001834934e+00,2.573243968560497419e-01,2.429694484429516965e+00,-6.279377254040758416e+00,2.423974410612695252e+00,-1.979478947394345822e-01,3.928707692111233385e+00,-1.737029113810163672e+00,1.291182062588815516e+00
