1.627564881265821217e+00,-4.637997218988301640e+00,2.051761009316594553e+00,3.381860436331014519e+00,4.127549578247190709e+00,-1.614810425939025018e-01,4.527014829064968104e+00,-8.903532282033327361e-01,-1.991286990171311944e+00,-9.313802671923052667e-01
-1.114770268996111202e+00,-1.089314803031408152e+00,-2.272109550976120662e+00,-2.085877989087049578e+00,-4.800102612057843832e-01,-1.605418353054544056e+00,-2.684952624595599024e-01,3.311376059844867159e-01,-3.021778070815926753e+00,-4.077844823045393419e-01
-3.542816721308738259e+00,3.337575181336275953e+00,-4.915127041087512971e+00,-7.777919062513361403e+00,-5.361743900063074442e+00,-5.207060485304198849e+00,-9.496916097243808252e+00,6.490477022527978868e+00,-1.755293618683808621e+00,-1.247931102131578651e+00
2.041322465484244564e+00,5.555586193992920752e-01,2.743069828607417104e+00,3.558674914189085658e+00,1.776019128903615352e+00,2.841517587763343844e+00,2.272719389818186997e+00,-2.044682859853701462e+00,3.454488457578089200e+00,7.994985217502676988e-01
2.845211996731862314e+00,-1.572727972166336974e+00,-2.470532769325350930e-03,1.669015996645295541e+00,4.283123182620784064e+00,6.854926609147705685e-01,3.193793810225693530e+00,-8.133751365000648770e-01,2.643921121587902601e+00,1.913442944746974739e-01
1.350070171948698272e+00,2.426338909257666820e+00,3.361498043082452813e+00,2.158273123615730427e+00,-3.704052122616030562e-02,1.491068228537070439e+00,-1.549455391243682145e+00,1.327080907100077756e+00,5.311014513828970607e+00,2.978880344321339635e-01
4.566355166712787739e-01,-1.211123475496131086e+00,-1.320227490934401615e+00,-2.412157968224015736e-01,1.239782641997693613e+00,-9.404745797874189961e-01,-1.061055857100523525e-01,2.116806263005889255e-01,-1.503948315603839569e+00,-5.496538081664114062e-01
3.058694044808057733e+00,3.980646892644992274e+00,-1.892056582834705125e+00,5.324045128728097653e-01,1.602328463426523575e+00,2.886594264424890088e+00,-1.101660381604288697e+00,-2.016337186027279849e+00,6.177148724989503847e+00,1.625283602275315875e+00
3.080633585450465173e-01,3.157969008507360842e-01,-5.777396091302350101e+00,-2.402870519470875710e+00,7.406208950024094628e-01,9.696048615549032190e-01,1.786828489513161200e+00,-4.196154218288985938e+00,-2.065649218977940738e+00,1.308390200334440534e+00
5.267738123783893833e-03,2.452898908921652854e+00,-1.336430639105683937e+00,-2.249975539088855836e+00,-1.030480187396061176e+00,-6.025630378017716726e-01,-2.719812803449042526e+00,1.888458934312823523e+00,2.917500988613864976e+00,3.067978179258864513e-01
