1.596713840663312123e+00,-2.933623459113088305e-01,3.304376822741228015e+00,-1.851260899710024610e+00,-3.796352977099359816e-01,-1.477168494492486550e+00,1.696838124788786706e+00,1.326058068953595015e+00,-2.228556694474794209e-01,8.457918587816595224e-01
-2.043866876039853953e+00,-9.372915173601943373e-01,-9.604094132147382723e-01,-2.740486939051489657e+00,-8.470857479184223937e-01,-3.329501042977066616e-01,1.545406662371852091e+00,-1.355131603292359044e+00,1.823175952471387085e+00,2.901199118414118594e+00
-4.103928045164423333e-01,-2.192697642532543956e+00,-8.910863209687502895e-02,2.453341855775623248e+00,6.844401728316835687e-01,-2.303636992758898661e+00,-8.123767591682941047e-01,-3.904134503433383530e-01,2.067709531828282876e-01,8.634725623129169136e-01
2.826580694011671557e+00,-1.054845237162355120e-01,4.043320859243451082e-01,1.471867816427095743e+00,-1.330087850090953427e+00,3.704275407499948436e-01,-3.455716830067465661e-01,2.539498793876460159e+00,-8.618029303864740420e-01,-4.843292393277903507e+00
-1.445854035070728960e+00,9.101400241268378100e-01,-4.732371709851501684e-02,4.497163270445419414e+00,3.283310242432671000e-01,2.929475353870148457e-01,-2.867444360927923430e+00,2.742975153900841789e-01,-3.576664510510603634e+00,-1.363814314351164514e+00
-2.373477076968510957e+00,-2.887038051228786983e+00,-1.920672874503901006e+00,-5.791313899542223087e-01,-4.690501929434447437e-01,-1.879946422317259280e+00,7.441696880151777993e-01,-1.763201098492263252e+00,2.407196365120402248e+00,2.981921069087627885e+00
-2.315200029310482854e+00,-9.542214777471814680e-01,-3.453391439334910107e+00,1.775472192336577493e+00,2.133382520213744638e+00,-9.678536624152089818e-02,-1.548570960361263626e+00,-3.002603582326454301e+00,1.798102398170302152e+00,2.337103331175184540e+00
-1.636474955476536097e+00,2.189980598180342408e+00,6.087833565002639391e-01,2.786088688553688186e+00,2.649115330037114191e+00,6.462748368330507587e-01,-2.468203273398360320e+00,-1.356120393658059475e+00,-2.694907701821785295e+00,1.781846121459300880e+00
-2.424535455894569758e+00,-1.305985933451617731e+00,-4.849648109744719271e+00,3.118471847000936492e+00,-6.022426963112785803e-01,8.320169243449310192e-01,-2.097836932373192020e+00,-1.380669012066521706e+00,6.537979485938815172e-01,-1.588833713931904423e+00
9.638508164603306616e-01,-4.396440595708681065e-01,3.422565411358679199e+00,-8.742646588570218702e-01,3.715767075739650593e+00,-2.782601107731129897e+00,7.646903748904730902e-01,-1.366799597114346954e+00,9.735639382454727153e-01,5.201922903591340130e+00
