-1.698911272056661925e+00,-1.273691671384249879e+00,-1.200009044582522666e+00,5.638449727316306337e+00,-9.119839005796606113e-01,6.114514024097361666e-01,-2.680466041673891908e+00,-5.019497143683660845e+00,3.153518195748002739e+00,-2.112422309647274066e+00
2.255448428597472077e+00,-9.172799137536731262e-01,1.913796962930548906e+00,-8.736150117590719688e-01,-2.653047125594037325e+00,-5.579972121353496961e-01,-1.294043091225544506e+00,-3.777842016059905772e-01,-1.614886439504833904e+00,4.460389506640842328e+00
3.257758263072293659e+00,-1.443798517196414055e+00,4.694068537507051220e-01,-2.037590148733939177e+00,2.449607265254681865e-01,-9.215157116545247273e-02,-5.909138073601125640e-01,3.966706815746330328e-01,-9.661882138999356995e-01,4.649116295043551617e-01
1.090871407349341266e-01,5.702010202122125282e-01,9.072698828500653789e-01,-1.198955390841452306e+00,-1.056933477117182552e+00,-1.525737149451045216e-01,3.642558636222446578e-01,9.986742674812536524e-01,-1.102377582527987787e+00,2.709088420614051973e+00
-1.640945797728206035e+00,7.813538821377100652e-01,-1.102370745039572553e-01,8.718315161171314998e-01,-1.053194323759557349e+00,7.566613013944760713e-01,-1.712764873397642218e-01,-6.763101405006690658e-01,5.389862320988656474e-01,2.262977540157921297e+00
-2.218043385991326222e-01,8.011076701971494574e-01,-2.247413552129136516e+00,-3.142019691774957657e+00,2.666712918957204970e+00,2.520497286204265386e+00,1.796521032277299756e+00,1.876462323137035648e+00,3.719201362544548584e-01,1.208913785583337619e+00
-1.394812973969390857e+00,5.594692927898279322e-01,-3.642137841836601275e-02,1.403749332105797221e+00,9.997553273135940666e-01,-1.284026429500209288e+00,6.857708286978674295e-01,3.740818557235475184e-01,4.354075268471201410e-01,-4.417383052475853944e+00
-3.392905090646229027e+00,1.120646815814956065e+00,-2.949657539522310135e+00,6.670777103913589912e-01,2.017225094741961211e+00,1.400369786978701958e+00,2.414915757667296603e+00,5.473211992648734370e-01,4.490906313492203927e-01,1.303744969246773966e+00
2.474103435017326102e+00,-1.253148500775742802e+00,-4.642327059245918708e-01,-9.296822032594607155e-01,1.035599679463937717e+00,1.431895055557701468e+00,-1.725629590998533747e+00,-1.167820272518774294e+00,1.649034049257146473e+00,-2.297038495043986828e+00
8.812455008414010749e-02,1.426585244759078996e+00,2.890129329865307461e+00,-7.034503257868995885e-01,-2.687741265673134983e+00,-6.517668084310090926e-03,-1.715002433514247970e+00,7.601649021212153468e-02,6.362474477915033289e-01,4.790996923790482587e-01
