-4.990562655540026760e-01,1.699160987424172653e+00,-3.492920846092959497e-01,-3.363622601644163379e-01,3.793032192308316564e+00,1.078103529997244403e-01,-5.435877499852235673e+00,-4.395267436739680456e+00,-2.022720911186294046e+00,1.727351471879680744e+00
-2.892015583474016882e-01,2.414833915095893069e-03,-5.063707611217288518e-01,7.702440216002083284e-01,9.371133510747602369e-01,-2.426622916331065416e-01,-1.102466334240960188e+00,-3.778456827050832301e-01,-1.006757426902533670e+00,2.656604366999599232e-01
-5.635382499942138246e+00,-3.725084998203934017e+00,2.198332587794785020e+00,1.229946617113514939e+00,2.374677245244106505e+00,-3.626086481547503571e+00,-1.390758652638985460e+00,-5.266439893394702310e+00,-3.760778576196748713e+00,6.512540494783958245e-01
2.797340092484066787e+00,3.364201421821808591e+00,-1.724370341465950585e-01,-1.436724952738650085e+00,-1.643815226037925736e-02,1.038472509491819906e+00,6.919838802329768557e-01,2.258667119761634368e+00,1.396129313210792811e+00,-1.472083208750409433e+00
-2.970996837575668792e+00,2.790084405893860642e-01,1.509842300894417289e+00,-4.115346748981420499e-01,3.489787590062893408e+00,-1.983362089730927647e+00,-3.218348224864929552e+00,-5.023838578307454839e+00,-2.798089322478222840e+00,3.261462447214307225e-01
2.015174993124104752e+00,1.257555666105051984e+00,1.287499456443356616e+00,-1.582723375887445050e+00,1.183699035572599589e+00,-4.587271147850169317e-02,-2.412222059660330542e-01,1.330661538154440382e-01,6.244941914317253540e-01,-8.475441115445386808e-02
-1.131450557361039166e+00,-1.271740190163784145e+00,1.783261646723569016e-01,1.810814190396065615e-01,5.427569966462559847e-01,-1.702443310978293822e-01,-1.439946281828679453e+00,-2.143467525911699756e+00,-5.826550373405999794e-01,1.326660159763834335e+00
3.074901469391358777e+00,5.625156334738007358e-03,-2.199089634840999175e+00,2.070919398392964961e-01,-2.789335476160846872e-01,2.918701511251021508e+00,-2.825312192974029024e+00,3.260476956288737016e-01,1.477173738755949817e+00,3.068977778311991589e+00
6.045737998077370667e-01,9.668200469416546872e-01,3.745371563770724666e-01,-1.439591798823760538e-01,1.731736853243569296e+00,-5.540775763935452680e-01,-1.004971950848316586e+00,-2.521405373636543268e-01,-8.583875391190207704e-01,-2.233398045480488037e-01
2.827250156739454567e+00,-1.370285679325636830e-01,-2.379459398807590276e+00,1.159924697535279048e+00,-2.716164467694913043e+00,2.185961016619266228e+00,1.731446606113259401e+00,4.501313897259341168e+00,2.007267772292056218e+00,2.506515056722344870e-01
