-4.551868188436241525e+00,-1.086138801693903311e+00,-2.487793670890039444e-01,-2.274969119818248231e+00,1.682664135144684936e+00,4.061759049904799745e+00,9.242359427924338178e+00,-3.566431280300806694e+00,-9.221661131464742311e-01,5.601744046381620379e+00
4.182193287259957870e+00,-7.872445354998590439e+00,-5.915403472351656866e-01,-1.517776449681817352e+00,-1.703717967940455491e+00,-4.499545865596270566e-01,2.365479259015734304e+00,-6.202035857871801561e-02,-1.440574188785326282e-01,-1.500699213549320232e+00
3.336556565588922219e+00,-1.585866112814506013e-02,-3.225227835793198938e+00,1.788700113531568103e+00,-3.670547052934622467e+00,-1.572453242639769933e+00,-5.734787365418384519e-01,-3.057619324738504174e-01,1.846785979699029134e+00,-1.732874416442490961e+00
1.879480939987013155e+00,-1.855121590089215733e+00,-2.046401909481875059e+00,9.173964912375380809e-01,-1.907175654345655946e+00,-1.385179582771441931e-01,1.818236067264137557e+00,-1.029581132756804074e+00,2.703652460843093408e-01,-1.145375356166210334e+00
-1.077238004268984195e+00,-3.795511044245931664e+00,-1.628455021164782135e+00,3.944427155983848965e-01,3.583160104866440765e-01,2.186755428027632675e+00,1.580015883512691399e+00,-2.687014747492179279e+00,-2.261182915199749788e-01,-4.219456792787590338e-02
-8.351976951188033738e-02,1.018679896003265917e+00,6.861526610080752597e+00,-2.646970845937321570e+00,4.134121201269294943e+00,-2.329635720649652519e+00,-7.485448264594801060e+00,5.524734117454569216e+00,-1.649030442228054838e+00,-1.163224452881789439e+00
2.536753156375010754e+00,1.514921176958953009e+00,-8.300860977473134561e-02,1.677200389072211806e+00,-1.249148603877873187e+00,-1.975647894843842511e+00,-7.894083522099970551e-01,1.397267065353773097e+00,-8.018952242013885900e-01,-3.040318033916662444e+00
2.997235722846641970e+00,1.320983108106749793e+00,-9.875082594668442848e-01,2.707001270124085757e+00,-1.802504334650167905e+00,-1.860176025006137657e+00,3.744262112645548868e-01,7.138219750828240784e-01,-1.297452888677641969e+00,-4.083047033970784945e+00
-1.376375190138217741e+00,2.354280060000117469e+00,5.040604975596083559e-01,7.935006425416901710e-01,9.497203199244140803e-01,1.804672750460005748e-01,-9.093267056999749798e-01,8.082579516544707854e-02,-5.679459649945000077e-01,-2.416438231690805072e-01
2.166566360095563581e+00,1.608954403966118996e+00,-8.091306353963363396e-01,2.590319696699336482e+00,-1.298144793372293604e+00,-1.416841429958408227e+00,5.037760436179112844e-01,4.531666375116500944e-01,-1.393862616672844279e+00,-3.588740263457780522e+00
