-1.135183199722508418e-01,1.308456001049993489e+00,1.409019946130495526e+00,-1.523074638088418364e+00,9.836589088359988242e-01,-2.644190960592961659e+00,-1.917313532848793134e+00,-2.349409433668517622e+00,-1.732285279498797514e+00,-3.218443223266789222e+00
-1.386218464587010424e-01,-1.759976787681857280e-01,1.192495817095041710e+00,1.274902525275679599e+00,1.469765825180487040e+00,1.351827046107472174e+00,-3.166641719060852567e-01,2.136660302795855504e+00,9.234113297325959868e-01,1.833713544879825630e+00
2.799673397858629897e+00,3.528989663486502781e+00,4.348302273886606173e-04,-2.216304167186414542e+00,7.030869161087335506e+00,-2.698273819703540521e+00,-2.730127369172363316e+00,-1.465378723550837536e+00,1.126737339728702270e-01,-8.923792782342834240e-01
1.332472815756050588e+00,-6.366825937762342846e+00,-2.568865398937202116e+00,-1.804623546403880230e+00,-6.609428494335372051e+00,4.256510109368717210e+00,-6.413729735582458513e-01,3.778855028342837485e+00,1.196328308546177333e+00,2.276196885969143491e+00
1.531430950992913598e+00,-2.354636882570848133e+00,-1.570603296063512788e+00,-2.950209653181234515e+00,-2.904015017476072380e+00,5.134925563861340025e-01,-1.080065992694875021e+00,-4.831412610282718179e-01,-5.988220895857786497e-01,-1.159318765040563193e+00
-1.101073260611827170e-01,-3.459739973175941508e+00,3.872383148122233720e-01,3.668922559171639008e-02,-3.816184553530011847e+00,3.767259158175526146e+00,8.708604415027536572e-01,2.130908789129164038e+00,2.293573882953141851e-01,1.461905599056093408e+00
-1.754843005029166569e+00,-9.113510173055271446e-01,2.429213534516348472e-01,2.500097768305874268e+00,-2.794272466203453043e+00,2.598831959889789545e+00,3.619142378214135647e+00,6.440784406290741559e-01,2.988277202740788896e-01,1.641440144985253591e+00
1.808083633566139437e+00,5.283681886109209636e+00,1.510580481756572668e+00,-1.267654724876025263e+00,7.615293327054655670e+00,-2.551677525197976415e+00,-4.223496465387039933e-01,-3.575016155132124673e+00,-9.724319465031411314e-01,-1.846816090163126534e+00
-2.349709222121611596e+00,-2.789158479240276822e-01,3.296358183152575450e+00,2.122805741437314708e+00,-1.609630752874102289e+00,1.860335287917720848e+00,1.949737935888089968e+00,-3.322100171869180052e-02,-1.074330274367785609e+00,-2.691077490461452060e-01
4.140793037227225026e-02,2.939622969648346906e+00,6.121357221659005088e-01,2.279271501073216744e-01,2.151331565306709770e+00,-3.149303018185269920e-01,2.771141258453821532e+00,-3.224686868561519759e+00,-1.028143188837789657e+00,-1.065969259836613947e+00
