9.279479370084293688e-01,3.450510108798466646e+00,1.118915686533864307e+00,3.315889952190778089e+00,-5.007129848819957374e+00,-6.851663429084231538e-01,2.263728201972002640e+00,4.036305086293248578e+00,2.022660789826210337e+00,-2.908590530291699228e-01
1.799226766895537288e+00,-3.338953943063006857e+00,-8.402784238211887802e-01,1.458246060196035865e+00,-7.738620566307924387e-02,-8.097969274982562415e-02,1.980024147163367831e-01,-3.430191309462249372e-01,1.100299991798353361e+00,-4.736313829217291826e-01
6.811882358746870203e-01,-3.702868851396603045e+00,-9.027112489322131061e-01,4.660576820549249821e-01,9.344085153837181634e-01,-1.618939185264127723e-01,-6.358675680922756257e-01,-1.204812719996911197e+00,1.115490110968990978e+00,-1.762728606566125455e-01
-2.088643025567876954e+00,5.968405714230602399e-01,2.157905599944844321e-01,-2.000447240768691959e+00,1.624054324287356632e+00,1.190147073367090191e-01,-1.154561910670501623e+00,-1.429407951563071322e+00,-8.781800236755241684e-01,4.261536152215417150e-01
-3.494620903497763109e+00,3.377012866396339685e+00,1.206217625849791641e+00,1.766903898702234743e+00,-4.105889574984879609e+00,-1.558522110528537841e+00,-1.651274585600576383e+00,3.694756348023918058e+00,2.992114612502875470e+00,7.946657483603764005e-01
-1.981185661376353213e+00,6.070677903975267853e+00,1.907085761633453558e+00,5.978898508886679730e-01,-3.447675226422528549e+00,-2.573192041971350541e-01,1.244564136602823723e+00,2.565147221686954193e+00,-1.299881797471651723e-01,1.331597083874542231e-01
-2.700638472692640235e+00,-1.426726236621028265e+00,-6.543616870333168745e-01,7.268099627912086858e-01,-8.862506611282507940e-01,-2.231883542481508442e+00,-3.909281031198692080e+00,2.839951012659615692e+00,4.922850430408850286e+00,1.743606771921402121e+00
-1.430297185827258177e+00,1.360145731839939254e+00,-6.022551237311709604e-01,-3.487019700630420438e+00,3.496463563503178662e+00,-2.408330534812510582e-01,-2.824942865957019489e+00,3.782417336793271190e-01,-1.107442380375911251e+00,1.686544018990483007e+00
1.192362473912712773e+00,8.965244553722685472e-01,2.595437541219751121e-01,4.468433391525687970e-01,-6.339717889045105581e-01,2.999525590031816846e-01,1.618877534127585838e+00,2.751123155683339316e-01,-4.061721989661828403e-01,-3.485778156280784357e-01
8.223383574920318795e-01,-8.701487432877164085e-01,-5.149525923196262012e-01,-1.921490287986352907e+00,2.750561316256893374e+00,6.150343240724217564e-01,2.640187439957529802e-01,-1.842272695578227593e+00,-1.486291105876554886e+00,1.109044053803517338e-01
