4.448533311002760282e-01,2.126389486817228391e-01,-1.086339660785536454e+00,-1.005621655090042754e+00,3.394174147938918473e+00,-9.077832731747321748e-01,-4.975689486677138396e-01,-9.871004301124839397e-01,-1.070889752611300649e-01,-1.926811605415044593e+00
2.004163842448596355e+00,-1.830457472000586172e+00,1.712033345780297200e+00,-3.511302648092344270e-01,1.007359352107987105e+00,9.176104769705921704e-01,4.152767859689003860e-01,4.747646928303592695e-01,3.680428981417552814e-01,-1.102914600002204287e-01
-1.084098066245186009e+00,-9.262503429419116641e-01,1.784443336071664388e-01,-1.127116774230199958e+00,-6.582293201555767803e-01,-4.951314649114715860e-01,-5.191616717650231472e-01,9.546061076871081852e-01,-3.867089109461181451e-01,1.405460187424206753e+00
-6.036986051142286813e-01,-2.341452924669208624e+00,-1.438249706608085710e+00,-2.261820001223116439e+00,6.842673182618307370e-01,-2.442488441790390485e+00,-5.519289171957106888e-01,-5.398621504726078824e-01,-1.060354270280173150e+00,1.652429762085981357e+00
3.945412347293568711e+00,3.269783256808025840e+00,2.133865614306441838e+00,3.709022407811757738e+00,1.175294192412480454e+00,3.544895262978918549e+00,1.269117950448623411e+00,-7.698587295847180156e-01,1.885407330522423486e+00,-4.181506270471405884e+00
-7.245396862244638525e-01,-3.625790291100258744e-02,-7.703953112657819791e-01,-7.015808356262112078e-01,-2.140973143365480225e-01,-1.009773769015831046e+00,-4.767233917954375455e-01,-9.031768288541107415e-02,-4.313554498220685263e-01,6.448828872064327200e-01
3.320157085946345843e-01,-2.819054452408719103e-01,5.787473833488061548e-01,1.076744250790978130e+00,-1.115977673036408380e+00,9.048821008036191937e-01,8.236499999952753281e-01,-1.118970465637046663e-02,2.914628492640308211e-01,2.432665805863821196e-01
9.290709156489787013e-01,-2.258267467926228900e+00,1.384744286045489270e+00,-1.383022212179044086e+00,7.130472573459695207e-01,1.391852051030423310e-01,-1.764442073961809965e-01,9.905981854197598580e-01,-5.523512985431592442e-02,8.596483717963562254e-01
-5.665158517120799431e+00,-1.923891893213349302e+00,-3.139807778633731061e+00,2.330031137895738791e+00,-1.010670797329901838e+00,6.285154286764655929e-01,3.204173490444191419e+00,-1.736279910181309116e+00,-2.331300076584534309e-01,8.609495377338494126e-02
-5.248775730919225113e-01,-1.549289276555325223e+00,1.498201440922161565e+00,-5.087879771207701185e-02,-1.014720302891964021e+00,1.185001136311384151e+00,4.679810371002636193e-01,1.380997016070560912e+00,1.998297968799352398e-01,1.111801393981595609e+00
