8.195166975175276480e-01,-3.423943080582712573e-01,-3.295994394917071690e-01,-1.872412259969638670e+00,6.325480700517788213e-01,1.138817804323058125e+00,-1.134079880701357679e+00,1.955325142447542408e+00,-1.858568185266293638e+00,-9.396883059783726899e-02
-2.698165778994136010e-01,-2.813533292417781384e-01,-1.213488399053885974e-01,-7.570009283339818040e-01,-9.269949009553724029e-01,-8.548695448723173662e-01,-9.046166922270977295e-01,-1.205716258734118362e+00,-5.382964132929518586e-01,-1.565822399096622020e+00
2.439965002673853411e-01,2.255992411161451106e+00,-9.698282671264710220e-02,-1.196045050206292704e+00,2.516376641931301172e+00,-1.633808948267045480e+00,-3.855549591051949943e-01,2.329087045073612749e+00,-2.923315741357870756e+00,-3.422608828991431373e-01
-1.329522710154395604e+00,1.285026039208582160e+00,-1.747421994642673004e+00,4.296397972952159527e-02,3.703210812093176152e+00,-1.727936041494733344e+00,-1.606840831644469336e+00,-3.279305205834394665e-01,1.146851275790491953e-02,2.366855150338370350e+00
9.747667864862930021e-02,3.947072226975242848e-01,-1.640550503166406937e+00,1.186897547301186906e+00,2.746894574376918197e+00,7.744244800380564175e-01,5.384748249920631169e-01,8.113396534261886339e-01,9.237114574362437214e-01,2.876207504401671944e+00
-3.564905260021105637e-01,-1.685945802796625204e+00,5.177352607127333473e-01,9.180064538128238638e-01,-2.523399173385908689e+00,8.634630716046237664e-01,3.285631113171733619e-01,-2.169795656913881210e+00,2.269898102460183420e+00,-2.909213750264009746e-01
4.488924309002303437e-01,1.209736410487037561e-01,5.792935892575212797e-01,-2.146184770484562243e+00,-1.397368920798123026e+00,-9.508986655906388474e-01,-1.093114495219918991e+00,2.193295530596992560e-01,-2.616334589340990391e+00,-3.199856870879628001e+00
1.712512702424115352e+00,-4.790628661261156496e-01,5.051026955195443424e-01,-1.319026754226038989e+00,-2.899993549599761966e+00,3.053839276325261420e-01,7.590380637787206286e-01,3.352665825796407595e-01,-2.375586448382062343e+00,-4.305951101856458685e+00
1.089544498787106352e+00,1.251084726131172609e+00,-1.891501633073619404e+00,3.179855739864554831e+00,3.883468629234632541e+00,1.741048578427573323e+00,3.264862547932324777e+00,2.350514114266083698e+00,1.591708689093840556e+00,4.273087606646458703e+00
-1.144189701543223414e-01,2.109992414237911618e+00,-1.648880297646122095e+00,2.615108440264618306e+00,2.450660162542830367e+00,-1.915289885243655066e+00,2.200602763080298008e+00,-7.083598093617851088e-01,6.348270977405036097e-01,7.999981445705445227e-01
