4.332106196931393427e-01,4.141214744455798069e+00,-2.810023685818595851e+00,1.893255236632013228e+00,2.787756582787084270e+00,9.743172437984631840e-01,-7.081626281445805304e-01,-1.234115517583757704e+00,1.969384909075934664e-01,-1.809544808572955410e-01
-3.776943868081131583e+00,2.377584432514847634e+00,-9.039227975277541738e-02,-2.222505236393947925e-01,1.743204596855955968e+00,4.441017296018134886e-02,-2.192475479087771628e+00,-1.122035373440454897e+00,2.440973681891179137e+00,-7.204500450582962401e-01
-4.971542771184919829e+00,8.921546034271834458e-01,-4.853316626167866188e-01,-2.159856951501425648e+00,-4.089089242315542272e+00,-2.468821393885850313e+00,-5.672066387327615589e-01,-2.855742275485697146e+00,1.204740356505523025e+00,-6.760184966377502658e-01
-5.812063530053144689e+00,7.523588968376328623e+00,-6.238748262232642006e+00,-3.048028705079448120e+00,-5.230712571971740665e-01,-9.771408183120016133e-01,-3.677252971907966739e+00,-4.493046024740879218e+00,9.990534508345023657e-01,-1.450700787228314192e+00
2.990814442574493359e+00,-5.246332903477652909e-01,-6.198874229700921390e-01,-7.342442941771416542e-01,1.650907343114477621e+00,1.755063612560032515e+00,-3.031185225436136554e-02,1.857393268780628492e+00,-1.765767003889322728e+00,2.777468407461082256e-01
-8.582051578746096032e-01,-8.564865968998541801e-01,2.040496694324939853e+00,5.602757864376313179e-01,-1.128162948679584998e+00,1.595495682987454478e-01,1.552274932738631819e+00,-5.355706715360174508e-01,2.376446213815597286e-01,7.721777783808499163e-02
6.552299237349508143e-01,-1.056109201448692581e+00,6.317561458620377657e-01,-4.470748432363494396e-01,-6.535696627877355391e-01,2.470406493692794969e-01,6.776733705832602705e-01,4.570437367198791345e-01,-6.749816144913647342e-01,1.517151939348167500e-01
4.896908379241278197e-01,-4.720073229959487193e+00,5.183372690660299043e+00,2.042623459845855471e+00,-5.399640594895403822e+00,-1.197671516345000464e+00,5.571328950651190937e+00,-7.709068286599900510e-01,-7.683380189181833186e-01,8.304730762776828534e-01
3.300041636973258363e+00,-4.765626829313475810e+00,5.514314640646409416e+00,4.198661679521224599e+00,2.254583728254601738e+00,7.861769651782930524e-01,2.241043051864326952e+00,3.081551164753793426e+00,1.052885082863637578e+00,9.717575185097797608e-01
-1.135457574305087869e+00,-9.962408968924446606e-01,-1.147086995365602657e+00,7.071492657612092891e-01,-1.462472418116856909e-01,-3.935590239272598989e+00,-3.091189780952887212e+00,3.999980798087608980e-01,2.685493015838907205e+00,-1.204098196763558892e-01
