-1.452229728740821457e-01,-7.800891040289461564e-01,-5.614399561129560512e-01,-1.092908172370991915e+00,1.103670966962964073e+00,-1.441872206606735762e+00,-3.989569080136545320e+00,7.462126180442119061e-03,-5.020878734642064245e+00,-4.820443801055023236e-01
-2.396955863550963350e+00,3.657990763741862938e-01,-1.077900749431092597e+00,3.279024772856069081e+00,-2.358405072983109640e+00,-1.750565812663748000e+00,-2.059927736017836963e+00,-2.165947342901073380e-01,-2.860095879906253025e+00,-2.399862008336389962e+00
-4.112344197922208622e+00,-1.322939941917631312e+00,1.072702674354260921e+00,-3.075968060079865563e+00,-7.691458467470524418e-01,-1.509575168849720317e+00,5.898822676384114949e+00,1.582541377988573750e+00,9.140562687013783494e-01,3.780616443466693344e+00
4.691045895043453040e-01,-5.395392146257782517e-01,-5.508865919185456095e-01,-8.537062730351153705e-01,1.446369436608457848e+00,-1.604040490367387273e+00,-4.236911272255534655e+00,-3.102396568015628464e-01,-5.358312775511565818e+00,-1.116043512399099491e+00
6.344912485662610457e-01,-1.625833461015773640e+00,8.746713488870905273e-01,-2.607818000353338217e+00,2.485525200388964129e-01,1.442365057633628211e+00,-5.160910023810315606e-01,-1.366642918032376253e+00,-1.221431395208624204e+00,-7.775183818248225798e-01
-4.310026132963008294e+00,-1.290526185562073991e+00,4.089142556453152499e-01,6.325291300808167927e-01,-3.737197132622630757e+00,-5.539230294497388130e-01,2.483360980197956369e+00,-7.390825158770897296e-01,-9.381791048762591068e-01,-1.381945343005690496e+00
2.343964713712265002e+00,3.036981451801646248e+00,2.577964191301685415e-01,5.790053111730695257e+00,-1.908266593962967494e+00,1.245934935126102650e+00,4.099252427594231030e+00,-1.923366675466427811e+00,6.101828230032277034e+00,-4.206046146176763756e+00
1.357385432342777865e+00,3.115116140038452386e+00,-3.662647129487945352e-01,4.583073945667504034e+00,-7.877867836897185505e-01,6.435314004017771428e-01,3.863393677787812841e+00,7.696614306314473186e-01,7.054573273073646789e+00,1.809734552638476712e-01
-2.716490767674072382e-01,-2.698473704849047916e+00,1.316231470898897804e+00,-4.550553224036637090e+00,1.357160759862933164e-01,1.959600110787156346e+00,2.814479986477860241e-01,-1.091921262559152783e+00,-1.119244126980385667e+00,5.870693922029582845e-01
-7.636778657183070917e-01,1.437510595145308656e+00,-6.775520790775133584e-01,3.464389621832336008e+00,-1.239911622469201946e+00,-1.523326613183781042e+00,2.984982574159067426e-01,-6.479619143595050090e-02,-1.122522831644794383e-01,-1.813280521279239110e+00
