1.119286225567865056e+00,4.740353681991256729e-01,-7.190407660613148400e-01,7.240187360725516275e-01,1.084714718220853857e+00,3.874804363281812325e+00,3.517384840050147288e-01,-1.373219337571161214e+00,1.833353364127036311e+00,4.111014084746192898e-01
3.296323289047531357e-01,-8.484352071358838843e-02,-6.385569403841233616e-01,-1.299279984903952911e+00,-2.031504229287613983e-01,-5.247261623186618706e-01,-1.470099921400750409e-01,2.672744120890872543e-01,-1.264096594267416718e+00,-9.577745019588851383e-01
8.587758676588375106e-02,-5.189364337806977312e-02,-1.428747185468242975e+00,-1.449399171599478287e+00,-3.792916150377524387e-01,3.760275278530619270e-01,4.710212270712571536e-01,1.402959148116420085e+00,-1.322172985434053594e+00,-8.806621469315893957e-01
-3.347840949758160156e-01,2.920722732475135031e-01,7.492709774851750160e-01,-3.562946021790555085e-01,-5.963017902610368015e-01,-1.705820445366178273e+00,2.682343062001207312e-01,2.738269251281867378e-01,-1.544194813534907951e+00,-1.981390118823863622e-01
-2.738373039919701046e+00,-4.963629468490653451e-01,-7.440925951168608776e-01,-9.912242638340511558e-01,-7.084965291530347375e-01,-2.244121167208810608e+00,6.064970406693604987e-01,1.464174100966026071e+00,-4.550719658636519505e-01,-1.035665675628504978e+00
-1.652817960975055511e+00,1.759807706744817235e+00,3.401464553693552606e+00,1.891111968843384172e-01,-3.072666302142618378e+00,-5.514546979729833431e+00,2.632572676882017237e+00,3.473519405975039831e+00,-6.214600594659395405e+00,1.147850182678242792e+00
-1.186742329458450262e+00,1.540315607587205982e+00,2.137951013684158852e+00,-1.364240583930866890e+00,-2.129327680114383448e+00,-4.597828319333906677e+00,1.892016911828746206e+00,1.324687051954628991e+00,-5.730008924310987517e+00,-6.917301521753606020e-01
-3.867447591893034553e-01,3.592771468497664156e-01,8.758345640204421301e-01,1.046436998994787260e+00,-1.848844740045644475e+00,-1.296367082101461010e+00,1.477174615413312297e+00,4.472691543577651530e+00,-2.255577856255182478e+00,2.052690642870261595e+00
2.421457128315179563e+00,5.560959593051495453e-02,-1.485469294090637771e-01,5.188840956381810532e-01,5.060584792444661195e-02,1.860052249500346644e+00,-3.655242283004061510e-01,9.128177401077438580e-01,-2.356608007917559977e-01,1.130632924141643070e+00
-5.479855855864298464e-01,2.683312425702653603e-01,-3.478649157682733861e-02,-1.252397398287692365e+00,-1.082713162457147771e+00,-1.914396970669205444e+00,7.304616148993305913e-01,1.628587292002479980e+00,-2.691313524916909117e+00,-6.563752865114274027e-01
