3.735509936225119620e+00,6.455974886378823552e-01,5.912175043248063533e-02,-5.915102425996021651e-01,-1.770672856834603293e+00,-4.517755165312971055e-01,2.189537028703107069e+00,-1.410477391108528211e+00,-7.611920224920001310e-01,5.247846912003875097e-01
4.247113667121029223e+00,1.193555659815299652e+00,1.336952846965424380e+00,6.435199120416209562e-01,1.194288429054238154e+00,-3.826779448282739082e+00,-6.801344893952943949e+00,-1.778930035147377353e+00,2.700417374400156501e+00,1.978845618704117681e+00
3.313711562380607489e+00,8.407706245120718513e-01,-9.949119965408586008e-01,-1.649383389800647137e+00,-2.919820541812027326e+00,1.721898185931817205e+00,4.751980505217326289e+00,-1.285718793395138060e-01,-1.182673203938115591e+00,5.156433316951466450e-01
-1.916802244486917051e+00,-1.213415169692534823e+00,-5.026928345305070600e-01,-8.524554081230817371e-02,1.023350712801874618e+00,7.121371691521813374e-03,-1.905290275467125927e+00,-4.583554448378263091e-01,2.562049151881681253e-01,-1.049983115539413703e+00
-2.950922235764921631e+00,3.938325627932556472e+00,-3.284873841471752431e+00,1.011957597465205971e+00,-2.402584985772796777e+00,1.632808512834973413e+00,6.857789823875918067e+00,2.885126076084895796e+00,-6.387464532507886039e-01,-1.308754260554889859e+00
5.222675952926994825e+00,1.343746811862610802e+00,6.901558579334746701e-01,-1.469956131622342177e+00,-1.935662928995572241e+00,7.203392823670130563e-01,1.168837726676341449e+00,4.997467993112608697e-01,4.327480105101010333e-01,2.678037756346575371e+00
3.007149998037382144e+00,6.048264499419615525e-01,1.817655334229211883e+00,-6.179620899929958583e-02,3.360702146042570115e-01,-8.738134555781834623e-01,-2.382092279857519479e+00,3.433531439949974451e-01,1.157477819929839224e+00,2.364720301486351151e+00
3.637918224246403653e+00,2.783703516227235220e+00,-1.089265946495283632e+00,2.982158517240418583e-02,-1.917300284811311428e+00,-1.267471976703493652e+00,1.154686751628896335e+00,-6.470535627401451384e-01,6.258776035446603769e-01,7.379458058609627003e-01
8.548532251760425638e-01,-2.013433573704321855e-01,1.234422094541668957e-01,1.415685352091821669e-01,9.286751895595720674e-01,-1.618499747241449960e+00,-3.747500525078050870e+00,-1.216025679645440727e+00,1.187516433605492194e+00,1.073253613141759155e-01
-3.965533489266664713e+00,-1.761843748088366191e+00,-2.026430107592228413e+00,2.976596597871735139e-01,-2.171936783122675740e-02,3.534050959393117974e-01,2.581315729466772346e+00,-1.802377614022116825e+00,-2.012688894007139240e+00,-3.779728259350364272e+00
