9.408331346497089687e-01,1.499931609697419566e+00,-4.560351285228912421e-01,-4.335129330988843899e-01,2.017759364771726016e+00,-1.635445925444181547e+00,1.203850364429766895e+00,1.519056979769700000e+00,-2.354441433594169908e-01,6.385240008804459189e-01
-2.144833836216507361e+00,-2.981472542512965118e-01,-1.408538071052826801e+00,1.215007796363480441e+00,1.472330625443122099e+00,-1.108341661286764257e+00,-7.953653287715310716e-02,3.221668568245449560e+00,-1.023774498375770836e+00,1.322944047671174239e+00
8.878818523554874442e-01,-7.183642300921702084e-01,9.987702467999404199e-03,-1.494933417225421168e+00,-1.135740427209839920e+00,6.641836985908506907e-01,-3.368920202016656984e-01,8.675499931393371167e-02,-2.212114759347213244e+00,6.373512292341130259e-01
-5.935894700913416089e-02,-4.565729633203919335e-01,-1.382860742645462437e+00,-7.582780267070990954e-01,1.111125841702798933e+00,8.000845140859411120e-02,1.533422514696745065e+00,1.886173966566918603e+00,-7.656366945475193697e-01,4.225684486755243996e-01
-2.441418383013781224e+00,-1.048051389854450122e+00,-1.982226575612588970e-01,-3.037565626158472698e-02,1.038449692298766047e+00,-1.652238485243922028e+00,3.772521693802476372e-01,3.055061699880658566e+00,-1.021660154975268853e+00,-4.753639919156757987e-01
2.240385142975385158e+00,-2.027054235246512071e-01,-1.059161271815109995e-01,-7.388933749773594073e-01,-1.618087248344214801e+00,2.794402103477331423e+00,3.684264341612736859e-01,-3.242644355891983299e+00,1.050263282586988201e+00,-3.149661760877739969e-01
5.161568100788373137e+00,1.506819488499488990e+00,3.184118565090876984e+00,-4.228925363881518962e+00,-1.236864203259642414e+00,-1.141992153642923391e-01,1.589812229516559761e+00,-4.406543938262117877e+00,7.782554189823496227e-01,-2.874484362495415724e+00
3.216982346307848406e+00,2.119305751519865222e+00,-1.244796535204614196e+00,-1.127614417031156169e+00,5.609938944706815978e-01,-6.910436521247749209e-01,-8.848222819002056205e-01,1.577843775367661516e+00,-4.329048044770125614e+00,4.445224464815971999e+00
-5.547633726957410083e+00,-1.125516676178063502e+00,1.692990157182625577e-01,1.755751379174433469e+00,2.990910261592694575e+00,-3.673412681061615004e+00,1.192479252333757511e+00,4.594018592068136897e+00,1.719932775198306008e+00,-2.536949618180173172e+00
-1.789268708867673308e+00,7.359931810144170194e-01,1.855539116302574287e+00,3.004771386002852207e+00,-1.279814522883917283e+00,-8.568465217784355659e-01,-3.458146796741243811e+00,-1.828245189663327608e+00,1.375113680517850767e+00,-2.659495577136516964e-03
