-2.455578480843934042e+00,-8.562959438789518041e-01,8.074554378126215237e-01,-2.253713570545789469e-01,1.462460225463872776e+00,-7.199117255098454571e+00,-7.975613833306389733e-01,-2.446029832471120269e+00,-4.158970821919290017e+00,4.567242690140813188e+00
-1.752154931831994888e+00,-4.862145507010271483e-01,-1.645165090054424128e+00,-3.789136433891869826e-01,-1.477290386871534134e+00,4.981445521831062706e+00,3.822412198088127600e-01,-3.327670905436855620e+00,5.327615951711209830e-01,-2.947217105331616960e+00
2.922213919590186837e+00,2.369958007834227054e+00,-2.067946397420218130e+00,-8.310784821964523061e-01,3.769095111847324375e+00,-4.684390144625881547e+00,3.015904132038405905e+00,4.687431231631999928e-01,-2.970818949348755567e+00,1.928432869625396506e+00
-1.720911416517546533e-01,6.499713213011005797e-01,6.813273488095092922e-01,1.060523814759973815e-01,6.579925122246923497e-01,-1.232317298634858060e+00,6.320746622674678905e-01,-1.103404606241451313e+00,-1.337065817768558817e+00,1.462762410245219469e+00
3.090424975801576934e+00,1.905657243339636153e+00,1.411967035668423520e+00,1.348184539237096802e+00,3.522109936872979130e+00,-2.716756032452859237e+00,1.636260654980532525e+00,4.170402241427991763e-01,-2.435265321872312150e+00,1.854704726185233188e+00
9.926782360527001137e-01,3.462842975849983240e+00,-5.657484327492553478e-01,-2.184135149319875513e+00,1.108674702887561869e+00,-4.718905142134715902e+00,3.568867788067909608e+00,4.850648779734898497e-01,-1.834519299995079455e+00,4.535704073743644926e+00
-1.268796044453087135e-01,-1.039409547135586198e+00,-7.797465063937296659e-01,-2.155272619881218044e-01,-2.449295582168435459e+00,4.620089272205714082e+00,-1.133578690181240578e+00,1.809176609113229084e+00,3.608170788031333842e+00,-3.364275620158921676e+00
6.693200666639897101e+00,-1.873647716075761416e-01,-9.198659039833138040e-01,2.553032368516941375e+00,3.380533478872890019e+00,2.712370269130404132e+00,-4.549627192985739033e-01,5.682253805433354010e+00,2.287013273380445799e+00,-5.245426136513925641e+00
4.792178039937821765e+00,2.927917939462052921e+00,-2.441743636029330311e+00,-8.824276801531796277e-01,2.260612607555287035e+00,5.726761095870425144e-02,3.287991805474577589e+00,3.429764461753547877e+00,7.395010940632132934e-01,-1.055996829409198146e+00
-1.615789191665374602e+00,-3.572022385483917262e-01,8.079115270512707836e-01,-1.481569569533982000e-01,-1.230616337942067151e+00,4.015191673989979559e-01,-5.039757941311390210e-01,-1.029008295126143224e+00,1.369766582386363618e-01,6.545715031551899710e-01
