1.618076378022812178e-01,-4.631839496199040562e-01,1.933118729987275131e-01,6.257861742506368730e-01,9.572277498616703628e-01,-7.698345485423472301e-01,-2.642731152814570827e-01,-3.685716301147130003e-01,1.366621391973626309e+00,1.431492967540473615e-01
-6.954229524519559558e-01,-8.739141640767305041e-01,1.290730614497481443e-01,-3.386956576852721668e+00,-2.335559039876314635e+00,-2.110645507672747279e+00,-4.603387955838555534e+00,-4.032168275342677966e+00,4.536527796889812114e-01,-2.449506523451252527e+00
2.742087328300391036e-01,4.174581998532437832e-01,6.831771089197817837e-01,-3.384008898541442711e+00,-1.517537653557512467e+00,-2.157427174507739132e+00,-1.393782479427372989e+00,-2.956535996665242028e+00,-5.386710005287409508e-01,-3.693566697315092684e-01
8.662378969105024584e-01,5.553678357343945216e-01,5.225180228950230266e-01,1.799847374210039153e+00,2.980663466189009458e+00,-1.050836194131263834e+00,3.605824210754192016e+00,1.269572031603986240e+00,8.985299014128131923e-01,1.857151337746352882e+00
-3.200803254088652849e+00,2.906992784857632683e-01,-8.457023753501158314e-01,-6.150561530275705513e-01,-4.039377005166592483e+00,-3.711835267818759831e+00,-4.180151160206105665e+00,-2.492856632008612294e+00,1.058489017365303431e+00,9.728052255888200994e-01
-6.492861709832777883e-01,1.647246797218385461e-01,3.718625752734452949e-01,-6.614945944198898919e-01,-1.278862002836956391e+00,-3.025353632824530514e+00,-1.904351329443634722e+00,-2.155291643180097694e+00,1.776924595768846427e+00,1.719310414803422837e+00
-1.107315693848489602e-01,-1.423193099686547725e-01,-7.694169120475493617e-01,2.263890176696921053e+00,3.010632153429292912e-01,3.481403212966622363e+00,1.140092893430989740e+00,3.103069838591423490e+00,-9.593898149783266494e-01,-1.377487023764890628e-01
1.728601623430832124e-01,-5.175605075132956312e-01,6.763490559736643482e-01,7.566722888466030916e-01,-9.171097112198045576e-01,-1.699026279360495106e+00,-2.758197848004050101e+00,-1.463391099445150889e+00,3.559932637681048284e+00,3.056299691235901062e+00
-8.111516709145910609e-01,7.064260822333616741e-01,-2.421281249598475349e-01,-9.699378917193238192e-02,-2.152653744798080471e+00,-1.360563144605678731e-01,-7.252260287048568621e-01,1.171436543969819055e-01,-4.118494328116343861e-01,1.633283432446740457e+00
-5.859048562855484477e-01,8.287402973757876934e-01,2.629796381425764662e-01,1.668775441128035553e+00,-4.906412429162519961e-01,-2.252302006222788311e+00,3.738837808957902187e-01,1.489998091198408703e-01,1.999985324246183582e+00,4.133719371062468007e+00
