-2.761443645532345670e+00,2.450980168178783725e+00,1.943436391045603395e+00,-1.658968660140253570e+00,-7.923336999026825422e-01,3.990098996975231405e+00,-2.342479974511609164e+00,2.664194856786200827e+00,-1.412558364636900210e+00,-1.885121574067839090e+00
-9.455209057857778543e-01,-5.536737891228849406e+00,7.136645135656241035e-01,2.586231570655603829e-01,1.109456966528052480e+00,-1.025647771900244143e+00,1.057638403454235210e-01,4.734691290094829030e-01,1.786744951997207176e+00,1.163507080405612459e-02
6.858737548568067943e-01,7.077849306341652991e+00,1.120023968121671043e+00,-1.154353264311572147e+00,-8.577103273020476593e-01,5.131480137397858243e+00,-1.626496101838622588e+00,2.149902602157799159e+00,1.068282705113980491e+00,-2.747852646943610644e+00
1.574868888663365940e+00,-2.809584561498446931e+00,-3.945055259801825809e+00,3.002945770746005660e+00,-1.131099559129205567e-01,-7.487079902328453329e+00,2.549232978876808886e+00,-4.012816659754260940e+00,3.142567589502518466e-01,-6.292647871077412525e-01
-8.719783686638649112e-01,4.318674806016879586e+00,-6.394478657835103164e-01,6.766176529186599398e-01,-1.745086471235131720e+00,-1.177261869325761268e+00,-5.564986488250669439e-01,-1.739688750724122990e+00,-4.437984203496883495e+00,5.857015004979252426e-01
-9.545457857221717468e-01,6.646639481414993611e+00,9.838831390978978186e-01,-6.933869748421217505e-01,-1.603298893452500540e+00,3.233962027419265528e+00,-1.879701892738269597e+00,8.924068366168165234e-01,-2.404657086904718355e+00,-1.360567760673318416e+00
6.921496143425268643e-01,-3.466036185256521129e+00,-1.334407762632814354e+00,1.014678132329902338e+00,6.998436924844322338e-01,-2.756158663382921592e+00,1.184062271729382498e+00,-8.258540323313517950e-01,2.096978793765753579e+00,-8.617094066659722884e-01
3.828478537232649637e-01,8.956937850073140694e+00,-2.192809292429969137e-01,-4.722003016532222430e-02,-2.076879702940249484e+00,2.087481080047788762e+00,-1.182446906886294169e+00,-4.627793609801539865e-01,-3.020067747345712483e+00,-1.044557874868649261e+00
-1.935641842018308134e+00,2.944885798918181585e+00,-4.732304096802278925e-01,6.571651007979723014e-01,-1.645852554542984070e+00,-1.069218987184244574e+00,-1.054267160050230467e+00,-8.778673115251256487e-01,-3.425724110946241741e+00,-1.347604580064572621e+00
2.323974693543510828e+00,-1.180693188298480578e-01,1.444527993326948812e+00,-1.454105823630514327e-01,1.380332322571525605e+00,3.396154174095184608e+00,-2.434049577176675694e-01,2.023936132096332940e+00,6.252395163783215359e+00,-2.263057534862993769e+00
