-1.937855980475154727e+00,-1.785838871873533629e+00,6.560108017685055692e-01,6.669371115730271526e-02,2.163938431524292660e-02,-2.628016484330988778e+00,-1.353632534738303583e+00,-4.939419841005006084e+00,5.410532625622196612e+00,-1.614635331245325212e+00
1.823244388642248692e+00,-7.516064028467486224e-01,-3.371402804365508654e+00,-2.464980894453336457e+00,1.993374127723358757e+00,-1.849474502234280004e+00,-3.106704583069458625e+00,-4.884185667430166689e+00,2.866709208975482426e+00,-4.029655109318335704e+00
1.599891684203299747e+00,2.593179728223742764e+00,2.407834603108782723e-01,-1.001334155143136506e+00,-4.263796612294005195e-01,1.569218664804324703e+00,6.205372577368267750e-01,1.735219252251816613e+00,-2.658305696329982482e+00,-3.214952138284197236e-01
6.974150756949285546e-01,2.160285518028848273e-02,-2.023810658759472858e+00,-7.976782611481910701e-01,-1.944785288536641676e+00,-1.888340594190584198e+00,-1.238323205698880436e+00,-2.254272425327509488e+00,-5.657799495873284679e-01,-8.024962155540948938e-02
8.145800321398282140e-01,2.192161621139492755e+00,1.473807856953273987e+00,-1.462805371193337090e+00,3.770125466281626370e-02,6.989462298221663650e-01,-1.862295886022475866e-01,-1.417750395189625534e+00,1.337873061295189903e+00,-2.627219447559068666e+00
1.256852037166257485e+00,-1.723843499723289041e-01,-1.470830358406086225e+00,-7.099936700226880948e-01,1.265054624335917977e+00,4.586297412587646560e-01,-6.511722464727242032e-01,2.613907998372561603e-01,-5.955345022277762634e-01,-9.547127047452594883e-01
-8.283586744496338472e-01,-3.457099479816306831e-01,3.166369785065816789e+00,6.729393265181913275e-01,1.186758102438499884e+00,1.830381584916854987e+00,9.059224755910615379e-01,9.908429937377649654e-01,2.435444168510777274e+00,-1.442650645225472594e+00
-3.489040787321151527e+00,1.445415189628299402e+00,3.451702528830479011e+00,1.626884108501462922e+00,-4.754107987094565502e+00,-2.280279786421437027e+00,1.709981988829099686e+00,-1.543521982887426702e+00,6.992943559026324474e-01,3.492858582771460441e+00
-3.634188022772345317e+00,-3.614278907492300519e+00,3.174706220999550688e+00,3.303823112994757061e+00,-4.483652951000240527e+00,-1.720841858203941310e+00,8.975604134724970429e-01,-6.428846506541852079e-01,2.735218620641661769e+00,2.413845513689218514e+00
6.559654426856292853e-01,-3.021751221962437395e+00,6.967776706460776515e-01,6.938009490094275700e-01,1.485571144766615115e+00,1.954802366198139296e+00,-4.155652267264441924e-01,1.432910816875190951e+00,1.909265675330894529e+00,-2.417981710647961080e+00
