-1.478862465248722557e+00,9.873691144300705824e-02,-5.967289447754223208e-02,2.173932862081925155e+00,-2.099837981245492369e+00,4.020518294223982991e+00,-3.030723985956098043e-01,1.074615990644413877e-01,1.320652618106574305e+00,-6.886459905658546266e-01
-1.393034548683247387e+00,8.463994945713340101e-01,-3.146970674066118523e-01,-7.470496921454378159e-02,-1.595056572042446996e-02,-3.255164940181479949e+00,-1.524739383597810249e+00,1.401393937333030415e+00,-5.667480104658895179e-03,-5.337724075955867509e-01
-5.739256920576467635e-01,-2.047821138851987910e-02,-4.132798951111699148e-01,1.459519121877890679e+00,-9.996857751831451644e-01,9.551221254511306213e-01,-1.481571102928853634e+00,1.283919109916228374e+00,6.496207036681673763e-01,-2.958113235310839695e-01
-6.267549127056275537e-01,4.239220386375134986e+00,-2.091000617765041980e+00,-1.446813761299153178e+00,-1.116831443704269233e-01,-4.583266276841523990e+00,-4.697527535164455870e+00,-2.156190688300477498e-01,5.635333472422767720e-01,-1.630696085269818019e+00
-4.174788811224324547e+00,4.145243441388521966e-01,1.188094874215063879e+00,2.104580661435021538e-01,-1.024080765153047690e+00,-3.282847398175457343e+00,-2.570611634572732562e-01,1.107885454385571178e+00,-3.364515630646708333e-01,-9.604086758501444443e-01
-1.184861341695572223e-01,7.681660275132293769e-01,-1.221933109292810515e+00,1.905151126133818540e+00,-1.576738226352198069e+00,1.171418851247904458e+00,-3.961540849465777114e+00,1.665492121555860461e+00,9.622092764140179888e-01,-6.102285215601058743e-01
3.376907226972429399e+00,-3.987967336754515202e+00,2.537315453953723043e+00,-1.499823118402029198e+00,1.252595290640925452e+00,1.714337444612348271e-01,-1.251428680875733557e-01,-8.995697760400176435e-01,-3.618444095236545088e+00,2.389288319631574176e+00
-1.437656852241105288e+00,-3.809979120583606882e+00,2.354973961968618745e+00,1.632704885350380275e+00,-4.061249546184586556e-01,1.359561270217959805e+00,2.750527699479129673e+00,1.784303720921102343e+00,-9.411051013593753067e-01,1.082045165865416436e+00
-4.579412916975258874e+00,-1.278002555731226675e+00,2.783321789037839888e+00,5.633482734609920328e-01,-1.507784048712457192e+00,4.042341897262760053e-01,3.108270926253471789e+00,-4.895988707333334133e-01,-5.952454854627922121e-01,-4.783224277167794636e-01
1.210166835569515209e+00,1.098758074207242474e+00,-8.738361753471647342e-01,-1.544807652128956432e+00,1.622508883878387209e+00,-1.248773208690172165e+00,1.865065757931266610e+00,-1.090212825105617345e+00,3.801213358317273028e-01,4.344201736675417508e-02
