-4.224801814638073694e+00,2.716998226111457804e-01,-7.401099473844801047e-01,6.552472958313549256e+00,2.551092634218544930e+00,2.222159747542272745e-01,-1.078158203456507813e+00,1.032881041170756298e+00,1.562606019034938010e+00,1.741361124501735524e+00
-2.059836649167346323e+00,1.225878166274916303e-01,-1.028579947783889503e+00,4.099912553084654299e+00,5.772890344961352227e-01,1.674287917776159373e+00,1.160539426898705040e+00,2.846124370744517851e+00,1.563093446801138153e+00,-2.380420447098097636e+00
-2.391885825053043924e+00,1.645487153478405240e+00,2.577973972121311519e+00,4.057905071518301376e+00,2.956303397134773192e+00,3.769309411658605669e-01,-5.590428379547836002e-01,-1.109804126522092815e+00,1.241867533063626183e+00,1.481803745627843227e+00
9.744493897785857506e-01,-1.936985697990803112e+00,-1.269428750673941009e+00,-3.126579882083900586e+00,-2.000187841332525251e-01,-2.251823068583514331e+00,-1.597253466975769198e+00,-1.997536876795570127e+00,-4.926055532806393744e-01,1.211666592063345149e+00
-5.663897797731100026e-01,3.519167647486243222e-02,-1.638820637480495002e+00,1.639232675226142133e+00,1.973042788825972060e+00,-1.511332535837408009e-01,-1.112495327111680643e+00,1.148431164888218614e+00,4.509833755396254751e-01,5.736851826933873078e-01
-7.870134792959254666e-01,-5.776743679298989020e-01,-2.164314621593150800e+00,2.557006464331214257e+00,3.509447685736351019e+00,5.480803539659621082e-01,-3.774411932071111142e-01,2.383087898902965573e+00,2.401169833167260848e+00,-3.074695297725765553e+00
-1.388471825328914111e+00,4.698674872304686723e-02,8.210692372198933331e-01,9.265476485941416263e-01,3.753162857800950825e+00,-2.809674370274404254e+00,-3.752426319499758911e+00,-3.777452491632612208e+00,-4.308293746842484229e-02,5.516346691280966219e+00
1.219337420644547754e+00,2.762501423477147444e+00,2.335941087260386073e+00,7.481073021789409472e-01,-5.676188364955223609e-01,3.243948772936263936e+00,2.933165154201957225e+00,2.416469427677033099e+00,1.128742945148544230e-01,-3.271268677883434783e+00
5.103112519541572745e-01,1.360963996089418426e+00,1.490085194473973917e+00,1.089988066289784951e+00,-6.279702173006175281e-01,3.012151526444704519e+00,3.210776852203992782e+00,2.616015267129584210e+00,1.208810946545855192e+00,-5.081028660960958732e+00
-1.391478602215048710e+00,-1.055562551429476192e+00,-1.368976246334489222e+00,1.071530663831949060e+00,-1.362550921305033524e+00,-4.963786792939432480e-01,-2.749635569270628688e-01,2.624941149012600672e-01,-2.795944356446944390e-01,1.108390027477199613e+00
