-1.031223591292285136e+00,2.559188415992904808e+00,8.331098677350232129e-02,-9.210643413428258874e-01,1.315971172660626909e+00,6.105393158513187091e-01,4.049938850582222583e-01,2.932857109563507425e+00,-5.187950843977544579e-01,2.268210289440992788e+00
1.289627876221091096e+00,-1.421403940405670530e-01,-2.572922798499588382e-01,1.558587030757243141e+00,-1.340826685134161034e+00,-2.315261369441486972e-01,-1.141047326720967314e+00,-1.141941159973024034e+00,5.636198491195292259e-01,-1.899180508257427347e+00
2.367871584851303224e-01,3.779843637177146221e+00,-1.261232739548772686e-01,2.708586337827007196e+00,-3.561080388734083613e-02,-1.027584980128940728e+00,-1.037879894543527332e-01,1.892237218134750654e+00,5.056024438349739913e-01,3.602215379537176410e-01
7.061350036010453080e-01,3.449150296760726597e+00,1.578754722628219920e+00,4.895563183286938624e+00,-2.361574572956402829e+00,-7.126310383772019863e-01,-2.958323936317799330e+00,9.126501640174319308e-01,3.512074046855165887e-01,2.639216781659844191e+00
-9.656317971952423918e-01,-2.071971758885462200e-01,-4.851835994114425676e-02,-7.509319348066340050e-01,9.237842544686437618e-01,-4.117047670810480842e-01,1.196053184095248634e+00,3.722999164662238458e-01,-2.701006099760943635e-01,2.358945522323992461e-01
3.498557605326221287e-01,-6.494519013749869174e+00,3.280936901809193285e-01,-4.170007943186058164e-01,-2.541229877677839699e+00,-2.214990400391907421e-01,-1.570173396539814359e+00,-5.017894123223991087e+00,-2.734889421349999683e-01,-4.379303401814368613e+00
3.130258930791217087e-01,-2.629362819936998275e+00,-1.604848696964563670e+00,5.455159523905099839e-01,1.421891851405091112e+00,-3.065202075647837976e+00,4.429908572853824111e+00,-3.425891001621516718e+00,1.305495247778491352e+00,-4.339716508424313446e+00
-2.843925867908130289e-01,-4.614501022808877195e+00,2.565110876365964465e+00,2.655195946118590111e+00,-5.760518546552860997e+00,4.183233438663824799e-01,-6.568296169404669094e+00,-3.505459516165081446e+00,-1.300601333049871133e+00,-2.153367501653062455e+00
-1.028789787955760815e+00,-2.061033661198515610e+00,-9.064688177700314098e-01,-3.976978202767929460e+00,1.939056758664678748e+00,8.302981867268101057e-01,1.984031725946263425e+00,1.617256374436749078e-01,-5.978517769877469412e-01,-1.039445040957943878e+00
-8.128957504057433558e-01,3.020867976620417394e+00,-6.466083624695774246e-01,-1.745629538588536533e+00,2.599397786326255844e+00,5.106838779834665942e-01,2.032769284160002243e+00,3.244514800329825199e+00,-1.529828949930772675e-01,2.231694841536330465e+00
