-3.508150563223618734e-01,1.637892657190231027e+00,-2.569777873541348456e-01,-7.968356891883072723e-01,2.310348391321946360e-01,-2.644153695875832266e+00,-1.083942660679385828e+00,-9.448338149486432691e-01,-3.923271096883151898e-02,2.359444058602942373e+00
4.770397640879842083e-01,9.173118404718285657e-01,-4.589736459082118358e+00,-1.524215977458801996e+00,8.728344404103927090e-02,-1.240819674335906786e+00,-4.969611532977041835e-01,-7.082156629722549113e-01,3.494094925658307815e+00,-7.225670391582001972e-01
2.155963440928473918e-01,-1.294621577875884944e+00,1.475834251889268867e+00,1.571965196740155779e+00,-2.071289423767554982e+00,2.065580377008589874e+00,1.729824371469115052e+00,2.667319642917391764e-01,1.241196989420560115e+00,-4.442128706479307354e+00
3.162330363918466336e-01,7.663801349354544268e-01,1.609409307889805518e+00,2.840220974682135413e+00,-4.854753906173792544e+00,-8.852301461210912992e-01,4.783568093299661039e-01,-1.703286575813886650e+00,1.012196788960721294e+00,-5.990544129401622619e-01
2.012729329243029275e-02,-4.053040349903112016e-01,-2.073083757088733048e+00,-1.474022004171963385e+00,3.188192869811702135e+00,1.300890231404569608e+00,-5.392150073247943265e-01,6.650411215105170859e-01,2.032501312314273501e-01,-1.267023509129524328e+00
-6.642293945903268160e-01,1.445943412350548574e+00,1.711978043029838137e-01,-2.254879902720297480e+00,3.444638718278695277e-01,-4.050872018601285873e+00,-3.459464222721733706e-01,-9.796522797505158309e-02,1.582605287384180048e-01,3.729542798203759002e+00
-1.952357744396983619e-01,1.351465480815184694e+00,-1.137917412054322064e+00,-1.528406004200964396e+00,2.310702457416090372e+00,-2.508724728421864114e+00,-2.300086863914101887e+00,-1.907365827022458604e-03,-3.141969506580300830e+00,8.037427777000205609e+00
-3.586970681334721300e-01,1.576205866363676655e+00,2.545971468889359546e+00,1.046058998499855841e+00,8.989218707391003482e-01,-2.191123561273446541e+00,-2.896234400287788002e+00,-6.215524751403568304e-01,-6.641117025800774343e+00,1.056365539750169269e+01
1.028377871524873977e-01,-4.832792340562125921e-01,-1.371893617268100440e+00,-5.163719194735089113e-01,1.372750988814593454e+00,1.505731785593625860e+00,2.111317329987370817e-01,2.203437648261312998e-01,1.428036192789993608e+00,-3.550423936207223630e+00
4.613512413701690851e-01,-2.546205458129259913e+00,-4.221334396558588331e+00,-3.186275016051548281e+00,4.609350445459089229e+00,3.168270252159514300e+00,7.547421628516516323e-01,2.971880515543039447e+00,7.501557662485197620e-01,-1.182961035566413743e+00
