-1.919487629172680565e+00,1.665431248587975421e+00,4.321911775119096077e+00,2.427754536154357101e+00,-1.576747323996372963e+00,-3.140490036561045528e-01,-3.871341006697267328e+00,-1.681326019279666628e+00,1.703080333346473352e-01,1.295298446645404500e+00
-9.640946567222423713e-01,-1.853715184736048072e-01,-2.723112407090620968e-01,-1.652919239750577418e+00,2.903797044315309162e+00,-8.698282017433249802e-01,4.742062655958145245e-01,2.302813557393680099e+00,1.123363348847210785e+00,-2.092629160631910512e+00
6.860516841179353786e-01,-2.442794087988085394e+00,-3.252633521017791018e+00,-2.127932541000429889e-01,-1.540700662216769379e+00,4.716880532746252630e-01,6.507311823356795033e-01,1.923318160527204279e-01,-8.834766015480244317e-02,3.457848895238254450e+00
9.567677461853369980e-01,8.466654549213573633e-01,-6.410093717930887003e-01,1.077662783083516596e+00,-7.036404347475770926e-01,-5.793024192160822761e-03,8.014474525025050422e-01,-1.062007837474229444e+00,-2.156993853507933157e+00,5.914440771800253405e-01
2.397944886786715912e-01,-9.281378999031191235e-01,-1.000759954542983721e+00,-2.003930031769387998e+00,1.944992262938704863e+00,6.657976398852465394e-01,1.567701200998258271e+00,1.552334636421500491e+00,1.274336544850825703e+00,-2.459677271823414557e+00
6.811591779503950450e-01,-1.393948394460035045e+00,-1.603477682371912794e+00,-1.298196227927608248e+00,1.808501728608030712e-01,7.205186105936752794e-01,1.241805245962467108e+00,6.521367328683295161e-01,9.179073638409075420e-01,-3.404149902738070610e-01
1.508431910650525509e+00,-2.746015384446160112e+00,-4.228722595221873881e+00,-1.521648090601298797e+00,1.396317125919991353e+00,3.407838441616559688e+00,3.569226546753662799e+00,1.129582757734338028e+00,-1.038575734762397840e+00,-9.993840249640806306e-01
1.628063801316450121e+00,-5.388951952743348262e-01,-1.653951688666219777e+00,6.734427640421896122e-01,-2.012822699366959345e+00,9.716979596656107887e-01,1.137824668380111648e+00,-1.430811278484854121e+00,-1.355717296115555914e+00,1.613456703869479814e+00
-3.033697441635803571e+00,-2.224918115461473889e+00,-1.525125464652267393e+00,1.104281892371582252e+00,2.141031640249139834e+00,1.353321284930072643e+00,-1.754176376315469854e+00,2.212744958978572374e+00,-1.451830783151015325e+00,3.107276081586443084e+00
5.427433417494995083e-02,-2.577163949770778117e+00,-1.576542453015820744e+00,-1.853351706329723125e+00,-5.645305355574002926e-01,3.307721388303379584e-01,1.240075943269289688e-01,1.098977292847240772e+00,2.846381392703789093e+00,1.033826389014843361e+00
