-1.106390066998880872e+00,-3.949799969209795591e+00,5.729123082635325659e+00,1.231780306454805407e+00,2.043716772750719723e+00,6.058631566287218106e-01,-8.509966468923435556e-01,2.471137298228240020e+00,-4.708707869923297373e+00,-2.401569429600947103e-02
7.141212855193237452e-01,1.485070453477765895e+00,-2.072216960026628474e+00,5.610371373311948684e-01,-1.247945821728855820e-01,7.600019516913313344e-01,9.165222714455383279e-01,-4.843137654618413501e-01,-2.028116943398873551e-01,-1.061010062904294893e+00
-1.749051493595364937e-01,1.960799300027002534e+00,-1.823284025231278971e+00,1.841275054736746686e+00,-8.458837131017254984e-01,-3.820597642376683534e-01,1.265058943312210804e+00,-8.270412852002178017e-01,-2.031481284147502286e+00,-1.198698439921288106e+00
1.841312760118662517e+00,2.057681695411139433e+00,-2.577081179182274084e+00,-2.432173434838939219e+00,-1.140925201851026305e+00,9.199250168697481467e-01,3.374946918639424309e-01,-3.251746765449606835e-01,3.388031908263059222e+00,6.621831657445994557e-01
-6.041472583507351279e-01,-9.406367402850280834e-01,1.059417709108368078e+00,5.903155558824683125e-01,3.106455119248206498e-01,-1.334890278071969361e+00,7.333643561303468394e-02,-1.792106926312596327e-01,4.966561356343237588e-01,-1.423908524168702172e-01
-2.692843478042955541e-01,7.862396033985388222e-01,2.063760155244001915e+00,9.616909378598024194e-01,-1.406549757670531919e+00,2.431444192466274412e-01,6.273547060579012236e-01,1.425807376783200686e+00,-5.577847257486023835e+00,3.414334933434405306e-01
-6.618893610664912108e-01,-2.234634124459520699e+00,3.225690985578039793e+00,7.604641401413391177e-01,9.840889599070017368e-01,-6.860279673699667402e-01,-1.423623181899114076e-01,1.026899439691094429e+00,-1.458209387088056586e+00,-1.011629859981703072e-01
7.725877689232008017e-01,-2.153332145152841548e+00,1.910367860747941293e+00,-1.353289277163886029e+00,1.346163943938687879e+00,-1.516697307610052059e-01,-2.134750630278640093e-01,7.792685322011128068e-01,3.076689380300910770e+00,1.700415054569347495e-01
1.371909042252300592e+00,1.809116148582394779e+00,-3.469582152326233793e+00,1.396564624573812585e+00,4.946812266016072934e-01,-2.077326381789024179e-01,2.323600523818238006e+00,-1.438808051381867070e+00,2.347319486234122898e+00,-2.691972047135048118e+00
3.508087761150061046e-01,3.296272224578468690e-01,-1.481296824941790824e+00,6.678926804268363604e-01,6.020709791827421054e-01,-1.861017302344995239e-01,7.221304726350296077e-01,-8.010133586486664070e-01,1.505681726890316430e+00,-1.195861489006874834e+00
