2.232975681095807907e+00,-1.644964973335780289e+00,5.156317031019280739e-01,3.038298407977564619e-02,-1.067736740559917186e+00,1.022846351451951463e+00,1.873518518912988373e+00,9.234588403049172056e-01,-3.163460120300590983e+00,1.076529339590650558e+00
5.937352522773569063e-01,-1.326348613885028671e+00,-2.904071618962650092e+00,-1.196216287779238718e-01,-3.787994739254082255e+00,8.908798057550654237e-01,9.870973581901422156e-01,1.402297159653983716e+00,-9.181470939418658883e-01,-3.842247422059896778e-01
2.412137803980721973e+00,9.930051492627258725e-01,-1.679316319189317230e+00,-3.143837471271875739e+00,-5.169857179492474142e-01,-1.436796624698311486e+00,1.072108196195474594e+00,-2.152187225490747480e+00,-1.011736566818780769e+00,-8.678425979488484376e-01
2.219821609995259237e+00,9.965000679187115962e-01,-4.267745985681854037e+00,-4.460966315719995023e+00,-9.047874387024025244e-01,-1.585535884362626380e+00,1.633508053721393960e+00,-2.859465656038830073e+00,-1.524821631989070392e+00,-3.887727603493287276e-01
5.808206445643091520e+00,-9.436100315711650754e-01,1.378374445820386596e+00,9.421862362113724298e-01,-5.052431074787041787e+00,-3.613660701042165080e-02,1.110204315831813116e+00,2.808816508776853738e+00,-2.097542020323078127e+00,-3.560155875939374770e+00
2.794331289711841748e+00,2.139311745224764749e+00,-3.403167214387575523e+00,-3.110182375690718093e+00,-1.783952139573442119e+00,-2.519408449105909220e+00,-4.335550969270096644e-02,-1.787834041923308748e+00,6.446751199082092487e-01,-3.248392741265484496e+00
-2.807737645707439000e+00,-7.202026684593710870e-01,-4.877814655831167912e+00,1.433912078677928248e+00,2.234631328501584857e+00,8.641736358550189401e-01,-2.950612488851037662e-01,1.360263247712662160e+00,-1.105919899619546731e+00,2.618667683672128099e+00
1.125662771094944947e+00,-5.510385365409486980e-01,5.297635644136404309e+00,1.976746873629536383e+00,-3.174208174188693832e+00,6.447518153141317265e-01,-6.397635704477451224e-01,1.691915111508194514e+00,1.777636085796883370e+00,-2.467066717195444792e+00
-1.652677499745154321e-01,5.075780899526965984e-02,4.257131739327082443e+00,1.943682383190276974e+00,2.151461378055321561e+00,2.531380542583159254e-01,-7.925570395485966868e-01,6.146054566931320462e-01,3.903471294716941431e-01,2.473545192956753125e-01
4.436044003078949416e-01,-5.289123134102539092e-01,1.457372797589477020e+00,-4.636381680050124743e+00,-2.635838368188154757e+00,2.704689635889695465e-01,2.404992558588295637e+00,-3.795479826556749980e+00,-2.484329742450075429e-01,9.475246257653135995e-01
