-1.167689288722031149e+00,-1.809656761921334400e+00,-5.202934918598347558e-01,-1.071264394554154675e+00,-2.328081086937620725e+00,1.093870665269266185e-01,-1.865451340347058062e+00,-8.142571584384782346e-01,1.073968005785930213e-01,5.465112559889484523e-01
-3.344394102529360868e+00,-1.600795824221091124e+00,-2.776966311309373991e-01,-2.762770189825148326e-01,-1.515284283076457017e+00,1.099763480407872862e+00,-2.221435752813059883e-01,1.807955454465287826e+00,-6.033373150367659088e-01,-3.672068704704202768e-01
-6.687275290185658028e-01,-8.806359075681128301e-01,1.363788648566558681e+00,-5.055091874918817840e-01,3.590781520943291838e+00,-5.486436263844719496e-01,1.636601577406578745e+00,6.053273658617137620e-01,1.684487965237477791e-01,1.393378887683879297e+00
-1.563042349544538689e+00,2.146282313555733179e+00,3.258437429872714119e+00,-3.126594843013470015e+00,-3.324897679763910485e+00,3.662777667237623991e+00,-1.317769856039009202e+00,4.606075395923623361e-01,-4.548277192175267380e+00,7.959153080481959908e-01
-6.008751744946410067e-01,4.688862908867917900e-01,-1.011777646546758946e+00,1.585686263749291447e+00,-3.122963937144894064e+00,-3.793576832101943075e-01,-1.420732543404062742e+00,-3.992391126224273279e+00,1.852539213972163701e+00,-8.082825907005345423e-01
1.603753763102901297e+00,-6.040228920280934499e-01,1.167024807301084932e+00,-2.291836022938705586e+00,4.656348672968241287e-01,-3.831305965719583595e-01,-1.197320407812322074e+00,-1.361036118900468939e+00,-6.179694552702724719e-01,2.003164080332286989e+00
-1.497167844657478319e+00,6.008480551200605646e-01,-1.166492242437444649e+00,1.461532038407842515e+00,-1.766788790538908582e+00,1.001866329379898390e+00,3.745069975022147224e-01,1.897300776181456206e+00,-3.112372207211407393e-01,-2.016369499871336846e+00
-2.777795144114484582e+00,6.808481060683528874e-01,6.275995710575407172e-01,-7.991340891838080718e-02,-2.961411188600004074e+00,1.984981407892742800e+00,-5.398213310772734808e-01,1.155413982625617120e-01,-1.338143357301160519e+00,-7.378133612981279121e-01
-5.219333779588510858e+00,-1.127211527332798502e+00,4.613209790357107876e-01,-6.302262348212710474e-01,-3.802434619114277048e+00,2.453000749552024740e+00,-9.281612734874590265e-01,1.063995383839251740e+00,-1.506393663002187688e+00,-5.110093271552708094e-01
-3.448534980396909422e+00,4.511777669250276901e+00,3.916879420963065517e+00,-5.063098707346721516e-01,-3.284876901814566263e+00,4.346760605018762824e+00,4.593495393463502552e-01,-9.818718396947478944e-01,-3.846786029991289713e+00,-6.169988397436244609e-01
