4.948080043451470900e+00,-6.319301318367346099e+00,-7.860832537054560643e-01,1.974546676486213403e+00,1.366180974790518476e+00,2.025026167250946862e+00,-2.264722311952825251e+00,3.171111517777668087e+00,3.325837373815212494e+00,-5.648418666319197534e+00
1.423428880163130961e+00,-2.401563827245979610e+00,-3.349544420452169602e-01,1.373195799999974653e+00,-2.123920857117374550e-01,4.751536191836192025e-01,-7.093749622287479628e-01,2.050360776160566889e+00,-1.003192376360365207e-01,-1.671294294817925685e+00
-1.309063647167926892e+00,1.163384390676938551e+00,5.543337865447366397e-01,-3.388652390149341720e+00,2.102127179535665746e+00,3.668743098918121337e-01,1.756401882748667820e+00,-4.712970718612626619e+00,3.133223111630888180e+00,-5.085841818536224190e-01
-3.169424116692639792e+00,-1.093233420358764807e+00,-6.103012064075707954e-01,-6.334843225056426830e-01,-2.295346707024100485e+00,-4.877476200457129263e-01,-6.598999392236855055e-01,3.012626835491987620e+00,-3.298184082336858225e+00,-7.806661610895057057e-01
-1.631938846825478517e+00,-3.936909227944515255e+00,-5.491169623148260959e-01,-3.332469598430119806e+00,-1.584249782196824885e+00,3.217121759530842118e-01,-4.923032186030549262e+00,4.543594879587047330e+00,2.308350212830226678e+00,-6.501316538088918406e+00
-1.575024486867759199e+00,-1.340520316499960174e+00,7.188711174919821811e-01,-2.213220162961509807e+00,-2.800340920387622834e+00,-1.233604302773318118e+00,-4.942693339745903636e+00,4.467141388376869138e+00,1.693374199238197653e+00,-4.297291566082600767e+00
6.796081947375114396e-01,-1.987096594318614962e+00,-1.715102294129206006e+00,3.168148011580087520e-01,2.058937162794896025e-01,1.314281503634229020e+00,-1.618988889301687717e+00,2.354705156185576964e+00,-7.946168783404630176e-01,-1.067204110244207360e+00
9.954939036037673272e-01,7.048267989177344761e-01,9.050245338257614236e-01,-2.167515921444152505e-01,-7.472999146630403544e-01,-8.197631622072099056e-01,-2.498578825587365770e+00,1.139925029570814541e+00,2.099715796327364714e+00,-9.422132034071525331e-01
3.809187282907349648e+00,-5.508551382573459998e-01,-2.922924398283605063e-01,4.356385101401155424e+00,1.258844399059992680e+00,7.374218555981713052e-01,2.165616291826397255e+00,-4.640193922028330586e-01,-1.269347968679874539e+00,2.302352339263857850e+00
7.369798275017771516e-01,-1.175691533107996234e+00,-2.269481613074023407e+00,8.076275919614328558e-01,2.405599542016276349e+00,2.301593316955942381e+00,2.456582474777044389e+00,-1.586340156452726635e+00,-1.879149484988250851e+00,1.568120445646251415e+00
