-2.760907421153331320e+00,1.949145543216768584e+00,-4.709703014364175822e+00,-3.245474359257390917e-01,-2.225042237652027577e+00,-7.513608632811081822e-01,1.262604717608147187e+00,-2.683075690253786227e+00,4.402402610708255004e+00,1.254888312073800360e+00
-1.742105497944526515e+00,-1.495230890984492689e+00,-1.081837211469681037e+00,5.724266215005545666e-01,-2.022206350819742759e+00,6.003436574865776976e-01,2.503656902903406700e-01,-1.940091666460351583e+00,1.568825619753288825e+00,2.963517231868087798e+00
-4.946012391617195192e+00,9.042989913208314690e-01,-4.363754139866098392e+00,1.448790773987419511e+00,-8.357405175401819708e-01,-2.656188524294299746e+00,1.676613543135512252e-01,-2.544084716056728368e+00,-9.090991901329718017e-01,3.520491342311725447e+00
2.034233846111401345e+00,-6.450439422756573116e-01,1.606289529065634047e+00,-4.180922007780182303e-01,3.299888331705738143e-01,1.044948075018211853e+00,2.346493338338932588e+00,-8.978584084514718011e-01,4.606295515116261896e+00,-1.529766959060052667e+00
-4.811422088547636644e-01,3.099511970188588705e+00,-5.288297393069367303e+00,-2.100922444167660164e+00,1.074981771623956028e+00,-6.832781171546945531e-01,-1.003514062786714067e+00,-2.397863217915654488e+00,7.298604120260014927e-01,-3.732295383201518213e-01
1.856267263330825923e+00,-3.303030951797409465e+00,4.829083000562269135e+00,1.054008456167721652e+00,-1.430284992663203525e+00,2.013748678136749515e+00,2.665505190226620247e+00,3.623177478797501294e-01,4.298240984533513220e+00,-1.757796313290365120e-01
-3.195769708513374496e+00,2.622357036546854037e+00,-8.000696406576819797e+00,-1.570829127515487311e+00,1.029181345246832358e+00,-1.616012652298452368e+00,-2.625122076234944757e+00,-4.330502384405743754e+00,-2.295546572998540924e+00,3.123834938377318071e+00
-3.139781805774080059e+00,1.390397554324008800e+00,-4.655436856767524390e+00,1.043629595964054024e-01,1.289834224400930651e+00,-2.247758130582618641e+00,-1.298250375685506830e+00,-2.636682236025890358e+00,-2.896660083974586630e+00,2.548889733309054328e+00
-1.894456703769156203e+00,1.309304000697936621e+00,-1.364112276558766101e+00,2.215254952243799758e-01,-2.096535447117078288e+00,-4.723381855667648233e-01,-2.293374460519367997e+00,2.352221352895024431e+00,-3.389592694704067544e+00,5.926787575297483013e-01
-5.030950337184667553e-01,8.765417781095699024e-01,-1.475578169594801592e+00,-8.132627546682636988e-01,-2.425460846303784557e+00,9.926064748317935393e-01,-1.943391798024045158e+00,1.238836186685406737e+00,-7.545478862852654789e-01,3.749052054232779874e-01
