1.294897513134290579e+00,-1.502446423608938098e+00,-1.205962344717683710e-01,2.039410713029340183e+00,3.293456518693434809e+00,-2.997135151003794684e-01,7.609309550741351069e-01,-4.456836494389163628e-01,1.391935606700582806e+00,-1.836838781576288770e-02
2.399059779629188593e+00,7.371852282644247190e+00,-3.298178026412185826e+00,4.377958330272301857e-01,7.123107167356198532e-01,-1.171271188723443935e+00,3.360099899582778438e+00,6.545763021627019285e+00,-7.200479477813412910e-01,6.102804228335366510e+00
2.840266042868356600e+00,1.353980943703897655e+00,1.981833207483720827e+00,-3.664539004534291267e-01,-2.569753868971137223e+00,-6.693995070189370233e-01,-2.005121364715881871e+00,-4.214997500842701528e-02,7.952195252461068398e-01,-3.105917868271077520e+00
-1.578430303076714614e+00,3.602333860907978025e+00,-2.088263752305241194e+00,-6.881967592535828127e-01,-8.509327509086987984e-01,4.581119989382460012e-01,1.849908195764533136e+00,2.884972305742462773e+00,-1.884064170040008923e+00,4.293595533652198704e+00
-2.148243963563255310e+00,-2.025693319716705076e+00,5.290664507230359304e-01,-1.204210017870096072e+00,-1.337371102706919057e+00,8.038978032348113034e-01,-9.533909496216596002e-01,-1.778796412774122260e+00,-5.639392261416619201e-01,-1.658073135554828159e+00
3.018097930297286347e+00,4.145349904338649694e+00,8.401385794015886477e-01,-4.144727369915712778e-01,-2.387242089353237784e+00,-1.425379749305780264e+00,-7.821735487641391371e-01,2.023535568385840477e+00,-1.810386713774838618e-01,9.683764049638925453e-01
-2.665571018293404926e+00,-1.380962595953609373e+00,-6.784342113014696363e-01,-1.419913145580529612e+00,-1.637288593947863857e+00,2.050991867087518905e+00,-8.912858305860882346e-02,-3.823599994383986012e-01,-3.735003361999557070e-01,-3.298361315185751153e+00
-1.508213351418531856e+00,-2.595532998855134998e+00,1.312202513152803895e+00,-3.018687798260716870e-01,-3.179092350453217364e+00,4.068338133306341753e+00,-1.814157146645058116e+00,-1.875048954867159390e+00,1.067080517842172727e+00,-9.878545454699906969e+00
-2.017012967168134274e+00,-3.530065135249412123e+00,2.197274083380150067e+00,-1.448382118707836730e+00,-3.903856204437857524e+00,2.820059586607895685e+00,-2.881180409697882361e+00,-3.291866977641836556e+00,4.314805309477770523e-01,-8.602638750407436419e+00
1.355659940544215569e+00,-2.734814315612404734e+00,2.859787080684284888e+00,1.225297173823279406e+00,7.123571997082678298e-01,-1.038319336170073104e+00,-2.109623909645889306e+00,-3.478074067204952158e+00,8.192485215108591401e-01,-9.753793235146482887e-01
