-1.204223203271670428e-02,-2.117842456980052912e+00,1.527139402511668909e+00,-3.197621013035575110e+00,-4.578618215008207315e+00,-1.045005342632921330e+00,4.366169529984407660e+00,8.059771711793928262e-01,-3.774805828806501395e+00,1.790018184719070149e+00
1.098619284315535127e-01,2.232249355157323034e+00,-5.660609352239736047e+00,3.000501570825708342e+00,6.232784637830384611e+00,2.506261147948969370e-01,-6.345761148147003539e+00,-3.797277434974461130e+00,9.353788226850252130e+00,-4.238528067447425052e+00
-3.480247702445045666e-01,5.546280335297378850e-01,-1.654631367346018345e-01,-1.724808644907132704e+00,8.031132959856794873e-01,2.077768400244496050e+00,-2.124378815774216278e+00,6.685115331766083857e-01,-1.487017153668090952e-01,7.293286899709069404e-01
2.325772456544239475e-02,4.525747482213244854e-01,-3.091035455354421480e+00,8.756567379959285802e-01,2.903619387985442835e+00,-3.944005885691735935e-01,-2.591654499672618517e+00,-2.194425824290254567e+00,4.986005821710420172e+00,-2.323489601434004292e+00
8.653711734802582711e-01,1.129214270862280545e+00,-7.305069755736294246e-01,6.715322014857293409e-01,-2.279715528678715408e+00,-7.912713413737098023e-01,7.188165547645983366e+00,1.939480805043716449e+00,-1.387862782384658766e+00,-1.217690919480597156e+00
-3.975510729734521576e-02,9.080629636927670667e-01,-1.770034803877876595e+00,3.212599234670985737e+00,4.155268523165791983e+00,-4.128652723264691904e-01,-4.776617898675223906e+00,-2.319777504146574021e+00,4.707260965091123239e+00,-1.997821484979955375e+00
-2.910079386662688117e-02,-2.190584737342751998e-01,1.285346949484039714e+00,1.142647154176490432e+00,1.590897399722076333e+00,-2.620377869957435379e-01,9.871084255534278151e-01,1.244821851379312783e+00,-7.087899509615211979e-01,-3.632591546419802753e-01
-6.345241309383525818e-01,-1.529250364922550287e-01,-5.565568379185906744e-01,-5.593191506156287574e-01,3.800010922741028807e+00,1.362192388754444039e+00,-5.154749579729330122e+00,-7.454410092773848806e-01,2.493350404671930143e+00,-2.987804180292161771e-01
3.166993151920368676e-01,-5.403025725520891331e-01,-1.631697912747635426e+00,8.372272194731524841e-01,-1.624235338598109868e+00,-2.130559712100438041e+00,1.295415644316776360e-01,-2.669317778434950661e+00,2.060723266767719331e+00,-8.134824226799957092e-01
-1.144612277357641567e-01,3.412705386048485168e-01,2.285122927456544772e+00,5.927841364576147409e-01,2.400943094688289814e-01,9.034035877680990367e-01,1.885089617692650155e-01,1.863258058835702169e+00,-2.663235139896553694e+00,1.141882029089250850e+00
