2.482243212040654345e+00,-3.896079425748504743e+00,2.011352040599708957e+00,-4.965334918227453098e-01,-3.112339622581080434e+00,1.813029498970259557e+00,-2.128640841572552733e-01,1.518607208200825953e+00,-4.123203693324497543e-01,-7.254862667646244656e-01
1.024455821555313006e+00,-2.163940935008728417e+00,-2.672289857027160043e+00,6.521218445682197551e-01,-2.325988650610494979e+00,-2.499401804978694797e-01,-7.092588960024717171e-01,-1.748790346397834705e+00,1.340389208487331896e+00,-3.294399703276452485e+00
3.901405989257133999e-02,2.695478160512368326e+00,-5.118464371110068356e+00,-1.722662830045362525e-01,7.510757613933413124e-01,7.426608901192577328e-02,3.174131382102177046e+00,-1.153999882119745468e+00,2.910712684286126617e+00,-3.352925424697689394e+00
2.499684342199809617e+00,1.362485620791134888e+00,3.629233696833684242e+00,1.536597055886131102e-01,1.323460319049552414e+00,-2.026782715722045491e+00,-2.286495929373729918e+00,-3.902741917887468659e-02,8.001472553596746806e-01,-7.371479883560356772e-01
1.505271897925384517e+00,-3.387788225147398080e+00,2.683152315111872355e+00,-3.211070248333286470e-01,-1.872571238689249462e+00,-1.255987225443734978e+00,-2.168770999611414396e+00,2.702994882516726594e-01,1.428284950103274387e+00,-2.893880765386701359e+00
2.517166580420944211e+00,-1.393571791726266329e-01,-1.372243043619555403e-01,-8.752862930175817624e-01,-7.598064247763856027e-01,4.464776138984820619e-01,1.682334155059221015e+00,8.794009878149207093e-01,2.509886419026176263e+00,-3.342946116442122584e+00
6.187909376070723777e-01,6.869944838222126204e-01,2.962818876439800020e-01,1.160084423082610838e+00,2.431123607909502216e-01,-1.985972862647114034e-01,-1.866744653544187393e+00,-1.158978505921263169e+00,-1.843849113614365764e+00,2.015282517433534260e+00
-2.988940970717013923e-01,1.042090888311741459e+00,1.557696935118303649e+00,1.412999161976021267e-01,1.441194729658070717e+00,-2.097759582616732121e+00,-1.605058159777723592e+00,-5.283748856606296229e-01,7.024953138678111664e-01,-4.665101812826951688e-01
2.252515196480206150e+00,1.104049689523290523e+00,-2.126527099566424273e+00,3.476523431022764399e-01,-8.752227517425811287e-01,3.128631113915210538e+00,2.229674439496091676e+00,3.402161925309844515e-01,-1.545121935552568715e+00,1.716391593343394861e+00
1.904341615965909451e+00,-7.462091918442093075e-02,-1.297590199993074345e+00,-7.436872501903492028e-01,-1.085415843413517267e+00,2.076313696318837554e+00,2.765260782476662627e+00,1.164678903084263695e+00,9.769369059653729703e-01,-1.351102401987269053e+00
