-2.127312386593128934e+00,-2.939688946015524440e+00,-1.040382954807184124e-01,-1.435815871532123866e+00,-8.945519114250553017e+00,1.013154021663992133e+01,-4.352575983124600256e+00,-9.927584635650621436e-02,-3.871540403517585993e+00,-1.760031108040158276e+00
-2.348906257790823737e+00,6.570657317577577317e-01,-2.079028384662695572e-02,1.811360400462431741e+00,1.035743166342518951e+00,-2.251697826706277272e+00,7.507986452408492717e-01,-1.709796911246000084e+00,8.595839289367275260e-01,9.433954794369674157e-02
5.723311796388399486e+00,1.572254193063337135e+00,5.066539915718577536e-01,-1.652251158349660187e+00,-3.916701395427287569e+00,4.633565663656218803e+00,-3.816968142941364217e+00,1.366038908566553856e+00,-3.045994424183631644e+00,-8.731706317399792749e-03
-3.705919606082695328e+00,-3.840981033486545182e-01,-7.641790638551589909e-01,1.967265122580935444e+00,5.357527217408767362e-01,-1.908279310324290101e+00,8.485825200016582359e-01,-1.851715600026621500e+00,9.490996994919707053e-01,2.843295753543297333e-01
9.126016403296919322e-01,-4.712593448336633850e-01,9.463748499990726204e-01,-1.249540309807387173e+00,-3.368118584853121877e+00,4.564012473581678719e+00,-1.955433010825033291e+00,7.712527241374119713e-01,-1.828657797474802171e+00,-1.205679798813372505e+00
1.970202018140041478e-01,-1.627844442385965484e+00,-2.299772266981043867e-01,-8.803331811206243085e-01,-2.039505346097567617e+00,3.165741092722469840e+00,-9.970572796589314279e-01,1.670850960842293675e+00,-8.851156991849276068e-01,-5.545062403008164109e-01
3.908253941997949621e+00,-8.600815803956024519e-01,4.443273226261132969e-01,5.776182477879100441e-01,4.741725918028861564e+00,-2.082966267325909282e+00,1.479600988385971760e+00,7.339568930152317705e+00,1.948109298529882683e+00,-6.944843310109760637e-01
-1.519803294027120444e+00,6.874172384163188543e-01,-7.736651208586734496e-01,2.361176939901568073e+00,-2.076057992539107833e+00,4.336580583011941936e-01,-1.716148173539749910e+00,-1.541770900300876379e+00,-7.727546627861188178e-01,3.179309297772119347e-01
-2.094791229064876248e+00,8.589408290731554985e-01,-1.344793598956203873e+00,2.336006589524325605e+00,6.721522164613861205e-01,-2.962859541670844976e+00,2.244064669033605242e-01,-2.451709348204404559e+00,6.642764744652506215e-01,1.269922634996283106e+00
2.812783086748985362e+00,9.665086419130708428e-01,8.355358378492991900e-01,-1.131047869181922572e+00,4.591011199070661464e-01,2.658674881760519360e-01,-2.436837931944815794e-01,9.304338417543484008e-01,-3.572849919777910110e-01,-1.404592513057907333e-01
