1.340477268515189779e+00,-1.851054171484751931e+00,3.171797180503398428e-01,9.764251005802042638e-01,-7.242858784963623897e-01,-1.613739102624462074e+00,6.296084681714475551e-01,1.460214297071781075e+00,-1.610093147515121004e+00,4.943760267901899041e+00
-5.448019618316737311e-01,1.092530562221056156e+00,-2.385176115969976085e-01,-3.225061242579178866e-02,3.555907287664459293e-01,8.967671641762366974e-01,-3.058557996493717068e-01,-1.735559125319942608e-01,5.738628751206749090e-01,-2.668911392883550615e+00
-1.984934151003953762e+00,1.659486552742008181e+00,-1.054923388015894581e+00,1.370765332037822359e+00,1.967823161631346629e+00,-1.829663970475129631e+00,-8.792330510198673732e-01,9.830681159984117068e-01,2.743960206722929618e-01,-1.635720342386747905e+00
1.569156026695736283e+00,7.562762041097986776e-02,1.373487285734740659e+00,1.191258645015428108e+00,7.881289781990470367e-01,2.298513040555376641e+00,-9.634333359411306752e-01,-1.447921216521494303e+00,2.456091315247536766e+00,-8.205486915939613768e-01
-2.985789593327363711e+00,2.952786540717400321e+00,-1.425436966228452507e+00,1.268035538701728804e+00,2.716449467773556670e+00,-1.155129996206397891e+00,-1.638481149002089410e+00,7.078490680270357327e-01,1.651644452873613389e+00,-5.385324765686369197e+00
-1.212602223607461838e+00,7.444641467735204632e-01,-7.839182388525323120e-01,-2.073634756312373040e-01,3.135673124083466212e-01,-6.878647314313922623e-01,-2.556357292806230030e-01,6.741536147461409945e-01,4.353959388174311052e-02,-1.987747013857506406e+00
2.717599176701772201e+00,-6.828551632005805949e-01,2.355788980175914205e+00,1.572677076859746448e-01,7.081116357304562126e-02,3.859603993269026923e+00,-5.355104706722001451e-01,-3.366112155113143878e+00,2.800777231287947533e+00,3.764522863871330172e-01
-1.289398258823574395e+00,1.263198956653492466e+00,-1.595861074397860513e+00,7.704750167788131376e-01,-3.646391758673073191e-01,-2.340999828242426695e+00,2.518546083955979675e+00,2.145528776330655418e+00,-6.467927516419253564e+00,4.741737775342140360e+00
-1.769862695017195620e+00,1.637503079866866162e+00,-8.288681210127413213e-01,2.092194434639733647e-01,1.271014076105074775e+00,-5.845960004685228917e-01,-5.690647573439834295e-01,2.876778948761149479e-02,4.350309834834668044e-01,-2.606656722726174102e+00
1.026533780294816456e+00,-3.825532972194410908e-01,4.185742771622930070e-01,6.628046106330833798e-01,-3.614280729718363228e-01,2.981215868267508839e-01,6.881304832104009339e-01,1.208384689146441149e-01,-1.332467851392739266e+00,2.621672319106187476e+00
