-1.316988505988577751e+00,1.145088019733459417e+00,4.131268098771552211e-01,-9.466224070101241228e-01,2.359465310220939305e+00,-3.057383696406504647e+00,7.659253657085238753e-01,-3.985591669987996966e+00,1.728170421874128060e+00,-6.059266713015110106e-01
-9.938054357145470474e-01,2.902755005080532857e+00,-2.814802769048376785e+00,-1.586824889754867796e+00,2.108759608611736613e+00,-4.976825575248408740e+00,2.464981742807061060e+00,-2.459706465077655224e+00,3.668028776816323777e+00,-4.859756613363253486e+00
1.025204176499353581e-01,-3.941038161038481036e+00,-2.960722590885155325e-01,2.748446561942358368e+00,-3.429476809685935379e+00,-1.390367111597949457e+00,-4.207400293479527376e-01,4.782927051477241065e+00,6.126542391572717072e+00,-6.695669753851148931e-01
1.295333641756752474e+00,-1.223569005045901603e+00,-2.916145986872364926e+00,2.713638649222485100e-01,-3.015461940956607023e+00,3.752006573172115278e-01,1.944544441914150434e+00,5.019865837713266998e+00,8.061366692959972546e-01,-2.527534821383491170e+00
-2.501556902639461288e-01,2.570093348127210131e+00,-1.881931600509128222e+00,-2.400493725132713418e+00,1.986531742989472438e+00,-2.242842727673854064e+00,1.989666237217699418e+00,-1.661176655338049812e+00,4.261650996688435278e-01,-2.801459573373382916e+00
9.873088053183953772e-01,-6.390531196743159947e-01,8.705693553100658511e-01,-1.975585237512174963e+00,4.915110464777532745e-02,2.762534157200990492e+00,1.692311872093634761e-01,1.486023143019520099e+00,-3.180092002145244567e+00,2.177621408246650958e+00
1.370324631386752090e+00,-4.392136491840689105e-01,-3.941804387146617961e-01,-1.686782700094272336e+00,-7.235983905635586799e-01,2.365598759408004348e+00,8.085401651769574816e-02,3.735858190705625859e+00,-1.283113527924588881e+00,4.075438071155085273e-01
-5.504319327329258993e-01,-1.492958135654010698e+00,3.145449657362046736e+00,1.048499022220023669e+00,4.895642978623148123e-01,7.858881515883627822e-01,-2.765817576514392861e+00,-6.597618584185030999e-01,1.218077218095064307e+00,3.219624066329513479e+00
-1.040750018397047283e+00,6.443744782052451825e-02,-6.133629737983659069e-01,7.571199665635268694e-01,3.770190708334009155e-01,-3.289774449907561404e+00,7.433631020892716990e-01,-1.617961948466528410e+00,3.511851792904683744e+00,-1.769556099331863308e+00
1.662957678328287114e+00,4.502017336433654648e+00,-3.534374229241508125e+00,-1.502869540960710903e+00,3.039604713871207897e-02,3.673601947653204469e+00,1.806517896579411087e+00,-1.509557441782213016e-01,-8.845194012275912954e+00,-2.426573498295325759e+00
