-8.294789665745643248e-01,-2.601716459345666532e+00,2.431912219916703144e+00,2.991899518310774386e-01,-1.732682498888310940e+00,2.296188598525858549e+00,2.723642021615396036e+00,1.693304950839921164e+00,-4.161598657931969036e+00,-2.861031547064427194e+00
3.044694230283647052e+00,-2.073275267678672762e+00,-8.154290646260036191e-01,1.471189884370872392e+00,4.133832598712514184e+00,-9.869590407010728761e-01,-5.676282062956872210e-01,-1.068208592503313126e+00,1.937858674989737517e+00,-2.405996742426688151e+00
2.752550138899414911e+00,-2.299447852705027273e+00,-5.771718271843957471e-01,2.226094666379228038e+00,1.928017336411651073e+00,-2.287430321874672767e+00,1.140197198170766590e+00,5.451496751366946558e-01,9.196703213933562493e-01,-1.712274246642010028e-02
-1.993814810222163558e+00,-7.361719180299913790e-02,1.594887399694815189e+00,-1.009790033972163714e+00,-2.486999830574057491e+00,2.246309779214246127e+00,9.841233197449161807e-01,5.540821901050408949e-01,-2.908538329253917532e+00,-1.214344098286300966e+00
-2.263185892033192648e-02,-3.626561261497145416e-01,4.176204653757786267e-01,-3.081573588000664499e-01,1.296080839403647822e+00,9.838988631309150135e-01,-5.992562324713713862e-01,2.249905035187753644e-01,-2.683397938391832716e-01,-1.574591678017010832e+00
8.650618155209491844e-01,1.625977799624571674e+00,-1.209409609191140156e+00,5.506823476323718936e-02,2.503864108268754496e+00,-3.083103838393384422e+00,-3.360730512238563783e+00,1.881222819886808617e+00,1.598766508382162055e+00,2.619934641058006886e+00
-1.733666589428694449e+00,-1.721311431086910648e+00,3.025395624868256306e+00,-7.533606799377181584e-01,-2.788798913308572658e+00,2.262584886396747486e+00,8.628865579473647962e-01,1.943908215041355358e+00,-6.307698073894493440e+00,-3.434312938609760835e+00
7.590746320891046395e-01,-1.279054182225205949e+00,-8.330137238296386748e-02,1.119820483114013054e+00,-4.237249702826917819e+00,-1.166626649975397667e+00,2.775292663996750342e+00,-2.583879330168952215e+00,-1.592900941776639767e+00,1.195317588132918663e-01
6.868774172170577508e-03,4.930398178465582593e-01,-6.437429583478829764e-01,-5.870784695013673282e-01,2.234992995660206039e-01,1.353600545158432089e+00,-1.365324592625839495e-01,-3.006300825074335492e+00,1.613940514211446020e+00,-1.307481874847624015e+00
1.292041864167513321e+00,3.960179237483928416e-01,-1.914734810757290351e+00,1.361330729262695272e+00,-3.771208262242182752e+00,-3.017922120282033216e+00,2.154302883174120886e+00,-3.495744055437394415e+00,1.723832055877518865e+00,3.272371443388374601e+00
