1.113845353876336652e+00,-2.076253728727936565e+00,1.080428989562912667e+00,4.043109448232616643e+00,9.651984683886575267e-01,-1.744661826498469903e+00,-2.184104463476057578e-01,1.292262184578926831e+00,8.905441973241129405e-01,-1.066165802121736172e+00
3.051456539515525979e+00,-5.153735013040607882e-01,2.022120703358188720e+00,4.279274507699793340e+00,3.993348325149925326e+00,-9.525772940973213920e-01,-3.222480189854645127e-01,-3.085749708453990880e+00,2.080766188048329468e+00,-2.248639453461060089e+00
-1.577620084518477350e-01,1.461254517998459512e+00,5.444668502368484653e+00,-3.175719570204891262e-01,-1.278047688535252524e+00,1.042697899344516843e+00,-2.720591950260043745e+00,-5.440231442099434656e-01,-6.246654494153460746e-01,-1.297606450079153095e+00
5.115088666425778641e+00,-2.105405575972824295e+00,-3.689207694492829592e+00,2.043559345749668132e+00,3.968090076753731932e+00,-2.613191748913086698e+00,2.695675680965375687e+00,2.436478096485812372e+00,6.816809970323833845e-02,8.776452331632048076e-02
-3.889931029779492455e+00,-6.089021664304452575e-01,5.934452266702731293e+00,3.773488728011828552e+00,-2.301113485671957282e+00,-7.657993915209977409e-01,-3.491540158030572716e+00,1.769715933201900571e+00,-8.941706643472937532e-01,-1.596618136445154157e+00
4.300271753104945027e+00,-2.525969812125563152e+00,-5.280599444454260549e+00,-2.309864808110817513e-01,1.081458895379028728e+00,-1.533566075836268805e+00,3.326157899772321791e+00,3.032123774864241561e+00,7.601936031925320414e-01,1.366728799097213232e+00
6.092716285239553331e-01,-3.049038263587872333e+00,1.995630248958635278e-02,3.398029401712244102e+00,-9.859416706366370686e-01,-1.778683784805903390e+00,2.143546104566497190e-01,3.147878223366087802e+00,9.512461191344122602e-01,-2.295737407326345070e-01
-5.967300893164211750e+00,-2.066104904774078932e+00,-3.263836913546128482e+00,-1.327630024031149603e+00,-6.133919159550760725e+00,3.127656100917455273e-01,6.008131534617047187e-01,3.601946954324771077e+00,-5.516326010104211086e-02,2.532623473873166553e+00
-1.992739521483650300e+00,-9.564425556228577374e-01,1.929068209255129229e-01,2.184331265664199773e+00,-4.799158123780591367e-01,-4.300191660835638308e-01,-3.419428921348228734e-01,-3.470034457822673279e-01,8.365887559936961981e-01,-2.986365814332560542e-01
-2.808611264605178626e-01,1.292758045388838095e+00,1.470556603127155304e+00,6.938275938768707629e-01,1.837541849555883955e+00,2.700741176357787654e-01,-7.629427119183127548e-01,-2.474807666392701222e+00,-4.506290696384918082e-02,-9.544937549340705152e-01
