-2.152366760606014839e+00,4.539339477711560100e+00,-2.666670405325378468e+00,-1.061198025603731221e-01,-2.646474195455117862e+00,2.984188841899565681e+00,7.763064013399982866e-01,-4.728821412066874785e-02,-4.511386743624165696e+00,4.588902009707215512e+00
2.857873451657825470e+00,-8.747745470458467842e-01,-4.112710386400545204e+00,-1.101807702804351585e-01,-1.659985876126792714e+00,7.720751543040331732e-01,1.465091114376374959e+00,6.057181295379445274e+00,5.051447112886083168e+00,1.130440782383581144e+00
-1.926157987488843260e+00,-6.506927118188399195e-01,-1.100378463667067708e-02,-1.486184934757833975e+00,3.823972914787934219e+00,-9.966437862297001793e-01,1.513081283098713481e+00,-5.833329304047567554e-01,-8.259459692771898842e-01,-4.674343753621469588e+00
2.577994135854050128e+00,-1.123377484246788516e+00,-1.102559587172748268e+00,1.329953487999711248e+00,-1.862184137569273590e+00,-8.778763994937462956e-01,-5.909829145354162927e-01,1.904518875861466842e+00,3.687908448735998768e+00,2.943662709992630688e+00
1.667321214814384556e+00,-2.094685192516200445e+00,-1.873558904747566256e+00,4.824666553826899018e-01,1.132870784547727272e+00,-2.406331287335785163e+00,7.810192536919002837e-01,2.048488154999376309e+00,4.479959405006477269e+00,5.347943716571740280e-02
-2.207333866908909314e+00,2.165351119131340596e+00,3.400808740350017789e+00,1.701381480637711441e+00,-8.494047077615225483e-01,5.240809160200585737e-01,-2.833113002627104748e+00,-5.155659569407891496e+00,-6.603782933795470989e+00,1.171076956083635601e+00
1.472564839032458606e+00,-6.723740844781549431e-01,9.696212369956612731e-01,3.736879103740026409e+00,-1.277405031509864397e+00,-1.511998889534164281e+00,-3.388734729854025574e+00,-7.037389561226750079e-01,-1.034028082141340343e+00,1.282177439323056056e+00
5.960233201432061367e-01,9.503441889101151840e-01,1.157867285869085938e+00,1.668595522195634451e-02,-2.607341380945259246e+00,2.262711966327896729e+00,-9.901256247389351728e-01,1.097498551128229249e-01,-1.154355165898281355e+00,1.355053208427928091e+00
1.279784000749215611e+00,-1.343347618087046280e+00,-3.352910343613080268e-02,3.523380474055381573e+00,2.439590277988856748e-01,-3.016818512097307448e+00,-2.453640990644607278e+00,-5.677284943119766947e-01,4.019177313815177066e-01,9.416729879581828833e-01
-1.338188004290430388e+00,2.893474745996975184e+00,-2.005485663016355335e+00,3.108310331158540940e+00,-1.362935167448591889e+00,5.514470134393276712e-01,-1.886353776193232523e+00,-2.700928309214192247e-01,-5.449748172404208724e+00,2.249696861918753399e+00
