-2.871955740481590080e+00,-1.788545309255140658e-02,-9.705222829533050044e-01,9.018989355180442313e-01,1.298484612416966666e+00,8.281707148963757259e-01,2.713727055944480382e-01,-3.358428193175956533e+00,-1.827235407487390217e+00,2.312179230927055684e+00
8.231406749597984795e-01,-3.508869925153518254e-01,5.119830070358986518e+00,4.908758578848216453e-02,-9.430821137282076050e-01,-2.171047094704968927e+00,1.114695287023374642e-01,2.334975321559685513e-01,6.954528988111428056e-01,-1.062579073815385966e+00
-1.328738844152795417e+00,3.865702739753887229e+00,-2.716848463922957535e+00,-1.099080143287910483e+00,2.887669068619503232e+00,4.715216042158474785e+00,-1.211460368558455181e-01,-5.680588978558058777e-01,-7.074873587001019537e+00,2.027309312996791846e+00
-1.340275459507710654e+00,5.422870360702961579e-01,-1.130946084016097586e-01,1.338511085809260370e+00,2.926278351682624068e-01,-6.104269579238115195e-01,2.277374232524015940e-01,-7.504355202678603121e-01,-1.847154713103452917e+00,9.359722558734950848e-01
-1.701082527006629430e+00,-8.751611002186345800e-01,3.792702836550229772e+00,2.568515740288245475e+00,6.352607607656243216e-01,-2.262174607980496965e+00,9.520504685521729016e-01,-1.788571466835062518e+00,-1.190292564246533402e+00,1.446401932847401373e+00
-9.095973289582015564e-01,-8.360364430056677065e-01,-2.211368178335844537e+00,2.615200962369384818e+00,7.080966985606074182e-02,-1.468236818555078038e+00,5.784856599298652258e-01,4.137499721268271813e-01,8.701561743739505417e-02,8.729840024110886443e-01
-3.774763565212291727e+00,-5.256975662628615709e-02,-3.203103300024771727e+00,-3.722659933027368528e-01,1.893135380440463589e+00,2.867926187971807650e+00,-8.029563368973294257e-02,-5.129753681561514789e+00,-1.577916066970947995e+00,3.045489017162235079e+00
-1.003802018073592262e+00,-1.738280109554176889e+00,3.738346386195591009e+00,1.012138105712160341e+00,-8.030702200736795637e-01,-2.589990900459941514e+00,2.928285492780420829e-01,-2.096928302156369384e+00,1.918386797573271574e+00,1.671010133125825359e-01
-1.665054905626279336e+00,-1.924323930552713113e+00,4.540924029233020853e+00,-1.276988727504044796e-01,3.508309749106928166e-01,-8.271068512396739791e-01,3.307217316476795399e-01,-4.070743428308461809e+00,1.585127383125740197e+00,1.055462415379357477e+00
-3.226936100189767842e+00,-1.128107682683730850e+00,1.141269968351609165e+01,5.263716047777572404e-01,5.964832970040959692e-01,-2.540424531938134667e+00,6.647180533938106262e-01,-6.624666666738699305e+00,-1.233469452628606966e+00,1.811749923133010309e+00
