-9.864262044098295323e-01,2.549756548318215188e+00,1.103745735619398038e-01,-9.737624756310248042e-01,-1.352874393475326675e+00,1.905058167888968423e+00,6.748097457137204325e-01,-4.665019547672799027e-01,-3.564513485191262099e+00,1.273858045558466490e+00
2.259060115958080761e+00,-1.692366846388549284e+00,-2.822734218370598569e+00,2.978653925221571797e+00,2.863872027893447303e+00,-1.122807315354382052e+00,-3.785180828998831348e+00,-1.483458175449837935e+00,2.688172589880760022e+00,-3.842491352241452329e+00
8.335675592788555077e-02,-1.403269007483547215e+00,1.723711164783740646e+00,4.106128746003380181e-01,-2.014275913538379204e-01,-3.951287401953007539e-02,1.298485060240144096e+00,6.987106752053917624e-01,1.482439673725403306e+00,7.763276216514763961e-02
-1.191210625178521720e+00,3.616930649207544812e-01,-9.971801180994644964e-01,-1.577594331987109744e+00,-1.446769247814692738e+00,3.945177363023015804e-01,5.240519089994664093e-01,8.321696704529388811e-01,-1.922404525731021829e+00,1.792485735081084997e+00
-1.042822178929203591e+00,-3.124386316989151702e+00,-1.769800259158352818e+00,1.531191464277202652e+00,-3.345252604876591818e+00,3.748177140596494095e+00,1.909151551840795324e-01,1.723072164794356542e+00,-1.350225619698935509e+00,2.080816947627970592e-01
-4.672497068728133085e-01,8.437706500704680312e-01,-2.708462065457539758e+00,-8.653984883781273840e-02,-9.941782727693149191e-01,-3.515438092300069428e-01,-2.946502140242398315e+00,1.079415734346267364e-02,1.179959477969947157e+00,-9.275502199339024090e-01
-3.814490364543347001e-01,1.088298278593858859e+00,-7.580677833400739640e-02,-1.553326717742904650e+00,2.960461543238667170e-01,-1.012907831217461974e+00,4.335065416283415130e-01,-5.665724629389523592e-03,-9.782098338301169482e-01,1.194301832373005245e+00
-6.119181876163272138e-01,2.390901133756973884e+00,-1.115447475419758527e+00,1.255437453182980390e+00,-2.160729991794251958e+00,3.257408709100679367e+00,-1.871495419169467489e+00,-9.400223822160597154e-01,-1.703700810486603379e+00,-1.222576201780463112e+00
-1.290871313368120665e+00,2.847134657436401373e+00,-9.981815853846037756e-01,-8.778329712215211522e-01,-2.136381356757166117e+00,1.798602218973335720e+00,-8.159871159237488403e-01,-3.050926420014070661e-01,-2.416791665298226643e+00,6.761849205266328156e-01
6.939982863957110393e-01,-2.042849410535910071e+00,4.158076262447874427e+00,-1.994261595813298982e+00,2.846408004377618983e+00,-3.629561069001462137e+00,4.568486629608208283e+00,9.492946765454137736e-01,1.199243391182259533e+00,2.422945359171207791e+00
