3.670288152023857275e+00,1.709713306330984839e+00,-2.564381681104795696e+00,2.368080366410025839e+00,5.133790758722959202e-01,-1.972463740184626557e+00,2.887306577406659747e-01,-6.381006272091122034e-01,6.599091294782650774e-01,-1.136157976186904506e+00
-1.157887041767726055e+00,-5.925514689525728240e-01,-4.858362220913821361e-02,-8.527103741779337165e-01,-1.316461046346399932e+00,-4.421141184271240587e-01,7.149997275453355838e-01,-1.585776335382514279e+00,-4.780210807294096864e-01,6.014673215067259937e-01
1.593905594728910469e+00,9.667863887273817625e-01,-1.624877599072397594e+00,-1.608191652117790804e-01,7.457448559735562199e-01,-2.333450817066977212e+00,-2.908241697492012001e+00,8.058855574468726246e-02,1.019980392843533146e+00,-3.478027382962366465e-01
-4.660457165227072096e+00,-4.317858481101097823e+00,1.654585711628576705e+00,-2.863726148866139631e+00,-5.494706871775678181e+00,-1.137993896190960808e+00,2.383756802460957225e+00,-5.032505902157280886e+00,3.233410239105605655e+00,1.806204155373698939e+00
-3.328836471601993807e+00,-2.777775589201854523e+00,3.262541761682272945e+00,-1.467467553781407030e+00,-4.276492663809038142e+00,-1.757162174334842675e+00,-7.823450699063184688e-01,-1.652476440103016309e+00,3.381588111823618625e+00,3.026230013943179031e+00
8.696557317093980277e-01,7.271576600437135163e-01,-1.380810034126956465e+00,-2.403496465161217843e-01,3.715283788151293898e+00,2.938549310643651324e+00,3.383054359582567949e-01,1.983677857834245550e+00,-1.548892930783644983e+00,-2.747406722791935429e+00
4.118968435200922595e-01,1.677790363308765409e-01,-3.097611864267753035e-01,7.927339953256515859e-01,-1.531149646819879528e+00,-1.185873770770663915e+00,1.159090093453535308e+00,-1.485461358087587946e+00,-1.347007621104405473e-01,7.070932442068651458e-01
2.730121391197684488e+00,2.265579755135223028e+00,-4.733715854562599468e+00,2.149860168126455084e-02,2.563739053398385259e+00,-6.834166520359593600e-01,1.459452486696618534e-01,-1.177856757235185015e+00,-2.838621680430438499e+00,-2.605075525136557602e+00
8.700242848992545408e-01,3.014997018921017347e+00,-2.907097161486564385e+00,1.134331183571124502e-02,9.934637022232521986e-01,-2.529467265116185359e-01,1.396049309295277485e+00,-1.400593967099515336e+00,-7.187124323637426926e+00,1.251619581131369063e-01
-2.276849106602708783e+00,-2.076305356783424205e+00,4.329660077888376257e+00,5.553781635206502809e-01,-1.418149439913759524e+00,2.485548777839451162e+00,1.597645555937698525e+00,1.655120087902253845e+00,1.928100843955839805e+00,1.404094436823347447e+00
