2.067750050100845560e-01,6.393693875767232360e-01,3.662357662243408640e+00,1.156915059075045216e+00,1.464286222511533841e+00,-7.753719104228991021e-01,-3.276584862431540790e-01,1.648186743857736447e+00,6.401490967664733578e-01,1.530028966836359361e+00
-5.001509641665766281e+00,3.835634598494850334e+00,-1.661248869367599301e+00,-9.385815820216287797e-01,1.100546181313264427e+00,-3.863699542538037157e-01,9.483340349769586730e-01,-7.078685937433868425e-01,3.432419764164226006e+00,4.036955288577850909e-02
2.547704086566731529e+00,-9.397839297212262633e-01,-1.921746256746212911e+00,-6.271418214798287760e-01,-1.043660551344709475e+00,-2.956272702338762937e+00,-1.204977060167205627e+00,1.510762442736325539e+00,5.009358790712745702e-01,3.951253054588421687e-01
-8.165795562725598700e+00,4.289994256735054634e-01,1.171505393492498825e+00,-2.877087262301017745e+00,4.555886421721395685e-01,5.316842638116498598e+00,2.135294536844294377e-01,-9.687082694084690360e+00,1.990677789947826515e+00,-2.097980833287182101e+00
-2.045268881859605425e+00,3.554441064075675616e+00,-4.917179830785221029e+00,-1.188729191421359799e+00,7.484848751068822192e-01,-2.399491000612758551e+00,1.286479247938992154e+00,1.709715417055696518e+00,2.428702894533379286e+00,8.821120528465992150e-02
-1.898168400927525479e+00,4.504846490168358031e+00,-2.144304774213340092e+00,-5.961580562905501868e-01,4.253049362880116036e+00,-1.105857839511178220e+00,3.053559535124022783e+00,2.202912599021246365e+00,7.925676831051569060e-01,1.163171362717115631e+00
-4.879838400123580833e+00,4.207275546311378456e+00,2.320469608777888659e+00,-4.729589673380629744e-01,5.110606515913551640e+00,1.705028253828369200e+00,2.701062836456418648e+00,-1.266695208675045592e+00,1.264515681147690085e+00,1.148848627443191051e+00
-3.473328016293291576e+00,3.248614332086098955e+00,-3.354394471876423367e+00,-1.277389034360241649e+00,3.253698213664223182e+00,2.897316523918935793e+00,3.955251212469056199e+00,-1.751828695917997170e+00,-1.163564247486555514e+00,-9.611422738342101368e-01
-2.871549507592711770e+00,1.194783526444624933e+00,3.957534967536367798e+00,1.586883096666584336e+00,4.661276847814647128e-01,2.093179945628426797e+00,1.654649141337864726e-01,-3.798499995439401644e-01,8.693111876726593579e-01,2.750241956293976164e-01
-2.191346114722525051e+00,2.835254996011943085e+00,-7.216188796066995703e-01,-5.517554036221231084e-02,2.680030367093082067e+00,1.090132004556370937e+00,2.436987005497785130e+00,3.823629084372145437e-01,-1.208586503537174422e-01,2.111761647646973050e-01
