2.214845772605493313e+00,2.594194892850530287e+00,7.209487991476920543e-01,-8.206023477769931462e-01,-2.567647831973787209e-01,1.608647174627265697e+00,-3.800095119276542532e-01,3.143640313055275026e+00,2.292883951559388400e+00,-9.205586596079657014e+00
-3.340425440974505999e+00,1.356163028594105313e+00,-2.935899945728037252e+00,1.079144206818962504e+00,-3.922568885846341225e+00,2.250198751786052220e+00,6.583595480974346881e-01,-3.997354898848102245e+00,-4.128635724212339042e+00,3.611586896116032008e+00
-1.195655835054462601e+00,-2.043855033753876338e+00,4.965467214391786399e+00,-2.532943883965910192e+00,1.879111862094067775e-01,1.275926410670385591e+00,-2.254369461412931486e+00,7.232948519169871915e+00,3.111936824712369098e+00,-1.049141595364168289e+00
-2.879589785872558316e-01,-1.538212278007928147e+00,1.221457949682316135e+00,4.770250569762865545e-02,1.278592274594090972e+00,-5.659128870631050523e-01,-3.154900043765943018e-01,-7.305221266055497154e-01,-1.080749021933719994e-01,1.628021591369833043e+00
1.583959505905005782e+00,-2.140741063387797016e+00,2.660737861001257532e+00,1.859359590294155984e+00,5.651550010133025992e-02,2.291846876589948234e+00,-5.770659846580016294e-01,1.610736749666845880e+00,1.436375728202380353e-01,8.281706139370466069e-01
3.565293304807180874e+00,-3.131872641760983011e+00,1.405671399859520498e-01,5.542913491926363179e+00,1.533999271024014455e+00,1.012358835276610636e+00,1.210631174286826095e+00,-5.521094257060101818e+00,-2.879694437154670883e+00,5.144120023544500597e+00
-1.684077075038864280e+00,3.153888631260101771e+00,-2.443386130076494744e+00,-3.732024150343741020e+00,5.031262712753581390e-01,-3.310938012561647437e+00,2.359786542760327899e-01,4.315248092254048151e-01,1.598234998396355522e+00,-3.830567976526945362e+00
-1.255911096974067442e+00,-3.340015922085558309e+00,5.316294477976638788e+00,-1.258099937231614174e+00,1.730602869434876734e+00,9.942935958294896182e-01,-2.044420395769467103e+00,2.906922781071075157e+00,1.362171434076067333e+00,2.964408873376652709e-01
-1.704025161078033701e+00,-4.310675672788659152e-01,-3.272071744547551120e-01,-3.084174043569266388e+00,2.760760260537617139e+00,-4.689807175119993232e+00,-1.490246412566425260e-01,-1.041352621565017067e-01,1.563110758926914645e+00,1.709622361257479017e+00
1.792051846114690594e+00,2.181133935815693814e+00,-2.667054931680861607e+00,1.230083204414610165e+00,-2.353094360010547614e+00,9.510069161703122997e-01,1.045688528210226842e+00,1.320781824230733648e+00,3.371775512976549205e-02,-8.413346799118235353e-01
