-1.374130426913171998e+00,6.674903553647177912e-01,-1.723452293787500755e+00,1.858486722973659022e+00,-1.900466572914709440e+00,-5.611458744271757837e-02,-5.189912066586508388e-01,-3.522766438526843125e+00,-5.593665759901235157e-01,-1.164393414185828313e+00
-8.271003578613131957e-01,1.700513010711758977e+00,-1.004330309218348427e+00,6.831278639614655201e-01,-2.176291677183874729e+00,-1.043976174990307371e+00,1.242078962556815824e+00,-6.927582369091731529e-01,2.869391757003749710e-01,-2.094182932046474654e+00
1.063153251243537767e+00,9.837497227447117298e-02,-2.245112074247190836e-01,8.127309703923014661e-01,-3.342365874420486493e-01,2.139626043126523935e+00,-3.519051645921520421e-01,4.135033084771608802e-01,6.586602113156271310e-01,7.150424084674470437e-01
6.303661391738704101e-01,7.535658703951697568e-02,-1.333881402727993493e+00,1.198992471166770546e+00,-1.119348237895597009e+00,3.369317891109635532e-01,2.149533241690929852e+00,-1.314693950723470950e+00,8.419591072991750025e-01,1.270147969643462327e+00
2.416617050502330777e+00,1.056132620527270749e+00,-1.812999673873160411e+00,2.818076509911928706e-01,-1.370065376699042936e+00,1.537034245702507018e+00,2.164399079866955233e+00,6.773305997166627623e-01,1.154841417357673539e+00,7.846983866994662327e-01
1.288833882374696760e+00,6.290367588931581322e-01,-2.111019915335291763e+00,-6.759480160611514021e-01,-5.550101877975582854e-01,7.029407308839091817e-02,3.587282195140172325e-01,-9.430381083202812320e-01,-6.360380167765683490e-01,-1.736055607131379852e-01
1.895445160824858366e+00,-3.063939537924616485e-01,2.253177844531042417e-01,2.647448620628206073e-01,2.715040512094870628e-01,1.953431070222764632e+00,1.070404283277747171e+00,1.695146957191097981e+00,1.311883170348204786e+00,1.914032257990603503e+00
3.807681424851606433e+00,1.385418217247444295e+00,-6.214927186675440751e-01,-1.886568175060277852e+00,-1.803446613636355556e-01,1.551969609296656838e+00,2.170642092276380275e+00,4.384714202547282724e+00,1.388288172708544099e+00,4.477297498715085977e-01
-3.635214993942307293e-01,1.240910763857806381e-01,-3.640671305655152623e-01,1.438542440161568736e-01,-2.521087386358529803e-01,-2.217278162307470268e-01,-3.329963271724507012e-01,-7.694350928998056061e-01,-3.474171900174093386e-01,-4.159960116453853551e-01
-5.924734737277085328e-01,3.936102373021717060e-01,-2.921168615443112238e+00,-1.147972501671297385e+00,-1.279332755731474203e+00,-5.798305563950251873e+00,6.008735822381416902e+00,-3.110202295829923802e+00,-4.255015684981293678e-01,2.960740583725842701e-01
