1.285615511733937399e-01,-1.870709123084685510e+00,1.178061763909088455e-02,1.561478311058484669e+00,-1.572050161259538781e+00,1.905957868417847312e+00,1.388289510298199581e+00,-3.178589222123002767e-01,-5.676880406872930607e-01,-1.956056483799927248e+00
-1.460879541905917733e+00,-2.110266497897991478e+00,-9.633282241179728089e-01,3.692998062894814471e-01,-2.606348470623452762e+00,7.071424159890750127e-01,3.142222584321443968e+00,7.644980156300011931e-01,2.106320288834634180e+00,-1.221004077742650518e+00
1.311493560340458053e+00,1.212748308068612335e+00,-3.946879204247957240e-01,-1.096351881381846027e+00,3.606157399746228620e+00,-2.532788503575517769e+00,-2.368212433600655586e+00,-2.444587467709290252e+00,4.194301227257566378e-01,3.026918409163392720e+00
3.594969866247738732e+00,-1.469254987280743663e+00,8.185199452530574904e-01,-1.021061451166491940e+00,1.279844421847782021e+00,-1.803631298806453342e+00,1.720001395610184947e+00,-3.571855261982053165e+00,7.213422717154976960e-01,1.172382050252187558e+00
-4.677444869856855481e-01,7.445443147735284484e-01,-1.870433913382353985e+00,-4.819381619544085282e-01,1.146235505936932908e+00,-2.704027426439128412e-01,-1.978893186475054300e+00,1.323199998519969167e+00,-9.530673979342230151e-01,9.590212186711145614e-01
5.402919145136741985e-02,-1.796402922439050753e+00,-2.374778097105739061e+00,-5.833082087572348806e-01,6.471812534405505524e-01,-1.367902780700908538e+00,1.140954364880339300e+00,-1.322346760805297006e+00,2.145939733400803462e+00,1.466362437222134885e+00
-1.011112718488461071e-01,-2.866806196692045283e+00,-8.887218039708713047e-01,3.199298712371886344e-01,-3.660376738128813923e+00,1.751535672281345990e+00,3.971189575338687217e+00,1.730768016936973464e+00,3.782873374223048035e-01,-2.495949619181367485e+00
1.858439322312918307e+00,-1.092474450238574590e+00,1.012317639696960425e+00,1.985710259664541233e-01,1.886446725632134225e+00,-1.680254532695083292e+00,7.309591960645238640e-01,-4.724826204487573733e+00,1.895657768866310322e+00,1.470599359755957236e+00
-2.268899119882441084e+00,5.541256448274767266e-02,-3.323295376865118111e+00,-1.741039340759614529e+00,-1.140984466229288952e+00,-6.830296919644169851e-01,5.328250397359116652e-01,3.942786891691008933e+00,1.174567006176979289e+00,7.729665478004072998e-01
1.257081485234117224e+00,8.132795800870793457e-01,-5.881367961701688962e-02,-1.992043375374835446e+00,2.233711238688881329e-01,-1.232755693160565880e+00,2.055030567503546290e-01,1.278626610985590606e+00,-4.952698000590564642e-01,8.317073878686718214e-01
