7.533367686127845353e-02,-2.342876776999013977e+00,8.304573528700782692e-01,8.990779664168944141e-01,-1.531440336410324399e+00,9.032360638219720794e-01,-1.467768822767599346e+00,-4.876477276324207022e-01,9.992299549114210810e-01,1.075253965225369424e+00
-3.015050574948308970e+00,-7.030766004792344814e-01,2.229964110680939360e+00,-2.239837921287211042e+00,-3.322657243471132116e+00,-2.416626542925907284e+00,-1.096323975608875179e+00,-8.896028330182615962e-01,1.325660801788897558e+00,2.924229007954896598e-01
-1.852531053283318574e+00,-2.907970466361692097e+00,1.545420162114090168e+00,4.602300278448494986e+00,-2.676182114547103197e+00,1.123525919577288423e-01,-3.868752740263056378e+00,-2.559060203119420507e+00,-2.373556436500335876e-01,1.801422444295269543e+00
-1.334528649372400899e+00,-2.353314169008450252e-01,1.608771622599133089e+00,-1.588863526566819839e+00,-2.542218830560579068e+00,-1.647688995158928638e+00,-9.757007472654093405e-01,-4.787466654245373654e-01,7.379793001164447475e-01,9.579041041831161118e-01
5.935021096801429863e+00,-1.588082235471053316e-01,-1.891152474058722444e+00,-2.668931188270353694e-01,3.059019214171621037e-01,2.031472840831240578e+00,-9.693246667796637794e-01,3.922458999860229945e+00,-9.881309061694920626e-01,3.087557708937239687e-01
-4.962164930270278607e-01,-1.711799023225613725e+00,-2.017453410436423900e-01,3.254429918823295687e+00,9.198260102955069240e-01,1.699737853451474656e+00,-5.066805461289189960e-01,-1.523329674809658307e+00,6.496869345833311549e-02,2.847210929686192493e-01
-3.100505076874617405e+00,-9.434671599467812086e-01,-5.096010054645774279e-01,5.077526239611286130e+00,2.102091125123936255e+00,8.502597196272754232e-01,-2.146079756770539748e-01,-2.932866796677616072e+00,-9.047805660329690802e-01,-1.284090157908523100e+00
-4.642872974563587718e+00,-5.220946287848784451e-01,2.803808576564250643e+00,-1.812877226429433719e+00,-2.727284811257713493e+00,-2.489024408202680227e+00,-1.700825975973005999e-01,-2.722849189522883240e+00,1.790430688003155524e+00,9.106867402149694257e-01
-7.160844496423757199e-01,1.094528168911484745e+00,1.815930029210162999e+00,-4.452346368735007331e+00,-3.238988522460742203e+00,-2.840019670308428612e+00,-3.741060358547291242e-01,7.607521496747544631e-01,8.887084590973524101e-01,9.639092465413433564e-01
-3.988953789153384832e+00,3.651032450820369757e+00,8.943680854116322632e-01,-5.287821168614482481e+00,1.276114760191270792e+00,-3.093329915931250174e+00,4.411942472720726371e+00,-1.194816507571122566e+00,1.128893736153415484e+00,-1.397015834190378447e+00
