-2.227322266545850749e+00,-1.281302410913749856e+00,-9.838276777430188247e-02,1.056324857870247991e+00,-2.704344504312086617e+00,5.695234968179612167e-01,7.925135802434648546e-01,-6.183065094454281985e-01,9.899089179510488501e-01,-2.721387282660206464e-01
-1.636943842632883062e-01,-3.356575486853596857e-01,-8.718289897468303740e-02,5.325524674939196013e-01,-3.996346514944462136e-01,-2.703816961235989691e-01,1.515079599704626523e-01,1.007717158753937303e+00,-1.063841608900313596e-02,5.720184018886220745e-01
1.161751998523986140e+00,2.843388575762056947e-01,1.044785604087345332e+00,1.207232440179141664e+00,-6.010365031556712534e-01,-6.282075950037058210e-01,-1.964323576548248518e+00,4.137988519444679270e+00,-2.525722943822881761e-01,8.736779224234160202e-01
-2.842152943548685418e+00,-8.185204077560659375e-01,-1.740952085551921602e+00,-4.700201728299547854e-01,-8.882988119511550096e-01,7.771069334906702819e-01,2.141616458497048292e+00,-4.815267667744608460e+00,1.998066911564654546e+00,-1.968349389663731408e+00
-3.348597094159317500e+00,-2.214121078987701718e+00,-1.198340038265387708e+00,1.187619221074266651e+00,-1.335130274411086670e+00,2.409985893215356612e+00,3.641620311100477902e+00,-3.063121565270998659e+00,8.887974252462287339e-01,-4.703875512458766117e-01
1.438016768045606297e-01,-3.717238412844572348e-01,2.644209048058798306e+00,1.689876728557921259e+00,-2.327789350238341548e+00,1.964306888629486547e+00,-1.935969320884386891e+00,2.811097027132222870e+00,-5.930590816215255412e-01,-4.530977906917577069e-02
2.447696428397976742e+00,1.404470495070299307e+00,-1.252829317221337835e-01,-5.011305500201527430e+00,4.672919500863819131e+00,-2.897774816355389027e-01,2.419147435191889350e+00,-6.555515332005501961e+00,-3.880740847709662322e+00,9.483603807027825017e-01
-2.792561146050892784e+00,-1.477276168515010424e+00,-9.824533879994395980e-01,-1.583221717233398995e-01,-1.405692514679514504e+00,1.288963571800260555e+00,2.842891109345079048e+00,-4.172585513933012358e+00,6.360226234742655249e-01,-6.539982132560290262e-01
-1.421746068690045162e+00,-1.134472169651758788e+00,3.640106438701371655e-02,2.250800940226589941e-01,-9.651906416425162227e-01,1.307854851104105043e+00,1.802372337418542969e+00,-1.772481274109405813e+00,-3.911892928401611291e-01,2.117444696597474141e-01
6.266258943000115877e-01,3.164412972384310074e-01,4.310098521853460429e-01,-9.350882384094918454e-01,7.044559861473054241e-01,2.324212089407704518e-01,1.644904760177404723e-01,-1.096671824328440792e+00,-9.847074288932866626e-01,1.607106263928408107e-01
