-1.722719844343849172e+00,2.174857688319857263e-01,-2.913797858102271654e-01,1.261352115118449524e-01,3.644435797979184599e+00,-2.635889662252708376e+00,4.210735741770774698e-01,-1.495762587640972363e+00,1.566396334806607005e+00,2.308958813072748306e+00
-2.298910536711617603e+00,-2.697841541339335847e-01,3.243875403579474792e+00,-3.235908995057010795e-01,2.423276810310897922e+00,-3.071168346682067174e+00,-2.642981149574126665e+00,4.923907662881349623e+00,3.793847741491820802e+00,3.526943592617411749e+00
-3.068713261800306014e-01,9.049093002571203526e-01,-1.989773746766274831e+00,1.280410393749454867e+00,3.082034340492326940e+00,-6.440473462655196268e-01,1.352384580926482283e+00,-4.288957047432643499e+00,-8.671390123945198480e-01,-6.735156173474937669e-02
1.539600847243765835e-01,5.328195133128582617e-01,-2.315477163832198038e-01,1.131460920394609326e+00,-4.969861775353762168e-01,1.369358183280237728e+00,-7.364194900348162154e-01,-7.834207964019163084e-02,-4.448898976097746538e-01,-5.393194181459148862e-01
2.441072594893080705e+00,2.318481382110275657e-01,-4.144573234607591417e-01,5.494123270573085804e-01,-2.263603749030135504e+00,2.718061535754645597e+00,7.360474833718834153e-01,-3.119991780989010977e-01,-1.668457513608658349e+00,-1.012845913274833309e+00
1.790740529598130237e+00,5.619420423471379600e-01,1.758046060865059657e+00,9.278418716757876883e-01,7.356755380230037833e-01,2.328180726872191020e-01,-1.096670683868035789e+00,2.265768841902558783e+00,-1.338194932077068522e+00,-2.206229901187203524e+00
-2.087302821778266981e+00,-1.038864136190942755e+00,1.940638632577888600e+00,-1.572300635673774538e+00,-1.275350598548194991e+00,-1.393648398081837048e+00,-1.919407316551887899e+00,4.043745039052079271e+00,2.550513369094698390e+00,1.488142847957637738e+00
-5.266147642479480417e+00,-6.231832354051004552e-01,-1.644058493602809534e+00,-1.213015680584849099e+00,2.204586976529405273e+00,-3.469913151273730012e+00,-2.274217798489965858e-01,-2.437399391372148560e+00,2.863805171452921350e+00,2.237592828036611969e+00
8.881318408039038381e-01,5.035986610127813901e-01,3.535436781868719791e+00,7.729183850823939661e-01,3.840508959200382044e+00,-2.358956788009745509e+00,-1.377504729087998481e+00,4.175285912786299569e+00,1.779962881958676579e+00,2.511085757734289103e+00
7.382360125009922447e-01,8.409317497798560748e-01,-1.167382469969601377e+00,1.971847874596162065e+00,-1.821470865867371058e+00,3.518412185136719827e+00,-1.925076783835842908e-01,-1.114428798245022945e+00,-8.967904177783592168e-03,1.617748134159332718e+00
