2.519904516578732157e+00,4.528570693955820126e+00,1.304924513518883167e+00,1.460906638738347363e+00,9.845892406557317234e-01,2.735002062003488721e+00,3.998969803804705236e+00,-1.681457087152181451e+00,2.838943628889459614e+00,7.171309185198879721e-01
2.329859501163359603e+00,1.860185824129758636e+00,-2.905810325543766170e-01,1.875060175046882271e+00,1.476027141957381383e+00,1.255549914438868431e+00,3.146501181805569924e+00,-4.760360949032222955e-01,1.862563053834268345e+00,1.651048914265186074e+00
3.786561868468827807e+00,-1.589623181429657084e+00,-2.208033670062866438e+00,-6.548995957699153436e+00,1.225223694592304513e+00,-3.129667747112485188e+00,-5.970125657139560005e+00,-2.485129793482030003e+00,4.595771079363531464e-01,-2.509617277697699933e+00
1.565607606178301747e+00,1.406665602098485124e+00,-1.648910689595218582e+00,3.404365829129635479e+00,-2.612174360180746779e-01,3.516538657958440117e-01,5.082251189061226526e+00,-1.121484663845797591e-01,1.999451544553355387e+00,1.293864128981481176e+00
3.538159702524391603e-01,7.335918302816676895e-02,-1.193236085931399737e+00,-2.568872909214582556e+00,-2.497595069032824133e-01,2.212335242720209760e-01,1.219324603330178558e+00,-1.981380863288205063e+00,3.090364204552873861e+00,1.742371751909694844e+00
-4.034431059987040769e+00,-2.290917816013812391e+00,-1.102029963579505556e-01,2.671231508678012734e+00,-2.944443834823507355e+00,-1.488143287448161267e+00,-3.047357359906593954e-01,2.608409249401270724e+00,-3.330276803589038881e+00,-1.684453594288807476e+00
2.544151004337701583e+00,2.004442689099286135e-01,-1.752168810950603950e+00,-2.316488803011464981e+00,2.722265672708182649e+00,1.494573441421137794e+00,2.923519491287706717e+00,-2.352510393391694432e+00,5.215403312649891987e+00,5.459568050514670645e+00
1.157154566238419058e+00,-4.938126786639958077e-01,1.989933331991001086e+00,-8.143509694252194508e-01,2.712101674363314174e+00,4.477545079549738460e-02,-4.801367940493995512e+00,1.129847581104715282e+00,-3.019440326806239305e+00,-1.223419045214092282e+00
2.437979666264001311e-01,-4.437693996964103604e+00,-3.835234414267008951e+00,6.270195205596067467e-01,1.726895383021083807e+00,-1.420255014661137460e+00,1.706684837047168113e+00,1.123272524133836381e+00,1.451443976514677603e+00,5.226385071738516963e+00
-1.241037463427709930e+00,3.260719060207092346e-01,2.420242660200984108e-01,4.400357107835615622e+00,-9.740781714269339808e-01,3.219925704841019032e-01,2.695235868789852773e+00,1.889679154417985174e+00,-1.352095370490207893e+00,-1.144423248353837463e-01
