-2.776223594272345441e+00,4.927224162205821933e+00,-9.848176854104597755e-01,7.011295363311462747e-01,-2.623436254018724156e+00,-6.501649387956160986e-01,5.490397467456910263e+00,-2.399976627910427762e+00,-2.742421206593702365e+00,-2.595550218890551708e+00
-3.909651625137778197e+00,4.546379943063962870e-01,-1.141598919747651486e+00,1.030392075752016634e+00,1.275341605634068509e+00,-2.376361922842135321e+00,3.043733676334664295e+00,-1.004271701012922069e+00,-8.580515360425660987e+00,2.019519485931340341e+00
2.509934581565417266e-01,3.076101429431669754e+00,-2.004781337283962905e+00,1.537499194768954913e+00,9.658820941602818122e-01,2.104638604989971795e-01,1.067395952359981415e+00,1.678348412856581318e+00,6.319378587817574555e-01,2.736761292636051279e-01
-4.803534236553456793e+00,-9.048112932772650607e-01,-1.055655221052092418e+00,-2.983911652665167225e+00,1.516169206867420183e+00,-2.559849411855911860e+00,3.294762332682726225e+00,-1.898298138986029393e+00,-2.223105722018106967e+00,-2.334713694163909725e+00
4.979941958751311626e-01,-5.056942293488997375e-02,-1.730027858226671711e+00,3.718821496583579744e+00,1.366501337055161525e-01,-1.402676099434272405e+00,2.833438308129890837e-01,7.633924897686814592e-01,-4.787177122817193542e+00,2.786024193640215252e+00
3.554342599614019882e-01,-3.384123195599306300e+00,3.216386686891809621e+00,-4.906976321173007527e+00,2.040446252525756066e-01,1.546735005152299003e+00,-2.803902744462564378e+00,-8.826962745085948914e-01,5.607584962581273480e+00,-2.152581748174005494e+00
2.927969912193884028e-02,3.603127717413785458e-01,-2.727522903740447369e+00,1.878161724981777470e+00,3.476263122131548755e+00,-9.470487596499483907e-01,-5.593301192728028504e-01,2.940779210042010483e+00,-1.484780873179931904e+00,2.606254071494186864e+00
-3.071510201703040011e+00,9.368823345156105376e-01,1.594447248325896460e-01,1.271828315735924475e-01,-1.934259121407460480e+00,-1.559587234414381074e+00,3.684296472368462805e+00,-2.940747120283354832e+00,-5.341664456224608060e+00,-9.403403522823674532e-01
3.968021478856563755e-01,-6.336952074885278119e-01,-1.732499918583429999e+00,-6.197002809529410516e-01,2.882973252027404509e+00,-2.800827427293389738e-01,-1.225436856728324031e+00,2.267049590464278896e+00,3.180181291123882481e+00,4.141930130651022557e-02
-1.371209425558310935e+00,-1.079695835500985579e+00,4.252900559840638861e-01,-1.274981419038393460e+00,-1.992952085005948726e-01,-7.256803575781587412e-01,7.170366827103580309e-01,-1.239057855743087577e+00,-7.635052216742785891e-01,-9.137290659502057544e-01
