-1.384854385741119076e+00,-2.875703984578492634e+00,-8.462014255064287394e-01,1.559670299083008249e+00,-2.572331073372216892e+00,1.086511999456412969e+00,-1.043000898283085842e+00,4.186455399106805420e-01,-1.084111626917542592e+00,1.272103903176796003e+00
7.961245736129620720e-01,8.792432259984369614e-01,1.392399256276564579e+00,-2.631913051605318521e-01,8.386412906662010780e-01,-4.895529063350461119e-01,-1.070847371199066256e+00,-1.944008381651852524e+00,-3.841447879797900145e-01,-1.008757124430922358e+00
-5.776804719847423719e-01,-4.016453372806714217e-01,-1.046355411351201470e+00,-4.873031339108291338e-01,3.021723968171564856e+00,-2.408335424525211987e+00,-2.174135637727542925e+00,-1.681451496255372380e+00,-4.283256448807595818e-01,6.374638864189137166e-01
-1.061999650773843840e+00,-3.680051961937012450e+00,2.054747862906949329e+00,2.685157480872200964e+00,-3.264970495413606066e+00,1.830102910072139100e+00,-1.722640949782416220e+00,-4.469718170040314353e-01,-4.985844769475165639e-01,-2.266700622650205332e+00
-1.357871437840684647e+00,-4.076563212538159675e+00,1.564002016860631006e+00,2.462376783336142516e+00,-3.555269363097847357e+00,7.639299971047975868e-01,-3.264340475375819395e+00,3.158514877546702571e-01,-9.235590125639678849e-01,-1.556930794156453191e+00
-6.070131541063548131e-01,-1.412791415143879625e+00,-9.599488246521450385e-01,5.729995369201401623e-02,-2.002193952268144006e+00,-1.576877845876104800e+00,-4.589352548888396832e+00,-3.115169933634083788e-01,-2.671351382485934955e+00,2.889930464021191803e+00
8.435861197288241353e-01,8.600646594202868700e-01,2.138264558471056453e+00,5.845635301424389335e-02,4.983043151670295545e-01,3.902444457113688481e-01,6.795097554311052557e-01,-4.765346971722305147e-01,1.024261549683729733e+00,-2.779775752725368587e+00
3.361873620129678386e-01,-2.931338807192299001e+00,3.929862915405526014e+00,3.488533753646954949e+00,-7.007928026899806540e+00,4.886380824844442472e+00,-2.015841970106303727e+00,-4.069968452556886440e+00,-3.276587793000456550e+00,-9.840780015456963570e-01
-1.570876464404108219e+00,-1.727440005778918541e+00,-2.105668548412179764e+00,-5.941057461970637998e-01,8.010770416731505250e-02,-3.374110508037529321e+00,-2.980886378480604115e+00,4.554353119732683197e+00,5.458724446361331584e-01,1.006901626328953192e+00
2.793975185367864739e-02,-2.113963900896052017e-01,9.041124339168653545e-01,-3.606399430197281264e-01,-2.694153078865238360e+00,-1.132401217952455852e+00,-1.362237421035524365e+00,5.233231933645369871e+00,1.109792552554215161e+00,-1.434572431057956621e+00
