3.292659200628635485e+00,3.868890042534568696e+00,6.887706982517626253e-01,7.695610531817900224e-01,-1.507196086483782338e+00,3.940785463736397265e+00,7.311689719611282889e-01,1.465258783619143024e-01,-5.442894307961443356e-02,9.067531634352711256e-01
-9.611774331465923193e-01,2.995453519411960031e+00,-5.704925952740433903e-01,6.555610278543290148e-01,-3.558463504314662629e+00,1.392115216608388328e+00,1.331390437728358966e+00,3.231899466128815845e-01,3.445040629038091495e+00,2.700455241438461940e+00
-1.990950799450038389e+00,2.591592466664117911e+00,3.389807381513236240e-01,8.693399992635474360e-01,4.323315290553754187e-01,6.934324356087641084e-01,2.197995568037722336e+00,1.975614073161497952e+00,-2.385061074587305541e+00,-3.260656918918318770e-01
-6.656221898307341789e+00,-1.338416971314048576e+00,-2.487751431114078038e+00,-1.357171379432593028e+00,-4.771690690122793455e-01,-4.628059014393514303e+00,1.237553402914856493e+00,1.338849532265313780e-01,4.269140872292162214e+00,1.440124535515718840e-01
2.461942656104983307e+00,1.228912602046611235e+00,1.405694247533506358e+00,1.463616048769510680e+00,-2.082099092229701576e+00,2.161117882138058999e+00,-3.657307474707376937e-01,5.719615332734883095e-01,-1.372140705925509963e+00,1.703488110947571910e+00
-3.359930841433252713e+00,-3.057177996281902121e+00,1.043696862054427910e-01,-4.264090412912852623e-01,5.955604865899720934e+00,-2.107439617344275096e+00,6.742319864476069569e-01,6.485400188420090695e-01,-4.308602358221198081e+00,-3.379221508938137220e+00
3.384380400194852534e+00,1.342772373984671308e+00,2.143954943411445768e+00,-5.080766612360623213e-01,2.175649034515406921e+00,-3.518673492905313172e+00,-7.079153034707101888e-01,4.079440232328862770e+00,-1.216709500687450962e+01,-6.361106468482656595e+00
-1.768762366308800571e+00,-6.772222982328637286e+00,-9.059732554907902191e-01,-7.678152052276705497e-01,-2.627800119392744715e+00,-5.057971320834239393e+00,-3.490859800113112144e+00,-2.046891788808856472e+00,4.692965129749468112e+00,2.358611691622929385e+00
2.094434096844575155e+00,2.510384973911019113e+00,-2.149476171398783109e+00,-1.633931043940417549e-01,-8.886076621032700018e+00,3.253417140684097486e+00,-9.075557454085616538e-01,-3.693234553486325566e+00,1.379103797739743520e+01,7.283439786232485780e+00
-6.979672048816158991e-01,-1.053432789008989179e+00,2.029268543693186544e+00,1.315447705336575623e+00,5.504582714693987633e+00,8.670313165416176915e-01,9.881746925831269568e-01,1.910141250102357358e+00,-8.147331811315282835e+00,-2.801855215676562150e+00
