-7.026720281143457036e-01,-3.715505771947730018e+00,-4.079707856281331146e+00,-1.826239217748011900e-01,-6.782251568192316782e-01,7.664916860515502695e-01,7.033533989362665828e-01,-9.387369737986034357e-01,5.004228571118928492e+00,4.683292861461504364e-01
7.146798720085554280e+00,-5.526114721751707037e-02,7.505185651961387983e-01,1.425514978810360489e-02,-2.173025362910552705e+00,9.671505750370145149e-01,-2.377051835996473184e+00,5.865664082005862312e+00,4.100737334134760381e+00,-3.188400969172511257e-01
-2.101971750595597932e+00,-2.763659651874683654e-01,-1.263354874495313251e-01,7.062750382601493682e-01,8.196610400710899746e-01,1.039197969987439435e-01,-1.182820500259363028e+00,-3.042204682404800131e+00,8.039737641079425234e-01,-2.510353742750248696e-01
7.116372435185333023e-01,6.451008326787506242e-01,7.277327672431002092e-01,6.491821422277750664e-02,-4.766057540732860504e-02,-2.544121491452147610e-02,-4.242155997740043594e-01,5.529941609473957298e-01,-5.124756998134005759e-01,-1.650642498750365950e-01
1.382233632891820108e+00,1.108575800221765162e+00,-6.701398459418317355e-01,1.950761719652923387e-01,9.278512158696045065e-02,9.685415866240657534e-01,-1.522210718449748867e+00,6.159153896699132158e-01,-1.019566750731689897e+00,-1.524421967202487238e+00
2.663525058487127506e+00,1.154643705924265795e+00,1.348507367506758703e+00,1.903918046794753072e-01,-5.624968088126527377e-01,-1.023357825682885691e-01,-1.534888389081281446e+00,1.409957304786289001e+00,-6.668043263875793603e-01,-5.090210300044167857e-01
-4.431100071377558791e+00,-2.125521015704610939e+00,-3.089007837799437439e+00,1.054685808194111285e-02,9.821402856261471914e-01,3.962758114160219725e-01,1.384259790873278106e+00,-3.693168093442046995e+00,1.290319750312439950e+00,1.820953880305919981e-01
2.156363628593178650e+00,1.405973798511632511e+00,1.802681958117187566e+00,-1.344603321311942379e-01,-4.273544500615500397e-01,-2.969036255993335316e-01,-3.252488560362558623e-01,2.156834369529662343e+00,-1.420451284121973190e+00,-6.300404991207775307e-02
-1.266210605321794080e+00,-1.972249250060264192e+00,1.743629334549492649e+00,-1.236893324995386401e+00,-1.023213448193224462e+00,-2.756173856081979956e+00,4.828149914479031857e+00,1.033274088621020104e+00,5.194603267506534006e-02,3.653549409328316067e+00
-3.156875281750862072e+00,2.029887030713500851e-01,-6.942510554922356469e-01,1.263159724076316492e-01,1.196834164887127017e+00,2.105130037061447579e-01,6.147388546782399654e-01,-2.359985558798311178e+00,-1.316846998667912771e+00,-2.986169146672453811e-01
