2.254567408839935005e+00,6.008102530523978801e-01,2.442528467320454588e+00,-8.546569635279160915e-02,1.842853133084764394e+00,-7.594233509711867391e-02,-7.439668655220782467e-01,-1.333554585147047167e+00,-3.916120219203983233e+00,2.801105323778541045e+00
-5.970336717507352953e-01,-4.324408484986779211e-01,-2.104403628823167338e+00,-8.905631170990530032e-02,-2.696022637552540679e+00,-4.946124297169458561e-01,5.442931074809181924e-02,1.164459606137924652e+00,2.937367705290250264e+00,-1.844227803728258230e+00
4.075611626233844653e+00,4.131183098989273383e-01,2.077932618621420868e+00,-7.602657013843964195e-01,-7.443401237292297523e-01,-1.044027050552712943e+00,-9.021663177018425239e-01,-6.809578919548846532e-01,-2.363661786292300615e+00,2.373213236187933006e+00
3.011255748781513919e+00,-4.051022640967781308e-01,1.912083093753853547e+00,-6.592599182950883985e-02,-3.705792659972413361e+00,-3.466380762746085864e+00,-2.086471160627895394e+00,-1.568831765560886327e+00,-2.113906296126052187e+00,1.664436934074317920e+00
2.178006884304926949e+00,-1.297416514599146087e+00,1.141590065107514151e+00,-5.861753114379604224e-01,-3.758861672171761814e+00,-2.825957378703628287e+00,-3.922336684152020414e+00,-3.243759179420653282e+00,-4.895060588923938472e-02,2.469487326428668528e+00
2.146643852418176068e-01,2.297099926002208470e+00,-2.675915310909420253e+00,2.021309743696252603e+00,3.842993773725324580e+00,2.986704881779366438e+00,-1.645387990111104148e+00,8.869560621894254648e-01,-7.375155474427328883e+00,3.506269592228578258e+00
1.954806762249141849e+00,2.408812914996055210e-01,-2.692977907561134643e+00,3.900426166789188187e-01,-3.576956176976895385e+00,-8.960746247856259394e-01,-2.699138353034168158e+00,3.904327913151774410e-01,-9.890464546003626678e-01,1.299836115096098865e+00
6.685940534997511508e-02,-4.239679104401198328e-01,1.835756742640261896e+00,7.848040517410811989e-02,-2.532829501033063702e-01,-1.365311110791275873e+00,-4.560957400424442421e-01,-1.404108351159240486e+00,-9.446410317049389604e-01,5.312172658934839475e-01
-1.484264401413868673e-01,3.397815602282687197e-01,1.653324284448373094e-01,-2.490823748399880744e-01,2.366476940455909173e+00,1.639796182123670620e+00,4.656715443885299233e-01,1.095400854664838053e-02,-2.590527138566087739e-01,5.728194289314103571e-01
1.348532527475222231e+00,5.117439483032787395e-01,1.659491722055457696e+00,-5.815405745546337046e-01,3.766418818025099036e+00,1.937246254760992326e+00,-6.019161097067082800e-01,-1.420468705391305875e+00,-2.278183362978863702e+00,2.876244146495143816e+00
