7.747726664825516085e-01,2.733722201204135338e+00,-1.667223528669784516e-01,-2.577310966264856340e+00,-6.738387317812355448e-01,-2.014309122459255974e+00,1.560316225385007360e+00,-2.103715450917567065e+00,1.693591768874889159e-01,-1.765271402726422023e+00
-6.541195828190463635e-01,3.030129194699280770e+00,-1.992714825795103506e+00,3.540187647789851955e+00,-2.787663571828386644e+00,3.691919275640779263e-01,1.177979042042002211e+00,-3.891871117812256475e+00,1.973099775999687555e+00,1.236089315407431499e+00
-6.039819708798870312e-01,-4.028505994639748344e+00,1.815842945122012386e+00,-9.032974906659227976e-01,9.148303663696328858e-01,1.478767354934349409e+00,-3.182896641828389050e+00,1.895635646050036094e+00,-1.317598877947926406e+00,3.021613885715615400e+00
1.312571448016208953e+00,2.652936692572819943e+00,-8.934238469679346706e-02,-2.854169539460439164e+00,3.284833584437202858e-01,-2.474793856276729986e+00,2.283817683294881107e+00,1.870837132076472453e-01,-8.271567582137137054e-01,-4.807808561242326029e+00
-1.403655735760145129e+00,-1.417883932299178307e+00,-5.031268003253260845e-01,2.085982423109199679e+00,-2.862896452955261850e+00,5.897088718701837262e-01,-1.199920787797189803e+00,4.947628147394381726e-01,-1.734142016973677425e+00,8.353772465183544327e-01
1.757078632659628159e+00,3.388152417704434871e+00,-6.833432916474907470e-01,2.456148298880460601e-01,2.609667408159304092e+00,-6.633594279674448480e-01,2.839375480877342817e+00,-1.373081673000394742e-01,2.006199664103875957e+00,-3.889216745362193084e+00
-1.870419323714861692e-01,6.107887466145230704e+00,-3.245077314459517304e+00,5.116268526987536092e+00,-3.624537768849026786e+00,-1.862019129146603169e-01,3.063796395770453262e+00,-5.282754209171453219e+00,2.768200833483362544e+00,-1.261923891608062842e+00
-9.773011517830635375e-01,7.420784553871306866e-01,-1.515137269156977995e+00,1.750946634322295914e+00,-2.509679966845252963e+00,-3.972123235878867176e-01,9.605605887785444441e-01,-1.100257073322561618e+00,1.042763670480267579e-01,4.770216646379331071e-01
-4.940076080609470122e-01,-3.681698488826263382e+00,-1.148147038539968356e-01,-3.363230407862105587e-01,3.338865718612561206e+00,6.108856864535112674e-01,5.296112117020499443e-01,3.271582643998308448e+00,1.488729518485349068e+00,2.799365630172839570e+00
-2.589910303624262111e-01,-1.552040199939539011e+00,1.701904077353454836e+00,-2.919783753447606323e+00,-1.632328522087047151e+00,-6.095335486989050811e-01,-2.389764212458149295e+00,2.950197879501228471e-01,-3.061668209382697015e+00,5.264422449692018890e-02
