-8.301879330264306800e-01,-4.031731928498333950e+00,-9.598778461908410442e-01,2.514939240411747434e+00,2.862421218775902609e+00,-1.633023930089620768e+00,-2.042328788010187246e+00,-3.608419004702759114e+00,6.347855135314906860e+00,-3.653288141460273586e-01
-2.318106423990661802e-01,-9.309423077719128914e-01,4.270987859881175908e+00,1.426460232978512543e-01,-6.483426949856446520e+00,-2.888313863588205965e+00,-5.549702592797300937e-02,1.222408270228607430e+00,-6.072632853205174541e+00,-4.301644914734136904e+00
5.028943160816768954e-01,-1.282702849291815106e+00,1.081498593546706743e+00,1.304625681433670970e-01,-1.527979867367281308e+00,-1.844925390509716490e+00,9.956882683828220948e-01,-9.773538007349747980e-01,-2.028632631025823585e+00,-2.566505310447116273e+00
3.204681789133228875e+00,2.734056774442512605e+00,-7.424651399132078389e-01,1.769732734422421849e+00,-2.715856226946618879e+00,1.331066374221258286e+00,7.673648232186452978e-01,-3.513201606103281138e-01,-1.069258156593826392e+00,-2.421459585852604457e-01
3.271453274317735360e+00,1.753292299477274829e+00,-1.016029542006663400e+00,8.150074798300092072e-01,-2.680843129207248765e+00,1.068561048123337853e+00,8.541810203620777697e-01,3.058317835601220280e-01,-2.426412198331842518e+00,-1.495550588195239339e+00
-5.862849959799416588e-01,-1.040190941517598722e+00,5.566518155944966129e-01,-2.103783284583647717e+00,6.113315539828312328e-02,-9.523061349094321670e-01,1.137161230756284391e+00,9.465182382929842042e-01,-3.067554466549837766e+00,-1.643994294191705841e+00
5.872416637710830001e-01,2.236096399325943285e+00,1.702385128598181918e+00,9.019349155066007651e-01,-3.365011020481581294e+00,1.576200287413226930e-01,1.757801001345554726e-01,6.638212124257150126e-01,-1.971687057925620934e+00,1.522415011691834463e-01
-4.258913505225190299e+00,-1.077301481872858124e+00,2.745937208532021057e+00,-1.500177470731514306e+00,5.813328399353752118e-01,-1.195913865963644795e+00,-1.383418371959288073e+00,1.569738188213618546e+00,1.249890409507766198e-01,1.404273448368281496e+00
-1.273718331789386315e+00,-1.634658552227981954e+00,5.524009008568969703e-01,-2.590302757941087997e+00,1.702348302728140084e+00,-1.573549158618542609e+00,1.958485975878881069e+00,2.651308732917512234e-02,-2.380811812255058335e+00,-1.345044962748305650e+00
9.039744170707662008e-01,-5.863151390823267972e-01,-2.893250783704691020e+00,-1.861956737645358739e+00,1.598166361129186752e+00,2.072596873109896709e+00,-9.208950801336246439e-01,2.433024743429460290e+00,-7.111013968942745400e-01,-4.051317436401710714e-01
