2.254026624057453798e+00,1.388695649900721918e-01,2.269330472272260479e+00,2.044836064408494192e+00,1.814781997920369427e+00,-4.254866317393839470e-01,-1.119847173704100474e-01,-8.447337312617260174e-01,2.111653612532178759e+00,1.917172207249754123e+00
1.102205725523906610e+00,-1.609597063002657702e+00,9.985211761921146678e-01,3.782552356979974828e+00,2.466871722286507307e+00,2.923480556833998101e+00,1.169224164568480884e+00,2.345378511512476560e+00,1.701333728747885132e+00,-3.403458093290803177e-01
-6.849234602296101482e-01,-8.280149307273245718e-01,5.817507864852329291e-01,3.681298731528255708e+00,1.356296493323774222e-01,-2.189812334399124927e-01,-5.736542683916830754e+00,-1.749179798236969230e+00,-2.360673585838148902e-01,-7.233383834547256974e+00
-7.388929656082101616e-01,3.114736308657692354e-01,3.563425512364450931e+00,7.232363996719748833e+00,1.534787501583451563e+00,-7.330001124864535811e-01,8.075869989519075531e-01,1.071961896458099028e+00,6.889600613617470337e-01,-5.115978787569714470e+00
-8.568681774037251841e+00,-8.366065135683359300e-03,-3.293662602768410608e+00,2.366059840738810927e+00,-4.470469947337329941e+00,5.676027558390328576e-02,-2.716005061017519484e+00,5.492653106654568074e-01,-6.383016759466345391e+00,-9.851705073912901511e+00
1.417133028349351953e+00,-1.200579884732251856e-01,1.304105010668399123e+00,1.429393659324321497e+00,1.459205438735355242e+00,5.121529837244045424e-01,8.820732280024616845e-01,-5.730967365085426479e-02,1.464484984807087775e+00,3.072223638361128994e+00
1.070995493293607659e+00,-2.196801549562982014e+00,1.209559414844135983e+00,5.500506205710196994e+00,2.774104439921615484e+00,3.185029701792590817e+00,-1.738294161266753957e+00,1.383173670578141889e+00,1.831485946998138603e+00,-2.904337399640937178e+00
3.337935983378830684e+00,-6.369526853847738701e-02,5.604591636001630128e-01,-2.061785991096365400e+00,1.559029371876944126e+00,4.689516192197047406e-01,5.978156211856775482e-01,-1.252226325701963905e+00,2.352317541973067083e+00,7.654566874583240477e+00
3.755146644691460978e+00,1.850165461703110914e+00,2.099464777129103066e+00,-2.917479670193640739e+00,1.856553239390156262e-01,-4.229269388945573915e+00,-2.599107835307626679e+00,-4.445041345326431248e+00,2.089881240754857039e+00,2.923721077172767746e+00
-9.235412306422510209e-01,-2.956889881222818373e-01,-8.769277964091531929e-01,-2.480326509912820221e-01,-4.237387924353732682e-01,7.262445275593181204e-01,1.235493557400603737e-01,4.561649742130946539e-01,-7.143383924113932970e-01,-2.736975916964042022e-02
