9.734570678718210690e-01,1.179985893474977843e+00,-3.356056741704798618e+00,2.405658937478598880e-01,1.754579561815960975e-01,2.223226293982011548e+00,3.944211053694477997e-01,4.373524824074210393e+00,-1.510430504532158213e+00,5.765805149347258407e-01
-3.325092909541648822e+00,7.056604239365821263e-01,-1.236775431832670025e+00,-3.703818318713961721e-01,-1.037994077986398533e+00,1.332618640073053973e+00,-1.101762053620708004e+00,-1.254951799093268594e+00,3.771784640357922935e+00,3.594429968828506405e-01
-1.367516320231121796e+00,-7.795127220302648929e-01,6.501474464702599043e-01,7.890715539658577082e-02,-7.571605589867089758e-01,-6.856236050718553798e-01,-9.087633532750130083e-01,-2.365003906203502648e+00,2.644325749418376503e+00,4.203244763554305763e-01
-6.196555895103110778e-01,1.819653775753550917e+00,-5.889145260491135403e-01,-6.540770645522493432e-01,-1.496428563613062090e+00,1.937862994326357224e+00,1.355260658712391875e+00,1.244250703344033537e+00,-5.244445636973511515e-01,-1.750392071001451555e+00
1.441826775286045415e+00,2.413970089181531886e+00,-1.922018800829138563e+00,-3.141864646251112614e+00,-2.633598578429900972e+00,3.282569701693816455e+00,6.268591371297410397e+00,5.749805025098148725e+00,-1.454409441514923351e+00,-4.206917830500053412e+00
-3.744164087677250397e+00,2.826294594549871864e-01,-1.212921866661786474e+00,3.442156260756155106e-01,2.548942696605429603e+00,2.836831761112076911e-01,-3.362885597845671537e+00,-1.746018518561209598e+00,2.565231031915658821e+00,2.446057080006864393e+00
9.589329643350688048e-01,-1.615984636684389297e+00,-4.137013741618169149e+00,-3.117447222700367448e-02,-7.911472167386213172e-02,5.494716073214327423e-01,1.129257353537462677e-02,3.446351623442793777e+00,2.855008104573649952e+00,2.519048776799602596e+00
-4.739419318244924462e+00,2.052724297699082268e-02,-3.256454014195646174e+00,-2.049633941443251839e-02,-1.101725840254786926e-01,1.505200147478268802e+00,-2.938207891945229022e+00,-1.163221484047569199e+00,6.367446279113645247e+00,2.609264795395165315e+00
3.605498160483025405e+00,-3.913505700527237785e-01,-1.581566197070509494e+00,1.465469757878097856e-01,-3.353561227149195467e-01,3.628974894739129819e-01,1.889300818365918344e+00,4.066261411223536015e+00,-2.560793400248191798e+00,-7.547854550286020592e-02
3.494872013630381247e+00,-8.787782032288127265e-01,3.876949115403443891e+00,-1.197555997096063640e+00,-1.368535927351992310e-01,-2.251292360545224192e+00,3.647834218555266350e+00,-3.113518925926560543e-01,-3.526524546522006531e+00,-2.853300065209177561e+00
