1.012150186543581354e+00,-2.612741410662924757e+00,5.902474553488401554e-02,-8.936963138090371572e+00,-9.597566183416635921e-01,7.932728553402549343e-01,-1.029119980433383708e+00,3.667379000283400026e-01,2.715736157253845207e+00,1.216486254218209773e-01
4.405146821931817946e+00,-4.690328244502806498e+00,1.309320866218632640e+00,-6.571551461863909260e-01,-2.688133786416331716e+00,9.679190128268779780e-01,-2.804875929593654504e+00,5.909387561581519455e-01,-2.185741259589340402e+00,-3.109028263846486118e-01
2.322608387542243857e+00,-1.899370149451621970e+00,2.837181638514843840e+00,5.029090965276781233e+00,1.017224899336585775e+00,3.522426365658636094e+00,-2.697324342226425919e+00,-1.199143643072714038e+00,-1.468576260781770726e+00,1.367164222378332572e-01
-2.787687805152716969e+00,3.023328657079785486e+00,-7.281922606898749706e-04,5.845030717355627736e+00,2.126986601195675064e+00,-2.305862762939648869e-01,1.907017401858284833e+00,-6.146007022629084160e-01,-3.109709303703023231e-03,-1.540349010973476318e-01
6.452615984595465592e-01,1.017511859247626216e+00,4.345889150305305426e-01,-1.053300208290185225e+00,2.583508795806911396e-01,-2.309005710683457724e-01,-2.235408889076539174e-01,2.409116291044623437e-01,6.963400715187297862e-01,-2.483175611682458817e-02
2.074310748498261248e+00,-5.162065606614911317e+00,1.848369685753622260e+00,-3.705317339949222077e+00,-1.819894886976933357e+00,9.781683771944142958e-01,-7.733404687598722793e-01,9.925032706575809271e-01,1.656337499446022932e+00,-1.243502309343248902e+00
2.258791752254662111e+00,-3.528914334266036956e+00,1.223016933678020557e+00,9.890425701146523529e-01,-1.688998938524160609e+00,5.133342838234835614e-01,-1.047893234957633757e+00,5.795731272497997022e-01,-1.084912751503890327e+00,-7.437688545926069983e-01
5.519636365317565074e-02,-1.459381623202790745e+00,-1.943274203636212061e+00,-1.284923078075760783e+00,-1.800817451764054944e+00,-9.788447029151854384e-01,-9.624234963390979058e-02,1.684058666540381999e-01,-1.922472375219101748e+00,4.237150855973439989e-01
-7.209548080898267042e-01,-6.233174486310857354e-01,-1.245420308027309630e+00,-6.172411618548910184e+00,-1.401026939806726324e+00,-2.073329322570534927e+00,1.505647310878087675e+00,1.286233987252915600e+00,2.156751481668656822e+00,-5.437435816323616944e-01
1.729239871926092409e+00,-1.373553814906262494e+00,2.235066541965434528e+00,-5.502568892602927031e-01,3.640279431835004575e-01,1.607053300882721247e+00,-1.224137812419747950e+00,4.095361661631821693e-02,1.249044909993381136e+00,-4.617695444560152573e-01
