1.630587761569790350e+00,2.025846519274763224e+00,-1.450529771099372311e+00,1.094499421305714648e+00,3.172918865346528783e+00,-2.647496281046562316e+00,3.006258593594071993e+00,2.334893901560641805e+00,1.758235340772240640e-01,-1.072955712954842600e+00
1.222781434640486387e+00,-3.003150427160365510e+00,1.197771561869071660e-01,-1.568796153349393041e+00,-1.664507797759561258e+00,-2.417740686140360751e+00,1.878365861251773516e+00,-1.218466728858159653e+00,-2.501403675983493446e+00,9.892546098485370809e-01
-1.646272192992709993e+00,-4.002810978225598504e+00,1.488731942600493463e+00,-1.044309611865704923e+00,-2.342044127286399657e+00,-1.518951485544309810e+00,6.358273119308407439e-01,-1.814227665873719975e+00,-4.087268366381239915e+00,4.933504386210930681e-01
-3.095984302306912794e-01,1.355249732943093033e+00,-4.846575617354828003e-01,2.347486321491937034e+00,2.558294264438380594e+00,6.996957667545882220e-01,-3.373584375572296068e-01,1.745515671139064251e+00,1.987051229713379996e+00,-1.386899680370803134e+00
1.653732438615082012e-01,-2.206703184604839496e+00,-3.525336247017154534e-01,-3.758316820272910030e-01,-2.592226596184775023e+00,2.553951295606935012e+00,-6.994823696103489308e-01,-1.919244809985142464e+00,1.139357006032330810e+00,-6.533765316782874644e-01
-2.378503780000894352e+00,8.368008844795804535e-01,1.123841483914390649e+00,-4.542394116582975094e-01,-3.651890320929300771e-01,-9.502500847377870485e-02,-4.809395955405831313e-01,-2.163057687174247956e-01,-2.149548789631047008e+00,4.657111940798236427e-02
1.608082482306100403e+00,-1.824939732073467713e+00,-6.761850171168312107e-01,-1.325916946046513112e-01,-4.797476465683239155e-01,-6.879004881100638791e-01,1.181287835088375981e+00,-3.975160105948778444e-01,2.165702948516654847e-01,-6.611087056189361710e-02
1.250288113300819237e+00,2.461254529468844598e+00,-2.612300175985950990e-01,-5.477042205596766022e-01,-1.100018807134554466e+00,4.856664504189824427e+00,-4.656294388258158889e+00,-6.637499405155238286e-01,5.509301256305830563e+00,1.573893627639813664e+00
2.775770578865683458e+00,2.157536999965265601e+00,-1.783135765139595819e+00,2.176515356801910217e-01,9.549116985129224577e-01,1.215686716008624213e+00,3.949792054612472070e-02,8.024529819075877368e-01,3.810086151537920518e+00,-1.479008491254903968e-01
-4.979799634636712380e-01,-1.911425131936363320e+00,-6.301078385666092352e-02,-1.657182681628738052e+00,-3.817482912852009580e+00,2.331771395242108191e+00,-2.779068405415390242e-01,-2.698281212918719252e+00,-4.333429168882204086e-01,-4.123208551675374700e-01
