-1.618317096214316297e+00,2.653136809227644832e+00,1.367713544748613952e+00,1.357315466285357708e+00,-1.061038483283526901e+00,-1.452372948692279619e+00,-1.546258149188611541e-01,1.808521487612270162e+00,2.267040545012166675e-02,2.098565751239343524e-01
5.654905133957626173e-01,-1.844422328229943009e+00,1.407651593167037252e+00,-1.344769872480571227e+00,-7.459452117140666916e-01,1.768893790254895404e-01,-2.106795747940072294e-01,2.911356163421758847e-01,1.068439389712333432e-01,-1.297136119527249054e-01
-2.507032097067472876e+00,5.023101455644516378e+00,1.887145061297643700e-01,2.814499621189509249e+00,-8.236876962163575122e-03,-1.837679757582303619e+00,-3.789680893267827200e-02,-2.903706099109018002e-01,-2.133166491427129774e-02,9.446848235162930152e-01
1.356838165591734757e+00,-1.217229664825085100e+00,-1.289643172015744410e+00,1.060725141513685077e-01,2.304802716498262904e-01,1.104284002013025123e+00,6.923101196318389716e-01,-8.012321442404098937e-01,-1.018402923448712638e+00,-2.654111249315186161e+00
9.515279644174967633e-01,4.498088330606669238e+00,3.194473833584767775e-01,-1.068035152408412181e+00,-8.024441895964100624e-01,-8.324001135021439346e-01,2.456719820232419416e+00,-9.705941972338280266e+00,-3.757232280511475953e+00,-6.112599638253841228e+00
1.071368128580628909e+00,-3.409324992893976169e+00,-3.633177465584583876e-01,6.330941598301917939e-01,1.066513678935316456e+00,1.611151684384257710e+00,-3.299241627437916602e-01,-2.999526261210327505e+00,2.936165361617115721e-03,-4.087902315787845797e-01
-2.003294179173542577e-01,2.031793519863904329e+00,8.752458628722710188e-01,1.056539710808918731e+00,-7.217373886754792078e-01,-5.509034417042615317e-01,7.926198987355523862e-01,-3.512612241468826557e+00,-1.625962084278197217e+00,-2.964860226945957855e+00
4.483433533084660860e-01,3.430925884176347473e+00,4.454827183547112046e-01,-1.802641269159165338e+00,-4.817790050436578930e-01,-9.390827742430101210e-01,1.510071083145878790e+00,-6.592488805880745595e+00,-2.086073914870426371e+00,-2.774732936993942189e+00
-1.906783839315386864e-01,3.252151034773343774e+00,-1.172029526147981393e+00,1.193007083649634037e+00,8.394760585750695725e-01,-3.060713669657703639e-01,1.048818192094004953e+00,-5.988143270222560766e+00,-1.569627817772824674e+00,-2.023760286634691319e+00
1.288087195591091971e+00,-2.160413994532103921e+00,1.302576977886754417e+00,-1.198069726780715882e+00,-1.991744294014935246e+00,3.897886260505599720e-01,4.257052127702991573e-01,3.554531327873340363e+00,-8.398973956632123095e-01,-3.152045663851181789e+00
