-3.055421203952668474e+00,-3.391040178446485864e+00,2.362436727843245876e+00,-4.759568477126616681e-01,-1.665806640106139103e+00,3.160793163616678836e+00,-2.253260970533380370e+00,5.896115871854523682e-02,4.264941165589553052e-02,1.270040348215750958e+00
3.897577964952703145e-01,1.194838221932494005e+00,7.554498094251764773e-01,6.467231126408928832e-01,-5.994662195927902282e-01,-2.041408280065353242e+00,1.099641187527565123e+00,6.670299795664320630e-01,4.373319944522073843e-01,-2.907669858441020772e+00
-3.854474476453021659e+00,-1.542542077933362510e+00,3.861876033654040086e+00,1.016082125010181914e+00,-3.512069546342825532e+00,3.161023952527392211e+00,-5.058334572096828019e+00,3.037040867017553047e-01,7.007032650899875925e-01,3.617608893071061704e+00
-8.954207882026710141e-01,1.158092137388633258e+00,8.921385745814336410e-02,5.810529922803056579e-02,6.258477032354398117e-01,1.208875485572843966e-01,-4.895829542761428455e-01,3.136448286663938712e-01,-9.374981809014872880e-01,3.096854181191098121e+00
-2.031212149220404939e+00,-1.512503284836491657e-01,4.277020522505720623e-01,-9.894380410003918991e-01,5.131471978868333839e-01,9.521012185920576520e-01,-9.287381284280228355e-01,4.873680571314474852e-01,-1.136085757494043280e+00,2.440861353564431013e+00
-2.620926021511968962e+00,4.895140195739698719e+00,4.521860961644576626e+00,2.799646010128576723e+00,-9.994667772716218923e-02,-5.599950738104276127e+00,4.419103084125025838e+00,3.469112621669535823e+00,-1.958307116131546621e+00,-8.741651568542103679e-01
-1.367449733673449463e+00,-3.668656153684958232e-01,6.568064071778416668e-01,-1.177940817122770323e+00,1.787606608542690045e-01,-6.533764469796816687e-01,7.285120285816497621e-01,8.953065157612393188e-01,-5.553621862392195130e-01,-2.181076094824309308e+00
2.644699678451691405e+00,-3.039446452124876963e+00,1.710152428791498758e-01,2.236413110758518563e+00,-2.627082623453709243e+00,2.440953961244210824e+00,-1.572685436358343347e+00,-2.152695920700857357e+00,2.921294410924053064e+00,-1.079253577140365294e+00
-3.608640026482625274e+00,9.042272564823011782e-01,2.375062687962046670e+00,-3.282587831446382998e-01,-5.766109669047549957e-01,1.509872068269357548e-01,-1.521390675490839062e+00,1.474828735518770140e+00,-1.243685063160141269e+00,2.458644498015198909e+00
-2.408559484662591288e-01,7.724175876163780208e-01,3.945510898970485680e+00,3.994678272795238794e+00,-2.967418372919500502e+00,-1.417979487940123517e+00,7.266762755881354119e-01,6.867494327439676027e-01,1.282358390734307019e+00,-1.010239526941717259e+00
