-2.463069448572074549e+00,1.490489296975996858e+00,-1.403709140080769080e+00,1.731885650540159194e+00,1.078830616802267661e+00,8.729204426452645826e-01,-7.767709832458613572e-01,-1.663435719169381155e+00,-7.364661409004704673e-01,-1.054331704523290281e+00
-7.335312380504863672e-01,9.772609343088491940e-01,4.980122881306142668e-01,-1.620115229973913884e+00,4.296029302100017322e-01,8.909612415970515897e-01,1.538633827823108424e+00,1.944506474348858260e-01,1.930019078037895075e-01,-1.115804141983874676e+00
8.805974515890960808e-01,-1.073140933063964519e+00,-1.386056411905282504e+00,-4.572930876993345772e-01,9.714540254626377047e-01,8.661336666811032536e-01,3.095439243795960582e+00,7.347747609325359086e-01,7.796508549928131693e-01,-8.191961706832855405e-01
-5.387578949964721975e-01,-2.344548711427633325e+00,-2.460633067937476604e+00,-1.915973250567086783e+00,3.829820729758278919e+00,3.138705969332434620e+00,-2.118447445703202980e+00,-6.281810740568311013e-01,-2.116586948743851782e+00,9.366773850886356279e-01
5.955578478060270520e-01,-1.499838185966009263e-01,2.868566533762557103e-01,-1.119856998413598204e+00,1.058339792110391198e+00,4.298492979840428108e-01,-4.220355455228641528e-03,3.246257269927931843e-01,-3.465433569473594932e-01,2.210260897423313997e-01
1.804272972788303564e+00,-1.498518637436349055e+00,-9.447578345556718604e-01,4.396923931982077982e-01,1.424964252954028510e-01,-2.824937196500426628e-01,2.081763952624093417e+00,9.013445624840470405e-01,8.624551519647963849e-01,8.903667885742680421e-02
-1.098011607709265869e+00,1.875007491376429192e-01,9.295955787113567570e-02,2.207734984910539655e+00,-1.625664240193488208e+00,-1.141419588635771643e+00,-3.374485761482076462e+00,-1.134064871755443793e+00,-5.781075946758842399e-01,1.022326363620998269e+00
6.777065532525397007e-01,-3.948826730296510767e-01,1.911208188011959352e+00,-1.839373444514983635e+00,-2.593499159997208370e+00,-7.993576078649891059e-01,9.246665092285797360e-01,1.214769214272237718e+00,1.067560754737438167e+00,1.920757285766528932e-01
-2.825707218887981709e-01,7.941255237752495866e-01,-1.706592183435955423e+00,2.484849176091230127e+00,7.178300145987160930e-01,-1.076269690363309828e-01,2.430099738132033949e+00,-4.659738321634400160e-01,7.272164509763746620e-01,-1.429398352291534113e+00
-2.968076127413620480e+00,2.429611930933387232e+00,1.430666399756457707e+00,2.214625432719357079e-01,-2.795441075354720084e+00,-4.362410100626776810e-01,-3.750610320621712290e-01,-8.854783731257799273e-01,4.636082451133813898e-01,-1.281383694691931030e+00
