-4.736635390040093707e-01,2.103714409205931446e+00,-2.068498248935724426e+00,-7.826431252577509268e-02,-1.806394694062973816e+00,-6.926425592719354096e-02,4.271770984812665595e-01,4.353793833517084488e-01,-1.627095534458257386e+00,-2.868680947182198349e-01
1.332673059060901499e-01,3.686416851050944299e+00,-9.685170686069293211e-01,-7.031833724999091650e+00,-4.611367710233742478e+00,7.952020738971212754e-01,1.617368122555274734e+00,9.900011014639041873e-01,7.654632782087426257e+00,1.249145838931721375e+00
-3.188988220036980126e-01,3.429086938894915892e+00,-6.932684770140131736e-01,-2.092138180475685783e+00,-4.464708545211550472e+00,2.308731169552250551e-01,2.095551009898114714e+00,8.708326224180951147e-01,2.370005997206736659e+00,2.674123464206325185e+00
1.891363913090048365e-01,1.373977751566675565e+00,-2.038420171849589790e-01,7.049138454587410285e-01,-7.953730354887478260e-01,7.232036830516713755e-01,2.605030800519020362e-01,-4.981226003384269657e-02,7.054804598972704011e-02,1.596789837866585904e+00
-3.805345618383618067e+00,-2.572834414640999157e+00,-5.709277364939072896e+00,-3.570542397361820441e+00,1.641860048907654024e+00,-2.388552342453661215e+00,-2.867484760551670231e+00,-1.681859500713801525e+00,-2.167689942978739737e+00,-7.298901922417639909e+00
1.630924784784035797e+00,1.763439385295615836e+00,-2.713939764904478302e-01,-1.306275483507338464e+00,-7.780350770210988642e-01,3.135834671457912171e-01,6.128425470622029803e-01,1.695653722100305627e+00,-1.756105684648368026e-01,-1.677034052412900156e+00
2.545564586289371878e+00,1.781812867462270633e+00,8.751321639827205345e-01,-2.603513324622972025e+00,-1.079207857824476813e-01,1.464218013146359576e+00,2.296696312786954963e-01,1.422842928002713503e+00,3.251802254196488828e+00,-6.648541302302101164e-01
-9.731109539920179685e-01,-6.846816303015903493e-01,1.223149118970787930e+00,-3.393335590432715598e+00,-1.882884721780725634e+00,-6.984301598211839490e-01,1.116281432830827480e+00,-2.136811688731559133e-01,4.831571312057309164e+00,1.525929280607410732e+00
2.876869266156730776e-01,-2.699881640091332358e+00,2.132351652474495207e+00,1.155909821101163804e+00,2.413738788554208980e+00,-1.300378614599576876e-01,-6.552429220092470530e-01,-6.586541054664557526e-01,4.233256714561060008e-01,1.627902817592922213e-01
6.941622158099831630e+00,8.108010601291185893e+00,-6.885196206658950047e-01,-1.648330576824494020e+00,-2.294820567148678769e+00,3.094803068996256901e+00,1.810398348157284509e+00,5.647778590270931431e+00,-1.460635845782341402e+00,-3.135069246705575630e+00
