6.266216893124866294e-01,5.624161113540390167e-01,-4.788196928968824650e+00,-6.182165292021060132e-01,2.148686662753347854e+00,-7.731385977866618298e-01,-4.312486379900821731e+00,2.187528443359758157e+00,1.605118855803504552e-01,-5.768857383353148904e+00
1.571485187185843735e+00,2.969433642161256159e+00,-2.372995005829060311e+00,8.533372757129162878e-01,1.550570258285780323e+00,-8.641386797930799002e-01,-2.039233117362680758e+00,-1.452472613990654970e+00,1.110246207743583735e+00,-4.156667982681213402e+00
-3.629964196475914839e+00,1.065700627879598184e+00,1.334871891129713717e+00,-2.320017374210012306e+00,3.089450137975946920e+00,-8.019703860222477942e-01,-2.244589545745739656e+00,-2.860791593667973309e+00,-1.346451325888990302e+00,2.830867087704194152e+00
-6.791888280420388391e-01,1.718798165867225780e+00,1.245926192973904056e+00,-7.783218949126438080e-01,1.994101916265129226e+00,-1.236441177393299951e+00,-1.041592659404055210e+00,-1.150367412307180981e+00,8.816737053898244802e-01,1.729412633594798354e+00
2.352013563025100673e+00,7.882552998654785981e-01,-2.450485713534710897e+00,2.244212952840937692e-01,-3.356513187746322791e-01,-3.398751133766347854e-01,2.182705271186939910e+00,1.787423058534171716e+00,6.932025605429752435e-01,-2.618702538798996837e+00
-8.181709519767654815e-01,-3.794098010454297842e+00,1.392211944151604319e+00,9.798201115930739169e-01,-2.743774675157752974e+00,1.758320507748451389e+00,-7.569562184486804401e-01,1.513330632707776235e+00,-9.508063275010836257e-01,1.056640978612255699e+00
-1.634992065572339337e-01,2.192323761562222639e-01,-5.796415149482961660e+00,-6.489971791002602242e-01,1.141528222011204852e+00,5.150332403825981231e-01,-2.340807896077577333e+00,1.921211636285992119e-01,-2.093882966380909316e+00,-6.689368801284637733e+00
-7.796621097272171674e-01,1.677880691742032138e+00,-3.117090106036231045e+00,-8.063980048490693164e-02,2.703045744605046430e+00,-5.528440753675510910e-01,-6.015051053901139255e+00,-1.517598325633899847e+00,-2.763771558371658221e-01,-4.871676830534693359e+00
-1.691847949182355482e+00,-5.552430572946111198e+00,-3.123283813759558658e-01,1.611748218710338243e-01,-3.062011763891000715e+00,2.471743051046665585e+00,-9.874115585162521747e-01,2.880720991239682061e+00,-2.520539994553026464e+00,-9.673278774901161725e-02
-6.754489874428222240e-01,-1.952103372932638026e+00,5.049044096298246131e+00,1.351001566406266896e+00,-2.413252537220439642e+00,9.084121612938818036e-01,8.685949900532534684e-01,-6.577274131070934837e-01,5.749947118442551020e-01,5.061205337520154224e+00
