2.529599243298640054e+00,2.335647391446178389e+00,1.459045558712059432e+00,1.493475581395000473e+00,1.544759299935261065e+00,-3.137952045720970862e-01,-7.442188325013369132e-01,9.858951798856474547e-01,-1.844098203894542820e+00,8.913140171696860570e-01
-2.562658402374927036e+00,4.136697018269257953e+00,8.477705222363002280e-01,5.321400717209179287e-01,-1.798590410420260577e+00,-6.032785449429238778e-01,-6.991936318931819550e-01,1.053370391372137727e+00,1.567378186424845055e+00,3.008883779035105732e+00
-2.319744735090940591e-01,-1.409175107420726603e+00,2.325994743775417817e+00,-2.501609398687953512e+00,-5.231014176862636145e-01,-3.137621248393620554e+00,-2.492725277497212399e+00,-1.835357988546273855e+00,-1.261915287572838773e+00,7.466960682789453019e-01
-4.642047315975040611e+00,1.977242772617814115e+00,-5.801256229621730931e+00,2.016016966682240508e+00,-1.503701773235024408e-01,5.271053446452548918e+00,4.781683053387024707e+00,1.612687508399414993e+00,3.745110960714102433e+00,-1.327135721448156502e+00
1.231752628548314688e+00,-9.094915334344159108e-01,2.952116512230007928e+00,2.741928767117000731e+00,-2.786211016663294071e+00,-1.042095993943854992e+00,-5.209033225777383258e+00,-1.400107664681313979e+00,2.664109666952931388e+00,-5.922018751472808429e-01
-1.054152726302102661e+00,-4.247989978330369176e+00,1.355992899531137219e+00,-2.672029098804177938e+00,-7.328486192529273247e-01,-2.602818823988039654e+00,-3.218370039085994172e+00,-3.607673365532680698e+00,-2.608794959710007966e-01,-1.575545311500345935e+00
2.714534151320841193e+00,-1.082304849392256685e+00,-4.257572230869547392e-01,-1.465983911407119811e+00,2.403503097070965655e+00,-4.054128539313164858e-02,2.600841747570574736e+00,9.627399431108030203e-01,-3.171800643175449963e+00,-2.298958657928490690e-01
2.913412595029244212e+00,2.881836079623416591e+00,1.617328327524539588e+00,-6.827477180408814128e-01,6.019851106659395157e+00,-1.758700368638489664e+00,-9.680289668911188361e-01,-6.006780353587968246e-01,-6.680901090198751113e+00,4.087219237333159505e-01
-2.694655167795910966e+00,1.906207712899133710e+00,-3.476551613775795246e+00,-3.817771953131370855e-01,1.874393965324054667e+00,2.342481846032224979e+00,3.694249933508226835e+00,8.932264971943432164e-01,-2.617714723482132411e-01,-2.224322651479498925e-01
2.985066029093341733e+00,-6.517992942497651043e+00,5.835407273815276241e+00,-4.826365213515996899e+00,-8.416542256504702113e-01,-6.837464866435135846e+00,-6.264513486383396668e+00,-4.575285936924793795e+00,-3.329720415953748791e+00,-4.462000847274067983e-01
