-9.128081103459415591e-01,7.261866694342412609e-01,1.572721339390927842e+00,3.948670002614081298e+00,-2.074273335820552511e+00,6.116076266519088200e-01,2.923847807979922386e-01,5.929756425959807897e-01,-2.802402688683815590e+00,2.930555047278770253e+00
-3.489675002504702972e-01,2.694304083375205217e+00,-1.667511129343397958e+00,-2.632284840195678211e+00,7.462161777721116884e-01,1.439240354433609426e+00,-2.494294505378317428e+00,3.083249889587589720e+00,-2.051825681624220188e+00,3.892690527760969132e-01
5.895794171679246132e-01,-2.362014211103752093e+00,4.595852161175500994e-01,-3.204362307444450053e+00,6.760948775024027135e-01,-1.822862047165757504e+00,-1.071348323677137282e+00,-1.969691142859298694e+00,1.549399049780603832e+00,-4.102455376558369338e+00
6.727418144791385002e-01,5.123838212194586905e-01,-1.465080843426203261e+00,-2.171854984687727974e+00,9.545201814989396905e-01,4.520753052063587463e-01,-6.550768095614820652e-01,8.882991594135400959e-01,3.908074170113369772e-01,-4.632159521149437076e-01
8.550131137735569320e-01,-2.140432593144057982e+00,2.933262575299646624e-01,-1.888701760350848691e+00,2.996225046473369735e-01,-1.761818907719879812e+00,-1.514140684900499245e+00,-1.602015692280444270e+00,2.018176267484887987e+00,-2.373178298981417633e+00
-8.252292890702739303e-01,1.698532646670050772e+00,-6.186367318855007236e-01,-5.624528321891283378e-01,7.242040960765098179e-01,1.029180133622683124e+00,5.791946396716006751e-01,1.152286976695957810e+00,-7.195618349951142800e-01,8.748881202657635137e-02
1.401535760368965988e+00,6.414543349405024131e-01,-2.680921440622510588e+00,-3.338233190303058429e+00,1.775094017365122623e+00,7.082040298214203888e-01,-5.866961301421607100e-01,1.217007721007073773e+00,1.484527031230405525e+00,-5.008587263015730207e-01
-7.263792683731498112e-01,1.380576698965982230e+00,-1.676184186631560991e+00,-7.021040042555964256e+00,2.875263624706012600e+00,-1.126755166042804124e+00,-5.389189824370165027e+00,1.449352913578882518e+00,2.353590812551850320e+00,-4.435218660279920400e+00
-2.797521396222258261e+00,3.754984541890043381e+00,-3.787361339895615742e-01,-1.018311658839724521e+00,1.529413372633004808e+00,8.636710462713965697e-01,-1.388378187537222530e+00,2.265098081063725566e+00,-1.047458315156466480e-01,-1.959895097090906813e-01
2.128437600360193471e+00,-1.436937099249860461e+00,1.009690553739953089e-01,3.753074781526871018e+00,-2.357433455795270305e+00,8.847914404215090345e-01,1.923665276413794034e+00,-1.907246502777661112e-01,-2.076200515611998476e+00,3.858547055505312962e+00
