-9.758641334409988710e-01,2.046074600227767881e+00,-3.232245572160082348e-01,-3.372372741610154989e+00,2.783839839688962314e+00,1.215794697936503077e-01,-2.293595248299842293e-01,-1.344092544570095527e+00,-1.121767168901598666e+00,-2.095812630733681736e+00
5.029839934165773130e+00,-1.267751070264224289e+00,5.446398345088434567e-01,-5.702591423238407842e-01,4.679706597963705583e+00,-2.755153744056333398e+00,2.285628141795389645e+00,-1.015250029176356206e+00,-1.692428722795809026e+00,-2.506926662454162624e+00
-3.990890724331636719e+00,2.131591352147778284e+00,-5.277067618702526719e-01,-7.771042344276175573e-01,-3.590120201734464889e+00,1.863163161552476854e+00,-2.190016960998027784e+00,-1.555444803826611322e+00,4.261194554369522880e-01,4.590039524099728041e+00
3.060816278219189446e+00,7.451497521799909096e-01,2.628384285391708541e+00,-5.040971629279408006e+00,2.936521034652948003e+00,-4.390826699454696502e+00,4.105923375994238178e+00,-3.839568087373642635e-01,-5.377169528996323944e-01,-4.389510520135810445e+00
-7.899568483179169043e-01,9.370839320608601031e-02,6.384242145548180147e-01,-7.141748098622382912e+00,-1.149595948700891324e+00,-8.687979075243286164e-01,-1.401034297825734853e+00,-6.255218857465568050e+00,-4.703479395101270999e-01,3.937513934490107559e+00
2.476212904977989293e+00,3.411272331777911671e+00,-3.177307335952836542e+00,4.197826396483243627e+00,8.560640341610838533e+00,1.224550973199560300e+00,-6.520824652812022837e-01,-1.030259722913074993e+00,-4.704989581922277786e+00,-7.239509391590244203e-01
4.862827321771678868e-01,1.410759664488824283e-01,4.303182325298804400e-01,-3.411149091244072729e+00,2.020748075088422802e+00,-8.826443795341863963e-01,5.244068465785616251e-01,-1.125783069247095813e+00,-4.371913035919728907e-01,-2.377775640285914704e+00
1.632657630958834094e+00,3.382958098898440014e+00,-3.078298216369574902e-01,4.250190852813616971e+00,3.205508208292763950e+00,-9.287927173597356756e-01,2.191633299448707106e+00,2.315333774985429915e+00,-1.942355517291650013e+00,-7.662934441390784057e-01
-1.315499171958101066e+00,2.555975690223566854e+00,4.384470289130945053e-01,-2.356175065105942323e+00,1.431713744077107719e-01,-4.869079716323503892e-01,3.889240883858198217e-01,-9.751105238832047384e-01,-5.178104741572108205e-01,4.540285359185203817e-01
-2.041777176894498336e+00,1.048362646069391113e+00,1.296757453888696121e-01,1.601817049236849533e+00,-1.540068446357888865e+00,8.534281969382452315e-01,2.557597592256473651e-01,2.950946637559258789e+00,1.058256033904183768e+00,-1.332120023069755410e+00
