-2.626157058265715882e+00,2.136806858107827889e+00,-4.674803087663555345e+00,-2.563171774243482304e+00,-2.700158428233796037e+00,9.346923692856705657e-01,-3.531859437509904609e+00,-3.858264237786001694e+00,6.423876950843235845e-01,4.325282136233155050e-01
5.975969978553916651e-01,-1.145295095941762487e+00,2.370073936479717425e-01,-5.239606680437354225e-01,1.216620800632747690e+00,8.859717362398233931e-02,1.090028112414249684e+00,1.812583729409309896e+00,-6.687268870063217685e-02,8.673425349553524066e-01
1.318548849163475367e+00,-4.075773343366668189e-01,-7.662002636077080986e-02,2.791057372025773642e-01,-1.194421614055737324e-01,-7.020161038609918913e-01,-3.864918778136884336e-01,-4.280416727121180154e-01,3.413710708845090758e-01,-1.173523654514130099e+00
-1.697443788249991536e+00,2.542413777828963717e+00,-2.723888866793048535e+00,-2.004166675364618122e+00,-1.735478035456766710e+00,1.687260321074177671e+00,-1.424221935124868832e+00,-2.493256251030946835e+00,6.821657930248452295e-02,1.151817752891443059e+00
1.650659406837334142e+00,1.383340124908303270e-01,2.698397283878337660e+00,1.935542511454240833e+00,1.909881944425297462e+00,1.203545204181937223e-01,3.085765385693611806e-01,-2.837847843967211681e-02,-1.071117367361751477e-01,1.580246684034380067e+00
-3.827419038470946666e-01,-1.413608742926346640e-01,-4.077655481938995408e+00,-2.705197232875921287e+00,-9.936051432228368840e-01,1.170959680523763896e-01,-2.289881212871560656e+00,-1.530784476999116794e+00,8.750492507539312514e-01,2.562547651250356440e-01
6.480501875493206443e-01,3.985547287519065063e-01,-5.160565786835425994e-01,5.462915611439060626e-02,-3.346259393105323054e-01,-1.708643806858771708e-01,-1.047995008538432860e+00,-1.328871578549680743e+00,3.467587660576148534e-01,-3.196362901559741676e-01
-2.623080213759820367e+00,-1.093233364177020661e+00,-4.125906449948629096e+00,-3.055367857833994005e+00,-1.728304180544208313e+00,-2.234549338774836080e-01,-8.713242362647595218e-01,6.023712173903881251e-01,3.227331554738714914e-01,-8.841917884921511872e-01
4.199574362059389498e-01,-1.125151598111057805e+00,5.442360708401574598e-01,3.932100275617801399e-01,2.273196177319703359e+00,-2.545733116415582753e-02,-9.637853182852331724e-01,3.338659936754199142e-01,3.307736020804794008e-01,2.847882062117984336e+00
-5.107773392135648294e-01,-6.980196944866712272e-01,-5.760990099580205470e-01,-6.837655975520767759e-01,-2.955631558082389976e-01,-1.966600738550451644e-01,6.464431811793465155e-01,1.096821624292898090e+00,-9.263899268111962237e-02,-6.473240047357823324e-01
