7.858693377120520296e-01,8.125451161892289775e-01,5.592058699791777610e-01,-2.250517315516607386e+00,-1.229414137269229101e+00,-2.430313482791767843e+00,-5.530386121541444044e-01,1.829267758231797880e-01,2.038679481448092690e-01,-1.099696694255775986e+00
-1.536583577964438119e+00,1.681799269484000936e+00,2.826238510628275025e-01,-7.624849963595136115e-01,-1.471068605885367697e+00,2.636092297598818135e+00,-8.760548081443948476e-01,-2.677449586008960214e+00,-3.049202674959896608e+00,-8.431409699908765099e-02
2.017731181992492573e+00,-3.934628886161119610e+00,7.680703503424548551e-01,4.487333037001062230e+00,7.594131930215861637e-01,-1.799780988189325637e+00,7.347561313851705966e-01,-3.333682399227321014e+00,-2.888527177557395298e+00,-2.227188915076626863e+00
5.093021874894043677e-01,-1.135545417905673649e+00,-9.109968092858239386e-02,1.683903499231969692e+00,3.307117040124033513e-01,2.692918365507058986e+00,-5.979540796547310952e-03,-1.633751512038991383e+00,-1.278803116657714289e+00,1.062867232598833755e+00
1.785382963967778069e+00,-3.676177711406749538e+00,1.009682402948980817e+00,1.495763448978841614e+00,3.351681315693247232e+00,2.966957999565919213e+00,7.493926724627241187e-01,1.581127234946958726e+00,1.215841034636194973e+00,2.393512503045139184e+00
-2.024899854395012078e+00,1.151123246093063823e+00,-6.499679086137607475e-01,-3.318106654845087711e-02,8.054950189109443270e-01,2.503836931301696822e+00,2.171122586149021594e-01,1.289049424446525816e+00,7.984974557473756285e-01,1.444224311199958866e+00
2.016334692362962144e+00,-1.275614411451470476e+00,-2.663019296909774791e+00,3.733406204507076165e+00,-1.085763337383584826e-01,9.614701392637733379e-01,6.495827043698507719e-01,-2.226619536219119344e-01,2.153463608795254558e+00,2.126446846340324548e+00
-3.101728890285879281e+00,1.481568679458233895e+00,9.387064091513908082e-02,-6.366774778501982368e-01,1.067403578370500705e+00,6.161924569684547048e-01,3.740483609090259898e-01,1.724501675714365856e+00,3.257151656460575695e-01,-1.931949378610120505e-01
-2.109839609224029022e-02,-1.405217867018104139e+00,1.722571643266761904e-02,1.147624136678465856e+00,2.031193249762380582e+00,1.023491229547290743e-01,8.331118264911460125e-01,1.936984477368447921e+00,1.591747834546336948e+00,6.424412909475557543e-01
-2.064225999655971755e+00,4.062289564300761491e+00,-1.116666227800098415e-01,-3.868772897445571513e+00,-2.522663020533187250e+00,-9.795733991351277536e-01,-1.092439725195689437e+00,5.842211072601338762e-02,-4.098320284716420181e-01,-9.459425033034667418e-01
