3.263931477752461952e+00,-3.516110268876007972e+00,6.086433239877391266e-01,1.607202489931028433e+00,5.452620504192892681e-02,-2.013253556008816503e+00,1.241576460892044098e+00,4.258415324554599479e+00,3.777508362954693055e+00,-2.018362760949715673e-02
-3.470847125365916774e+00,3.280373091632086791e+00,-1.456343278243868999e+00,-1.312210915281156520e+00,1.260949222326913421e+00,1.184203531637162410e+00,6.391766143266472966e-01,-2.663383835807621836e+00,-4.215143915384261142e+00,-3.961071390257963620e-01
-1.753126424439793940e+00,2.413513540838936322e+00,-2.959200750616071574e+00,-2.095938242901793647e-01,-9.904151282642958964e-01,1.590237423306221753e+00,-3.411981318270387753e+00,-1.578738861161314899e+00,-3.086007041737367729e+00,-1.873290313938624774e-03
6.603668520696885924e-01,-1.546883856139031233e+00,-1.922240153811298091e+00,1.399370103048456437e+00,1.322900756651636200e+00,-5.258832397735530018e-01,1.076054349266675869e+00,3.049395706418150720e+00,3.241838898900812893e+00,-4.400039705987978111e-01
-1.679789586295485915e+00,1.536713902634043283e+00,-2.119149978093121778e+00,-2.677588280977754032e+00,1.540959240752916903e+00,-1.108566109665626076e+00,3.344377380615542350e+00,-9.782304430271195894e-01,-1.071549304005916969e+00,-1.208452202057608948e+00
2.571929395591737944e+00,-3.823767033206888044e+00,1.832513489322543654e+00,2.662558799210472227e+00,1.270548896084259916e+00,-1.076591473852454461e+00,2.072738849496083002e+00,4.176851933499063918e+00,5.464489276706991916e+00,2.305775235958126834e-01
-2.835443544702766161e+00,1.428868771371669455e+00,6.652003255691647521e-01,1.378418558963098617e+00,1.226696455055914070e+00,3.543214652538115406e+00,-1.391138582491601827e+00,-2.620574576555082746e+00,1.913602951245093386e+00,5.904351697480008099e-01
7.843702928540463581e-01,9.866510866627458132e-01,2.421670920439287666e+00,-1.764304716937247441e+00,-2.961593813744171744e+00,-6.371124087813365144e-02,-2.429759035629023511e+00,-3.031685826365126513e+00,-3.512926632829501905e+00,6.628723614262415076e-01
-2.981424164126357801e-01,1.993287685783581009e-01,1.688622711109966090e+00,-2.014435664693054462e-01,8.150292547434723200e-02,2.935356297611931842e-01,4.501522865441563992e-01,-1.070216146344683761e+00,-3.490230407698776682e-01,2.592138455831333177e-01
-7.804797181770628534e-03,-5.754863238737478737e-02,-5.027787104501140192e-01,-3.343369620841277201e-01,-2.733862550124704915e-01,4.412303074679589932e-01,-5.458261043907428611e-01,-6.020319230772741559e-01,1.890519526831929920e+00,-7.690373935571345743e-02
