2.475700184639261225e-01,-3.437618676082303093e+00,1.353392950601727929e+00,-6.978792683506507277e-02,8.973164433451907840e-02,8.107386875671571680e-01,-1.806031847753468700e-01,-5.335830210450103195e-01,-1.140470504011096953e+00,-3.019570596355524827e+00
-2.192889358569773961e+00,-1.935414722945332233e+00,1.000505563580476265e+00,-1.370796702216044105e+00,5.677416751631422231e-01,1.823504140024291509e+00,5.080529173676280319e-01,-2.078838228403129484e+00,-3.307841968941321320e-01,-1.246273122012615531e+00
1.433824119348951154e+00,1.055823899425620827e-01,-4.089286463798547100e-01,-1.202607262172407321e+00,-2.539423334404010468e+00,3.039109997555861309e+00,6.356967527535666296e-01,5.018244813798033999e-03,1.116855523743705891e+00,7.758196126311361907e-01
-3.146763610636774011e+00,-5.759443739324238365e+00,4.826273114843416145e+00,2.110484172972762806e+00,2.910851392711091279e+00,-1.851771612660319200e+00,-2.817474234094115015e+00,-7.978409400711772292e-01,-3.483093476985991366e+00,-5.161739436260837977e+00
1.807073976925788195e+00,1.960208378600305501e+00,-3.843298057416478564e+00,-4.883305980590287865e-01,8.189727848200245575e-02,-8.726408130156269038e-01,2.965279486809102139e+00,1.012626086408140225e+00,-3.970997254521969611e-01,-8.980996726626688798e-02
2.186443345321908982e-01,3.965489042659199104e+00,-1.484180042948044509e-01,-8.401534522487824619e-01,-5.719682362056536462e+00,5.757162212652948696e+00,-9.049979849553979605e-02,1.589751729466666319e+00,1.801706914393768288e+00,4.809554185670586790e+00
-2.963207457317430737e+00,-2.640922975149776253e+00,5.122824431875113937e+00,3.647809071707303730e+00,2.274555065748085969e+00,-3.271139491929440091e+00,-4.582797680767517257e+00,8.825776667043208068e-01,-2.578426362145794570e+00,-2.010114705977469107e+00
2.374086534110357860e+00,-1.875840826702918740e+00,-1.615877063312061712e-01,2.757314900848455985e-01,-3.387360111824159192e-01,-2.928273670554950026e-01,1.537729839552829103e-01,5.964219080055712663e-01,-3.901650904514520346e-01,-1.980035680582091118e+00
-1.315860273706169203e-01,1.947523643822433925e+00,-4.163393485537175698e-01,-1.055081270720971132e-01,-1.219079104775543154e+00,9.425612200246367145e-01,8.157591313857737170e-03,5.334592821436171528e-01,6.739543379676673496e-01,1.969750301737981157e+00
-7.415568935235323789e-01,-6.810200306234979184e-01,-3.759517784682331332e-01,1.350460766260904277e+00,4.175853636517810052e+00,-5.083169077269761971e+00,-1.750619677967582000e-01,-2.381847777520313403e-01,-1.335414244140448403e+00,-1.867569786479920557e+00
