-5.494749234285609685e-01,-2.463865644605072625e+00,-1.457359691265632584e+00,6.337810355732387269e-02,1.033503909557934808e+00,1.229282790733489561e+00,-1.213440221786457718e+00,4.262152513576199508e-01,-5.185918954793420355e-01,-1.528129080955129115e+00
3.595160285282851920e+00,-1.599184372357621564e+00,2.379934431724690214e+00,1.946662007224080337e+00,5.080932420215530598e+00,1.205279023982333442e+00,1.935817202926475300e+00,-1.204489723958293457e+00,4.151318151934175305e+00,2.967052427612441257e+00
-3.059191790631967223e+00,-4.602973653247818042e+00,-5.632988830528971924e+00,9.597531407416578508e-01,-5.822562543990569495e+00,-5.594527938836133529e-01,8.217847321852872478e-01,-2.226916782815511753e-01,2.119128612547548141e+00,-7.931034571857484838e-01
1.192388321720420086e+00,3.486477593535501018e+00,2.697436948242553534e+00,-1.163624792107761152e+00,2.165343452000123570e+00,9.234133730897997605e-01,-1.120152243742122522e+00,4.114615573466218201e-01,-2.898440328722704074e+00,-6.821165964737238019e-01
1.441185684458852867e+00,-4.408707265025500477e-01,8.147120929727885708e-01,-1.598703893043751656e-01,2.639183943678133915e+00,2.677415895212198915e+00,-1.072475698832628055e+00,-1.977456962874836466e-02,-1.467563963203066812e+00,-1.087105934538282748e+00
8.601111610280010034e-01,-1.317908534248431573e+00,3.041443148366948179e+00,4.133586196429723802e-01,9.196546826756223370e-01,-3.573473972211559158e+00,1.082022827871297999e+00,-1.066795480961198583e+00,2.475139104897379205e+00,3.223137770566455451e+00
-1.534145490019845459e+00,3.350916617968892064e-01,-3.709721961029379678e+00,6.997255733507521391e-01,-1.728360699229379405e+00,8.158098404448330676e-01,7.521579253487487016e-01,8.236871024527715468e-01,1.232818985097313025e+00,-1.032780393953137255e+00
2.504352573096825796e-01,2.401775695456568549e+00,1.490398140564413998e+00,-6.267307099880401466e-01,-1.086752089635830254e+00,-8.287274292426511924e-01,2.621231200911404713e-01,-2.062378909759147172e-01,-9.907628619432016226e-01,5.654471301027699237e-01
-8.877400564773747504e-01,-3.991754105179499135e-01,-1.721346978612157130e+00,-3.735272207715201742e-01,9.788952415168885590e-01,1.699050634880860056e+00,-1.540296702247833327e+00,1.050878452571022192e+00,-1.662209031493931288e+00,-2.377044551422049956e+00
1.074198685153703758e+00,-2.567858046074980027e+00,-4.658315502007486231e-01,1.314084165072060717e+00,2.173213218742039210e+00,9.512197063511568240e-01,7.868817771734739619e-01,-4.248338930569524052e-01,2.606920454922163177e+00,8.676718101005501671e-01
