-1.145098644261945076e+00,-3.634327593587642902e+00,-1.822141062626235763e+00,1.181158828286190232e+00,-1.479433713353566215e+00,-1.228314389419849606e+00,2.480828096502511571e+00,-1.470661892219379707e+00,-4.079198187534261999e-01,8.323166179860356229e-01
8.075412202417378560e-02,9.884985461937860762e-01,-2.209753345267526647e-01,-5.312879494348017317e-01,9.140656052472462267e-01,1.425389491990632029e+00,-1.655419171841719495e+00,-4.600563035433635761e-02,1.387313415037824793e+00,4.517964989450686808e-01
1.330392478622270502e+00,1.736188335152714979e+00,4.109841603310535163e+00,-4.412880429812138239e-02,3.061662486905799341e+00,-3.044217101041953866e-01,1.504793418440542263e+00,-3.874760994358554367e+00,-4.513625943037310684e+00,2.873270294002080671e+00
-2.059326065010600892e+00,-4.144390350674995283e+00,-1.813653261049719134e+00,1.658933323339675692e+00,-1.502662658036113541e-02,-2.637860472144313295e-01,1.173598429396844001e+00,-1.271036433193986070e+00,3.287220873882044980e+00,1.756260920893375488e+00
-1.280371897244983792e+00,-3.229998607066148608e+00,-4.284221135625875476e+00,-3.950946792498681859e-01,-2.535021422466570584e+00,-2.217237007220710376e-01,8.688603209042655706e-01,-7.189045805499454378e-01,2.991527390978682144e-01,-1.586217833140511901e+00
3.013022081911509095e-02,-5.117982041363697832e-01,2.501703998856646960e-01,1.047353541281620837e+00,-3.803898671319378422e-01,-2.124862929437433268e-01,6.269083638304577821e-01,2.456063468315334286e-01,1.661064821819794590e-01,1.530674341426479845e+00
6.101397819569580605e-01,9.076787577636662441e-01,8.003478501205891771e-01,-7.719904843666325345e-01,1.575292305116722469e+00,8.607072508584431292e-01,-9.210000571535592595e-03,-2.819921336839744885e+00,-2.171363010663195148e+00,1.453128542833604042e+00
4.611391321392369624e-01,2.549725856355071762e+00,2.217623679355982702e+00,1.019998874197325822e+00,1.137223148547847340e-01,1.506971147862340432e-02,-2.183230354678307172e+00,5.402539385939959971e+00,3.934886184446296120e+00,-7.365260957049142299e-01
-6.805431446613082747e-01,-8.550480729426161997e-01,-1.945347420838003938e+00,-1.153671540311318022e+00,-5.065394717709551520e-01,1.444986727044417774e-01,-4.238474353799095429e-01,-3.598458761992966437e-01,4.562317897879856199e-01,-2.252922328289822751e+00
1.413518586019256951e+00,2.501440058600829630e+00,1.805771220437789371e+00,-9.831101533349062560e-01,2.272479107313931657e+00,1.571135768738645355e+00,-6.610984801233847907e-01,-2.993405202413936372e+00,-2.919877427398477998e+00,2.457172463550040931e+00
