6.076267234856524979e-01,-1.343525795101728315e+00,-3.183812808513390102e+00,2.159136963536565368e+00,5.221576163090380973e+00,9.736665432772323436e-01,2.271923445782135786e+00,-8.551954833489150420e-02,1.081463127944923386e+00,1.936116836253247264e+00
-1.202254122389939672e+00,-4.078117538219601101e-01,-1.793400832817177104e+00,4.921227537227168547e-02,1.154295243283993910e+00,-2.703118419245641446e-01,1.561769093093426042e+00,6.736105633929204695e-01,7.219570338577394608e-01,-6.021582432432389664e-01
8.220140941710147864e-01,1.753183656257500056e+00,1.786708236170734931e+00,-1.079909659691166368e+00,3.384045642948145804e-01,-2.185160605803088796e+00,-3.468676114405097266e+00,1.048256367176932713e+00,8.150996588878340887e-01,1.533258692261344702e+00
1.499353636916322063e+00,1.364900571045858602e+00,3.057955373198050442e+00,-6.570209378786351362e-01,-2.382880606341537533e+00,3.973506234469438070e+00,-2.031918528409736524e+00,-3.282626356606853424e+00,-2.105530286411133822e+00,-1.423484230887771540e-01
1.311319995579063313e+00,-1.826541327272854787e-01,8.042190841574174964e-01,8.250850153855937563e-02,-2.370336768816441619e+00,-1.022217469399263390e+00,-3.656347476936435026e+00,-1.811475419730145919e+00,1.289213026739725709e+00,6.533307518989950324e-01
2.461765815743135744e-01,6.801242315738982303e-01,2.112703963206490343e+00,-7.514547311206516422e-01,-2.079985214006169425e+00,-2.793992350416450374e-02,-7.628072990043818224e-01,1.663905705242392785e-01,-1.250474559649254358e+00,-4.807884134591929870e-01
-4.413681375247174854e-02,2.712140092877733943e-01,3.688974712108283871e-01,-1.015485727285599937e-01,1.579040468266723840e+00,-3.401719773794132706e+00,1.453586567306257571e-01,3.364173438394983506e+00,2.825445554561417105e-01,1.091608549788356530e+00
-4.068760843368597335e-01,-2.262043224973933064e+00,-1.953153688791476661e+00,1.213031105170761403e+00,-1.477668360616100074e+00,-6.324460452336755356e-01,1.292715532675944301e+00,-7.066853105767160192e-01,8.536043789150821182e-01,-9.731327373597009611e-01
-9.848294727782083147e-01,2.367921419990408061e-01,1.261757432208906238e+00,-1.226832803561521468e+00,-4.088377994765975743e+00,1.266806246849174755e-01,-4.338879415976701903e-01,-5.841300323273797002e-01,-7.445151362414916818e-01,-2.212724044711146032e+00
5.896220051535688844e-01,-4.772430002410004701e-01,-1.753066897536765367e+00,1.015101078785626720e+00,2.630789891416986048e+00,4.952628228452559678e-01,-1.128473829740617995e-01,-7.988024186491702316e-01,1.292014360496903880e+00,1.333151211628253119e+00
