1.361187078434183961e-01,4.068977512194061896e-01,2.442157976157834642e-01,-4.475872065847739667e-01,-1.342784845105300384e+00,1.449606589127369283e+00,-7.085028045812541420e-01,1.247928961710428997e+00,1.293341683262243968e+00,1.269790264326186469e+00
-1.127493138340176060e+00,1.329395568380811188e+00,-2.097232811360798810e-01,2.283964970598434618e+00,2.635760116001093500e+00,1.404850679442987804e+00,-3.054632347784979274e+00,-5.806468579651855588e-01,6.867676922753422897e-01,-9.749232910920818673e-02
3.637274035649619708e-01,3.084672577682786576e-01,-1.624256333323059520e+00,2.032016629044955280e+00,1.006916453315352511e+00,6.769246913333299975e-01,2.163600814089066571e+00,7.682899972510213171e-01,7.283562427529526317e-01,-1.669221996110220374e+00
4.108775912651216333e-02,1.134158844566156121e+00,-2.435790910936924680e-01,1.185510449570603697e+00,3.755300608060230694e+00,-7.656500681469305958e-01,2.192212392518693154e+00,-8.366257241058305816e-02,-1.248118295789554688e+00,-4.013902026193735040e+00
-3.709242992004633810e-01,-8.250566979312780047e-01,-5.135820728873432550e-01,6.694814211474754417e-01,-1.656650404813028610e+00,1.892377856864114472e-01,-1.432953213725610908e+00,-4.932381154622949015e-01,5.696757493397275329e-01,1.937113666208974072e+00
1.348659733797987759e+00,-1.294232660578036320e+00,9.868503371859710382e-01,-4.669809469776708077e+00,1.317371032780427775e-01,-7.181363798729305525e-01,-3.895877172271244859e-03,-1.914838668680359568e+00,-3.791646682776312338e-01,2.773591951658136878e+00
6.698919687427042913e-01,-8.701775768200070704e-01,-4.078410007808325743e-01,-1.041245817418047670e+00,2.719630674847701712e+00,-1.825644478790291902e+00,1.659696585823363213e+00,-2.353550605785980299e+00,-1.539832595193921128e+00,-1.001793565350818982e+00
8.460169996236430734e-01,1.033561835416867969e-01,-5.346219573192112495e-01,-3.632140048358908913e-01,3.172244499199350365e+00,-1.084562927830780676e+00,3.002770200951217383e+00,-8.169248077436670474e-01,-1.123668880880438481e+00,-2.667548333123584747e+00
-1.727697386909439636e+00,3.198391149965673086e-01,-9.390507344236981302e-01,3.883808291982751459e+00,-3.762588284512635717e+00,2.792858910066329692e+00,-4.524338646702001476e+00,1.584778895225482875e+00,2.779552845353659762e+00,3.166646893322280221e+00
9.872110541561445185e-01,-1.684114720511000307e+00,-7.646398908947273088e-02,-2.286237961725231305e+00,8.536362948439246701e-02,-2.122494353266194622e+00,2.013975245617305010e+00,-1.842499167859800169e+00,-1.422973192503278916e+00,3.153879602754077749e-01
