1.181893233858366088e+00,6.666671419235390417e-01,5.779149808925589937e-01,3.876911888071690182e-01,-1.826196383995935202e+00,-2.732904396197273655e+00,4.628700163770675502e+00,-3.261419502439199647e+00,-1.852094232870902912e+00,4.152480394778579331e-02
-5.244629474425591908e+00,-4.900806682154722482e-01,2.426727899848036607e+00,-1.336670076004048191e+00,3.031751458698868529e+00,3.022608669866574171e+00,5.685727105083100419e-01,7.481302501962743268e-01,-2.026059213192521469e+00,-2.118199381816771698e+00
2.643007893016259935e+00,-3.344199510294711963e+00,-1.117859321156945862e+00,-5.931860941490801897e-01,-1.641166686239159622e+00,-1.959943402798688172e+00,9.888860472790590439e-01,4.574901970954865504e+00,1.285175083362397830e+00,-4.769790149068054430e-01
1.563734814952323804e+00,2.847662535527970107e+00,-9.422504320413532808e-01,2.408786151483899740e+00,1.364762309541762253e+00,1.446835347106958825e+00,-4.941105203830155723e+00,-5.514297040021257645e-01,1.226008037963038699e+00,1.193158656240711268e+00
2.527055256553506712e+00,3.188637688165067985e+00,-1.279823213283028061e+00,2.347746523041537081e+00,-1.105893085394017428e-01,-2.017240084374027909e-02,-3.487191767413264198e+00,-2.343731611909193102e+00,1.336558722546683509e+00,1.883904255385067561e+00
6.543285794431527025e-01,3.728071177986933549e-01,1.005151358602340617e+00,1.340750635490943976e+00,1.001755434127476585e+00,-2.498658886614339991e-01,2.098545566647361582e+00,-1.266266054790591289e-01,-2.991355137264694708e+00,-1.231348598471819100e+00
1.832223051656511892e-02,1.152346917938561699e+00,1.900125974852832966e+00,2.493592233738495256e+00,1.936821329030458561e+00,-4.161195036428666505e-01,7.346005712370209384e-01,1.899452634506916260e+00,-9.828396313948648544e-01,-2.027817369850050788e+00
1.626730436210954700e+00,1.466701101253243600e+00,-3.731216885399014416e+00,-1.430758989817327409e+00,-3.271523274451443530e+00,-9.453611495128222408e-02,-5.617328765686685266e+00,-3.417817473696189712e+00,5.970126595726855001e+00,4.712460502879660673e+00
-2.036718661078642523e-01,2.460033385832662400e+00,-2.330200923478642494e-02,2.026303896977728058e+00,2.129140308596017661e+00,1.890160561238195092e+00,-5.000104576547215629e+00,8.424074153344294213e-01,1.923482081514721331e+00,3.120056805299872282e-01
3.687979733695585072e+00,-1.988203112594853383e+00,-1.771385853990622872e+00,6.199953983368871047e-01,-6.211094107698431621e-01,-6.560440267840039752e-01,-1.373667204373017814e+00,3.819904398731303719e+00,5.418318958528287599e-01,1.522497352246837132e-01
