2.054063222849393355e+00,-2.930679591866416800e+00,4.247026505712055422e-01,-1.467295252055537347e+00,-1.759637980836525450e+00,1.374766200610177735e+00,-8.623036466676330392e-01,-2.328968402908973445e+00,-1.952807937715813402e+00,-2.183946688425634441e+00
2.038218497318685429e+00,1.608749382187372845e+00,-4.356576967776685239e-01,4.043709625199130020e-01,2.250011594838905893e+00,5.416208058105022038e-01,1.444100307730843635e+00,-4.534782888510197063e-02,3.008878031583320567e+00,1.277426147133257750e+00
-2.057118211068353464e+00,-1.613239027149956595e+00,1.733024108113271344e+00,2.402660419291161864e-01,4.483830120149764120e+00,-2.893378900987071400e+00,-8.838427912966581035e-01,-2.174940242683326419e-01,-6.112921595784825968e+00,-3.801385251701070445e+00
2.049898481342547374e+00,6.202164217984216243e-01,-2.973377221876210008e-01,-2.231229729501885695e-01,5.388034414591138521e-01,4.024651769741435237e-01,4.857558842825744350e-01,1.792804182231841348e-02,3.270635603316238260e+00,1.025738554763225618e+00
4.117784740377335773e+00,3.280058380554721764e-01,-8.435204164614765188e-02,-9.074650264582109216e-01,6.007599353456661850e-01,1.936848893910810609e+00,7.674903209917137703e-01,-1.266072684072341747e+00,4.070558695801075544e+00,1.376267124120682972e+00
-5.440570536068501717e+00,3.215450536641518697e-01,5.546634140548575842e-02,1.441724804856865161e+00,-5.135124095821941292e-02,-2.958396883210673511e+00,-7.997984810116387511e-01,2.257710208363241655e+00,-4.201009336165461683e+00,-1.169418991230902538e+00
-4.672240528306123020e-01,1.291175270750734239e+00,-3.470456099724492205e+00,2.710011989588775982e+00,3.575570064779015622e-01,-2.292107151739505078e+00,2.480210680385500410e+00,1.923280636901588014e+00,2.224346314530924129e+00,-1.650073066878820827e+00
-2.980357915260259727e+00,8.662413977786003194e-01,-4.143153009387661179e+00,3.184755121420560720e+00,-2.889107762759322018e+00,-1.577874779836074826e+00,2.330140876153663498e+00,1.878224830424245928e+00,-7.607962296554764414e-01,-2.022235187770201392e+00
1.000784461835122041e+00,-8.023996685548725472e-01,2.595033832923094863e+00,-1.135644351193661361e+00,4.262171147230300328e+00,2.135546474172049236e-01,-6.859844289247425397e-01,-1.690357222180811636e+00,-3.024542994786396655e+00,-8.371828952951725356e-01
1.128521714289767885e+00,-6.692108314579052752e-01,5.834289366426159695e-01,-5.715831506972965936e-01,1.049088198607670996e+00,-2.849419302024482903e-01,-3.877976999596252083e-01,-4.160038584635220582e-01,2.694129235856406734e-01,-5.705393546601040811e-01
