-4.589767214859145072e-01,-1.565002954344929087e+00,-4.500627220924579674e+00,-1.471436001340937327e+00,-7.618168258407213012e-01,2.694426795668026564e+00,-8.431184086431864344e-02,1.306544144311307942e+00,-1.039948372028421719e+00,1.499182518954714549e+00
-3.920997377428204755e-01,2.087466961754516070e+00,1.098765833666278668e+00,-8.054791342128910792e-01,6.348927218386841709e-01,-2.003938073173002543e+00,-4.334645046368125199e-01,-1.376028474525430534e+00,-9.140166395185865822e-01,-2.386730234276762452e+00
1.899135845875723760e-01,5.043031099828890751e-01,2.033626209676817176e+00,2.349651444614153206e+00,6.831437062812780736e-01,-1.376814366730928496e+00,-3.284293600068893815e-01,1.127512018328391097e+00,2.387417986996416275e-01,7.957500414610327866e-01
-1.441624748508469889e-01,4.541124087562670719e-01,5.855611501605739733e-01,1.322799554674810585e+00,1.699575158616410953e+00,3.459969221094899794e+00,-1.783279289756035391e-01,-2.106656900317553927e+00,3.251836387170633724e+00,-4.202744825664189499e+00
-1.108059632048832843e-01,-2.071478859066242073e+00,-2.020358572431392830e+00,-4.530685396317636560e+00,-2.368768910230083069e+00,2.465940005110618394e-01,1.642440714343896380e+00,7.940614689504060797e-01,-2.386254421773263079e+00,2.992441962818821910e+00
-1.126833951983109650e+00,1.098904133023488772e+00,1.751979063522596691e+00,-1.044673432008426772e+00,1.506763011392723950e+00,9.296578325389124320e-01,7.122731832172461974e-01,5.190487861728579899e-01,-7.627436276166460472e-01,-2.201452647739664314e+00
1.204338438071248296e+00,-2.033491947311463210e-01,1.549677727591925791e+00,2.512371063290039785e+00,-5.240648008524070312e-01,-1.959688863360285360e+00,-5.084910440845978874e-01,-5.857608988919863480e-01,1.555600790137595224e+00,1.297748366511864759e+00
-8.060915562728001582e-01,6.122257668648360962e-01,-2.828652477716872227e+00,-1.035914480044408670e+00,-1.959973948448226755e-01,-1.182356549979293625e+00,-8.153404191805881940e-01,1.935851284413384610e+00,-3.215036212645471014e+00,1.436984666853454273e+00
9.982524739975077166e-01,8.024982752957328103e-01,1.036058222597665557e-01,1.899554951448206630e+00,-6.774448086942147507e-01,-3.340295009623445388e+00,-1.348445350919625030e+00,-1.017057238789865536e+00,2.618607235801562183e-01,8.561164545450425933e-01
1.098180313806045028e-02,6.327762642567309470e-01,2.288511937312860400e+00,-1.822973815523430963e-01,6.257753016490956721e-01,1.723226880685090334e-01,5.231579151014889018e-01,-1.442403210490792453e+00,1.156314373041194443e+00,-2.138965857841980345e+00
