-1.603149519579462057e-01,5.888106547381291023e-01,3.925108802059988911e+00,-1.071002758772510166e+00,-6.977148744741186182e-01,-3.471753935071356434e+00,-3.797350857209138120e+00,5.993333182058618869e-01,1.627838385388006293e+00,5.960148141191515592e+00
-1.247962092083780283e-01,2.715364470434790789e+00,1.817473346880410956e+00,-6.894114092391459003e-01,-1.554642395221933260e+00,1.959642112292536265e+00,-9.217390904720723643e-01,5.020927630360492167e-01,2.671375776429232740e+00,-4.269677280746702941e+00
-6.207780191576597328e-01,-2.845163703368835950e-01,-2.860123164143952290e-01,7.849506426507721901e-01,-8.541080314474436275e-02,-3.628034607958943170e-01,3.897525068965655981e-01,8.621814141593898695e-01,7.666800985634285581e-01,-1.432054062595639055e-01
-2.242340460664125068e+00,3.263726399033058945e-01,2.013670358294602281e+00,7.294326363287202408e-01,-6.724587565663460165e-01,-2.040547578110776694e+00,2.573164118375074860e+00,3.890264671020897236e+00,-8.230873642926123113e-02,1.955023097758372019e+00
-3.753880690370762441e+00,2.430436841671395953e+00,3.806519061377918067e+00,1.149320002512835615e+00,-2.242802913854694324e+00,-8.512692871650777704e-01,4.335398867842469528e+00,6.712349835227755968e+00,2.366799894236018886e+00,-2.457895589696675209e+00
-2.186764776459076298e+00,1.381467661759672394e+00,1.584711972255336887e+00,5.673135542007341492e-01,-1.084343124802949809e+00,8.809911243155584826e-01,5.307399131188522468e+00,4.186667157951939444e+00,-2.336042148587749723e-01,-4.022400522317436611e+00
-2.191565995595711747e-01,-6.284712061103082670e-01,2.131874621788288682e+00,-4.098971295498212153e-01,7.168573565734694120e-02,-3.167529898001383959e+00,-1.859538328347200675e+00,5.336293270929949317e-01,7.084830317389648191e-02,5.548426765674784100e+00
9.780255651510317838e-01,2.659968261573144144e+00,4.919846065647774047e+00,-2.184545374715422650e+00,-1.738693937964554959e+00,9.730718288836819330e-01,-2.393125349136880686e+00,-2.407597661630130337e-01,3.619666652466971168e+00,-3.865611085800662927e+00
-3.266472522902840181e-01,-1.287646325116378332e+00,-2.516757995856329533e+00,1.366915791191272156e+00,6.790109219508473348e-01,-4.553078140812900632e-01,-2.205994687921346564e-01,-2.676477478585257419e-01,-1.808370758837754833e-01,1.424258760197044005e+00
-2.034036389968289171e+00,1.044132713405874213e+00,2.300712626557429030e-01,1.293281970226680011e+00,-9.611402064426995961e-01,6.453678961037070394e-01,3.011847826995277533e+00,3.269951315075881659e+00,1.153372116859238572e+00,-3.025391230974426193e+00
