-9.850859651128723860e-01,-1.776114622678291566e+00,-1.933394768453007728e+00,7.658839691117083071e-01,-8.216414097230042568e-01,-1.570707058482033291e+00,-9.886634502132181090e-01,1.606971863746547768e+00,-7.499195305499790631e-01,-1.743036761057012107e+00
1.116090258692661319e+00,3.236362010129767874e+00,2.897540576835766490e-01,1.034993855232978044e+00,-1.374445686155841284e-01,8.664297206393462014e-01,2.778451110166664795e-01,-3.329608420582762296e+00,-3.234447467423360312e+00,-1.931130789807664061e-02
-1.126944380523432265e+00,-3.839614983461978603e+00,-1.396736197346711617e+00,-2.809043484625206588e+00,1.850102351111205801e+00,1.993741906406959030e+00,3.440916126201677971e-01,1.283720477434424634e+00,2.425940328863756434e+00,2.892054453567577177e+00
4.867367337796822957e-01,-1.467209154129450965e+00,1.230888422116470426e+00,-2.809600440434985469e+00,1.620100039037860817e+00,2.667406435732970316e+00,1.404315476359495829e+00,3.387716175800284391e-01,2.815568906043463215e+00,2.882979237235632652e+00
-3.219046860245934893e-01,1.597405060464451410e+00,-1.954637982750082881e-01,-3.218233835363586870e+00,-1.735820176158941797e+00,-1.482042604568438726e+00,5.734283397363793000e-01,-1.451850778955964705e+00,-5.001275564959132502e+00,-6.905181682363800810e+00
3.441516467061976892e-01,1.337810180789688053e+00,-4.265030750536304427e-01,9.872061586833720259e-01,-1.423910991877930021e+00,-1.268031478433097936e+00,-2.934001189862535108e-01,-5.926106088641602820e-01,-2.897633598442307612e+00,-3.046446397784774440e+00
-1.197367372650705031e+00,-1.659919076025613061e+00,-7.955086697047275557e-01,1.519642318848646534e+00,6.783014401410051297e-01,-7.895417065438434800e-01,-1.112061204700890205e+00,1.618956375952196325e+00,2.753270898031543457e+00,2.399151666517803427e+00
3.666835826146554567e+00,4.572110674480947878e+00,8.455834119504981317e-01,9.915811720207570179e-01,1.687428889572008650e+00,5.942382743627782737e+00,1.953787018513752471e+00,-6.763252194664798544e+00,-4.170739671699783102e+00,5.190350719287811110e+00
1.963462414296027525e+00,9.602539025336653822e-01,-2.593205431893368829e+00,1.951492414747539650e+00,-3.082526253493376611e+00,-4.723750500907591965e-01,3.664561507853304062e-02,-1.114233497013514596e+00,-7.945276384872055786e+00,-5.891782513596364623e+00
-3.489223657297606529e+00,-2.324512510601082216e+00,-6.936127708797370506e-01,1.910419145710374078e+00,-6.576380301571804754e-01,-5.342882770449837615e+00,-2.660322476930978564e+00,4.495571205630038314e+00,4.451484463651040890e+00,-1.373357253930149957e+00
