1.279406649426450659e+00,8.514833706264578472e-01,4.964322974270175548e-01,-4.571605704640549495e-02,6.111544835640915219e-01,1.140521833353870917e+00,-1.035929966140521907e+00,6.670723986616916568e-01,-6.584620014818055589e-01,-1.519468806144012030e-01
-3.261651896880276791e+00,-2.509835094245444598e+00,-2.730115723468854672e+00,-2.330948317585876062e+00,-3.924041794228019242e+00,-8.524398928607338499e-01,3.603131928099938541e+00,-2.386176704804170878e+00,2.202189601825756959e+00,-1.124259103440447549e-01
3.682839224244210730e+00,3.490884890763533921e+00,2.894635257666669848e+00,2.988985476916978357e+00,4.963537485852757669e+00,-1.218766988757359560e+00,-3.383894417356655193e+00,4.222629814461439146e+00,-1.968392824926863849e+00,6.174345089648278773e-01
-2.826319547439275048e+00,-2.652399333042972707e+00,-5.782126838374211930e-01,-2.198417074099224600e+00,-3.143505930734281861e+00,-2.160387771065317986e-01,1.794166610538768136e+00,-2.447054471822982968e+00,-6.712088099265268726e-01,-1.625174587562169926e+00
-3.276883060994052244e+00,-3.346000481517857228e+00,-6.052333320978365849e-01,1.240973816788139006e+00,-5.741660878101813026e-01,-9.527484391627425442e-01,2.292824134098457201e+00,-4.298820663235902728e+00,2.140355688648889032e+00,7.144455299980128071e-01
-2.598590073486057417e+00,-1.877160627298756213e+00,-3.060484497873644294e+00,-2.120724518573684492e+00,-4.177811115081294879e+00,1.189944897010329239e+00,2.060077244382840789e+00,-2.491199565175574726e+00,2.031253842800444964e+00,7.520622115279673725e-02
1.271377775167916585e-02,9.411903356398740317e-02,5.334435634750359645e-01,1.345096586347338974e+00,7.766556339581094370e-01,4.647982421720910917e-01,-1.374505416424952609e+00,-3.758049002060670496e-01,-3.983487631009213215e-01,2.458792085877088140e-01
1.123414912609129290e+00,1.581089983758009243e+00,4.056286161991105921e+00,7.841095637312688993e+00,7.565099423069489681e+00,-3.834993814398152789e+00,-3.871492521120612817e+00,1.545073808083780253e+00,-8.637665953955140363e-01,2.202393836499119573e+00
-3.600059305143606725e+00,1.075867467816372214e+00,-1.408430431306070707e+00,1.727040821428811324e+00,-3.111087167999532888e+00,-3.221403639959289134e+00,-3.924505399911677017e+00,2.538711429755056148e+00,-2.402295656249796352e+00,-3.426058081046041703e-01
1.691895866324262698e+00,7.486010022000646469e-01,3.264934906493722089e+00,3.298240523007196945e+00,4.396681428958866711e+00,-3.652844342797906818e-01,-2.503032771759664321e+00,4.283958631022273256e-01,-1.732342881783698996e+00,2.056811588479612318e-01
