3.674694246967148636e+00,3.108542243799644389e+00,7.606179135699395744e-01,2.414025118742626930e+00,2.629681319869741962e+00,2.407343609329962053e+00,3.278874984114726887e-01,3.395410766156060856e+00,-4.568857597931019754e-01,3.341758010189140649e+00
-7.846846527967665352e+00,-1.826740108894530756e+00,1.266782502414028233e+00,2.235234684759585200e+00,-7.488382381184510717e-02,-3.116638252461614300e+00,1.444660242021238716e-01,-3.517247514857934743e+00,2.504130748093130077e+00,6.977247508292490075e+00
-5.076408540442765016e-01,1.221738546674842052e+00,7.090822262298557277e-01,1.423979123708217553e+00,-3.065698067869209176e+00,-1.874233871451163713e+00,-1.682533101853264768e+00,1.645397483989100129e+00,2.931542021587382862e+00,-2.221056786109344205e+00
3.961818220094176723e+00,2.416562048637032944e+00,1.406006356264556612e+00,1.527587837853536357e+00,-2.151137955147569558e-02,9.680212568619721569e-01,7.342533097863428448e-01,3.600814186560494345e+00,3.013852950200941461e-01,-2.543114183804764394e+00
-1.875253955366862346e-02,8.683790173096117559e-01,5.314105288342519939e-01,9.460221314956492877e-01,-1.085463333505206851e+00,-6.832256714262325836e-01,-1.703617756736267363e+00,-6.623991116515490774e-01,2.415877497351193726e-01,1.317566698248342050e+00
8.733216075409178103e-02,1.881868092816392446e+00,2.560986799448218276e-01,2.964668643177554408e+00,3.523499779165412349e+00,1.769099269207389469e+00,4.442419851686216781e+00,8.249218155962317667e+00,4.416296443514180048e+00,4.506622977055298462e-01
-7.445383447563187485e-01,-1.220766596896801781e-01,-1.675068378970068661e+00,4.887829322278108846e-02,3.258421836342341393e+00,1.881090087269939648e+00,2.508731244867993482e+00,3.768065359583493645e+00,1.676606487496244302e+00,1.388466072896656911e+00
-4.979330852876826086e+00,-3.947937180731257545e+00,-3.406353108152342823e+00,-3.371579697300346901e+00,5.267598712505083824e-01,-4.915945115302804425e-01,1.964816550945718054e+00,1.662146854625012882e-02,2.146836620888123992e+00,-2.521399766698000366e+00
5.503832444390441836e+00,2.204512674412816953e+00,2.365557456880139853e+00,7.264459172666277720e-01,4.356364832296724110e-01,1.406550598116060202e+00,-3.041673410198534100e+00,-5.153192408584305717e+00,-6.659167031404429338e+00,4.506010129636037753e+00
-7.637014816133351758e+00,-4.754212328250293496e+00,-4.113228008145033421e+00,-3.090021647017145767e+00,1.296101646844024291e+00,-8.081775297431259553e-01,3.826312335235744655e+00,2.318221667010420539e+00,4.919229474856259721e+00,-2.790837551466364808e+00
