-4.121042014392541919e-01,2.362567887039542569e+00,-5.982042192736308550e+00,-3.379773590091667002e-01,-1.773461037959632169e-01,9.636886094022441007e-01,2.776266068464675385e+00,-2.009763064477603667e+00,1.644901583843103587e+00,-2.080041648265936960e+00
-1.707564917325357534e+00,3.949550541822307026e-01,-7.485810499744207647e-01,-4.288430489645929100e-01,-2.841486312013785653e-02,-1.626066468973552892e+00,-1.217258885248181155e+00,2.300577849611077141e+00,-4.810725976518362423e-01,3.628492434400754085e+00
1.292914596132282323e+00,1.960645799528319966e+00,-1.329805440361758517e+00,1.315970318434406039e+00,5.682040539194341822e-01,1.036768232738318751e+00,3.406125014324111966e+00,-2.844973722202933875e+00,-2.363729383049028021e-01,-2.656078785651592611e+00
2.523654676659258911e+00,3.594172695683923280e+00,-4.069743684511655246e+00,6.092346135997664947e-01,-9.566323379697372342e-03,2.239312286017034470e-01,4.897355941061839246e+00,-1.766487257751910622e+00,-2.413518248711937764e-01,-3.442541051157979481e+00
1.398119279714910235e+00,7.195292595127257274e-01,6.388889515573979994e-01,6.502666544704913676e-01,4.219621161444036539e-01,1.459454447086935280e-01,1.386088816930575396e+00,-8.029353407821711031e-01,-7.979538091652236265e-01,-1.235381383585413495e+00
6.531218744223911798e+00,1.232782971817498963e+00,5.294522691727940877e-01,-1.863640178074770226e-01,2.899105493214950147e-01,8.338085773179799709e-01,3.485142667051571053e+00,-1.340045488817852348e+00,-1.258776860049344748e+00,-7.002275928807928373e+00
-9.451314501353214048e-01,3.505445408042111133e+00,-1.987502687228219767e+00,3.551589808902599010e+00,-1.026239120892055157e+00,8.196951436329040774e-01,5.952851370508652984e+00,-3.862493388075025180e+00,5.534428589199991144e-01,-1.092351204391221797e+00
-3.275417736708956529e-01,-3.135535988191837653e+00,4.834927599470428827e-01,-3.970604403394012216e+00,8.260843003088040870e-01,-1.459899107205964164e+00,-6.432986985399587354e+00,4.828763227350496123e+00,-2.606887176073771073e-01,2.788928491828642109e+00
-2.747311739223058380e-01,1.762265067527119644e+00,7.507427778800437324e-01,1.276047595954255875e+00,-2.844993041495185171e+00,-2.940129527866984560e+00,1.862981381718598728e+00,3.550435251009941950e+00,-6.871870259525749702e-01,3.159172281357042866e+00
1.044836221487386085e+00,2.203716032457535778e+00,-2.462641389145207693e+00,4.674966077628683880e-03,6.289906949159006500e-01,-5.426087007289466246e-01,2.028657469715605899e+00,-1.082500003685341605e-01,-7.913704673794907940e-01,-4.655158041121019163e-01
