-1.189802642786865094e+00,1.321456010706774320e+00,1.271330743750783920e+00,-3.929513263842783211e-01,-9.041961831863120080e-01,-6.610011098710137922e-01,-1.825008650903643836e+00,7.040062916057916453e-01,3.374167615061651748e-02,4.082769242239198126e-02
-1.264490170253695922e+00,3.179776018988053288e+00,9.904760166648755026e-01,3.326430771435484601e-02,6.670719040244990072e-01,-3.624326639511960657e+00,4.439698936184647948e+00,1.247632683424964473e+00,-3.965610985393899668e+00,1.911788442721864989e+00
1.962896598530582626e+00,-2.706856744422575733e+00,-1.419390801623471754e+00,4.474102969535095897e-01,7.232839814236239340e-01,2.006684282291478549e+00,-4.987622687765744800e-01,-1.415614885644842724e+00,1.561988807601698337e+00,-7.988950442977202915e-01
-2.766858393138050820e-01,-6.592515343567575403e-01,-2.794202777011891015e-01,6.381052629714535351e-01,-2.299081697916485756e-01,2.120875838658777823e+00,-2.787598956933999617e+00,-5.990211654104576899e-01,5.522253215174364183e-01,-1.713813149075782694e-01
-2.631093971879868487e+00,-1.363216837695048866e+00,-1.328623722617376490e+00,-6.852459704403831564e-01,-6.986449363647366795e-01,7.726386013568611322e-01,2.489573567120857978e-01,8.159976268271518229e-01,2.537167720659528225e+00,-9.404574103593602574e-01
-1.084638772163142445e-01,2.293608498411478180e+00,5.936454470300349673e-01,-1.796241882283873714e+00,-1.523690612899899932e+00,-1.683689425582505894e+00,2.948352744204512099e+00,2.066704789435053868e+00,3.868219084845287981e-01,-5.857598333846484318e-01
-1.702925520537193149e+00,1.676751874529093245e+00,1.255386634853524308e+00,-1.490757850277681706e+00,-1.501470469194941870e+00,-1.869232756936075157e+00,2.370780477503764416e-02,1.739863832391039589e+00,9.776786192099066186e-01,-4.926344749706828008e-01
5.447611602870527925e+00,4.720596846566795790e-01,1.096796466681955406e+00,2.245950980240223771e+00,-4.917280904198100266e-01,6.216437654472201757e+00,-8.345773329885876279e+00,-2.812089174361651178e+00,-1.313625332959547531e+00,3.305754892368950593e-03
3.482937047292324007e+00,-9.339480715245170872e-01,-1.256993937515313409e+00,1.229354117328448348e+00,1.640057857145800213e+00,1.330225678349471918e+00,2.215917458203771062e+00,-1.604636462699225330e+00,-1.825638219903134463e+00,5.683889589528192676e-01
-2.438624354169758868e-01,2.742556803700831214e+00,1.761331221781020195e+00,6.467621903999538624e-01,5.984425599760118120e-01,-2.345903949591396032e+00,6.452311734383884279e-01,2.208047167200885563e-01,-3.718061032976280877e+00,1.801568533798812988e+00
