5.331498407189818600e-01,5.123879116116389021e+00,-4.973747633097315712e-01,1.029351605054827701e+00,4.692210629091908003e-01,2.169259428362525277e+00,-5.819317791870988188e-01,-4.278335310996261853e-02,-1.151276633377926073e+00,4.757090203647816651e+00
-2.035646550414392575e+00,1.273539192422389110e+00,-2.072632409182191271e+00,-9.856468200903456545e-01,-1.630684579362273290e+00,3.599818515011120379e+00,-5.616231729865293065e-01,-9.285830826733081356e-01,1.082773595234448383e+00,-2.744199006866687718e-02
-2.223317238847556165e+00,5.137470568218300837e-01,1.164097189786921893e+00,-8.930601320234556884e-01,-1.267937602460580848e+00,3.438653655689080768e+00,-5.282835065255540030e+00,2.441171464693777882e+00,2.978750904972582880e+00,5.129164202318434729e-01
-3.266346817233142796e-01,1.157762916501634542e+00,-7.939992413436831598e-01,9.040730047306335670e-01,-8.013376670425114146e-01,-6.799363251415684317e-01,2.226142466184323432e+00,-2.113061189742426738e+00,-1.305367661053819184e+00,1.178464115826254321e+00
-3.640498069659593661e+00,5.358576037892759381e-02,7.698165940500658611e-01,1.213246966115981040e+00,-3.719811267602715965e+00,4.187238402760071199e-01,-1.307535967322328574e+00,-2.213483106492111219e+00,-4.444999254053418891e-01,1.037604123829164449e+00
9.870094933116659863e-01,2.152311325712849666e+00,1.852964410509741366e+00,1.060291179698260589e+00,8.112134842974660920e-01,-1.658980438662657431e+00,-3.809046513471636697e-01,1.569400940100086128e+00,1.888385873395100223e+00,3.041832886417430437e+00
7.031096881144806687e+00,7.830656910872313414e-01,-1.952874932621810888e+00,-1.174416133555610253e+00,6.300633186028384181e+00,-4.373576743898664354e+00,7.508598321901756911e+00,1.991998053867787277e+00,2.542972883342047297e+00,-7.745292196214514924e-01
6.684929887088615352e-01,1.389832566865434771e+00,9.679620712858882925e-01,-6.774489279889336357e-01,1.140825758910161802e+00,8.460050377513895770e-01,-2.057744187273389702e+00,3.032787625900768447e+00,3.719750969358054604e+00,1.233593610003209662e+00
1.830036370055519779e+00,4.169312565136142901e+00,-1.943905935583549738e+00,8.686793635251019996e-01,1.148569910618294054e+00,-5.728392849561825262e-01,4.349762957283403786e+00,-1.573980587580985357e+00,-4.871186416418129550e-01,3.319091377264547837e+00
-1.178954965101483288e-01,1.255747792075740499e+00,-1.958250343087470258e+00,-1.396137635432683766e+00,2.447183133595054461e-01,2.509209973602285260e+00,3.686044151049767681e-01,4.525234690125234938e-01,2.233909955744206588e+00,-2.547061283289737688e-01
