-4.619072796790538171e-01,2.350078160172874853e+00,2.242536863669799096e+00,-2.634378919528162361e-02,-2.328359910055377915e-02,-1.011705916121765414e+00,1.034056032511719847e+00,1.032542777458433036e+00,6.805119017073812948e-01,-3.674382510302965921e-01
1.967629122267486652e+00,1.207430565094933239e-01,-4.164896662993508025e-01,-1.376378056981160558e+00,1.439127121138598087e+00,6.011322559166005775e-01,-1.846281647198170894e+00,1.818984699492072865e+00,1.940978109213542802e-01,-2.006991789807164306e+00
4.281603284839993195e-01,5.173860658574339411e+00,1.655470399728355080e+00,9.037705355210795544e-01,-2.317335106831317049e+00,-3.048372415051999740e-01,4.735447766837985739e-01,-1.644658575590419280e+00,-1.573514786118387354e+00,2.118051872009812708e+00
2.524182777410953094e+00,4.745084505908218730e+00,1.055844115618739698e+00,-1.950196920086661985e-03,-6.579618032750059742e-01,1.702090726182712510e+00,-2.225420524882084916e-01,5.702595312672277261e-01,-1.291567722423276665e+00,1.097728079586836269e+00
-1.510907025180876273e+00,-2.793083616698065264e+00,-2.194682720846323487e-01,1.898194757348221184e+00,-8.605441587876884180e-01,-2.466624725803240104e+00,2.614804396225524741e+00,-9.337823631997569374e-01,1.727976645471906769e+00,3.930333787284444602e-01
2.237121279676217434e+00,3.524616580295296675e+00,1.364517989031120537e+00,2.055507234862623545e+00,-1.630556463280278923e+00,-6.355370486036454603e-01,2.662646734843705065e+00,2.903305402737115237e-01,5.136732623287261212e-01,1.475849905234560833e+00
-2.778277156527330760e+00,-3.789965326095740550e-01,1.296971243685874464e+00,8.370144278909753544e-01,-9.103024616407133784e-01,-2.321963479063446467e+00,1.639872233999016826e+00,-1.109632388661740077e+00,7.699937020207274774e-01,4.245363295188789854e-01
3.382116536803044582e+00,-7.981514809683165623e-01,-3.620020847240922324e-01,2.986914835745142077e-02,2.650199187389607580e+00,5.232138776256818780e+00,2.241217867396490426e+00,4.433748129940306981e+00,1.063052471827566015e+00,5.836467162814337195e-01
1.050922286056634070e+00,5.749966873404805057e+00,3.790362935708169179e+00,-1.039554992920310866e-01,1.459164704277842839e+00,6.954506329921120944e+00,3.834953810285736342e+00,4.105507198565264027e+00,-7.435172068458409944e-01,3.584374115818467210e+00
2.890313860410242963e+00,1.739534927830110184e-02,-7.566462986490501974e-01,-1.188839978171129796e-01,1.431657579291413462e+00,3.768698152269077895e+00,6.098491880922567443e-01,2.396908648057560764e+00,7.041256606971532358e-04,5.550589505901578624e-01
