3.586142894584194440e+00,1.186441695915790628e+00,-2.837240643845514221e+00,-2.510731652488228605e+00,-3.579268848195644281e+00,8.188795008239569961e-01,1.504696725114184952e+00,8.644042635990043522e-01,4.612665131636219051e+00,3.593829212689511721e+00
-6.395607533382397847e+00,1.858639352132974931e+00,3.454320629871162840e+00,4.646072739807208585e+00,3.329499014796716505e+00,8.047510919713329880e-01,2.114277220720319317e+00,1.714734154909419162e-01,-4.244701377715028201e+00,-5.219941642651206415e+00
8.026826606768926453e-01,2.613067767477464942e-01,-2.042983157676879102e+00,-2.011443803632501748e+00,3.437193381553830474e+00,-8.355100966541836871e-02,-1.194563931063889139e+00,1.848381727966618149e+00,-1.277277330033091962e+00,1.008973660381424109e+00
5.785484236483393605e-01,-1.864614443645423447e-01,-6.294647044267570601e-01,1.179379596141471254e+00,9.048782806567629011e-01,-1.460413810948988589e+00,-1.695875828230461346e+00,-3.432020807828088937e-01,4.441491271328141810e-01,3.948002043367556668e-01
1.043644544941616736e+00,-6.154995694879362711e-01,1.326118068568430397e+00,-4.620471813378657977e+00,-1.064082889889865102e+00,2.182209884611133965e+00,4.854863113067794944e-01,9.136463571520160309e-01,-1.933842539708049868e+00,5.868534794240622965e-01
6.051264941048686286e-01,-1.747131513969485628e+00,3.884614507782375298e-02,-2.250525688389581891e+00,4.096392550045448999e-01,3.453815339044138399e-01,-6.559589787357874568e-01,-8.377189366787758662e-02,-1.331625690739940193e+00,2.107929709019633335e-01
-8.443158699096262598e-01,1.336574672689335941e+00,-1.247961831326926951e+00,1.819145968209627817e+00,4.364367625832795028e+00,-1.408423343561944874e+00,-1.746061136393593616e+00,1.233049176125568858e+00,-1.215564661307007688e+00,-3.649368279552706040e-01
-5.994117691070622866e-01,1.695173040288090044e-02,-2.854919799015753212e-01,1.397575941589344284e+00,-3.384308912992430862e-01,-2.956327671791170175e-01,6.198598185580577180e-01,-4.941875234023619390e-01,8.333932603933101868e-01,-3.889099574619484523e-01
-3.455700884312517540e-01,-2.211351685012212798e+00,-5.635046134207546964e-02,-2.597408769980624310e+00,-1.401392793198612985e+00,1.752938517492894643e+00,2.164041400996157272e+00,-4.694668059737583943e-01,-5.202250150163048037e-01,-3.651167262248665724e-01
4.797295730432898919e-01,1.669951897148475917e+00,-6.704100241768063961e-01,1.569048364262585427e+00,-3.299684810451843475e+00,2.859824964258333990e-01,2.161469668409719436e+00,-3.410847185208972232e-01,3.703755985929821026e+00,8.372619753817542865e-01
