-9.602016988206734105e-01,-2.756779549342228131e-01,-7.141041301834267774e-01,-8.519804608367267940e-02,-7.364243332699563771e-01,-1.398798516810920045e+00,3.890597323091493087e-01,1.059267712625870272e+00,1.981840385728064202e-01,1.195292122727841938e-01
4.452362784352492664e-01,3.588922979882521513e+00,-9.764688081070926895e-01,-9.032359160091634198e-01,-1.581022512164335980e+00,3.283448398119591438e+00,9.156185860960548428e-01,1.586989317994538684e+00,-2.053927935082001888e+00,-2.092462759800910455e+00
-1.509753163637780060e-01,-1.183405611029316074e+00,3.847907479487217564e-01,-6.904067652996527249e-01,1.665234868635454113e+00,9.798551442404868084e-01,4.108982659069405075e-01,1.409339124325532211e+00,-4.611045272648141569e-01,-4.416114305611146262e-01
-1.137827396200478125e-01,2.558236578763352753e+00,5.680610604439333411e-01,9.679192582005169410e-01,-1.589269127121292424e+00,1.022591398127481677e+00,1.080105180421062072e-01,-1.208927661005501752e+00,6.350166028340846758e-01,9.278740087004516690e-02
8.781098190311258378e-01,3.552991213908308632e-01,-4.356410809209587676e-02,-7.023218576122638446e-01,3.300624046302975678e-01,-1.496066672937974795e+00,-1.512452038823133282e-01,1.802231030104273213e-01,3.776118636129179862e-01,-4.986472574092303267e-01
-6.628285012971051327e-01,-2.314989134120289282e+00,1.053663421119881205e+00,1.839236259233513193e-01,1.885399779367372242e+00,-4.075317666541913297e-01,4.390043365065809944e-02,2.973846092522658968e-01,8.540200958803196851e-01,7.725504125672274514e-01
2.002663012256785890e+00,5.139416793507516346e+00,-2.963136662256470988e+00,-1.420570766679900343e+00,-3.861584544003046293e+00,3.788272933921608132e-01,3.846263978832614727e-02,4.381510400563825014e-01,-2.499017640295733589e+00,-2.534857303544296947e+00
-2.255794127371295588e+00,-6.992840544361211830e-01,-6.668462846606284522e-01,1.652742693984447842e+00,-1.947766315433635542e+00,3.407258895744662563e-01,1.862854986217120645e-01,-4.953891507040593112e-01,2.485927082913452768e-02,1.512827966364479471e+00
1.148790880741282328e+00,1.592160596030004260e+00,-1.081017246566428724e+00,-8.861515405740982843e-01,-5.760005444476070657e-01,2.688527798071759900e+00,6.734784466278903592e-02,4.778906145997259269e-01,-2.309986721206706672e+00,-1.472633590878440257e+00
-7.948781635495139053e-01,-3.212572590080788881e+00,2.065344762485707975e+00,1.137592146530280290e+00,2.821217647345842128e+00,2.792979211397958572e+00,-2.456787225044526068e-01,-1.027488447355108026e+00,2.949715137146392552e-01,1.461013687538216033e+00
