1.423273994979742829e+00,-9.592254173764418468e-01,-5.803956954164611881e-01,6.399318654364052339e-01,2.826335802081765269e+00,1.934462643340330468e+00,-7.598215851895193662e-01,5.269969838310414545e+00,-2.733696213679619458e-01,4.741881679369954194e-01
2.403199721621371410e+00,7.814295342379479203e-02,-2.851318060204746985e+00,-5.099476265954701049e+00,2.350967541879195988e+00,5.916067322829323238e+00,-2.597087235937773464e+00,6.167139700935964974e+00,3.306576452741357919e+00,3.129619328034245029e+00
-4.743054541682564240e-01,-2.232077117541582556e+00,-2.902470430244902255e-01,2.162866965088080295e+00,2.662213544521175645e+00,4.468900260029988192e-01,-8.428794486869484182e-01,3.127137721934035941e+00,-3.505895634003975414e-01,1.013211448194466069e+00
-1.760783419579261544e-01,5.996569058966910726e-01,-2.592366337630552797e-01,-3.190866052802296071e+00,5.943474827885233402e-01,9.529667441635766290e-01,-2.540688560732661028e+00,1.695783863643796074e+00,2.619852748815491239e+00,1.820318835431779636e+00
-8.501121799931317113e-01,-8.258991721401431896e-01,-4.990731960553260294e+00,-5.294574263993394148e+00,-3.288070338155074435e+00,5.663634735698587441e+00,6.744242181873417730e-01,-6.323935633130497891e+00,3.375004290764224812e+00,3.740618318239804729e+00
1.528897288755869610e+00,-1.836028731710184658e+00,3.154009700094179691e-01,4.066861865972254408e-01,5.706518335637735362e+00,1.351262354589495063e+00,-3.158956141289950281e+00,1.047220552058188758e+01,1.323929228105793499e+00,2.348582354323022869e+00
1.541797465687509749e+00,-2.872192172213355321e-01,-7.580322204565831390e-02,1.908711088368369335e+00,-4.935888465013855697e-01,-9.661407538210042834e-02,2.904893675671071929e+00,-1.166667114953334194e-01,-1.840773480610170765e+00,-1.088024008588050151e+00
-1.853661524206216438e+00,-9.753277496069169272e-01,-9.472433127494038763e-01,-9.088926474707367253e-01,-2.454938103991213261e+00,-5.529641544150032395e-01,1.026886765427888815e+00,-5.480903600262287512e+00,1.501994688943564693e+00,1.961743663940530569e+00
2.367280811918506256e-01,8.736612923096223060e-01,1.772070356078734532e+00,3.655055413673289344e+00,-1.578088812439635280e-01,-2.218538595249149203e+00,1.481361318783292580e+00,-5.585968853331297890e-01,-3.622266191361450449e+00,-3.856547864395311276e+00
-2.605687389077711025e-01,-6.448114077560540558e-01,2.137329814019472529e+00,4.050079941022204366e+00,3.619445123514780094e-01,-3.590359931076656075e+00,1.616355693172614849e+00,1.673177633789368901e-02,-2.279748869679467216e+00,-1.616350585143329077e+00
