-1.884748446379331810e+00,8.108422499189826382e+00,2.967479209825823361e+00,-3.056645621940217605e+00,3.412428759071078233e+00,1.542477177108363851e+00,1.288453243582947660e+00,-9.593538885167403052e+00,-1.626056526128847768e+00,2.648536096375272431e-01
3.333253282687433372e-01,2.967476606423209429e+00,2.022199138618522962e+00,2.881983388633552856e+00,-9.144930764726216799e-01,8.565766687236715526e-01,1.205306807571078220e+00,-4.024735704216411136e+00,-1.151046070688638734e+00,1.400342482873244920e+00
-7.783389824445213767e-01,2.183447349616220556e+00,1.020651809576416102e+00,3.710284428237374144e+00,-1.920551090375252290e+00,1.614841254932110948e+00,4.022927879551746244e+00,-1.928483592916282685e+00,-1.760846463958182007e+00,4.444022885559548719e-01
-3.636208318457986977e+00,-4.512081440726712911e-01,2.649547367207489401e+00,2.976898797477165459e-01,-3.662665980682278999e+00,1.919463515125127362e+00,7.882365360334546711e-01,6.249301888081703060e-01,1.454929835583655962e+00,2.231012992445499332e+00
4.463629009372063194e+00,-9.470124817367342462e-01,-1.510634188194391880e+00,1.167592576078340105e+00,2.061140912495482702e+00,-2.353592934552042326e+00,-3.289218135855865199e+00,-1.239386837491357474e-01,-3.881481310718447597e-01,-4.835272761289863275e-01
-3.233874335817911172e-01,1.443701703624762134e+00,-1.187663338757235787e-01,-9.935296198986470761e-01,1.264290364115858267e+00,1.964788523179663016e-01,9.271644421507599376e-02,-1.369557902419454187e+00,-6.462251698664772670e-01,-6.937117788589410861e-01
-4.139579335609370858e+00,3.645674758752881495e-03,1.640373933404557505e-01,7.252894075315572397e-01,-2.073428835470954912e+00,2.492553735614007948e+00,2.957427587138399261e-01,2.057302894236258783e+00,-1.259760826532858369e+00,-1.010278035750455272e+00
-3.954853432590600626e+00,-1.996669624908229967e-01,1.621534671510160841e-03,-1.031829665136435148e+00,-1.542088782169536598e+00,1.982240828358385443e+00,2.715531423638697373e+00,2.008622544869556492e+00,-1.399751827241640378e-01,-7.695761676633767756e-01
-4.816158788512794331e+00,4.400709985721994677e+00,-4.804090748045845016e-01,8.261206701676666597e-01,3.915894290687382817e-01,3.655507913005984655e+00,2.421800669259123850e+00,-1.630445044888520600e+00,-4.458614729948684463e+00,-3.293382655919906199e+00
3.341359979315939199e+00,3.408782574494185758e-01,-5.551991038072950913e-02,1.097650807512400295e+00,1.342799117273941745e+00,-1.593151005365484041e+00,-2.328581191732347122e+00,-1.803210299527419513e+00,-1.341212935431049802e-01,5.153378146623475153e-01
