-3.303046918875460758e+00,-7.486554285554846366e+00,-2.043244801342699368e+00,4.643436790082414722e-01,-3.208012860816010114e+00,-1.438921598230178178e+00,-3.579017741812082321e+00,-3.967817723960352261e+00,-4.062354438452268290e+00,4.258207314484176997e+00
1.105356226221326787e+00,2.654193676311713990e+00,-2.526535687880273606e+00,8.243664540532050777e-01,-5.430210760953632088e-01,-2.156561311408894677e-01,1.962524623019175740e+00,-2.628872076975951044e-01,-1.712678034711605790e-01,-3.699514633009934883e+00
-5.505187768181538654e-01,-1.145597187436223852e+00,-2.048488346860975362e+00,6.947436392998943555e-01,2.889673849426684926e-01,-1.614380126616321798e+00,1.652925028016887898e+00,5.654600787217160807e-02,-1.190612606546967323e+00,-1.005030146953504344e+00
2.648502755554559496e+00,2.153540578411635931e+00,-7.940328835106971184e-01,1.236818331547774541e+00,-2.740387872142652892e+00,-2.153063934490976106e+00,-9.368178369857961540e-02,-9.052247979223214669e-01,8.645177424820235101e-01,-2.336357855411097084e+00
-1.417471849862122824e+00,1.833998255548339396e+00,5.632244175722497248e-01,-1.607150346610701996e+00,2.734520788062839269e+00,3.358085915909601926e+00,1.845597676577680701e+00,2.394151391940626539e+00,7.961171270948205203e-01,3.445356023346297647e-01
1.445560433612472329e+00,-1.022183961104778716e+00,-2.244486483560506951e+00,2.031323990614675612e+00,-3.053323579404545907e+00,-2.586685907799787465e+00,-1.629954875618248922e+00,-3.604206134771099190e+00,-1.696041672600205663e+00,-2.284997682357134074e+00
1.864900070133878929e+00,-2.614077543206179577e+00,6.224156573167857198e-01,1.640916004793546934e+00,-3.993905885342758921e+00,-3.887813508372735871e+00,-3.629376104064075292e+00,-3.126593815074886429e+00,-4.709597289343083748e-01,1.013624275488885784e+00
4.548150123256093913e-01,5.125559824008892207e+00,-1.102703590204573203e+00,-1.302701795317444233e+00,-1.795677069417687122e+00,2.705467525066501011e+00,2.152730056366340960e+00,2.109384164163784714e+00,2.079887181094464577e+00,-9.337221281424864516e-01
1.076826913139868003e+00,1.347274226338275760e+00,-2.263222399552304864e+00,1.088422788787469786e+00,-1.021099254701439696e+00,-1.154134365138147045e+00,1.179323949243168856e+00,-8.035144764424375641e-01,-4.949048493871384680e-01,-2.942640351114527597e+00
5.161890632299996895e-01,3.710363751062381588e-01,-8.365510674649133671e-01,7.348337223820271547e-01,1.341895574643584332e+00,-9.970103422592403453e-01,1.421369548739642719e+00,2.035840334857105249e-01,-3.465990973297773947e-01,-2.093360998611296431e+00
