-6.597355895232954737e-01,1.584713313328263151e+00,2.217537174853368764e+00,3.968702654800045360e-01,6.758960583703734759e-01,-9.333852599902289215e-01,3.638664929069709952e+00,-3.017469484702322013e+00,-3.529717321334768343e+00,-5.293505540681800348e+00
-4.221346574185870226e-01,9.775975284272807597e-01,-2.499669556319287778e-01,-7.911636195645007641e-01,-4.805870997250507037e-01,-4.056774925466578807e+00,-2.472152453023854779e+00,1.702391543836102583e+00,-5.117964393843753568e-01,2.957617702303497520e+00
-1.922824299311378882e+00,3.506044292160668263e+00,4.556240100039219421e+00,-1.295172613948536888e+00,5.974853981541341716e-03,-3.067238420840210367e+00,5.865691737302979325e-01,1.162619228655283443e+00,-2.442411155357497865e+00,-4.808554038617201876e+00
3.364669171340741727e-01,2.287290534904853789e+00,3.138849915771471100e+00,-3.308517544564678614e-01,1.239670357357214536e+00,1.995845734395695903e+00,8.801478837145754186e-01,-2.097785621589729477e-01,-3.194793930956097427e-01,-3.457024615356283359e+00
1.337033877538586157e+00,1.744024425489664465e-01,-1.549268302365856886e+00,1.949488790125056548e-01,-1.679324512237000688e-01,2.229228442961365797e+00,-9.893669841677731336e-01,2.748987610675823312e+00,1.891296445436834173e+00,2.267290210838927678e+00
-2.744667130742095007e-01,-2.106857767791217917e+00,-3.587325458871995831e+00,2.355524625525389770e-01,-2.218434700586205732e+00,5.771323076598104951e-01,-9.053157921208893066e-01,4.134767174712823845e+00,2.235402488549852684e+00,3.006922013307236963e+00
-1.045911880737877775e+00,-2.841535122055478979e+00,-2.126772452142985159e+00,2.695551151623675756e-01,-1.325077527874855221e+00,-8.754596974746170490e-01,-3.770180576697849950e-02,-3.843428858327645470e-01,5.805698276121963319e-01,1.308042675556515766e+00
1.060955138823648669e+00,8.779873768142467672e-01,-9.641854307763100262e-01,-1.045779304776531596e-02,9.109579000928557102e-01,-3.533488383416508061e+00,-1.747820963488180501e+00,-1.614719143194695672e+00,-1.478837581339940588e+00,3.865616583153463459e+00
-1.132869804213293197e+00,1.382451813697982645e+00,2.638797878810925646e+00,-5.191219885606035422e-01,4.302920607744433190e-01,-2.134982663837003525e+00,7.669798080423971820e-01,-1.526974768036018615e+00,-2.021065612390322119e+00,-2.927406985464189759e+00
2.019923421823356102e-01,1.254969258556166700e+00,4.507521899861173242e-01,-5.586831232632636368e-01,1.166172264738416092e-01,-1.302450822551348919e+00,-1.638356491586679509e+00,1.496710420945749132e+00,1.502158590822053053e-01,1.474191567841809158e+00
