4.348853363510511438e-01,6.119567594908250641e-01,2.861848918976828138e-01,1.290656346589938330e+00,-7.165722113069041832e-01,9.872854423143683222e-01,2.233858979783843957e+00,-5.362473653797144024e-01,8.586639468494373650e-01,4.382547839790417177e-01
-1.909534286054159979e+00,-2.400317969026935505e-01,6.864410518314745246e-01,6.214943569727805261e+00,9.065669705635320819e-01,4.535165037390743947e+00,4.354545293612193113e+00,1.894569570458856322e+00,6.702374389773746444e-02,4.067167317124297021e+00
-1.957103116023166001e+00,5.865671410524195828e+00,-3.340579400174357616e+00,2.456258959349277404e+00,3.619008427769633940e+00,-5.876445223212803270e+00,1.660348156787031071e+00,8.942010364553429902e-01,6.751972988220319438e-01,-1.243152969920471751e+00
1.094371934163449189e-01,-9.458898314319386103e-01,1.948738134118720877e+00,-4.254930034909003012e-01,1.053359221485359098e+00,3.690180941294845529e-01,3.909693007509142948e+00,-6.411034289039233558e-01,5.031717600506944166e+00,8.014420546921709132e+00
3.215209878534409094e-01,-6.239858496597825432e-01,-2.637969993005718772e-01,-1.342812190636565983e+00,-3.942073473559851160e-01,-1.135479291945842739e+00,-1.572208078396327924e+00,-6.861246579041422322e-01,-5.667825910331556472e-01,-1.523040442208813294e+00
-2.675965960892789042e+00,5.306356389707248766e+00,-2.349062851797655505e+00,3.507350277065727440e+00,4.537929122421107131e+00,-3.668747073855850083e+00,2.852195669442953996e+00,2.359763753594067204e+00,1.445001175898263934e+00,2.402041443992874115e+00
1.410227791140155507e+00,1.886112385200399366e+00,-6.398406359321517911e-01,1.774064730531533129e+00,-2.221511098387189076e+00,-4.298232786114271620e-01,3.113549136703650078e+00,-2.457176193509209128e+00,6.551151731501999587e-01,-3.125445128532589489e+00
-1.156829282132404657e+00,-1.769574242580109535e+00,1.618917304352946118e+00,-6.916195542013818809e-01,1.425697841114667908e+00,4.547180721276397719e+00,-2.591718700051731439e+00,4.178450370875715691e+00,-1.712389242204884310e+00,3.264648291431151872e+00
3.904974945658078178e-02,-4.550814533365856729e-01,1.689775545525357137e+00,2.426485928908379108e+00,-2.038608098074685404e-01,3.257239480431571188e+00,4.530501128145927758e+00,6.909018941982923712e-02,2.680907760215059721e+00,5.151213486619245607e+00
-1.416028822441154800e+00,-9.262519386554187717e-01,-1.952538158071733809e-01,1.728254149356362790e+00,1.018393304546760358e+00,9.659078059439731856e-01,-7.000308861858258735e-01,1.325801414779949505e+00,-1.412799504560718677e+00,6.212912412222193481e-01
