1.340480676414780026e-01,-3.096112996009590668e-01,2.408915031545511898e+00,1.715732505793923224e+00,1.841752697634177371e+00,2.673140804083308009e+00,8.996649613417838642e-01,-5.205988040493255697e-01,-9.126346160929535989e-01,-3.587792480050246091e+00
-1.299254210540621950e-02,-8.451137019139548512e-01,1.641144545709366964e+00,-1.064816106316261723e-01,-1.772252487491060569e-02,1.922363731719699764e+00,-2.103228239390833920e+00,-1.505149127682781085e+00,-2.748171430165694318e+00,-2.124834187384819106e+00
2.053845115551750311e+00,7.581593587963837422e-01,-1.118711774038968043e+00,5.854089515173819258e-01,-1.498114582332594535e+00,-1.645172561346862183e+00,1.960763749614160334e+00,-6.487113139012692375e-01,-1.153029695660008763e-01,2.040555623834158450e+00
1.024616751570644357e+00,4.925270398529506544e-01,5.283072134693751060e-02,1.451587388554267388e+00,-5.635218971976877489e-01,1.514735370466863129e-01,-2.469978242779835229e-02,-1.317428276494631234e+00,-1.684391163457753304e+00,9.127003230413502921e-01
-1.722291019838275483e+00,-6.021621887528809669e-01,-6.405275262865722796e-01,5.934453731112319108e-01,-2.365041935977566734e+00,1.244577792891825352e+00,-6.683542572601186116e+00,-4.905527570589859887e-02,-1.259172929177807765e+00,1.187390362934295673e+00
-2.061235172122354076e+00,-4.991807011927175686e-01,1.212983693053045764e+00,-1.195581113300598242e+00,2.607740099297786163e+00,1.051168013412993485e+00,-6.651981153075338105e-01,1.215582647609565470e-01,-4.555730250617090471e-01,-1.605779255821026874e+00
5.105830505467853442e+00,-2.486985263226445045e-02,1.091031449759833682e+00,-3.008527432863779882e+00,-8.065271555710257223e-01,-2.218582732268300717e+00,4.701042200775104263e+00,-5.664418948070268023e+00,-6.841893949536169472e+00,3.843428682752510483e-01
7.108151810208974686e-01,6.158406032630243665e-01,-4.607331674656315323e-01,-7.336305395322866296e-01,1.126597007124209071e+00,-1.638265437125154822e+00,3.572111435088443532e+00,1.256573760756024283e-01,9.054704216595409472e-01,8.359720957694575239e-01
2.119209920243885770e-01,3.427344014743158307e-01,-2.011054730771508481e-01,1.941320559442597071e+00,-8.119924440892642981e-01,6.131348670533806056e-01,-9.154367175412846391e-01,9.669783121955427552e-02,1.183492968946702889e-01,4.814565525370027022e-01
-1.362307182825100327e+00,1.152597227919428313e+00,-6.457323070690512701e-01,4.789865055056949372e-01,2.793377452033726005e+00,-1.121209737482522062e+00,2.411207160170840247e+00,9.223457815043841768e-01,1.641073312093970449e+00,1.793081729417186798e+00
