8.809770187454631918e-01,-1.694115934010910651e+00,1.551268549040914824e+00,-5.336570159699949301e-01,-9.261641334838534023e-01,2.641938333894852775e+00,1.514980789238461911e+00,1.044773003700502079e-01,-8.692688329307027839e-01,3.611368508554959611e-01
-7.495535572758840193e-01,1.588204260152935365e+00,-1.177916521198802746e+00,3.450058930791553569e-01,-6.962136148738851116e-02,-5.994398650506337356e-01,-1.713661461260386210e+00,5.964615374884604804e-02,1.983497907156660967e+00,1.717291236987373293e-01
6.943159260725499937e-01,4.779830545852847834e+00,4.785394550606488551e+00,2.634614921854211644e+00,-3.028062200749984889e+00,-1.547688754734042993e+00,-8.725612937296857163e-01,1.639872892854351560e+00,5.010951655326209675e+00,2.222843841093821826e+00
-3.575316260592124706e+00,1.242829471076452030e-01,-3.349647815834166487e+00,-9.838818744624058255e-01,2.177384427824424762e-02,2.128804661702542234e+00,-4.379024413333135080e+00,-1.734034400871168113e+00,3.434084432794908714e+00,-2.519343181477497140e+00
-6.329876271343863881e-01,1.145134220419341986e+00,1.000001242981793048e+00,-2.154573942821303711e-01,-9.890319934096746257e-01,1.091839314317956999e+00,-1.499328123397263735e+00,1.939450702215561040e-01,1.992623301594153462e+00,-4.371071352837034851e-01
-1.968559186020871765e-01,2.511035975761817252e+00,-2.791590307925491121e-01,1.475436642590650660e+00,-7.879142969218474457e-01,-1.298978566572861038e+00,-1.218567448500623041e+00,4.495922032089390008e-01,2.997924916453786892e+00,1.427257088514881644e+00
-1.623039078337544350e+00,2.629557399168976684e+00,-3.107149346925702771e-01,-9.107775002199691716e-01,1.038610891137355496e+00,-2.282889089403143057e+00,-3.260581271378930168e+00,2.183660694750026998e-01,9.341198677184237020e-01,-2.380524743070341120e+00
-3.618864432172287371e-01,-2.351304844398092619e+00,-1.960805683385568043e+00,3.241468398142495211e-01,7.264707225591811035e-01,2.015471857480548856e-01,1.192137486119052348e+00,-1.222395431984450775e+00,-1.273633246777731376e+00,-1.217922814744601401e-02
-2.536314036217881540e-01,2.101858601388988390e+00,-3.429829092457925555e-01,6.363194959023915631e-01,6.832793108406409743e-01,-2.956689529980420339e+00,-1.003965229427069561e+00,3.964366689545204547e-01,5.803435011343033301e-01,-4.258645951953776709e-02
3.856652973206908808e-02,2.156776519175927387e+00,-2.249271385089692821e+00,1.882610227702269823e+00,6.441667244372085710e-01,-3.469279705536088887e+00,-5.005042679582025755e-01,2.299177266039204026e-01,1.482374278292427405e+00,1.792824719654396048e+00
