7.745040612249209921e-01,2.301136467280613385e+00,-4.155954584748898561e+00,-1.597987434768589177e+00,-4.420612765251740406e+00,2.071055766539879883e+00,-6.867829446501154678e+00,2.364861396076788136e+00,-1.663711339166049852e+00,3.364380876473457072e+00
4.508932269193289821e-01,-5.314358938481784644e-01,-2.092939315692211588e-01,8.847674331699209027e-01,-1.746904339930682504e+00,9.901851613416974285e-01,-3.116369993456238774e+00,-1.835537920525180389e-01,-1.511449928625247408e+00,3.252361571870902246e+00
-2.258294104502339472e+00,7.497662404372222866e-01,-1.443243816120988621e+00,-7.700572728596321026e-01,4.319677947661171857e-01,-1.535380371099579921e+00,-1.306103410179570767e+00,-8.829148660749087663e-01,-9.899157724360242439e-01,1.808024431975594037e+00
-3.413575293789551601e+00,-4.802701286758817467e+00,-2.225952192862952650e+00,-1.341198983796819122e-01,4.268003547235799111e+00,-3.791942256198409300e+00,1.380214397014326799e+00,-5.268424245850898302e+00,1.756935874681128107e+00,2.010700145951506146e-01
-1.680766497123175940e+00,-5.065969346374321169e+00,-7.666187504880055847e+00,-9.134025502194967894e-01,1.083366266266245770e+00,-1.858154574877549647e+00,-4.243791193267588469e+00,-3.307205715551285508e+00,1.751174595410979862e+00,3.836715515440510815e-01
3.917328809289976066e-01,-1.189396467644625810e+00,-3.797243340579561227e-02,7.635526819709342883e-01,1.205053936016433402e+00,-3.645876973491229411e-01,1.699857407304002699e+00,-1.117907952933099025e-01,8.367494567338578104e-01,-2.427062581469176639e+00
-1.912293865729856046e-01,2.434961556580312880e+00,-1.273704190564709515e-01,-1.053039879087348307e+00,6.203820530996174698e-01,-4.466585260264405721e-01,2.173667562693283983e+00,1.854651543769980870e+00,5.721749002322927824e-01,-3.287923024710010633e+00
-2.100964579814818656e+00,-2.238117990446321759e+00,1.381802707352063120e+00,2.898186143418633454e-01,2.212869133982124037e+00,-1.921148215324743225e+00,1.287202456269203266e+00,-3.540906775792377115e+00,1.958794825163558129e-01,2.262931553033538989e+00
-8.619223210451918415e-01,5.898292222081027880e+00,2.366747575020597516e+00,-3.683962024958268855e-01,-1.674613265591457623e+00,2.856673176577755324e-01,-2.220654071970210308e-01,3.140146839077488039e+00,-3.172717249857385458e+00,1.506058820675518328e+00
6.223607509160763440e-01,5.904563022599723432e+00,2.468285263558653853e+00,-1.323280968288737258e-01,-2.922171099270850281e+00,1.655311891240850874e+00,-1.018343999960487745e+00,4.099713091776915341e+00,-3.088269863955845906e+00,1.415727482732592080e+00
