-1.862601171332469496e+00,-7.673384468163255145e-02,-2.938798093599130024e+00,1.304155338492289928e+00,-8.804641824250771798e-01,1.362643856138529841e-01,-1.797385653038346742e+00,5.205350150011381349e-02,-1.185150432039087098e+00,-3.750080409481900023e+00
-2.941813325420937764e-01,-8.185948766877442218e-01,-2.319353408131845651e+00,1.023950331592835550e+00,-1.230745004006056798e+00,2.827819980008751677e-01,-1.314272729897857150e+00,5.158007914111034653e-01,-2.895034789836846700e-01,-2.658596041200862903e+00
3.302781092055596890e+00,2.375417454423023600e-01,-5.553727791960708648e-01,-4.226981421640249037e-01,-3.110691837544238836e-01,2.110476667727231970e+00,-5.541857880122568192e-01,1.269838658651808172e-01,7.512235662876201037e-01,1.184589882172275344e+00
-7.252161751336724471e+00,-1.226430043132053171e+00,-4.398075952620613904e+00,-5.711574041373260746e-01,-1.205743465426845740e+00,-4.264217158896316029e+00,-1.401918221879376203e+00,6.738689197967403510e-01,1.218778013304739893e+00,8.834367338906867761e-01
-2.103489233209781872e+00,-2.183689387377308333e-01,1.726993941454691317e+00,2.106453424349519210e+00,5.828626234331962808e-01,-1.313504976354050280e+00,1.019690036824668411e+00,4.561561648557344029e-02,-1.395609598171855037e+00,-3.286164746229086386e+00
1.596705215346339468e+00,8.996086367752086366e-01,-1.496477678327284566e-01,2.496992460799857261e-01,8.378953801018196312e-02,1.977635468678006436e+00,-7.848659389204001302e-01,-7.146891797560755988e-01,-1.688757020642121631e+00,-2.479704000692642296e+00
2.009479815401662872e+00,-3.670775342327026181e-01,-2.586153303076615728e+00,-2.871606306386635388e-01,-1.337505633790666781e+00,1.787071819476618861e+00,-1.748489041007196265e+00,2.073461880959047432e-01,3.607292737762785723e-02,-1.107749881713019580e+00
6.266946495138995488e+00,-1.947092391433214553e+00,2.369895194520718729e+00,6.134295566947929323e-01,-9.062148078300399368e-01,1.803388257378609083e+00,1.404563834818578494e+00,1.407971395287490379e+00,1.890893640509478058e+00,1.054916291117074856e+00
-1.971263437555705211e+00,-2.773225303265982156e+00,-3.185208830600994467e+00,4.849958038399214133e-01,-2.172095602191966623e+00,-2.309569547860889305e+00,-7.603859983050744731e-01,1.885279959169113617e+00,2.484778809783409148e+00,6.422550412000171960e-01
-7.499504680740820550e-01,6.321255150065575590e-01,9.648086804407299821e-01,-6.221562832951618160e-01,8.974793824960948241e-01,-6.789799494375833300e-01,7.552754559626063680e-01,-2.145151167496078815e-01,6.750995476727565947e-01,2.521590949601368870e+00
