-3.797145609632760488e-01,-2.117311081619617674e+00,-8.906325707078912579e-01,-6.387595491307530571e-01,-2.180085787655269058e+00,4.282603680637674159e+00,1.345619180312304985e+00,1.097386846077786693e+00,5.427676641849080719e-01,7.738342255629541144e-01
-9.056783882489425341e-01,6.138398897906243157e-01,2.334742119079082912e+00,1.704930999161859750e+00,-6.124022516621837831e+00,2.047186149542188360e+00,5.835562164841942012e-01,6.237456277551579886e-02,-1.524750857650827573e-01,-1.608574212639901191e+00
-2.840210711256069623e-02,-5.930788365733973500e+00,-3.707529415132591488e+00,2.842900971441536750e+00,4.527526302622002952e+00,2.457885097402761065e+00,6.230409804233263849e+00,-2.209866592753338299e+00,3.564235437869894607e+00,2.337250983876632660e+00
-5.077326815669933602e-01,-2.813839117342548324e+00,-1.448864332465865878e+00,-1.264516080392084074e+00,3.709089949679318376e-01,4.022613404459295161e+00,2.852201381980080441e+00,7.124342272065559145e-02,1.465001127041061224e+00,2.143861500694888012e+00
-8.845633068401587140e-01,-8.726299676723191512e-01,1.897609430921483042e+00,2.114691005019993408e+00,-3.719122196297123928e+00,2.229391767246723166e+00,3.479954042097730404e+00,-1.094809777348577207e+00,1.046873692093769570e+00,-9.293279611030963450e-02
9.949620420355909101e-01,-6.088990628465140026e-02,2.123109964189148491e-01,-1.262770876208354043e+00,-9.551817194313755310e-01,1.549546966051151387e+00,-7.470056009754270088e-01,2.673870729585097639e+00,-1.604866143358665509e+00,3.742549142580133825e-01
-2.412955061838603921e-01,1.360527491128161515e+00,3.952212663552583383e+00,1.683199723798389336e+00,-3.756363127358592457e+00,4.456516808627734166e-02,2.542826314373537677e+00,-5.044483381271978040e-01,-4.543058257235831898e-01,-3.623502374378948510e-01
1.063416951027995383e+00,-2.150267204198134774e+00,6.601412117204805696e-01,2.872550064842556594e+00,-3.247161518599631869e+00,2.898901556849954098e+00,2.546227767096204353e+00,2.074499681415271635e+00,-7.279028150218802562e-01,-4.479556261739546241e-01
-1.914720722202991388e+00,-3.316012497729373121e-01,2.707458762426731558e-01,1.500752073767956496e+00,-2.300875859369296006e-01,-4.292472812247765668e-01,2.274042375036998020e+00,-3.873667713804360702e+00,2.677768862691633611e+00,-7.653970302407542281e-02
5.310175423110923276e-01,4.365024467346383830e+00,7.669809588463414318e-01,-3.689995814094936044e+00,7.854763967912381517e-01,-3.498849520745702435e+00,-6.244118688062297196e+00,1.713659527336682142e+00,-2.686945621533737949e+00,-1.019589158827387321e+00
