-3.226556127432225196e+00,-1.161673622037123349e-01,-2.853860966398741983e+00,-2.374363813348702723e-01,1.777270314020836350e+00,1.822318841831907843e+00,-1.259146682409133078e+00,-2.047757417243192268e+00,-5.803499231354161125e+00,7.655590223302948250e-01
2.340625578504494098e-01,-3.024626293583843495e+00,1.453449737273655673e+00,2.791068333974252358e+00,-6.364293551750870304e-01,-4.750743501318864803e-01,-1.739959649613735282e+00,-1.352660379921824196e+00,-9.902512463829250544e-01,2.591567339744422771e-01
9.948038402067574948e-01,5.393780837655278049e+00,-1.994725739043709423e+00,-3.717326741709131799e+00,2.269432748760143517e-02,-1.588054391328626469e+00,4.576442707546510391e+00,4.277814677039628144e+00,4.054350868260736540e+00,-9.710831616458774906e-01
3.959309219349007591e+00,3.152981407002951819e+00,1.678354186313881780e+00,-2.812228156962542691e+00,-4.749018007927789498e+00,-2.930453724444444852e+00,1.883550122133666571e+00,-6.124136311582193543e-02,5.798841926286693926e+00,1.657896372147077635e+00
4.597992196044825564e-02,-1.036805405467988939e+00,8.707378735612512077e-01,9.163024993861860201e-01,-2.226374815400020246e+00,-3.968355855514210107e-01,-4.786761078768865252e-01,-2.028556320396110557e+00,-1.633935819226808306e+00,4.089230533590349492e-01
-2.008267921776736298e-01,-7.293973906176477451e-01,-9.970786583812271120e-01,7.569533043651497373e-01,-1.932652397751329021e+00,-1.495313636967999349e+00,-1.708878023468375584e+00,-3.192129606976659151e+00,-2.738925998852538957e+00,2.780945991478724899e+00
1.386313415556997830e+00,-2.490511983578437505e+00,1.603624327846950859e+00,9.353035324602619882e-01,-1.864498451251080491e+00,-4.141694773784163619e-01,-4.011138359879596216e+00,-4.321924763509724876e+00,-1.613796739412127479e-01,3.376843845340507855e+00
8.473331277308795428e-01,4.673359249887371725e+00,-2.794549143974248473e+00,-3.157447756181665621e+00,2.075032215889526466e+00,-1.633847831480027324e+00,3.206760951223182943e+00,4.657998041959346303e+00,4.343134960070990758e+00,-8.809697702378044282e-02
4.803229468995516172e+00,-1.813339723715186924e+00,1.551775588402499295e+00,2.670007648671206102e+00,-5.814117885613605097e+00,-6.933669302265135670e+00,-2.495257134362570905e+00,-3.203312213378337603e+00,3.676272295368577137e+00,5.724685588553095172e+00
-5.838441367994704478e-01,-3.542642319756739600e+00,1.620967055080975383e+00,1.281318443843633803e+00,-1.243113396168900042e+00,1.915704853959866449e+00,-4.628048040902703164e+00,-5.697713198589403838e+00,-3.694201078306167840e+00,2.313615658637290462e+00
