1.455321771740269332e+00,-2.956753921705337351e+00,-1.607089326411412111e+00,-9.970283601083825831e-01,2.030609806548987262e+00,-3.123627376153599755e+00,2.750998452333302424e+00,-5.605998841806291821e+00,-1.929127753184549210e+00,-3.025021408171012283e+00
4.770358820192338589e-02,2.247351622118443637e-01,2.856093292457725918e-01,7.720170559161744217e-01,3.469826934330531021e-01,1.424960656790241309e+00,-8.104153145705947914e-01,2.250565673523723387e+00,1.597902130471462900e+00,1.092646511623670769e+00
2.790775539034298980e+00,-2.065703919745311534e+00,-2.964395147440244571e+00,5.754363498842229863e-01,6.889502867893395610e-01,-2.203459462372150401e+00,7.605881391160239646e-01,-5.487044222742609723e-01,-2.702687524046105239e+00,-4.301696626277716540e+00
-9.685818089203414027e-01,-1.396028865883117143e-01,2.333457860269425588e+00,1.843783397981146877e+00,-3.188406407572273338e+00,4.625484670389353958e+00,-5.825070154447863358e-01,6.102675144483350245e+00,9.710268895813360945e-01,2.787228288758628825e+00
-1.678715414990404220e+00,-1.177455222846860217e+00,9.233873050306223851e-01,1.123121558145714349e+00,-2.497131208375229505e-01,1.170158244846891904e+00,1.441709146721367407e+00,8.537904146098688196e-01,2.307818722981025861e+00,2.524480677966107756e+00
-1.124637483617455747e+00,2.374126342280150403e+00,2.637792386917924947e+00,-1.495793092214648512e+00,5.127134389233992673e-01,1.963629471882761379e+00,-1.774645668652277131e+00,-3.844372210516719957e-01,1.797233347580977192e+00,2.754598810121440255e+00
-2.970181991535228994e-01,-1.819012201904658621e+00,-3.111489176063496842e+00,2.133213367561552332e+00,3.179017148015543803e-01,-2.694308897757499821e+00,1.936514152454274162e+00,5.016581764784959763e-01,5.456727860321777257e-01,-1.172466000336264802e+00
1.321217485705547867e+00,2.066813268662675007e+00,1.265272587035375373e+00,-1.020304294547696999e+00,1.977651928862012465e+00,2.221755670134954119e+00,-3.124648216820498092e+00,1.254448246130508648e+00,1.631532560315541502e+00,8.574798049613050477e-01
-1.711619953806025718e+00,1.224998281934932987e+00,3.879753360023853404e+00,-1.477086407209032171e+00,-2.145443783480354583e+00,2.919078944435514078e+00,-3.377355658981175957e-01,-2.656181956906895625e-01,-2.624393849762058917e-01,2.772420229101719258e+00
-1.693497372150452041e+00,7.673092481742089799e-01,3.829955220691491746e+00,-1.829189102837680547e+00,-1.006982798526264489e+00,2.404569965660122932e+00,1.605825479741139761e-01,-1.842777566689141722e+00,3.173699062403371185e-01,2.856720597728999333e+00
