-5.893285754719195246e+00,-3.607044735346187192e+00,-8.127048911211044446e-01,-1.791031219475873515e+00,4.985218792238669261e-01,9.836319143948686339e-01,1.252029033985082140e+00,4.111276153689375490e-01,-5.679787234171622401e-02,5.262737298583942014e+00
1.890124545153529789e+00,-2.132760402329933469e-01,2.947222989612436339e-01,6.241179305850322656e+00,-3.094853955813233082e+00,1.743508080905760371e+00,-9.059397139595003479e-01,1.222348155886616050e+00,9.218965849841004312e-01,2.593135069234021595e-01
5.458007269572981102e+00,1.873280045330847632e-01,-1.410974774911665230e+00,-8.297389156952084122e-01,1.935288797648679227e+00,-8.175691970882527360e-02,-2.032367315611461667e+00,-1.805511715567958975e+00,2.205000828099082710e+00,-5.305148092425698181e+00
1.795741716090015538e+00,-9.505904755263749895e-01,-5.564735109185361406e-01,8.176211281958298827e+00,-3.411317476024218198e+00,2.550811830608139097e+00,1.034458376282424874e+00,5.789360692225682392e-01,-6.627008733027005549e-01,1.062110565148607799e+00
-3.256131639126030652e+00,-4.419611455938921019e+00,-1.667939147378563858e+00,-1.188285709317800976e+00,9.293936227121334381e-01,1.646183131318333936e+00,-5.966723334533962086e-01,-6.664143080118954676e-02,2.242452103534504193e+00,3.172139579460058645e+00
1.278441546101930060e+00,-1.144739842087057147e+00,-6.266523871433503645e-01,4.515068994944236636e+00,-1.838944268035363372e+00,2.132569527609430082e+00,-6.419165968846947401e-02,4.090998378089326093e-01,1.603264739836641528e+00,1.279022723970800524e+00
2.562233673420800439e+00,7.998338008490316620e-01,-1.088001521886138995e-01,4.290683233666867658e+00,-1.687863926851550289e+00,1.092399447266616530e+00,7.065148292406432384e-01,6.963271908757090456e-03,-1.641854032150797393e-01,-4.607786532815240088e-01
-6.500414054384278106e-01,-1.334023510387950529e+00,-4.252328539003862873e-01,-1.801312409984849205e+00,8.644122029483393144e-01,2.829065409945167864e-01,-1.382017707023668329e+00,5.061825547206366682e-02,2.196945651803580368e+00,4.524782428281036717e-01
-2.542562896564079633e+00,-5.202257557841674096e-01,1.685858524749768994e-01,-2.719460868406549103e+00,6.691488200939836872e-01,1.788568726714582502e-01,2.267848636744093371e-01,3.972435570110038339e-01,1.760273648070654229e+00,3.037718980234990429e+00
-3.236870605571343873e+00,-2.219764717396484510e+00,-2.588542850523652961e-01,1.579911008648418269e+00,-1.326492089578847011e+00,1.982926477199143944e+00,6.663215060174091375e-01,1.100675654614806653e+00,1.814342474813799511e+00,5.172823730818127075e+00
