-2.989711609784329593e-01,4.677560848510953773e-01,1.495913429483746837e+00,4.757879378314266439e-01,7.454549160112280415e-01,3.539459381227656048e-02,-5.529140359219122391e-01,1.058795218803310734e+00,-7.082509617050243289e-01,-3.101498592287115663e+00
-8.875577563576261819e-02,-1.802215517277866885e+00,2.422296135632182601e-01,-1.122714764046404412e-01,1.182645113603179865e-01,-9.099023131225825178e-02,1.037768819787585395e+00,1.572245651179925208e+00,4.491854625211512686e-01,-5.356025355867483073e-01
1.024779590831953247e+00,-9.182775004112694317e-01,3.931850987408505915e+00,4.800873477892127483e-01,-1.679212866455454423e+00,-5.621412588202908539e-02,1.017203812360713666e+00,-1.159891406440780370e+00,3.632462779335584813e+00,-2.094598720683530146e+00
5.272158247880082804e+00,-2.940386749409243383e-01,-5.790666854797613672e-01,-2.927811913687591083e+00,5.076731162350338167e+00,1.745635914913116427e+00,1.278229332427940346e+00,3.141141581771634161e+00,5.381086250305048280e-01,9.572518999795356365e-01
1.399173391378075060e+00,3.216887562854510718e-01,1.233921958932845397e+00,-8.810422669946867957e-01,-5.263895562815634754e-01,-4.261864148065296343e-01,1.058302430683085493e+00,1.478754930838390713e+00,1.753582906144931064e+00,5.159940989447662218e-01
6.434407019971951636e-01,4.841870145853399698e+00,1.649932434297168626e+00,-7.442165156070045251e-01,-2.637262079928068381e+00,-1.685871431394779130e+00,-5.018825253182992441e-01,7.104621141425317976e-01,1.200040581404519191e+00,1.435151011424810497e+00
8.641870705896748106e-01,-1.905854857458657126e+00,1.088595956439603940e+00,-9.769161853596260159e-02,-8.882296409105169821e-02,3.419762552404018718e-01,1.141284968110552800e+00,-1.493594372828029870e-01,1.831920332215658309e+00,-3.398613024289272033e-01
-1.402449114971632493e+00,-2.780429729743726153e+00,1.901115616227093463e+00,4.225976843335199074e-01,-3.494229818881799510e+00,-1.537442271274926275e+00,2.380822737616312690e+00,1.931339136946818691e+00,2.826507931462503898e+00,-1.439354319612085598e-01
-4.468035085552070740e+00,7.413979944532930744e-02,-9.041041984051484404e-01,1.710572265058094121e+00,-2.693178580029294888e+00,-1.612243476013254906e+00,-8.003344254700911486e-01,5.847484216040161886e-01,-2.210751709850064195e+00,-7.971749048464709109e-01
3.171456732248902011e+00,5.413588163110672369e+00,4.856089011597759075e+00,-1.070590747750912675e+00,-6.186756592477388184e-01,-7.216876222799697427e-01,-5.775049096727903342e-01,1.163924574642392074e+00,2.473413518773845077e+00,-2.161294286550208721e+00
