4.618816989858368416e+00,-3.446396596845318627e-01,-1.776653152844960504e+00,2.445283845096855924e+00,1.914513771584060553e+00,-1.716182334659259956e+00,-4.091616704438804319e+00,-1.129055026845780407e+00,-1.395470865480616940e+00,4.331348566982817339e+00
-2.016783718861716590e+00,1.389428868812775664e-01,1.249368961846995418e+00,3.436882138547864063e+00,-3.998291282869963492e+00,4.154206655901989897e+00,5.614429295532706199e+00,4.747865332661480031e-01,7.142539277094624994e-01,-4.936752753330118537e+00
-3.477897066542595894e+00,-1.192936861010360117e+00,1.287865546041692122e+00,-1.614209926228419745e+00,-6.875425767935131605e-01,-2.481026094557639894e+00,-1.510945423964219270e+00,-2.486410639106555909e+00,4.403372922750453000e+00,8.404140928220440454e-01
4.492383353642646959e+00,3.277115814840174113e-01,-2.131962060146237015e+00,6.478297225350842403e+00,6.741381731725925031e-01,6.041866917867665110e-02,-1.762938191816767919e+00,-2.325833463501455256e+00,-3.241619383867367254e+00,-1.095312301834016289e+00
-2.082164746721950344e-01,8.340750054040544370e-01,2.233509642464555078e+00,6.550469258507747305e-01,-3.945064289181526185e+00,7.089351362918142385e+00,7.088620974877281711e+00,5.202963000283800987e+00,-1.165016309917746851e+00,-2.814283662162129662e+00
2.006872730556239048e+00,-4.830234851698250731e-01,-1.187110564399628254e+00,7.613299229226679898e-01,1.583252446614449083e+00,-2.369246238436387486e+00,-3.395261781978331062e+00,-1.584518671375339638e+00,6.938500697240591875e-02,3.093468428388228553e+00
-1.854077584213102314e+00,-5.053619955097961025e-01,1.747861366615802048e+00,-3.768976130336055164e+00,-9.187339157027071268e-01,6.065953937596599843e-01,8.793309117948140408e-01,2.107716715097902593e+00,2.533734330673367285e+00,2.558337927955416369e+00
-2.055474026145646338e+00,-2.231385300971951979e-01,5.937080901782521014e-02,8.251710044679895217e-01,-6.787982183776709588e-01,-7.226511753700356477e-01,5.804393600837742806e-01,-1.860929546463836459e+00,1.228368017022120506e+00,-2.278274925426355235e+00
9.749196555216802507e-01,-1.336111842696740659e+00,4.887398359734604902e-01,3.571291300005531966e+00,-8.720969651362359132e-01,-1.613434274178856986e+00,-3.318720282393254450e+00,-3.521851044733477210e+00,2.712859527873308529e+00,2.185293361985320093e+00
-8.134450477125257373e-02,-1.363485154088492080e-01,9.248111337241700092e-01,2.587626125543648348e-01,-5.740542120125087244e-01,4.726852237778004784e-01,-3.051928928895193960e-01,-7.195310283937139673e-02,5.052942352101652546e-01,-1.061007256972801294e-01
