4.200268485739008462e+00,-6.472702049498807453e-01,2.405343680028526054e-01,6.284401158666332865e-01,1.964364803150635774e+00,-1.161106479602643349e+00,-1.812559484690586142e+00,2.377476573158950224e+00,-8.491290750089918182e-01,-4.508515886168234510e-01
-1.327155031901539051e+00,-5.712421074307381108e-01,-1.782120465650867569e+00,3.383713626629031079e+00,-3.591460563408163775e+00,-2.370697368833863283e+00,5.994138637826726956e-01,-1.465913946166494120e-01,-2.315679242215352929e+00,6.863639891098358703e-01
1.160295146301430824e+00,7.225158091701629204e-02,2.450624558233936323e+00,9.453365540924034693e-01,1.147225521166527651e+00,1.808479194333202811e+00,-2.103770374964573087e+00,-6.243815235381492412e-01,2.511858034407599138e+00,-2.634431081331535807e-01
1.831395620773333954e-01,1.330677799435753483e+00,9.745224617314893756e-01,-4.038333026828894390e+00,5.029453782429365027e+00,-2.278894603781647099e+00,-5.355638250430394542e-01,-1.498475749833835691e+00,3.873253701142742589e-01,-5.158543100271252513e+00
-1.665519498344924854e+00,2.746767508389506562e-01,3.789338029063559210e-01,-4.003471712166203567e+00,2.054340032433529473e+00,-1.183351810544418958e+00,3.906567938588784705e-01,-1.596078775917245229e+00,-1.314417154510616914e+00,-2.929155642616681376e+00
2.873966384179034161e+00,-9.226566169245908888e-01,4.375891202866006857e+00,-7.205637969070979310e-01,2.149576572167430921e+00,4.986948670752529011e+00,-3.451033479233164059e+00,3.296088142537985100e-01,3.163618152635732983e+00,1.289185348449966684e+00
-8.170406668779414128e-01,-1.568125401092778537e+00,1.334906030236134633e+00,-5.094400432620507096e-02,-2.665684960960307048e+00,4.138577330243195185e+00,-3.780390934640212586e-01,1.543490110586090702e-01,2.974253766478524366e-03,3.728730298222860728e+00
5.601762830172922758e-01,7.691724837284188987e-02,2.751861675713698219e+00,-2.682253300765484738e+00,2.787566486927536502e+00,2.307459620081989904e+00,-1.572841586135514280e+00,-9.430950239309201510e-01,1.890178039474512017e+00,-1.153398401167917697e+00
1.279503460872741361e+00,-2.454008477248467435e-01,1.609332098499295371e+00,-2.203968912302332939e+00,2.097420037620199018e+00,1.782986244892880601e+00,-1.024414076064342094e+00,2.994720297272583931e-01,8.298992042671938796e-01,-1.853428058438462145e-01
-3.512177569270923949e-01,9.082092282162007590e-01,7.746486188502085812e-02,-1.532693398246548266e+00,2.508095518145981195e+00,-2.779842009374199119e+00,-2.351985202825989107e-01,-1.284402305160050384e+00,-4.003238288061725103e-01,-3.818804749656071529e+00
