2.542996033719360227e+00,-2.120293438547018461e-01,-1.201840519452070932e+00,3.104483773080894071e+00,-6.612068337477006175e-01,-8.285084683218300050e-01,3.861957588793138996e-01,2.172077489504877779e+00,-1.062286288516777644e+00,2.633967537408241633e+00
-2.718003776863479271e+00,3.812344303627787312e+00,-3.299460531672874453e+00,1.011740019355118481e+00,3.317897098271794132e+00,1.577834902368669301e+00,-7.190693623460402140e-02,-1.556993572246524238e+00,2.263773253213189118e+00,7.708301750576445066e-01
8.396027556596613595e-02,-1.929665032074055819e+00,-7.005620816259063854e-01,-1.922672188153456529e+00,9.818060159967118006e-02,-9.914090105801867114e-01,-6.341595554618042474e-01,-5.933830883084789676e-01,8.391776137137261227e-01,-2.121969517245500647e+00
3.540739746385702880e+00,-5.729381157917494249e+00,-1.985658238111711160e+00,-3.349797158208516201e+00,-1.955012402361783197e+00,-2.590942792185638499e+00,-1.676551563691925706e+00,2.078372442543945653e-01,1.524888707311786717e+00,-1.982644881745136534e+00
5.542869428517305241e-01,-2.214915537795245637e+00,3.890987604826083857e+00,1.310602717804835393e+00,-1.753089749223494032e+00,3.736466669414364450e-01,-5.627803069145017462e-02,-1.268344947045139781e+00,-4.602548545471174535e+00,3.588817253555169007e+00
-8.639403808395025308e-01,-3.558335006126083222e+00,3.772204256157283275e+00,-1.881610234410399762e+00,-1.174812234578086034e+00,2.156212287409762229e-01,-8.872660502353739709e-01,-3.236153607894741491e+00,-3.294932427168266731e+00,8.500998836473045994e-01
-1.227562334721869153e+00,2.644593025713105838e+00,7.047238139096639875e-02,-5.960298516764772625e-01,4.625109560381909235e-01,1.061071676758866156e+00,5.166589581616232163e-01,4.366709353536453175e-01,1.709988665037663225e+00,-1.212930412886257692e+00
5.629454012945389607e-02,-5.495832633296820369e+00,3.698340153162619881e+00,-2.244371248502500915e+00,-1.782778297976571169e+00,-1.797170292609943099e-01,-1.514719068276056957e+00,-3.941474021432320285e+00,-3.950224535722793195e+00,1.817869030643477490e+00
2.672018606128080620e+00,-3.386288006910744830e+00,-2.787027529445468055e+00,-2.787946930750882513e-01,-4.248111051364521495e-01,-2.126555062541228835e+00,-9.485045762553091508e-01,6.414657292524488241e-01,6.369774776271023287e-01,-2.126664027746869579e-01
1.700476284159357920e+00,-3.608192889474258536e+00,-1.587316463698770441e+00,-3.054347903622180560e+00,-8.269347385730453359e-01,-1.871990769313983005e+00,-1.113645440403593589e+00,2.943526528888562588e-02,1.801962396489954044e+00,-2.856943296275761934e+00
