3.343549822689593665e+00,-1.791431883207961651e+00,-1.637649584591595930e+00,5.274726802050782037e-01,-3.113235496298052851e+00,-2.875090167209200853e+00,1.262983203352811667e+00,-1.051433048304056150e+00,-4.986134580635902536e-01,2.781993311426582238e+00
-2.303783334840831643e+00,-1.380196112051284896e+00,1.833728630613129240e-01,-1.882314480897066433e+00,1.400105904354112196e+00,1.406438453397717003e+00,-1.161114525654299179e+00,1.764178403781115623e-01,1.058118210373957702e+00,-1.262948552055788820e+00
2.760614840270229298e+00,6.821199654672854606e+00,-2.180200081275949664e+00,5.583520613702344093e+00,-7.681028246476229171e-02,2.479637012176134636e+00,4.604566221167555540e+00,4.553760222155296411e-01,1.098672668475160208e-01,2.207632434283038236e+00
-4.786115193479435703e+00,-9.069684972612868101e-01,-3.485160133897322599e-01,1.399004664203040260e+00,-5.013469051292123169e+00,-3.073981179490246074e+00,1.638277344736874142e+00,-3.719476601435665053e+00,5.594478303121142027e+00,1.801790813349925635e+00
-2.287975359827144395e+00,2.725582224638832263e-01,1.001981568817295942e+00,-5.200053566825080242e-01,9.367774465566701680e-01,1.200918433416140463e+00,-8.631647799718167313e-01,-1.528835328240660818e-01,4.766596914072235291e-01,-2.217738922243618571e+00
-6.162822402182730919e+00,-3.628018199870438387e+00,2.318059044727079687e+00,-3.061117347333691452e+00,-8.230788572787817170e-01,-4.194475962503818045e-01,-2.954922863116922649e+00,-2.289319478122184393e+00,2.251946969847594460e+00,-4.659022303574062107e+00
-7.356702151526826050e-01,1.876301232643671213e+00,1.515998355444071244e+00,-2.055521314478485184e+00,7.078997474716786975e+00,3.692879072221340486e+00,-2.334906825021646704e+00,4.778335992134397081e+00,-1.471566005276893963e+00,2.605989100340055931e-02
-7.249494735020727276e+00,1.127551685960280992e+00,4.653232567431841105e+00,1.106300246783106234e+00,-2.559330726357397889e+00,-3.917489586536906820e+00,-1.638122253563251363e+00,-2.164633823149062941e+00,3.404238544846401204e+00,-1.510228627094805542e+00
2.162449759789375037e+00,5.929764087591320454e-01,6.158920965119888180e+00,-5.823982092376365216e-01,8.385948439537127541e-01,-9.730610409413392725e-01,-4.714971746740210357e+00,-1.234695090317050603e-01,-8.607387435531148157e+00,-1.030577300224957682e+01
7.643897493001523546e-01,-1.261512233045842590e+00,4.030272114234833225e+00,-1.505711845711367403e+00,1.827587490124408798e-01,-9.342853052165449590e-01,-3.725785503843876079e+00,-5.810274123633217824e-01,-5.305431840581450231e+00,-7.307040993055850642e+00
