-1.904949662022882073e+00,4.231544984285692118e-02,1.449321898995669544e+00,2.298294791921307034e+00,-1.970699534847934142e+00,-1.106525233170769118e+00,7.008164380498814738e-01,-2.473899929196296532e-01,2.798660940110896389e-01,5.361107828803495234e-01
2.737633192491384815e+00,-2.924707959367510490e+00,1.116660006521148274e+00,2.437866160426156448e+00,5.084841322884293691e-01,2.618362077671039234e+00,-1.857800925396184466e+00,-8.320284460018922967e-01,-8.947842880002696564e-01,2.891899195669397571e+00
1.227737468563117940e+00,3.837157334467961256e+00,-2.308772690003659811e+00,-1.730530621502932132e+00,3.458744436687716917e+00,1.096647623218141687e+00,-1.367208140674324834e+00,-3.351144236337308069e+00,2.626059157859669813e-01,-1.198697031762100185e+00
1.435260609210725180e+00,-3.185492232533044255e-01,1.194753910082164694e-01,1.262684874252138156e+00,1.671119664083049017e+00,1.180720971458071311e+00,-5.871338812348038116e-01,-1.572776023092327558e+00,-2.847783363751178465e-01,8.172092786114033558e-01
5.143179745486500254e-01,-1.209399998908491508e-01,-1.981331638834484377e+00,-3.827547506525439402e+00,5.965565415985038200e+00,-2.726129777705179613e+00,5.501302946261914961e+00,2.262742380440781353e+00,3.341224705563717312e-01,-5.125449493364364173e+00
-1.493063358788750405e-01,-2.189211104516917139e+00,1.242837196829367219e+00,-3.625121217255776740e-01,-1.021953676399341093e+00,7.000091522278868716e-02,-1.544399877216993677e-01,1.927702894258929642e-02,-2.282452245119452328e-01,1.894983590316339228e-01
-1.223018831328030798e+00,6.946556739613939380e-01,-1.802137537934922207e-01,6.512655561034588758e-02,-2.209964205637980239e+00,-7.664649716828455528e-01,9.027845013064818291e-02,1.876080106109932810e+00,2.266559117684858737e-01,2.531884178917829797e-01
-5.703786226734488540e-01,-4.456252515255409302e-02,3.170372019182087220e-01,1.972018160357311034e+00,-7.174619742587216020e-01,-7.237799882454618583e-01,1.114329698746422626e+00,1.504016754997600014e+00,8.103877613605722785e-02,6.095462472765641460e-01
1.236492495833961591e+00,-1.232007298905543946e+00,1.041823821866858929e-01,1.702980593176169233e+00,1.609419798085402198e-01,7.199507072737395541e-01,6.719556862875500358e-02,1.436222225782285866e+00,-3.787275717328536517e-01,1.434397253550718787e+00
-1.929059298538431111e-01,6.755436726666537162e-01,1.185810028775855507e-01,-8.602424322659419920e-01,-3.035244654299962264e+00,1.585714999074578246e+00,-3.652052794213159093e+00,-1.295950912132225463e+00,-1.013470723360474224e-01,1.604571409589912845e+00
