2.447171476978289295e+00,-1.488335859232717384e+00,-3.876942673019902474e-01,-1.809495366474426881e+00,-1.374969727941827979e-01,-4.816219744241417300e-01,2.343529389040688748e+00,-2.513311498323543614e+00,1.995952273441366387e+00,-7.837317833985373294e-01
2.771950079127563082e-01,-3.253718888900763995e-01,8.007664272422807539e-01,4.911543907803932463e-01,-7.230586253460115076e-01,1.893001751368065921e+00,2.336635856642062858e+00,2.128040565891400615e-01,7.887874504471493742e-01,3.747231231706328103e+00
1.081647355324151905e+00,3.825907821813326670e+00,1.935950315769586094e+00,1.419775107804893022e+00,8.935745899598680486e-01,-1.210873610627495184e-01,-5.029667678915447304e+00,4.878331222057351368e+00,-2.017224288806191423e-01,-9.896677308321715216e-01
-2.332906683941007753e+00,-1.798351152912611495e+00,-7.631131431192160752e-01,-1.169438310396956338e-01,-5.749658574930076593e-01,9.394705253041322202e-01,4.038426492548496505e+00,-2.518834305217726222e+00,-2.064722774111236170e-01,2.481497356637815344e+00
-1.579312868440575945e+00,-1.406937087923025631e+00,-8.997525447668327514e-01,1.407006994807327827e+00,-7.336523595114313734e-02,1.309220953748496952e-01,2.048349847574432836e+00,-1.221956624625876620e+00,-1.192584844286650736e-01,4.811188235200415386e-01
-8.069262713446277990e-01,-2.344912283449335222e-01,-2.668113138460756484e-01,-1.531625074500485295e-01,-6.332618625463162232e-01,4.012177729292421002e-01,-1.700181864540441401e+00,7.252497755184802442e-01,-1.872908066587202214e+00,6.826205671565787059e-01
-5.416946286323328641e-01,-3.311303027326281345e+00,-2.535020819671689019e+00,7.728713828018146659e-01,3.726718949397983538e-01,-1.865959723438032514e+00,2.783312646320773354e+00,-3.911046285180915572e+00,7.026762453725181601e-01,-3.315367581486461823e+00
4.323972652568561226e-01,4.582096272409005300e-01,3.251879393637748250e-01,-1.922134315013335482e-01,4.490339622498775718e-01,-2.528519990117555349e-01,9.250138870901818411e-01,-3.562638459962720883e-01,1.133486685610763045e+00,-3.989172729686343843e-01
1.468097481941818439e+00,-3.120416006481298687e+00,-1.178466922300954733e+00,-1.600247773859040157e+00,-1.891305443882153603e-01,-3.821876563426097606e-01,5.927806841143749672e+00,-4.957365339936687043e+00,2.832540734950713457e+00,-1.394633886812532975e-01
-1.211133691585369654e+00,-1.407793964304541401e+00,-2.988709150262988112e-01,1.739948544150505594e+00,-7.899179264827937974e-02,9.687628926840785581e-01,4.509107680357965720e+00,-1.615473379246137542e+00,1.369678296533018980e+00,2.257025021785970864e+00
