-2.347078927502316059e+00,9.374020201935185925e-01,2.631967758220054687e+00,2.252215991429246666e-01,-2.358272105546075359e+00,1.246021074017527708e+00,-1.120978863157123140e+00,3.524864616273529760e-01,3.783193391209821232e+00,-1.664815583925140619e+00
-7.389550795057753252e-01,-5.596279158707971879e-01,3.262632239461412009e+00,1.340094421737814956e-01,2.436864951605172483e-02,-1.597997474184241540e+00,2.399487406336869189e+00,3.044124496741368535e+00,2.433088334117461837e+00,-1.050825016951235646e+00
3.255071662058360626e+00,-6.209003644768999741e-02,-5.792116656164724375e+00,7.706258244247055078e-01,-9.712436144778331393e-01,-4.658466917737009716e-01,-3.008987766859411384e+00,-1.227121265328433575e+00,-7.121378950385972573e+00,1.295399106163902747e+00
9.115953839244946844e-01,-1.528042069311221551e+00,-5.086715110956202546e-01,-1.953578094748674165e-01,3.047777646650727590e+00,-1.373617733314029810e+00,1.262270196477351947e+00,5.114696458871358375e-01,5.644580189126917613e-01,-2.845083550781698500e-01
-1.344759417182124439e+00,6.713546616405378087e-01,1.598817112357302950e+00,-3.315209514870611218e-01,-8.808433045914724202e-01,1.145486100830236387e+00,4.281902173731137462e-01,-7.925961724125015762e-01,1.444381728185394786e+00,2.337968762726005956e-01
-2.010813172358020040e+00,1.301095773370208430e+00,1.819509423082402044e+00,-5.430308576989053559e-01,-1.917253876959954528e+00,2.344502137885736026e+00,1.427941965228500532e-01,-2.181976559162670970e+00,1.322267191779220585e+00,8.249401644395131239e-01
-7.488174589451757068e-01,-3.443151267228338752e-01,1.126757310461961037e+00,-2.327648357580161254e-01,-1.624190140538524618e+00,7.700025275275712566e-01,1.269932273378523879e+00,-1.760699422704953943e+00,-6.037559801189840147e-01,9.152110342776668128e-01
-1.237229112022318445e+00,-8.708453648860935425e-01,2.679499541475695246e+00,-1.061290559789438648e+00,3.114015202345392197e+00,4.077338348440777416e-02,3.300878498369150371e+00,-4.858324846027031740e-01,3.621778192445176625e+00,3.085567156585915516e-01
-1.631330762440461379e+00,-6.589053091610960200e-01,2.473112553913176193e+00,7.363240617842496949e-01,-4.659132729344657164e+00,3.458679692588318977e-01,-8.652768827231424598e-02,-3.024385719304506503e-01,8.652323236378002269e-01,-1.255223074680886119e+00
2.847213514849937344e+00,-1.850214682455179949e+00,-8.408623663156666872e-01,4.817100262409356737e-01,5.069057819259800368e+00,-4.721590862471215289e+00,1.824578410104932935e+00,5.861668200422819552e+00,1.416508169244295179e-01,-1.515647376606502394e+00
