2.081724146749265536e+00,-4.835952322776211787e+00,7.691885459567423533e-01,2.267219427357660966e-01,1.854036699933486521e+00,1.606500520223566264e+00,3.357768617647419962e+00,-4.019861488471780930e+00,-1.078147459124434854e-01,-2.514532023373059921e+00
-1.129337482595921927e+00,7.685964652833967570e-01,-7.699148474871754244e-01,-6.307050778957529191e-01,-7.249916933446324263e-01,-6.611054408768651802e-01,-1.151057766256802450e+00,9.842021706425552185e-01,-1.924031237779123549e+00,8.962714560202349467e-01
-7.314575994223135869e-01,5.903717482890157298e-01,-5.372314968530050860e-01,-1.010726280626080831e-01,-2.619676529876029947e-01,-6.644432040477513679e-01,2.691496660857402023e+00,1.270988320182492304e+00,-3.754515518636609706e+00,-1.136379410371285426e-01
-2.902735592694036804e+00,1.546159886043911413e+00,-2.911075716349899034e-01,-8.162547101455868148e-01,-1.548013066580228525e+00,-1.159281551461409432e+00,-2.084682849630512536e+00,1.364227995677036009e+00,-1.524128812267374344e-01,5.666230719012277373e-01
-2.939908445988220098e+00,1.178948541470029587e+00,1.950185377964217093e+00,-6.890411442721600110e-02,-5.842952588248762069e-01,-4.443350245999655446e-01,-7.158369810551286072e-01,5.393194198211263002e-01,5.612508590745017401e+00,-1.345693334611262504e+00
-5.729744612045947205e-01,8.037213580610252928e-01,-1.413259755774443516e+00,-1.015358513108940430e+00,-3.996903650823929732e-02,-6.909103434677134059e-01,-2.765558633486645546e-01,1.902080272800014127e+00,-4.841815477303548221e+00,1.696091843859554249e+00
-3.863149150599419990e+00,-1.145102181214788795e+00,2.028104171181224658e+00,-3.216653794710774283e-01,-8.498205442563001588e-01,-4.394702184447279447e-01,1.565525610801924428e+00,-1.310698762980108123e+00,3.844300664132432210e+00,-3.156016370101105473e+00
2.005544983301386086e+00,-1.477811792893057419e+00,6.095755673240856876e-01,-6.329976707481841380e-01,3.091913238583099854e+00,1.241114213648456976e+00,9.185618797604832020e-01,1.805839942947822518e-01,8.697622193039686311e-02,5.385342498646581433e-01
5.595833293676957254e-01,-1.222128614563546822e+00,8.331067053445624371e-01,5.207728425592981214e-01,3.154668052818755397e-01,5.894662084132947788e-01,7.656702797317107567e-01,-1.605635780779383737e+00,2.314785166170152841e+00,-1.295640958318842628e+00
-4.299588528259509879e+00,3.759924734572940519e+00,-9.506109200504552215e-01,-6.589435808907252445e-01,-2.828982807456449589e+00,-2.348418885573561266e+00,-6.435237148522023887e-01,3.506921644499692015e+00,-2.982383156312756078e+00,9.423836812800390206e-01
