-3.318442239490592360e+00,-3.701233943175765706e+00,2.187321806913056221e+00,-3.201051654490362441e+00,2.503275630194451207e+00,1.106422124209842428e+00,-2.843504293208563016e+00,-9.195851133789897935e-02,1.005557572452918935e-01,-7.299599312568191278e-01
-6.099302044736658601e-01,1.412059726903568180e+00,-1.448175969857320444e+00,2.370891467232904837e-01,1.219899365035413075e+00,2.272054422193996864e-02,-1.234009498899727664e+00,1.544090664642040700e+00,5.581864946471843947e-01,7.787800219318444794e-01
-4.892739495395362681e+00,-1.185084249998065387e+00,4.375547619707050306e-01,-2.588413286355310539e-01,2.041972442590946013e+00,5.547261137664394326e-01,-2.364075099742191988e+00,-8.330274739400529427e-01,2.680581890810067591e-01,1.628935992988499226e+00
2.185217274057770886e+00,-2.943831651634146951e+00,1.204871446941278901e+00,-4.950904430563804581e+00,-1.319705237700868006e+00,3.897899556506784768e-01,-1.962342627984102306e+00,-4.831115025288617026e-01,1.631707906605381231e+00,-4.232581498408943155e+00
-9.318935196253884667e-01,-4.147648185496406903e+00,3.588059719725283259e+00,-4.621675720098466833e+00,3.366960688492334430e+00,2.391137241838657612e+00,-3.007251074101277233e+00,-3.380249357798555954e-01,3.434410245494668779e+00,-1.351901186674713484e+00
-1.094336163753985014e+00,-1.419712639924534114e+00,1.147174941197048659e+00,5.130656903012915659e-01,-9.089233455254748240e-01,-3.554047667528517085e-01,1.160667272915570702e+00,-1.390324510717565021e+00,-2.001318615519225741e+00,-2.786676381710208317e-02
3.276574623602775738e+00,-2.459575913325869223e+00,1.561235932477964994e+00,-3.510290390704087660e+00,-1.735248969533702779e+00,2.101294961295346875e-01,-5.977272237620059187e-02,-5.646793647958461282e-01,7.273398122236937047e-01,-3.710518806967471939e+00
3.908865254731808569e+00,-1.819360660455594747e+00,2.882152074043774714e+00,-1.709988147170863781e+00,-6.048777854972119394e-01,1.158530166238139980e+00,1.544545600810214525e+00,-1.439372257322562909e+00,2.433841360670890186e+00,-1.788344800722164951e+00
3.040439116825017329e+00,-4.487804190152932526e-01,8.499928535231724425e-01,3.532007693793098202e+00,-4.436583476592725894e+00,-2.379836204821343948e+00,6.712040849249422791e+00,-5.683876609201928831e-01,-7.795979764579460181e+00,-9.898530678240327063e-01
5.267841911844771019e+00,-1.734249415761812019e+00,2.508092387215006713e+00,-2.211716038997258327e+00,-1.079275926928257912e+00,8.239624493651043213e-01,1.806699271588774192e+00,-4.810732427470051920e-01,1.673071788247334490e+00,-2.772512773703640576e+00
