1.332986318931226322e+00,-1.927896920040349960e+00,1.909415356010389919e+00,-1.219125204153093250e-01,1.376352252431621848e-01,1.375086573356435471e-01,8.488310912789337470e-01,-1.302045842230778794e+00,-9.358258358927998843e-01,-4.279899548462204883e-01
1.365648145809984282e+00,-6.417013884055754458e-01,5.756115968765290747e-01,5.080587742406541540e-01,5.174418475342551504e-01,-2.665621137412315655e-01,5.155261961933423898e-01,-8.806164942786012251e-01,-5.225496418457192815e-01,4.493260015467886448e-01
1.396973353235663851e+00,-4.907208705187169895e-01,1.515321098044414561e-01,6.253500972193315466e-01,7.361238429385685844e-01,-4.608981457540405891e-01,3.356913330078777347e-01,-9.314553993905189122e-01,-4.234899042972175565e-01,1.083227808429649691e-01
3.130990255768982156e+00,7.679380752417487299e-01,4.064017763336185696e-01,2.430340766203075820e+00,2.213359205326007828e+00,-1.369178069747022164e+00,-8.385746455962074866e-03,9.586156429336331608e-02,2.555865228455539984e-01,5.419452304957989242e+00
9.949321530377319700e-02,4.062403559075603021e-01,-3.953064428655703177e-01,-8.666620678735924566e-01,-2.936310742909589155e+00,1.144556762099346869e+00,1.645454050682755298e+00,-1.745069640947258804e+00,-1.915067582985293670e+00,1.964354968678679592e-01
-2.467172376903904230e+00,6.627739593766606152e-01,-1.664188149004438122e+00,-2.415560758578597866e+00,-4.690767426273183105e+00,2.326900191840880705e+00,2.139809776772359395e+00,-1.785061478479934127e+00,-2.151422052574297528e+00,-4.043812480330339909e+00
1.360402166013385372e+00,2.026632375621649107e+00,-2.906903172576052796e+00,7.315655589704984640e-01,-1.301880132969731374e+00,-2.718463851305250034e-01,8.980263125046310524e-01,-1.966429516257955479e+00,-1.408094023014862639e+00,8.793905541486027877e-01
-5.047492840814109538e-01,-4.393193610396767812e-01,1.000943060918533023e+00,-9.765554299039204134e-01,-2.075640589739785824e+00,1.381767939708890003e+00,1.608169715117898635e+00,-6.891560729656849293e-01,-1.216279340784651497e+00,-1.238797976838897918e-01
-1.803900889810748254e+00,-1.417382800367754658e+00,2.371446533471106122e+00,-3.493336897189120993e-01,1.729577460964290214e+00,5.295657888158744608e-01,-2.678362115637141216e-01,2.469654239357253367e+00,1.685142015416877470e+00,-1.249055226175106892e+00
2.884508805087277583e+00,8.102513923465040069e-01,-5.371408176434891990e-01,2.270539506014519038e+00,2.833506197577232211e+00,-2.374729887447936783e+00,-1.966880353206914345e+00,3.189051983693346748e-01,1.028892070225145838e+00,4.413785270902905289e+00
