6.267010756330217980e-01,5.341685735528249879e-01,-1.439922947794402663e+00,1.516265537002750019e+00,-1.852040619332432581e+00,-1.918968471829535782e-01,-1.927795142158176045e+00,1.461435485199207296e+00,9.597655292902653734e-01,1.118618579204481378e+00
-3.962047453023319066e-01,1.416748625377997894e-01,1.833241752086654519e-01,5.344887481586499955e-01,-3.824234496845410058e-01,1.254627075238877731e+00,7.968623455536953948e-01,1.730038314737597505e-02,-1.475034471918523105e+00,4.696337766048402917e-02
4.067849134706303715e+00,8.810727831321519821e-01,-1.875925448933847495e+00,2.176344661735476471e+00,-3.325993528551716594e+00,-5.947450744968160175e-01,-5.021946320815805720e+00,1.728349885953199383e+00,2.581786252996686848e+00,9.316078331043059491e-01
4.089214718784924152e+00,2.300788211932982552e+00,-6.319498863947321521e-01,1.400254955050266537e+00,-2.408577852093979121e+00,2.401027423264492811e+00,-2.465549436646931714e+00,1.354738734814114665e+00,-4.006524899551604235e-02,-1.099300001111500613e+00
-1.137692282999159366e+00,1.407446019454598130e+00,5.345318308590640832e-01,-4.980054576099569585e-01,1.131579220625336113e-01,1.524935092476265686e+00,1.898276495848241430e+00,7.454415555408511196e-01,-8.690951274585365649e-01,-1.172308343618342796e+00
-5.968002332538413501e-02,1.784333830302722301e+00,2.026274131931188993e+00,6.569241961395526630e-01,-3.151628014546562717e+00,2.999529226444166419e+00,1.538203697318757390e+00,1.309356273848552021e+00,-1.437067634879432232e+00,-1.839825781232517166e+00
-2.795436021476721322e+00,-2.722465372006663387e+00,-4.768055800499350738e+00,1.491268061227112307e-01,7.155744098983557677e+00,-1.515209878260246112e+00,8.185882883323600812e-01,-2.442979992439414438e+00,-2.969969916107613628e+00,4.377909584112297914e+00
-1.854854722173777226e+00,-1.125179364256922110e+00,-1.461908035301088260e+00,-1.853316813429655818e+00,5.535731547618155446e+00,-1.231464276712998407e+00,1.756360808561846731e+00,-1.902828536479312493e+00,-9.640124854063769622e-01,7.741560853755450333e-01
-1.320500080294249257e+00,1.713442790508711511e+00,1.821430180562290557e+00,3.579850053824847889e-01,-2.836073971996985854e+00,2.242011491014322289e+00,1.972162747266611449e+00,1.651166029539379299e+00,-8.159931201899213171e-01,-1.552186651741708001e+00
4.752024402082195564e+00,3.529663086613678002e-01,-6.453076360973930559e-02,3.551798451237104803e-01,-1.630067794338011300e+00,-7.204881355415948541e-01,-3.908449829899095285e+00,-1.105941320976427944e-02,2.346604300099691454e+00,-7.222934178000918193e-01
