4.015735611781710013e+00,-1.043711361683973715e+00,-5.050209026385219513e-01,-2.208652541320745399e+00,-3.906480996841271147e-01,-9.058174548494314637e-02,1.992669907661557271e+00,1.561245595353222715e+00,2.687009326467979520e+00,3.773335586674056996e-01
2.871384689262262757e+00,-1.873686255833837411e+00,4.589357349550187593e+00,7.782539870502064305e-01,-5.515317910998221995e-01,5.322315246386947862e+00,-5.260477296025324101e+00,2.756379319359740343e+00,-2.720080078658694500e+00,-2.379877269987035415e+00
1.366421259814251110e+00,-2.177139092672212950e+00,1.645118274964301852e+00,-2.988110171085038402e+00,-1.127430961699534606e+00,-6.344475876877555542e-01,1.679197404711134434e+00,1.331465390872375698e+00,9.482008062544582394e-01,-1.238401776113476460e+00
5.046790111089962672e+00,2.012386363157039337e+00,6.535842087423988644e-01,7.202483158032791932e-01,1.797578278706785548e+00,4.311818356182978818e+00,-2.718112623171169417e+00,1.201611616321263787e+00,-2.010253302965425704e+00,-2.924459766064491983e+00
-9.995925388978099679e-01,3.176232261186072936e+00,-4.474256932893452721e+00,3.381650620196233969e+00,2.298366334272397893e+00,-2.382220000334697829e+00,-3.765180621919866355e-01,-2.413874756723404236e+00,2.273039718328831171e-01,3.444186870604862172e+00
-4.274602755245703101e+00,3.601838058720507885e+00,5.308066587355657617e-01,1.753167434879475683e+00,1.007520829669300344e+00,2.362011773746677257e+00,-1.021512613891042642e+00,-2.330335138417650942e+00,-4.125295250565452321e+00,-3.997246410761544855e+00
-2.027136475272175442e-01,-3.204426065004089885e+00,7.377122500963900764e-01,-1.571613037934546542e+00,-1.003584450461004307e+00,-3.468167191461768439e+00,7.098956757265267870e-01,7.485557473285402441e-01,1.319172766628060822e+00,2.093818461041990986e+00
-3.161951302728924329e+00,9.255197857316781532e-03,1.314509382472836663e+00,-3.305640265574577574e-01,-1.246021635639749325e+00,1.282657502096864244e+00,7.247356845112943313e-01,-4.700952224826549508e-01,-6.072882138338272506e-01,-1.655859710487298297e+00
-2.372366007785345676e+00,4.191533436495634035e+00,-1.344918892176654612e+00,3.466301362920369833e+00,1.486856790188320954e+00,2.962272948876322864e+00,-1.807102737775545975e+00,-2.038278596451984725e+00,-2.506759315981720082e+00,-1.321285875410808552e+00
-3.298784414279994359e-01,-1.273466277362297061e-01,-1.332585192077179848e+00,2.545265494213506674e+00,7.987123205654744762e-01,-1.533786467281011756e+00,-2.208333545838078837e+00,-4.528021466225359837e-01,5.966427456369277280e-03,3.460378896914060753e+00
