4.203418053799600429e+00,2.037633687067159194e+00,-2.704336381755263918e+00,-1.037221539445044360e+00,9.256639287332973920e-03,5.114475685537271943e-01,2.395082811190059502e+00,7.285574829181005185e-01,9.111626164562964814e-01,6.732876470719069140e-01
-1.254091896907277626e+00,4.390660815245964743e-01,-5.332699814512044334e+00,4.921331396183391327e+00,2.915324850999135187e+00,-4.801167366804128811e+00,9.755982882852487492e-01,2.180144328994879199e+00,-5.384229760034064505e+00,-3.196147208362921432e+00
1.402808754269463831e+00,1.031994621226429043e+00,6.784947522262558817e-01,7.080842628167316466e-01,-4.961955318154017136e-01,-3.190342991665687800e-01,5.092715803927977403e-01,-7.993530249306114444e-01,-1.901769228597228745e-01,7.777843016390636466e-01
-3.266691659085949162e+00,-1.675276258654826211e+00,1.529166101726904259e+00,2.053405212375759348e+00,3.311315516121151048e-01,-9.359053139717911085e-01,-1.832167189124924045e+00,-1.833593496067534856e-01,-9.756633793607628613e-01,-1.182540390083085535e+00
-2.669097029235585783e+00,-1.871376821841015836e+00,2.455555561724302116e+00,1.347696060008626961e+00,-6.377390128922744150e-02,3.949631788487963924e-01,-1.784214008774449578e+00,-4.904852450079517645e-01,1.150841504098270018e+00,-5.382032647316347118e-01
-1.021249732701260848e+00,-1.905782108581684509e-01,1.732028683274279945e+00,9.009416275920133499e-01,-3.277212328448207423e-01,-4.993687514194460886e-01,-7.300948266699744948e-01,-9.449799848714940387e-01,-6.411488588466086602e-01,2.980715430925505172e-01
-4.398094596168204973e-01,-1.663568575343266076e-01,4.666492628232509432e+00,-1.302414406737893549e+00,-6.611140944455053958e-01,2.223932770154449123e+00,3.101990353478578655e-03,-2.972986029890633208e+00,4.149639602699846108e+00,3.412590678866846972e+00
5.665347733762884364e-01,6.429777494398734028e-01,9.130472424592808167e-01,-1.822271276683563590e+00,-1.409604993373231308e-01,9.108292369979882341e-01,7.753313652953434110e-01,-1.117054030292048195e+00,1.244708001289275945e+00,1.906821991053381682e+00
-3.738029917570666161e+00,-2.003258979654067407e+00,1.785113368211990181e+00,1.383057199206023435e+00,2.083311275124631323e-01,-5.931703933959908692e-01,-2.148908189178009742e+00,-1.508077544913616619e-01,-8.377748995903063767e-01,-1.180061182702741851e+00
-3.562414136861602021e+00,-2.554747558828786236e+00,6.296117894317527330e+00,-2.190391137780899111e+00,-1.111356992337159122e+00,3.284538084685882708e+00,-2.360462767738098044e+00,-2.496921172961223956e+00,4.709163354714452687e+00,2.203666197825423723e+00
