-7.790622748736967251e-01,1.764643914383331735e-01,3.937946158791899354e+00,-2.082247038808762163e+00,-1.071096386010422119e+00,2.405820429643475700e-01,2.933732797345293797e+00,-1.850718813526525952e-01,1.606691524717095865e+00,-3.628783776768155001e+00
-1.804667065925349423e-01,-9.155183620495477292e-01,-1.742057252968738146e+00,2.363825090498371750e+00,-1.268744671433475579e+00,1.731575650442880754e+00,-7.810415799377059543e-01,7.402365504221995740e-02,8.819655899927656417e-01,1.066541562060448339e-01
2.401586640103030135e+00,2.545619221684252143e+00,-1.092937716774351031e+00,-1.669426954057277035e+00,-6.647659393747571421e-01,6.536479849005846776e-02,1.142665671718347653e+00,-2.301986917745413752e+00,-1.683863199340479566e+00,-4.052037716893626573e+00
1.753094371867041507e-02,1.513348880232611604e+00,4.821652705770945069e+00,-5.080559872255247633e+00,-5.386133066014692217e-01,-1.673142174097746571e+00,1.740297252035651443e+00,7.077388607521659658e-01,-1.650276364846948729e+00,-3.168960841909637782e+00
-1.301949279934937254e+00,-1.806603368540470045e-01,2.167381694863726782e+00,-4.951296222509165568e-01,-1.193446199877096353e-01,9.905263156350225806e-01,2.417566639629928016e+00,-5.257933925955049492e-01,2.974282766874440931e+00,-2.796748730257883064e+00
-4.287322397678934582e-02,6.553123756232654973e-01,-7.588281605697811960e-01,-2.101281469445260841e-01,1.697397943331392933e-01,7.276094197642880568e-01,1.164313560777174676e-02,-4.906688491427658172e-01,5.000249123212280322e-01,-1.479448505399039160e+00
-1.191473007463599151e-03,-1.066579295076880873e+00,-1.811482982481099402e+00,2.161229866417928580e+00,2.125227480001850466e+00,-1.266984858004012393e+00,-1.093359081352690554e+00,1.685744587010871987e-02,1.347675931652710709e-03,4.771138400943423008e+00
-2.094313504945534365e+00,-1.177486004306008027e+00,4.601494970264496054e+00,-5.679543400796338570e-01,-3.234367181011968406e-01,5.616975502276049248e-01,3.934502574954713339e+00,-1.827183720138216561e-01,4.184443546778600087e+00,-2.480862042999271821e+00
3.105640120777135582e+00,-2.362538196508115473e-01,2.404096444907106278e+00,9.342402328640616593e-01,-1.905674140781509429e+00,-1.669301372720695120e+00,5.221687468167313106e+00,-3.337217274513078813e+00,-2.535030579769665393e-01,-1.251970364333233166e+00
-5.290488434576575472e+00,-1.490290599515548875e+00,5.495014022054680147e+00,-3.405683698714060625e+00,1.166521355645325636e-01,9.213879555214115058e-01,-1.266624038456435564e+00,4.929004318993644773e+00,2.517744592049575569e+00,-6.078027172949869161e-01
