1.844450166296895066e+00,-2.736794199801294347e+00,2.283769163072024710e-01,5.438014613095919492e-01,-3.452269427082224951e+00,-4.209987567772395245e-01,2.646965942953446671e+00,-3.214999726284461179e+00,-1.212643739160579770e+00,-4.532141334841031544e+00
8.894651631291533578e-01,2.243052729154825453e+00,-8.491255845566444416e-01,-5.725386598485615597e-01,-6.241929848454488283e-01,9.740057382540205921e-01,-9.789795156468259485e-01,-1.827224055939872527e-01,6.113379307730172352e-01,-9.641789954641021287e-01
2.777742966943645531e+00,-3.743113416810639915e+00,-1.674437733565421915e+00,1.405869514376797857e+00,8.800357644172955851e-01,1.457810664668245382e+00,3.146295899689008913e+00,2.557002483477999633e+00,5.749422228809820901e+00,-7.137827281077480102e-01
-1.331429854968361193e+00,-1.889003152260354090e+00,9.816052400169981151e-01,3.354367758705594782e-01,8.990155570015236908e-01,-1.406628951220932677e+00,-1.094307150374980830e+00,-7.984087337907950221e-01,-9.659493931817407786e-01,-5.071998041053640272e-01
-1.543099306105154778e+00,3.216937936512171525e+00,9.834634196654037375e-01,-1.736565531502774595e+00,-2.276249308626325352e+00,-1.011813636902136881e-02,6.914198766431348675e-01,-9.515725113028897786e-01,-2.875028343133585018e+00,8.525723458385596754e-01
3.970532517855136501e-01,-2.345114118167195283e+00,3.090521119477085410e-02,7.885202828791851304e-02,-6.365093316220763464e-01,-1.873251702977560829e-01,7.366720897589217332e-01,-6.845009301722854156e-01,1.736950648151390997e+00,-2.888460859865751740e+00
-7.391644106996539954e-01,-7.464752542092280230e+00,1.731559675756842331e+00,5.059169807031513422e+00,5.256560226842132977e+00,-3.618672278368009643e+00,9.356979765290960316e-01,9.783125811890927004e-01,-5.279523944440861705e+00,7.344912779467536623e+00
1.113915343944804182e+00,-2.022725988058153845e+00,-2.121070681937034519e-01,1.573062425738806613e+00,7.561429753439743440e-01,-2.855814030400551373e-01,1.091167061764140689e+00,2.858135947397435483e-01,-5.575434189815760000e-01,1.235691179876463597e+00
2.945054362083145527e+00,-2.365570502174165757e+00,-1.710282568487448751e+00,2.530493759888957417e+00,2.450961614251566445e+00,3.777081727137613365e-01,-1.251558780111068359e+00,6.992948474296166728e-01,1.866883218151019541e+00,-2.350305912579311318e-01
-2.720100620674952729e+00,-4.915562852322099552e+00,2.103643580509785060e+00,3.930843189877232247e-01,1.169895605388301618e+00,-2.807093544288371767e+00,-1.260911942688872855e+00,-1.736038618406205547e+00,-7.270425175995648415e-01,-2.449654597918563326e+00
