2.886391802629790337e+00,-1.115858807299018984e+00,2.519354348686551504e+00,4.377852457076628068e-02,-1.741881507358143955e+00,-2.588439141024848400e+00,-2.152550922259935939e-01,-8.771614830535363616e-01,-8.491492665290276687e-01,1.644898816133547603e+00
-8.851932396395870706e-01,-2.421721901720841341e+00,-5.059831076426194452e-01,1.680235470790996777e+00,5.478192850651663059e-01,4.344667321476743282e+00,6.455057041206149204e-01,2.638841614582547290e+00,-2.238143828482822340e+00,5.248309893418675598e-01
-1.746614281399518909e+00,-3.388740694124425357e+00,1.032932766119669665e+00,-1.530190646603092897e-01,-3.805041534492974886e+00,4.457187184194838281e+00,-4.682109251536054062e-01,2.315157025767791588e+00,-4.865554586572246265e+00,-1.581562693174512368e+00
-1.581489781382650062e+00,-4.180180629344043552e+00,-5.994407834219225073e+00,-8.167590085842463266e-01,-4.177640996913703830e+00,4.954217444921145130e+00,-6.762481197222354190e-01,9.688996361061702478e-01,-2.777895900180144206e+00,-4.135264768834469584e-01
-1.806402777506264379e-01,-1.538960163919181667e+00,-6.700739321214387978e+00,-3.335466968666526366e+00,-6.066987147208214637e+00,2.115872967619364609e+00,8.224220728685598392e-01,-3.284218835887258603e+00,1.133658261964706870e+00,-1.222201638514897881e-01
-1.885922359456158492e+00,1.313384563077031331e+00,1.082327760931456329e-01,4.744158654911152795e-02,1.571253489502298928e+00,3.844074792217939684e-01,-4.833310736652497441e-01,7.801874584220700459e-01,1.860158826191306847e-01,-1.583976146924824135e+00
1.511166522633283105e+00,-1.802016324186517249e+00,-5.460527100619808394e+00,-6.817175407690380107e-01,-1.723421604134551366e+00,-1.147531562723161480e+00,-1.069530723766696445e+00,-1.437474317834607884e+00,7.543959036205767354e-01,1.642368829535871377e+00
-1.562213941561299002e+00,-5.698886675516344757e-01,-2.989403453435043101e+00,1.439942945824787879e+00,2.865724199165228470e+00,1.624528459530196089e+00,-1.000140991724487671e+00,2.090962571260530645e+00,-2.925178782184766901e-01,-1.338430212500865135e-01
-3.078981843770467464e+00,-2.602905314939470749e+00,-1.399829875292442072e+00,1.615211998622837486e+00,1.157448112344697355e+00,2.678710554106226382e+00,-3.197510222815232339e+00,4.429361085162807576e+00,-4.516341609181714567e+00,-2.035224687510176711e+00
5.335580852418932984e-01,-1.708464044287037353e+00,-6.842161911430877375e-02,1.697539942791418177e+00,1.047086121267981618e+00,2.730020132490314388e+00,1.226202640860077686e+00,1.535140565631629261e+00,-8.045851987302369279e-01,1.636975607432258784e+00
