-1.221827612000981000e+00,3.808508899796192004e+00,-1.218345355590068957e+00,-1.735697290904392176e+00,4.210375858349372780e-01,-1.080664774794009297e-01,2.278708707776782472e+00,-3.220239360927537930e+00,5.322532884589238344e-01,-1.010547316740642021e+00
6.045543293877486679e-01,-2.739994319740706730e-01,8.529911557516514087e-01,1.403906709397950481e+00,-1.064748295503280262e-01,5.468895580110803012e-01,1.356413540036298437e+00,4.618410901921723988e-01,9.398599038830867114e-01,1.021273619938440236e+00
1.426869462256571408e-01,3.673234395446818290e+00,-6.475805135048490202e-01,2.959760284113229112e+00,2.803505961809223290e+00,-4.149943337080139294e+00,3.011696540410163436e+00,-2.526706230710572321e+00,-6.289109406147752601e-01,-1.205135939854564908e+00
-1.951211146965902143e+00,-3.748261893842946613e+00,-1.459873554551060382e+00,1.856399483691150709e-01,-1.725511034769616758e+00,1.089964465464840493e-01,-3.254498102232102230e+00,2.751166874839305443e+00,-2.732213013362826626e+00,-2.406931854770065993e+00
1.407383093960095755e+00,5.082987001901039248e-01,2.122702146958469260e+00,4.463492313779871545e-01,8.865832621326520391e-01,-1.104843200818660526e-01,2.556781512837447701e-01,5.618732637767998028e-01,2.510374520615929139e+00,3.243265024112539585e+00
3.939169257435305216e+00,-1.895386202691554223e+00,1.865922356982303798e+00,4.732051922970218705e+00,2.163831999021348818e+00,-2.427437153673219328e+00,4.720310021280330059e-01,1.343496166838211048e+00,-8.884025530111714364e-01,1.047248714524445123e+00
1.675200417316267787e+00,3.926227143063549363e+00,1.217180355318600027e+00,3.545804635453540854e+00,2.414238804503070046e+00,-1.931633904833392146e+00,5.408465459293057442e+00,-2.519403874909850849e+00,2.024521461918009191e+00,1.473496809309479127e+00
-1.223667437918720458e+00,-1.682085599425362954e+00,-1.214794928019237163e+00,-7.493270167965614403e-01,-7.758367506019430149e-01,-2.270709146334901340e-01,-2.359074498405372644e+00,1.026867489554560642e+00,-1.922393609959847094e+00,-1.801620019290350871e+00
1.417394616682641884e+00,2.659997520460581022e+00,1.991041093745796076e+00,1.428669352394279057e+00,2.435294823295363287e+00,-2.278020012054035703e+00,1.421362487860942103e+00,-7.427470166431316967e-01,2.616071645650526634e+00,3.115065034942015920e+00
3.028999139913362004e+00,5.473804496130835195e-01,2.252180208709912534e+00,-1.198051155353127450e+00,1.371897230724521188e+00,1.883028022673816637e-01,-7.531263717970140270e-01,-3.235004647631990471e-01,2.018096896998290202e+00,3.257414195754019026e+00
