3.054302655996322446e+00,-5.760005752945968061e-02,4.535811892319048244e-01,7.628504018272617149e-01,-1.116015008815915532e+00,-3.369160096870233545e+00,-2.292506700304159928e+00,1.798994599623268575e+00,1.792375755757606992e+00,-6.175252327905800254e-01
-7.910500543141893992e-01,7.798372114613927319e-01,-6.093350603781332031e-02,1.166149579889945498e+00,4.060932112164101215e-01,-1.731011550080155947e+00,1.250095878673951111e+00,5.485032974124260940e-01,4.141695130114437795e-01,1.217884383042225238e+00
-3.569341249724470977e+00,5.331893707706999441e-01,9.349261604856082819e-01,-3.519486024642976219e+00,3.245718313168455271e-01,1.273241797733308589e+00,6.542825479354522633e-01,1.891714160513075615e+00,-1.048728597598328482e+00,-4.351154329601935045e-01
-5.321470825749003986e+00,-1.509634240306260811e+00,-6.895719286396368997e-01,8.867583786697059711e-01,7.590852406776387173e-01,6.699563385245591363e+00,3.212145147004863865e+00,-3.362809411204231491e+00,-3.705172286112671465e+00,6.063088341704153672e-01
-1.311037369260093399e+00,9.806764364472292383e-02,1.580300344901088838e-01,1.497182455413185176e+00,-1.953291944776830436e-01,-1.051314415220245824e+00,9.840779014352832865e-01,6.408210838504908580e-01,4.004158357326336598e-02,7.593663402034638299e-01
4.498422399406211802e+00,1.010586866230111625e+00,-4.085823140259198794e-01,1.828235270760348863e+00,-5.950221695628780116e-01,-4.343440279771981771e+00,-5.941245039693464625e-01,-4.929487710343615214e-01,3.062230677855602767e+00,1.929010145124809492e-02
6.197897428220551674e+00,1.816402011273389849e+00,1.136694531812519615e-01,1.724081916811456283e+00,-9.040153522739556857e-01,-8.071487964147960881e+00,-1.904410025432499154e+00,1.940070454323836513e+00,4.671216560926933603e+00,1.603665288006053680e-01
2.375677781023822988e+00,-1.109418970603424093e+00,-4.689118175406168376e-01,3.405001229684792019e-01,-3.743050295234907621e-01,1.642535067899032253e+00,-1.562058187444240964e+00,-1.657024586226033769e+00,-1.993736102954169753e-01,-9.738142549482489141e-01
-3.515555500749583118e+00,3.617565198263590354e-01,7.283809314776406030e-01,-1.205215659831410102e+00,-7.273509068463175353e-01,6.528467772123068835e-01,2.120609177762137421e+00,3.394436725492429030e-01,-1.316176998514015650e-01,-6.024761656137294086e-01
5.512174902764517270e-01,5.357255154058265800e-01,1.004112000545113847e+00,-1.864484908693895271e-01,7.739432313547811582e-02,-4.238834699851645738e+00,-2.346331116277732498e+00,4.898935768174207617e+00,6.567917656127618686e-01,8.828945775278587149e-01
