-8.945007568197462788e-01,-1.907750859058619408e+00,8.744103057784671229e-01,-1.166512036324305779e+00,1.824995831656679446e-01,-1.557319572338499380e+00,1.919597282087477597e+00,2.343576096048311630e+00,5.005134069368660787e-01,-3.292332359108963297e-02
-5.528729859272683012e-01,2.710587486354461895e+00,2.195397494191524412e+00,7.377492671665974999e-01,-6.580079740734353422e+00,-4.729431891109737052e+00,-1.700859104342226313e+00,-7.517573361977931690e-01,4.304752711255175335e+00,7.362116946393010286e-01
-1.012599705026389518e+00,3.976313204936906542e-01,3.728815859743276895e-01,-5.130492965529027671e-01,-6.154564024767826824e-01,-2.207876418793325968e+00,-1.132215974727883490e+00,1.572792130382039799e+00,2.682933501988411074e+00,9.636222168027953616e-01
3.564856316679374970e+00,2.369917804994602584e+00,7.399093218402834182e+00,-4.742329052489621333e+00,5.406359549762022709e+00,2.137422017261044083e+00,-4.256375743052414506e+00,-2.465047931310746510e-01,-3.347602335677500651e+00,1.474931575725050514e+00
-6.397175914145385445e-01,-2.327087968897219472e+00,-5.203075620801162593e+00,3.694660705640397058e+00,-4.248804379551138766e+00,-2.186185273878738400e+00,2.646659852173242289e+00,-3.924370000291385274e+00,-1.583791969560182533e+00,-2.805938606345069974e+00
4.503108044768949214e-01,8.932738732327294429e-02,-1.325798744114774275e+00,1.644110616535217950e+00,-5.193874075360787934e+00,-6.715079295353772793e+00,-2.505819888645556937e+00,-5.129909194055682242e+00,-1.198652939252609073e-02,-1.572468487509785184e+00
4.847448575680067817e-01,-4.190643894848680162e-01,2.784491213631198336e-01,-4.987784903668859293e-01,2.577855033684126607e-01,-1.699351931546788430e+00,-1.080668961239417580e+00,-1.114835845059539476e+00,-8.729000689731181151e-01,-3.497164602946551959e-01
-6.051066843506864856e-01,-2.045407791839397582e-01,1.214896959259237130e+00,-1.638956472632476791e-01,-1.649707473219180098e+00,-2.132688939089599778e-01,1.928044064248989775e+00,1.594992783577771522e+00,1.129328275540803173e+00,1.456338508361375017e-01
9.103255901616447154e-01,2.170489870915599528e-01,1.053521433598239243e+00,-1.354442722947780453e+00,2.833317494122947089e+00,6.943701142856659736e-01,-1.724146160968073938e+00,-1.448510626386056988e-01,-1.292670120124424837e+00,3.878888071825523087e-01
-9.839626673896691988e-01,1.494291601529487812e+00,-2.634906870523784583e+00,2.251964736223919239e+00,-1.193812370973255099e-01,4.823872527225664619e+00,1.423012742481130966e+00,1.190981270945193238e+00,1.698577123236587605e+00,6.599714849396095540e-01
