-1.372964860635208506e-01,1.176095338412945640e-01,2.221295805162948334e+00,-2.547193317441798777e-01,1.138166870546556186e+00,-1.382599309784878550e+00,1.908376981207087653e+00,1.462177545808222678e+00,-4.858551443685420468e-01,-2.102708857738264214e+00
-9.238438023189906589e-01,7.933754895905292814e-01,4.399676588638941621e-01,-1.285053969438659516e-01,1.272721126818785742e-01,1.493286279884807444e+00,5.032882209220111980e-01,-8.329047509126484838e-01,-1.369391818098202762e+00,5.270084802858956419e-01
2.227149528785860699e+00,-4.998432305120039110e-01,1.601925091244048582e-01,5.447219513268759528e-01,-3.122404580609357883e+00,1.809990124446190896e+00,8.969731443128764470e-01,-5.001245811299738220e-01,2.129645426516434181e+00,3.809182680492605666e+00
-3.884823226466502799e-01,-3.865314841052062689e-01,1.704489222821353067e+00,-2.063625713430249586e+00,7.904111389849822755e-01,-2.534240739092885608e+00,1.476558032293924461e+00,2.285108433695705710e+00,-1.278479893377950205e+00,-9.448403243870901738e-04
-3.105469023747179369e-01,5.601280621595705611e-02,1.088952138675709724e+00,-4.358548853968681192e-01,5.883129085267480018e-01,2.033055343811234206e+00,1.236474827391416564e+00,-8.284919156236936200e-01,-2.183486723470906554e+00,-3.816643882565453061e-01
-2.019349009478247914e-01,-1.329623148147657807e-01,2.833165211758069901e+00,2.652754832689175335e-01,2.509335098039584100e+00,2.754985282333493490e+00,2.737269956779387226e+00,-9.530892904500314344e-01,-3.401451575021161577e+00,-4.408220641053776312e+00
9.555702037787061620e-01,-2.475123350066289696e+00,-5.391248403233660724e+00,3.552593138074237045e-01,1.159170193573922925e+00,-6.707034605108675995e-01,-5.459871831014310395e+00,-1.442063909593647386e+00,8.145033013109377329e-01,-2.184202425825006344e+00
7.166981558127079044e-01,1.485623758026476615e+00,2.064349965639501683e+00,1.421576798326489532e+00,-2.515041447995636226e+00,7.283338473874428898e-01,2.340184524946375078e+00,3.309533990355838506e-01,2.540906802872148429e+00,2.566153669792309078e+00
2.987793754530088552e+00,-5.722430039038849392e-01,-8.323545157198792843e-01,4.673811923418602632e+00,-1.068504142279186109e+00,4.702578563655572808e+00,-3.596824883612191326e-01,-3.340944640195126603e+00,3.241245582510952961e+00,-2.930110848814722058e+00
-1.770734201761964721e+00,7.267099677475208352e-01,2.187795756181523110e+00,4.889825555032272231e-01,3.782622694805094277e+00,1.841122168426402972e+00,1.671250841287507116e+00,-1.014642637476252274e+00,-3.866479040279355406e+00,-5.887003338909408967e+00
