-1.962926371764327271e+00,3.706569971611186065e-01,-8.202374420011931733e+00,3.975476733374360805e+00,-2.100042909393259105e+00,-7.411367452667847466e-01,-1.458170955006251879e-01,3.894504140853224605e+00,-3.881357456314368015e+00,-3.565961915890120126e-01
-1.005470904932490583e+00,-7.448235752237475360e-01,-1.181371456507513962e-01,2.454056271642479636e-01,1.767447087346752266e+00,1.884882837223145424e+00,5.455996560905735926e-01,2.882108340055180573e+00,1.124759516539335091e-01,-6.050451299763386359e-01
-1.053815920398194272e+00,1.216103314707292160e+00,-3.929379850173770006e+00,1.719468655141116020e+00,6.977282390549011115e-02,-5.787026218288593427e-01,3.300857372694850356e-01,3.524528585864223906e+00,-6.749833493338477375e-01,-1.387624254343254204e+00
-2.235165297990486355e+00,-3.718705873753792357e+00,1.501520118406827642e+00,-9.579883469800436480e-01,6.862841501094818497e-02,4.126524862111284442e+00,7.104026457284732254e-01,1.185453125962560028e+00,-1.054651673351282515e+00,1.982666637164051338e+00
1.582595835283160168e+00,-3.203480641201053580e-01,9.851343995917279939e-01,2.970100240455185170e-01,4.848312083512989479e-01,-6.101177905849792804e-01,-6.215199570070804036e-01,-1.709378997811740186e+00,1.640234125706570290e-01,-5.685384347550467288e-01
-1.415892421294561387e+00,-5.472879466329638731e+00,1.326048528683562377e+00,-1.247409009461585283e-01,-3.198831124965133554e-01,4.331587688954638082e+00,1.382445491993843367e-01,1.911911382835723705e-03,-2.002193135382801970e+00,1.763896498958156478e+00
-9.487748827837975130e-01,2.172246096868966525e+00,9.006675149217926446e-01,-2.059206037098657571e-01,2.119837241741515665e+00,1.481228675496284897e+00,-2.351744978916139872e-02,2.208452077316278850e-01,-1.297030747203934409e+00,3.384891278639986290e+00
1.238476929396298942e+00,2.581580944875299544e+00,9.520650868857283289e-01,-8.156376196061860817e-01,-8.226081875338777660e-01,-2.465405216683846934e+00,-4.304616201909980400e-01,-2.840375043498916785e+00,8.066796179761689389e-01,6.969415057072119168e-01
-1.682284884991648743e+00,4.681755945375574157e+00,-5.872398917583785405e-01,2.667014043399686951e-01,1.750663094241413198e+00,8.784487811498835619e-01,-2.574954504722293258e-01,-2.104157770352400036e-01,-2.940680431239542258e+00,5.949958149952586872e+00
7.511488690014123115e-01,-4.205701027072736298e-01,-1.449592113661887671e+00,6.760333901886541597e-01,-1.768525523662562549e+00,-1.607552604950108766e+00,-3.609199351972851577e-01,-9.751302279102513904e-01,-1.626159250863042915e-01,-1.151044155464062024e+00
