2.074678337897315483e-01,8.013163013370221410e-01,-3.820300867016809820e-01,-9.101067386306193052e-01,-3.729013823777689307e-01,7.695232520188175496e-01,1.098231244918956295e-01,-1.623133276818024273e-01,3.378694462852977476e-01,-2.424850223265997973e-01
5.375774894368446910e-01,2.468769786876511274e-01,-1.576981567907998372e+00,-2.492403061438608347e+00,-9.656058270163425661e-01,2.190978615534296736e+00,1.169821005650618639e+00,-1.405172763282446224e+00,-1.732448719489951827e-01,1.153030898746659760e+00
8.640530474839971387e-01,-9.870208889392835250e-01,-6.756289344890257231e-01,-1.071353624693578421e+00,-1.059251398506984243e+00,-5.100986887311823592e-01,1.033819774195275654e-02,-1.035012505376138758e+00,1.051575750185163582e-01,1.320024549969250227e+00
-2.994219116936410963e+00,5.993523712743080711e-01,-2.225273977153213067e+00,1.535149102684248978e+00,-2.006169238033811197e+00,2.337475085968873378e-01,1.879019272894940196e+00,1.257685873252436526e+00,1.586802475890138897e+00,-2.861644338156031253e+00
7.949899841057082028e-01,1.300667492733503350e+00,5.792514606262316734e-01,-1.957949742469724308e+00,8.944011428139283515e-01,1.388850450184151430e+00,-3.949463529913811444e-01,9.342229464644413728e-01,-1.186053864037282191e+00,2.474481399300508533e-02
-7.647008164530095797e-01,-3.400610817946396303e+00,2.619703062841631791e-01,3.350881310266979884e+00,1.575245115916443117e+00,-1.033655452901544591e-01,1.318747816653604632e+00,-3.048987039604091898e+00,-6.993497918082872689e-01,2.674432587879278511e+00
2.712375224640974469e+00,6.496419328872098387e-01,-6.864012320230488129e-01,-2.568419189630868349e+00,-1.848876188960251632e+00,1.450976370828487849e-01,-9.496602795836875943e-01,-3.257490180394453372e+00,2.177900077009891078e+00,1.600859575720123384e+00
1.941291761467333288e+00,-2.087350527646245624e-01,-5.134800192140231978e-01,-2.792081225938559452e+00,-1.749915864203077431e+00,-1.118433372560263317e+00,-9.966209115188540135e-01,-1.890543584659423737e-01,1.943694249554728526e-01,1.091443305407445497e+00
7.645041317515124425e-03,4.167108583434637747e-01,7.421692578538800766e-02,3.260621502988791387e-01,-1.682224473896607730e-01,-1.754587154235312529e-01,-2.286379573531641118e-01,-1.917405887175501200e-01,7.056099695290189988e-01,-4.430082900538185320e-01
-1.325154136874652666e+00,-5.993865838715074501e-01,-9.471348603253438858e-01,1.589975017152651882e+00,-1.328817453222554734e+00,-1.233076918750719564e+00,5.575541888864022910e-01,2.148491372484389317e-01,1.224557412947427482e+00,-1.069539042988417066e+00
