-8.963096816000980516e-01,2.866378623405612558e+00,3.048927882894078012e-01,-3.201945384987502141e+00,1.260925646488967322e-01,-1.303252559977984726e+00,4.516283930169484151e+00,4.623225103458938889e+00,-2.789200908741591434e+00,-2.380477306190806441e+00
4.992336843716501105e-01,2.931294447775030787e-01,-9.696255922154732865e-01,6.470790825658712109e-01,-5.483251975968471692e-01,1.066746910200974341e+00,-1.118491930540491008e+00,-1.299852191951381242e+00,4.269650202489972957e-01,1.372750248747140356e+00
-3.428861690345703095e-01,-2.297800431062819726e+00,-3.218619388151366945e-02,1.388638620464426987e+00,5.369426864008779443e-01,1.134045233365141403e+00,2.688714105070161287e-02,-3.767229168589056876e-01,1.896299940584118993e+00,9.698560226181778265e-01
3.260798685546247855e-01,-1.785285971156130191e+00,2.508447014990868307e-01,2.710831004642721531e+00,2.014104878247310548e+00,1.910329145369179749e+00,-2.362912906409845526e+00,-2.262862100410098609e+00,5.892459385648342263e+00,4.370954047218621241e+00
1.902182373816677374e-01,-1.404112247034907668e+00,1.632280273314348440e+00,-6.255736252616529713e-02,-5.413434972556651070e-01,-7.297878708792271407e-02,-1.866703587777236883e+00,1.444874708338213631e+00,3.347746963915041452e+00,-1.534412232411864974e+00
-1.565542838640285594e-01,1.556868842000221909e-01,-2.326493759061934452e-01,7.520913668936773933e-01,1.501365632475958556e+00,3.811123322914242162e-01,4.969521862299242643e-01,-8.991044212384071699e-01,8.998631044678977453e-01,2.195123054209728419e+00
-3.441386411213969709e-01,-6.491863410638666343e-01,-8.464597475684703110e-01,1.897292635841308917e-01,-4.178624735398517309e-01,-2.551062417582152797e-01,1.193959996886948982e+00,-8.532241375619380452e-01,-3.212242220518377156e+00,-7.122206349135207226e-01
-5.893290973277669487e-01,-1.623649659041731530e+00,6.462788714090073050e-01,-1.446546570663171105e-01,-1.181674843663477747e-01,-3.666989302102948711e-01,1.016502732971451328e+00,1.260855748438943991e+00,-3.168809193559646298e-01,-1.743872000396726074e+00
3.537344329608296811e-01,1.743795290926600128e+00,-9.567257137646565379e-01,-1.928409748961930736e+00,-2.741045232525127773e+00,9.481215145929522414e-01,5.621758632729121352e-01,2.782163423974069794e+00,-9.772474211330581806e-01,-1.989414654330013299e+00
-2.807033705558306669e-01,-1.605612451499459858e+00,7.921394812348724335e-01,-1.965484220767128309e-01,-7.186833111391808249e-01,-3.908215562448809077e-01,-2.535021002767429144e-02,1.124821789882217704e+00,3.894892146813677680e-02,-2.177939603107550859e+00
