3.493548126858635694e+00,4.321104616138504162e-01,8.993860452864856914e-01,2.707664364419287484e+00,-2.712405482318670291e+00,-1.865258247764283839e+00,1.099302323528297487e+00,-2.032673423178182670e+00,6.253260911089206786e-01,-7.842159834215902681e-01
-2.316928460365089482e+00,1.220812599758400063e+00,-2.198394996142582158e+00,3.557887386665984364e-01,-3.638684915251178875e+00,-9.123299870341146367e-02,-2.549295030069753110e-01,2.224954049917634791e+00,1.396617625404627860e+00,1.762388931932823199e+00
-7.074467968953684682e+00,1.866665735192704345e-01,-2.323528101226037368e+00,-2.225829128755088870e+00,1.356297215661507627e+00,1.425029607717889446e+00,-2.806426373933283536e+00,4.824888626969520367e+00,1.005686120865879829e+00,3.026496727456442937e+00
-1.208994353961707208e-01,3.063419256811348301e+00,1.066409925516575541e+00,1.544368163753240042e+00,1.626125363268921542e-01,5.049759991908508994e-01,-1.852157260066488842e+00,-5.019376666135859644e-01,-6.736453336763249533e-01,-1.144588851905751881e+00
7.740826153375661711e+00,-1.607582211023125041e+00,1.184013210687753670e+00,1.444697759452263863e+00,-1.991660433751081483e+00,-1.295062732979412878e+00,4.835956225559829846e+00,-3.840216740964167208e+00,-3.393406830108492978e-01,-2.087018961177740994e+00
5.832724281274501266e+00,-1.317269247505346685e+00,2.758218230916286817e+00,5.676024595519530536e+00,-1.391757249009671016e+00,-4.547856059098213777e+00,1.175045002150804541e+00,-2.333739153229040575e+00,2.393598445343460668e+00,1.138845287305139363e-02
-2.064087126472591849e-01,7.243059195461292177e-01,-1.220978656916385852e+00,3.060499397392596244e+00,-5.735269162981759372e+00,-2.701505942357587120e+00,-1.608737471136925112e-01,6.867984654292099700e-01,2.579243985011617557e+00,1.770796773568991345e+00
3.315396630684411594e+00,-1.926915253275253592e+00,3.219130705531925152e+00,8.919083984675977295e-01,3.354371693141661837e+00,-1.488030752679139868e+00,-1.552165240513070088e-01,-3.580532266280489040e+00,-1.055116526911036967e+00,-2.040419265069721266e+00
1.932297168951582877e+00,1.612086653884110321e+00,-4.086137458080131846e-01,-2.276973761980682909e+00,5.936771235505021727e-01,3.189113105967094963e+00,2.151184756453231373e+00,-1.000688794550155691e+00,-2.471532434262372124e+00,-2.235881669724024690e+00
2.689333727564224841e+00,-1.186333470650874800e+00,6.962999508467452303e-01,1.614421630515369133e+00,-8.226844734665939018e-01,-1.655565963899528370e+00,1.331395503757563992e+00,-1.000010717337122435e+00,8.803482193202967210e-01,4.501614749866342247e-02
