1.190647156833166909e+00,-6.879499462097400375e-01,-8.029376425219991731e-02,-5.507721070956924647e-01,-9.714392716482657120e-01,2.884612601672574161e+00,-2.442928544081632403e+00,3.494932307221442769e-01,-1.845917569671030378e+00,1.343760335886375668e+00
-4.930893212217257737e-01,5.377121756797139662e-01,-5.137838768186511196e-01,1.182074585027345970e+00,-4.804122805833371812e-01,-1.383852209456752691e+00,7.752289143225429280e-01,-4.078921386610774857e-01,7.066025073726880379e-01,-1.276269873813416778e-01
1.099803993941541824e+00,-2.558528687373985644e+00,-6.303590492179790283e-01,-2.080067377998127132e-01,-4.844701599252632107e+00,3.443633414240519386e+00,-3.649756319514729785e+00,-2.607108879390378053e+00,-2.972363411069836481e+00,1.795677054971179798e+00
1.623239033588269375e+00,2.418801866039689497e+00,-5.595439389840758948e-02,-1.091721301482262874e+00,-3.003088444990496875e+00,-1.282341219511779484e-01,-4.534857518380163155e-01,1.093380956446630359e+00,-3.467744890458287266e+00,-3.493532486126671999e-01
3.508486415273129322e-01,-2.069592454282169758e+00,-5.847867544217055791e-01,1.027331210866339051e-01,-4.335944890614552349e+00,9.563484470372527468e-01,-1.770892505977486930e+00,-2.679643551293334980e+00,-2.406747649739838124e+00,-2.773593998604649835e-01
9.250347334435645719e-01,1.882772093052684337e+00,1.001663275052247615e+00,-2.625182596549691993e+00,-1.244722331042177776e+00,-1.013160265303284957e+00,1.050787874050731263e+00,8.683029452002228865e-01,-2.292997267298557240e+00,-1.513436365103457915e+00
1.457753536926237325e+00,-2.461821554110412702e+00,-8.505895923440441597e-03,-2.465955443590265972e+00,-9.564738262587917816e+00,3.863410512518586692e+00,-3.792421486987278989e+00,-5.532556345667143383e+00,-3.883784301773192116e+00,4.019956613215603269e+00
-1.974975055898169130e+00,-3.498429015828274036e+00,-2.131327711692822813e-01,7.430967979703281268e-01,-2.115324904343033996e+00,-1.425783198725428358e+00,8.146843731574273662e-01,-4.656087472188161769e+00,1.849243870230619313e+00,-7.601782045932407028e-01
-6.193898195889618874e-01,3.480243269188252775e+00,9.392157018134642543e-01,-4.747285956829102593e-01,5.615060598978910633e+00,-3.856109294938778298e+00,4.028374529231278700e+00,4.044977844356797192e+00,1.903820987478588078e+00,-3.160362406940307345e+00
-8.948273153613190978e-01,-1.603792382357279944e+00,1.239072132205186971e+00,-1.413141623868091612e+00,4.360299836855793920e+00,-9.043685261836054146e-01,1.564129470319064019e+00,9.491006759774684998e-01,1.018402288541218503e+00,-3.516223289878584790e+00
