-1.116310763863961775e+00,-3.501824361831509247e+00,2.738736112195566674e-02,3.289452780841188861e+00,-7.154676199409313320e-01,1.701509407295853649e-01,6.912568848651980957e+00,-3.858993779886019215e+00,-1.353639776815440454e+00,-4.007344670525238683e+00
1.869188897544640460e+00,2.370864148551789174e+00,-1.814562218560568763e+00,-5.344547250952687012e-01,-5.911593420056431292e-01,3.743973876870989592e-01,-1.441979344244977979e+00,3.650191998806437965e+00,-6.037656026036002377e-01,1.414912840047003906e+00
3.193198205882269436e-01,-4.805992343730938199e-01,9.279933783898208777e-02,3.055670652437113555e-01,3.839673278951732938e-02,-1.281413589461955826e+00,2.665125680569367717e+00,-2.100435208263001563e+00,3.420189269051284064e+00,-4.327408659048398221e+00
6.305226594233852566e-01,1.676832151327437792e+00,5.537190198294146271e-01,-1.360178686275615778e+00,-2.866103882989932128e-01,1.260714706214812297e+00,-1.513006815777233616e+00,2.594441429822247347e+00,-1.126368328908619931e+00,1.576342053760001694e+00
-1.445678637500035002e+00,-1.396403054997545690e+00,-6.197090652305280861e-02,3.203291556155508646e-01,5.588723001535961243e-01,-1.625485230493283473e-01,-2.391996482958403281e+00,-6.733570822960984747e-01,-2.581022961645782487e+00,3.799559756988895920e+00
-8.668170890755990676e-01,-4.623461541062786395e+00,-3.352102398868792577e+00,3.681574316528216650e-01,-2.711912607741243098e-01,-4.879545033893157857e+00,2.114823340199753154e+00,-2.701047853902966089e+00,-3.911207108092676688e+00,1.183803303035534160e+00
-1.909828050690240975e+00,-7.335187122141037186e+00,-2.499694685898662172e+00,2.791313449432036631e+00,-5.652346349943562220e-01,-4.848914691852416858e+00,7.915736007730859392e+00,-6.740806922342101437e+00,-3.088881735880092627e+00,-3.548358962624565294e+00
4.081352366826278555e-01,1.397654365263441001e-01,-6.758023698423610837e-01,3.770917526520833896e+00,-8.180177827957852976e-01,2.742552973893874313e+00,3.757903919685767313e+00,6.550205227449024115e-02,-7.114259718626653184e-01,-1.841293370464964774e+00
1.625463112899731000e-01,1.831221425079723186e-01,1.898173302525876460e+00,-1.276776264249431136e+00,-4.003256537285444505e-01,5.319985636139086260e-01,2.415415592910015175e+00,-2.490001667384895701e-01,8.465197534364778953e-01,-2.923585471315492068e+00
-9.629940477718095249e-01,-4.983526919621530382e-01,3.752528396716082071e+00,-8.069910086261733451e-02,2.631361136401969558e-01,1.288924634243348244e+00,3.439778254551320913e+00,-3.119165032652099434e+00,3.678291615046147101e+00,-5.359885634237119945e+00
