-8.343267871039652395e-01,1.196627282411705240e-02,-1.681576747940222827e+00,1.590348341512020092e+00,5.462594884061184874e-01,1.260659817352418832e+00,-1.567331069032491975e+00,-2.402011443756303155e+00,5.573774333488512589e-01,-3.558933414261292727e-01
2.508822976142545791e+00,1.322896838725956759e+00,1.484251520601365115e-02,-4.530549733846845339e-01,-3.674516999046727461e-01,2.846534846339121572e+00,2.813693698130957932e-01,1.944412495018098763e+00,-1.078860661902067974e+00,-2.486735730988719473e-01
-7.022990295548080519e-01,2.164265339739098959e+00,2.348520440957648336e+00,-1.194583037382567214e+00,1.911773394617150013e-03,-1.866414971032632319e+00,1.785975376714994400e+00,2.411156050213896784e-01,-2.273209636995689120e+00,-2.749343528408605408e-01
-6.555040195543659465e+00,-7.681089328327148635e-01,-4.022743662280026666e-01,-2.831729293856005691e-01,2.185487389961051075e-01,-3.612263130873692329e+00,3.577777341109928955e+00,-5.966746211465634442e-01,-3.581947169661871211e+00,1.935489299343993830e+00
-3.994431339371146139e-01,-1.444631487494898447e+00,-2.292873970004311701e+00,1.772086820006515628e+00,6.352996888313274804e-01,1.557053762048986378e+00,-2.852059625839707735e+00,-3.222779807690631326e+00,2.991966587542179035e+00,-8.050421425567044764e-01
-6.609461678091948400e+00,-3.773306670374495742e+00,-3.062554735078637069e+00,-5.942199187217074297e-01,5.682771030218025654e-01,3.282193107879252114e-01,1.626143227504951216e+00,-3.001265871570449661e+00,1.184565555133604953e+00,2.215136764373125677e-01
3.987928662198869212e+00,-7.083003652499391123e-01,1.452987373123691306e+00,-7.865246645171928286e-01,-1.334116604623023727e+00,-1.327699026810201799e+00,1.058303969886432272e+00,6.150622883036096056e+00,-8.082715724166180671e-01,2.034902857837868950e+00
1.475140014410022848e+00,-2.708780579277247025e+00,-1.814878554887259021e+00,1.226361534844310652e+00,3.045028449100070644e-01,1.291288981491236942e+00,-3.579432272744164756e+00,-2.149177699272234232e+00,5.155843273418739159e+00,-9.773735359604747153e-01
-1.775705880916524926e-01,-1.182621625241120578e+00,1.640178469504592229e+00,-5.673843150004925784e-01,-4.759907204687200410e-01,-4.107856227021907003e+00,9.563654193587477481e-01,1.975530737556907335e+00,5.418252279566115881e-02,1.322005943504603653e+00
-2.143167776123346968e+00,3.593784937654131428e-01,3.696954410371813715e+00,-3.685853764270655475e+00,-5.742826975090062902e-01,-4.134696058776039962e+00,4.561110153022259972e+00,2.503344474565002642e+00,-2.271225134581829064e+00,4.168403976132817879e-01
