-7.906698257625607296e-01,-2.014543164629360561e+00,8.622040406139551694e-01,1.743145690747950782e+00,2.198611121158902115e+00,-1.662812558965533150e+00,2.087369199662084451e+00,-8.189636849180955691e-01,5.085228999940462735e+00,-1.153261137298734251e+00
2.887774356411967780e+00,3.128810546479045551e-01,-3.234880286710278607e+00,2.003506518943316106e+00,7.522578754734895456e-01,-9.377109009263817629e-01,-1.041634396945348762e+00,1.183328889285120811e+00,-1.007502659040874882e+00,-4.308849514792608693e-01
-1.732377296132569244e-01,8.567787471940353505e-01,-9.158352673808244360e-01,-8.357212897279135966e-01,-1.199031005160222874e+00,3.711324665976773463e-01,-1.793349684038078928e+00,1.614594143838146811e+00,-2.651114149155432642e+00,-5.368872471283697712e-01
1.144732738861736543e+00,-4.938048087254640173e+00,3.695837024448500596e+00,8.771974485373629227e-02,1.751959075698922730e+00,-2.060709692321907038e+00,2.524930175162075408e+00,-6.162574902116346287e+00,6.171196507274586018e+00,4.690928080067792827e+00
-3.793947501952299906e+00,1.916290151856512025e-01,2.602198527077237977e-01,1.768376006945689749e+00,2.016729000080880851e+00,-2.221455116971673971e-01,3.114441733918269062e+00,3.143226853723958270e-01,3.068610625605922682e+00,-2.665805786598451466e+00
-1.060589472821788615e+00,-3.462919250564898910e+00,3.312415909366535072e-01,-8.380841562683808421e-01,-2.765758495457917299e-01,-2.261001352104474282e+00,-1.658854039687346349e+00,-1.191335210501993203e+00,4.851592619503911630e-01,1.760325207340957432e+00
-5.304542367957314930e+00,1.705543907294447381e+00,-3.098759216171419251e+00,3.241561543269266821e+00,2.395454342010067794e+00,-2.049371880236760812e-01,2.887400796028897432e+00,2.110281638373872504e+00,5.565132997930610087e-02,-4.081799223107981156e+00
-3.185905301519123434e+00,-1.033041565966474007e+00,3.302511044809727014e+00,-1.857203005805771356e+00,-4.703316692419365341e-01,5.229720572735374606e-01,1.325854623509870711e+00,-1.988054967845653609e+00,1.384788750682239833e+00,1.112473181356191221e+00
1.849992204739925539e+00,4.335924818120861363e-02,8.544072935940025260e-02,8.927626120391710662e-01,7.166948664455885520e-01,-3.381694568527818245e-01,2.303139316621288235e-01,8.095360375270546083e-01,2.218258848634832692e+00,-1.337801827140554067e+00
6.167569124696546723e+00,-1.769487155709443371e+00,6.984434914105652759e-01,-2.734001203610042730e+00,-2.705831428625459889e+00,-7.049070296875921127e-01,-4.972155634928003387e+00,-3.393421328284813576e-01,-2.019425998677076173e+00,3.410406979396402694e+00
