9.480555646741818165e+00,7.729883718974823736e+00,-1.088152339325670237e+00,-3.873585363678886839e+00,-4.958896842880644584e+00,1.159248403644830727e+00,1.586403551391688316e+00,-6.427607415792784273e+00,9.405560863538838134e+00,6.042895004580112195e-01
1.463537918252770798e+00,-2.096017556751760935e+00,-1.075415595962884607e+00,2.573815073471227954e+00,-2.607863121836252240e+00,-5.718819057686150842e+00,9.220338760678932211e-01,-3.067669432789680517e+00,-2.063540513784678065e+00,1.331578740366721636e+00
-6.908031440459885708e+00,1.708634346709351215e+00,3.405464939372036426e+00,-3.107471319375077368e+00,5.056048496454869756e+00,8.006185833596022761e+00,-1.691334732458729562e+00,1.800217929130872641e+00,-6.711436986408013006e+00,-2.475180313992747516e-01
4.898989700851752893e+00,2.047140863717236581e+00,-5.034181069335614822e-01,7.821979369313398767e-01,-5.191667712346832442e-01,-1.055665660511790893e+00,1.736872819035414794e+00,-6.383277738864263640e+00,-2.208065482109028199e+00,1.740804857963184515e+00
5.690110755429589773e+00,-1.624031895644187928e-01,-3.385636493342618625e+00,3.318110845829458366e-01,-5.098897140113742843e-01,-3.926406693267013637e+00,-1.551987630920108607e+00,-3.220298652708354137e+00,4.474330310359877494e-01,3.643226304409949989e+00
-8.587525312269572719e-01,-7.831914849972109849e+00,-1.423284316573559138e+00,7.417908935424065930e+00,-2.971774044534367665e+00,-9.474822089967293692e+00,2.833539188399279762e+00,3.198813001614587925e+00,9.414202580133594900e-01,-2.453382275233441767e+00
-3.093011467779337664e+00,3.503608730856261122e+00,2.560603929182327931e+00,-3.589399846812986183e+00,3.397880988688163573e+00,7.829524227964548722e+00,-8.106987705477773920e-01,1.021744754615082407e+00,-1.680117114804923650e+00,-8.187517662171933663e-01
2.836116172663941892e+00,2.916412988040714804e+00,-2.975538792025095303e-01,-1.769251783355594076e+00,-2.332637895783959525e+00,-6.113690353747717188e-01,-1.375143317514987418e-02,-4.508423712458383470e+00,3.798580643402709733e-01,1.780513166840230976e+00
2.765375384890978339e+00,-2.436830160111679855e-01,2.392192283553629117e-02,2.504729459220131016e+00,-1.907960076594630294e+00,-1.981952694799868908e+00,3.168457804046820314e+00,-1.285440979209390377e+00,2.647736971290560515e+00,-1.929625761219343705e+00
1.879580186948451193e+00,-7.777734187814118183e-01,8.407855594541499000e-01,3.644072772549816097e+00,-9.241591888053467541e-01,-1.685183362196457146e+00,4.127317607134487254e+00,-2.285527135715911484e+00,-4.650517464126041056e-01,-2.142741795034819319e+00
