7.700119770892248638e-01,-5.194016512284855835e+00,-4.351724123480281925e+00,4.467642988832857043e+00,-3.912698907630425271e-01,8.969319542218290309e-01,-5.228848730620407753e-02,2.160562041833806735e+00,7.725279193299383618e-01,1.821049217145133348e+00
1.897851063854635534e+00,-1.667931943013153395e+00,-2.095038062063667161e-01,1.321877942894745583e+00,1.534978043019155081e+00,1.234802305630649855e+00,1.440584587403414663e+00,-7.945445738250883627e-01,-2.613959451995935268e+00,1.952366964120522796e+00
-1.815628342942177564e+00,6.790735978857536104e-01,-1.117495264268062005e+00,9.111615250614242545e-02,-2.033240800332911657e+00,-1.060561938968499263e+00,-1.788991206992793348e+00,1.541853525266907887e+00,2.836029705692797886e+00,-1.826880286137256393e+00
-2.474240770467960038e-01,4.047127104038891865e+00,-3.256460413102878204e-02,3.406490708974194703e-01,-2.741126546924308460e+00,1.772930802454055627e-02,-1.114275122379458027e+00,1.301531195056051526e+00,-2.743511297055921005e+00,-3.393136287908807613e+00
-1.313254947116017979e+00,4.477665298814575756e+00,1.200758663599711977e-03,1.927826333042168772e+00,-2.620237835606854748e+00,1.603507786678696867e+00,-1.521171547749955444e+00,2.329714553982906278e+00,-4.482693427412687726e+00,-2.169429401746180375e+00
5.621702235187404639e-01,-2.442069143226569761e+00,-1.156104337110428482e+00,3.849781749827334010e-01,1.664957014500265120e-01,3.441336925210733422e-01,1.194204770319284403e+00,1.078233032541212388e+00,-4.292444562674289643e-01,4.009658903300838961e-01
8.579276434244842431e-01,6.153003459899624161e-01,-5.683438786810160792e+00,6.759877962752108616e+00,-5.348010813561326238e+00,1.670767689332113504e+00,-1.758246602238758838e+00,5.277072942482868179e+00,-5.146216095981318794e+00,-3.578607783531675857e+00
-1.798107064347925110e+00,1.844078573743461957e+00,-1.880239749993719123e+00,5.207304671040277277e+00,-2.293816610351339325e+00,3.698156346705571362e+00,-1.322482793679785162e+00,4.385803380519281092e+00,-6.087400004469929904e+00,1.644010585565209570e-01
1.712471187490604008e+00,-2.007677066824264500e+00,-3.014005340039199510e+00,3.516482180069934405e+00,-1.095799468138699773e+00,9.603283437366376685e-01,2.576984100901321129e-01,1.566929665949469364e+00,-2.355663803106176957e+00,-7.481022715630880615e-02
-2.984225289211753118e+00,5.514356728780565042e-01,-3.738120771414348703e-02,3.808661475396058815e+00,8.805158785555423639e-01,2.192104431455908831e+00,-2.756261752093872808e+00,4.119344114406957580e-01,7.561258213207336931e-01,3.830388520795005913e+00
