2.260880533206618637e+00,3.751371116031668507e+00,4.548343204202900836e+00,-2.048061936253627646e+00,-1.115421204335762084e+00,1.667721855825992971e+00,4.053637793022021873e-02,-8.004872025195739482e-01,2.116045681754277652e+00,-2.410077303604500898e-01
-5.619905703588956580e-01,-3.092944885186771575e+00,7.132845926959214822e-01,2.176127818147161719e+00,-2.789065348096501751e+00,1.232889745771909018e-02,1.468648076873698027e+00,-1.439873803873430447e+00,-3.032761375501694889e+00,-2.525787408572266468e-02
-2.905230112549173072e-01,-1.098310916356898259e+00,-4.561290564866546937e-01,-1.329864164597482690e+00,-7.253968378367203762e-01,-1.227025433173476010e+00,-1.665978462967949048e+00,-3.615627732579521081e-02,4.171553312989305096e-01,-4.526248091201180712e-02
9.797338574208243056e-01,-3.060808893544096243e+00,-6.197262342527401380e+00,1.394140395110294861e+00,-2.111117023346682053e+00,-1.215941808536437962e+00,1.467522620547017542e+00,1.532450899449393944e+00,-8.056321332437854643e-01,-1.014318969936368164e+00
-2.215652696671308153e+00,-6.269000044455487419e+00,-2.645159230618699286e+00,-2.714417705487517374e+00,-9.761579608979833456e-01,-3.365497353370229039e+00,-3.330553724973573715e+00,-7.898402114530672646e-01,-1.486970036163087316e+00,7.886640131386297714e-01
-1.317121579197219283e+00,-4.627843177347421011e-01,-1.578741951377117925e+00,1.788779781902938293e+00,5.321259908228777036e+00,2.186199722120283795e+00,3.484524309828133770e+00,6.103330305996584881e-02,-2.264646579568268425e+00,1.617368306084698615e+00
-3.037577349929172499e-01,3.238972811297954113e+00,3.615628262918102021e+00,8.936862851888014436e-01,2.466856587377400434e+00,2.075055246111480400e+00,1.077130133637581588e+00,-5.476661682619019533e-01,1.417701977742815145e-01,6.040805318952926495e-01
-7.458993781562837100e-01,-4.451887796848220114e-01,-1.976289388811705017e-01,8.890672173715009619e-01,3.314594792550117575e+00,1.762803471132139865e+00,2.539838378697127030e+00,-4.382811793032971304e-01,-1.766053436276664446e+00,1.253910038421750084e+00
1.795648293657227113e+00,3.613574375219413604e+00,-6.900816058515792939e-01,3.892630486651503241e-01,1.785477512286038460e+00,1.807309813088955108e+00,1.964694711403725425e+00,1.309074572476725873e+00,1.720225659596353207e+00,-3.536158995220861634e-01
-1.954745419472105006e+00,-1.898506096612768479e+00,-2.461716438083237257e+00,7.472019182088511791e-01,-1.552209677789335718e+00,-3.400006969321661021e+00,-3.673615134362881118e+00,1.043041833730313783e+00,3.842108464411611024e-01,-8.900488810485045477e-01
