-5.043831058360884967e+00,2.124589227368717248e-02,-1.022314280374771595e-01,-1.585784397452530747e+00,-3.337826967994869776e+00,-2.673284690116767059e+00,-1.948957177642540728e-01,-3.483499380845213711e+00,3.237255728658075871e+00,-1.347875614708486935e+00
2.481770255710253892e-01,-4.787204125577328995e+00,2.030980807424214607e+00,1.696493887769461528e+00,1.278592283680830999e+00,1.424828369761122149e+00,-1.921984762404340685e+00,-1.599841386578215507e+00,2.297077451629919942e+00,-6.677466988284649352e-01
-4.470259561521403580e-01,2.188591616752636693e+00,-1.211197351765179953e+00,-1.893667279086871380e+00,-1.098302007655432844e+00,-1.450318320394882399e+00,-7.367872315053732857e-01,-1.661210205891000102e+00,-6.470793574879538657e-01,1.238511728707811788e+00
-2.531677676452323222e+00,-3.427881778908755006e+00,-5.473287669589447901e+00,4.613175512945406065e-01,2.675076314467866645e+00,4.042674122680260496e+00,4.190658540146633193e+00,1.122172033916821188e-01,1.347467758932013204e+00,-2.536035951041736514e+00
8.664870851784561845e-01,3.067718937338582030e+00,-3.243063399898675203e-01,-3.339512696018184457e+00,6.943817246428966028e-01,-1.548784353445229911e+00,-3.274881017938561456e+00,-1.594569603203104480e+00,-3.425143109108259587e+00,2.402772788712336904e+00
1.000152264220716347e+00,-2.675325328367488265e+00,1.974609559915262436e-01,-9.109455969130404451e-01,3.542469974705507507e+00,1.796100633573860073e+00,-3.167179969383993043e+00,-1.513156169906209714e+00,-1.481159042706088780e+00,6.188354720713231671e-01
-3.866452483110645488e+00,-8.845960820423512949e-01,2.165207506694180495e+00,-1.848914639954853056e+00,2.540700372907029436e+00,2.176350006554631303e-02,-1.510478535621052609e+00,1.457459185201307461e+00,-2.064606109354710117e+00,-2.913444459681661325e+00
-1.952093025973515583e-01,2.485182823678788733e+00,3.764778511388024551e+00,-2.137815534899751291e-01,-5.491974593667885429e+00,-4.878348549812034918e+00,-2.542207101778553469e+00,-2.805363738890191083e+00,2.516905884683227956e+00,1.752488149375181159e+00
1.835485936882254865e-01,1.922885038779223121e+00,5.648853036752095047e-01,-6.794653955564082526e-02,-4.862547766590533116e-01,-6.945187828803348618e-01,7.370961418191491754e-01,1.808515155729956136e+00,-1.135970077619592233e+00,-1.204297154923795743e-01
4.886464484285860443e+00,1.845651458564568026e+00,1.225455983699301088e+00,1.279476499640003873e+00,-2.267643381602086450e+00,-1.395097393220204429e+00,-1.403601943666966667e+00,-9.181200432983627202e-01,3.197783771909207817e-01,3.627987503419126902e+00
