-1.598520467594375605e+00,1.559272733143217016e+00,1.424550578350648466e-01,1.451857108484257974e+00,7.401208596492075742e+00,-9.180183003074371406e-01,2.483666859819794848e+00,-1.416730738162986558e+00,-1.734086530929295655e+00,1.342284101757041270e+00
-3.447349227605408295e+00,-9.060483852824290363e-01,-4.083280276091135086e+00,-1.125084756523333951e+00,5.186371767176992664e-01,1.703178825212483538e+00,4.382189303026591709e+00,-4.995514755744581148e-01,-1.362055721895373717e+00,-1.381393676864526299e+00
-2.820426566101968402e-01,-1.115013228954158775e+00,1.727419846180999752e-01,2.028183235413439700e+00,-2.234887828513864250e+00,-6.530124348298692594e-01,-2.349742333890083579e+00,1.844027328722830372e+00,-7.064007318492090404e-01,-2.893189619024147952e-01
6.981309816300390603e-02,1.939545361121342459e+00,3.609395132316359778e-01,-1.059183514570182894e+00,4.239452303438468128e+00,-1.578019583684480365e+00,6.138823824020518405e-01,-1.263536924731574640e+00,7.899139832049036913e-01,4.212403033278030451e-01
2.416215172175093517e+00,8.061609117226758991e-01,3.207347753623745135e+00,1.391831388304358486e+00,1.732094213017419948e-01,-1.897143136597939872e+00,-3.829412485894854612e+00,6.595089026119674847e-01,8.544554254924860981e-01,1.103067269132281369e+00
6.261629391819013568e-01,-1.344714984361468912e-01,2.164913582226118738e+00,2.127182199136735452e+00,1.079074931499979906e+00,-1.300680043544608200e+00,-1.471259551595759829e+00,1.048599450586867599e-01,-3.860391409759718617e-01,7.490855578129125281e-01
1.288091123057538701e+00,5.524304215228857728e+00,-6.566439455435333361e-01,-3.207913356884434464e+00,7.030888697824440925e+00,-2.316965135716514634e+00,-1.771268164287320479e+00,-6.871641043397985760e-02,1.829253772940001355e+00,1.397833817338425044e+00
-1.093462671679179987e+00,5.551166672627149135e-01,-1.536136699292361518e+00,-1.580374233346187207e+00,1.003465159566523601e+00,-9.032857253205862635e-01,9.787019742794150767e-01,-4.676252359802552383e-01,7.421099757773332861e-01,-9.684998860744503668e-01
3.945440172688802427e+00,2.913426134540757939e+00,1.611176170201337632e+00,-3.354315131222264323e+00,-2.924710239563842462e-01,2.574175786817400544e-02,-2.725107427158766527e+00,-1.794758122924038080e-01,2.892687881371350578e+00,1.120308824772638934e+00
2.771235008735969174e+00,-4.736872734972947807e-01,3.185913780522342087e+00,1.245137083236203424e+00,-3.084155558814004827e+00,-7.975540010654309508e-01,-3.877984658464267653e+00,9.161264031945844932e-01,1.017867977579019145e+00,6.104271283703117668e-01
