2.160363781214021284e+00,-8.634858641269471669e-01,-2.523566325445325553e-01,-9.911775630710637497e-01,-3.111479483936773205e-01,5.701938526233913951e-01,-7.453622465985965118e-01,-8.752496444642428319e-02,1.482218375577965652e+00,-3.773872707649612135e+00
2.468385354780894270e-01,-5.326405542491070566e-01,-4.634954306663108259e-02,-1.815029387564433883e+00,2.736959007460047388e+00,-5.715772028555904383e-02,-8.085479182008464827e-01,-5.670607386108185155e-01,-3.810392439961652888e-01,-4.028153229614546582e+00
-1.269821069406231295e+00,1.014674932826282294e+00,8.432721157690055147e-01,2.582301276582188443e+00,-1.659992142850167607e+00,3.164668531175172106e-01,7.081208271071831595e-01,5.901401562985095772e-01,-6.853794135680602029e-02,3.649911485183197524e+00
2.075031722197520967e+00,-2.301733019441407346e-01,-1.985142984481937489e+00,-1.773502521617592143e+00,7.136551662495580484e-01,2.408269969156288104e-01,5.991757452280138674e-01,-7.168189105391948868e-01,-1.158247446358550148e+00,-6.635256409661318688e-01
1.315278480879097600e+00,-7.374028670236643102e-01,-2.905223516455408550e+00,-4.248648206638003799e-01,-2.845548723709348415e+00,-2.212985226141989781e+00,1.970183060373983608e+00,1.766735294589719119e-01,-2.803141416268704500e+00,5.887555941670361115e+00
2.383639769307869916e+00,3.821212745609615657e-01,-9.371114800441551207e-01,1.846124302951102081e-02,1.858328541864802563e+00,1.554329987214658093e+00,4.615658317194805682e-01,-6.088837356899324815e-01,-1.569467873533073377e+00,-3.358903288737309811e+00
2.757280529455406359e+00,-1.013152066418367081e+00,-2.169497124058083148e+00,-5.081095424337607191e+00,3.113547391529083996e-01,6.780182255262552360e-01,-8.417965562914735411e-01,-1.217881484945215087e+00,2.780354058021596853e+00,-2.704013684911861226e+00
-3.890867743432333103e+00,-1.262335680743593702e+00,2.284655106359833265e+00,-1.651172510412208361e+00,6.564139549182004707e+00,-2.565142544826982451e+00,-2.101820711010565113e+00,-2.101145669897031554e-01,-2.465181800598054807e+00,-6.590793556517786200e+00
-2.625757464771841132e+00,-4.806098742736226725e-01,1.787623934013487403e+00,-1.029026332604197513e+00,2.220780888966193523e+00,-9.488722550028154679e-01,-1.550992122642855353e+00,2.140722098587374833e-02,9.434109040190283846e-01,-2.413737803314820241e+00
-3.227549296141796198e-01,3.085343615987176102e-01,1.210140720774767864e+00,5.925518002909299087e-01,2.124253286608916547e+00,9.183631990220328944e-01,-6.883988190242305016e-01,-1.074862564353609162e-01,-2.543316977064197237e-02,-3.614425505509043290e+00
