-1.518491626762810354e+00,7.778621454288809911e-01,2.099293703298249714e+00,1.937442489556006064e-01,1.128948712336111493e+00,-1.044326197193217842e+00,7.555858011346960890e-01,-6.211734586228795374e-01,-3.680716142813691416e-01,-7.048554915799837284e-01
2.499279372435458058e+00,9.152336128475170307e-01,-1.994614880370014776e-01,-7.653332264114609984e+00,1.856065503077528600e+00,3.882242429829580566e+00,-2.633783121700446817e+00,1.334825540217277950e+00,9.221395737627819944e-01,6.980731375678700390e-01
-3.245261369237009141e+00,2.300088461096486903e+00,6.288019947498146855e-01,-6.398648011753164111e-01,-1.421930156569334969e+00,4.377000271869770920e-01,-2.151800639994568165e+00,-1.281132953979663647e+00,-2.406270328877559983e+00,2.486041534289237465e+00
-3.310406945183047345e+00,2.033232865833731307e+00,5.294900307521030136e+00,-2.109199540721005572e+00,2.820542963110678869e+00,-4.260425007080964832e+00,5.949832219522658505e+00,9.756330255381633343e-01,4.235278629411189932e+00,2.646522326043005968e+00
1.837021961776838852e+00,1.685639387609486617e+00,-1.720128924950051763e-01,-8.025937162090224675e+00,1.665312949269724951e+00,5.055201256408183852e+00,-4.791374475595619131e+00,4.640594616880185930e-01,-1.064444086970973036e+00,2.526923110622322777e-01
1.719488876488286522e+00,1.219741086779185357e+00,1.016088695252233443e+00,-5.331852208180340114e+00,2.692295096881119676e+00,1.896365263540641610e+00,-7.081441811370481343e-02,1.567298454771050009e+00,2.481026283524745857e+00,3.247425000173796428e-01
-1.238911931909843833e+00,5.109170896320664568e+00,-1.254453084342989300e+00,1.611385295675525908e+00,-5.622990482993947547e-02,1.508896707768453416e+00,-2.757967102509347734e-01,1.655514539345974701e+00,3.379362183149499543e+00,4.010135086086678236e+00
-3.051579677963139225e+00,3.196262467234216587e-01,-1.122896134497401999e-01,3.701995786340215311e+00,-2.545799557198332508e+00,-2.038235538001793579e+00,4.031313365756336586e-01,-1.283548620702146259e+00,-1.705040301263374358e+00,1.804571444081450426e+00
-2.087856617681445037e+00,1.952513539663482955e+00,4.901567165630332568e+00,-6.600867865087700181e+00,3.408945904480943145e+00,5.501009508357465050e-01,-9.401008827594621309e-01,-9.734226630750872911e-01,-1.434866999919700792e+00,-7.432485933241834708e-01
-2.942949611923711295e+00,1.838678134857269608e+00,2.523808383008661949e+00,-8.036698090025384822e-01,5.768370664865026809e-01,-9.767856866974511387e-01,1.950028371457493415e-01,-9.131154130746614861e-01,-8.987589993814469880e-01,9.684556799046413200e-01
