7.621023038391238312e-03,-3.852275724552702840e-01,-1.204598374005929173e+00,-2.747557450042327432e+00,5.663977070943988501e-01,-6.825360318274646954e-01,1.461884587064210761e+00,-1.984195988049799741e-01,-2.639724700813742553e-01,1.612135593062582251e+00
-8.918234053313623955e-01,-2.033603681500336879e+00,-9.961481218468906107e-01,1.743498953877230084e+00,1.591946181316652886e+00,-1.425436570995016528e+00,5.870231106571516255e-01,1.621013434097944961e+00,4.596633781797819784e-01,-5.035591602276606737e-02
-5.573547005101763263e-01,1.008499076624082003e-01,-1.474889032737861205e+00,1.337182645494601640e+00,1.949219719334497558e+00,2.491253937208095515e+00,2.549265690979906296e+00,5.066693022708168570e-02,4.390744650936381888e+00,-1.304162889601443442e+00
8.634758347924632593e-01,2.312076907510747237e+00,3.162673844291658654e+00,2.207820994518669977e+00,-2.307388336561612352e+00,5.751727072757939485e-01,-2.473449088813271413e+00,-9.616031852108721800e-01,-1.865397662658757172e+00,-1.331569662529365594e+00
-4.037270791878712073e-01,-1.383586652963390673e+00,-1.505307433111632953e+00,1.658854181249302950e+00,1.859744219230157203e+00,3.724794900933228625e+00,3.680405702547303037e-01,-2.910727243925347318e-01,4.825769122705624525e+00,-2.748856140186361596e+00
-1.014359280313640727e-01,1.632542696999811804e+00,-5.084746316811918909e-01,-2.008388175246465845e+00,-4.136821509956343235e+00,8.302172663104278039e-01,-3.905904811853215364e+00,7.786791325447210976e-01,-3.218782843351102319e-01,2.063348339404107168e-01
-8.309998981430807841e-02,1.156118283032154581e+00,1.760859727551914444e+00,4.379317896000873844e+00,2.238226060789171967e+00,-5.180493794441854982e-01,3.340371974560030210e+00,-7.881119318547158414e-02,6.186485229539057107e-01,-7.865963593579312629e-01
-5.816575834155441882e-01,-5.695232618977883909e+00,-4.760329578517933591e+00,-4.560233033931321955e+00,5.315437891169114693e+00,1.794605845514258835e-01,3.790301601341683924e+00,-3.374646418201174836e-01,2.783532777743769504e+00,1.300056298701922186e+00
1.064832133415360760e+00,2.737470353982225379e+00,8.377246417990447114e-02,-4.415210340118907340e+00,-2.630195116181579973e+00,2.323778712662632362e+00,-8.239425841125903593e-01,-2.065939388602458404e+00,1.263420875147380773e-02,7.414203734746351859e-01
-7.686036016943917915e-01,8.772926397516914720e-01,-1.251493741336433096e+00,1.421181303081236469e-01,-1.649217470433225863e+00,6.631264356228527834e-01,-1.140557128660725006e+00,1.505232661060520893e+00,1.639880395774738764e+00,-1.576155172494950185e-01
