-1.317571118473263858e-01,2.166620854312236943e+00,2.009671174678221650e+00,1.187583057846224754e+00,-2.584154516676697710e-01,-1.301360842491963155e+00,7.024501952011453776e-01,-6.368772185174815803e-01,-3.746434771330675595e-02,-2.446967399785538344e+00
-9.931976169828161671e-01,2.984167371503914090e+00,2.329623585668139540e+00,-2.906383323754289982e+00,-7.752486552086956806e-02,1.311039323715668115e+00,-3.487063340695232050e+00,8.228797233780466014e-01,1.051919826761197996e+00,-4.815819873146907071e-01
5.049709325939489429e-02,-1.303591224920227498e-01,6.929337192074952467e-02,-1.712739659121336189e+00,-3.300394610920533101e+00,2.346667740246021872e+00,1.557608179871088794e+00,-1.538974747403937249e+00,-3.324694077521009872e-01,-1.219929099976208020e-02
1.467843731960102177e-02,6.480214689558259078e-01,5.134585676242016117e-01,-5.207868680202746292e-01,-3.679764494983027490e+00,1.601963337275958299e+00,1.663331919496622957e+00,-1.545271006555616555e+00,2.440854963613857120e-01,-7.947037248775812301e-02
3.352405738242113242e-02,2.189637881434504330e+00,1.937963026345159268e+00,-2.964915106059782257e+00,5.513004342789539436e+00,-1.533379542011707564e+00,-4.502602593156975530e+00,1.575906002750435908e+00,-1.059206206007676787e-01,-3.370351893553158451e+00
-5.444386312256832561e-01,4.959290447755311249e+00,3.436410182956554316e+00,4.945878052205131326e+00,-5.874338356869859279e-01,-3.883191462065104016e+00,-5.248462711019663551e-01,3.080395115161788100e-01,2.431514378369393992e+00,-1.772201232677679261e+00
1.259228202868375446e+00,-9.206803350195913449e-01,-9.258405315809616898e-01,2.160497191304363795e+00,-1.766884163225309390e+00,-1.037574123497709166e+00,3.415896595721834572e+00,-1.856513849347644296e+00,-1.279111644402519676e-01,-9.671718943043112748e-01
2.140402427727837953e+00,1.178883981842255624e+00,-1.761920764534968542e-01,-8.764329582190939494e-01,-7.910490355442576504e-01,-1.046814956393279150e+00,-2.022458926367481369e-01,-1.638122435828152978e+00,1.924480339361793302e+00,-2.161922210585481618e+00
-4.273918953233318274e-01,3.688819432698292600e-01,6.763918526465602099e-01,3.026268396839837838e+00,1.504242825461906463e+00,-2.210015803052304495e+00,8.853933710394652490e-01,5.315637924941766235e-01,-5.841528098697361671e-01,-7.602478425404107787e-01
9.155916980786840131e-01,1.619974332982541787e+00,4.307112465585685723e-01,2.084433686565891897e+00,-9.977073358071675280e-02,-2.288245253152605407e+00,-2.706857079419330292e-01,-3.057360266542250571e-01,1.891499269609524303e+00,-8.650004217286646480e-01
