-4.279535598907946436e+00,3.883699491113243307e-01,6.377103227224023563e-01,-2.835879695957587820e+00,6.556581942318613354e-01,-2.682795929387914446e-01,-3.021624155982369775e+00,-1.831618321653860182e+00,-1.238471488715849000e+00,-1.726614792614875604e+00
-1.187513662151115312e+00,-1.054454656397775247e+00,4.782022044062442245e-01,-6.228815853853568729e-01,1.812133257792502450e+00,-1.263990337902168859e+00,-7.817494341847489037e-03,-2.529482355731388576e+00,-1.025208188333088355e+00,2.087460476109528784e+00
1.537867824786804116e-01,-4.372646092337957313e-01,-6.370886797677216551e-01,2.860921469241720416e+00,-1.417137395009292700e+00,2.400437158402282112e-01,7.656673999132921349e-01,-7.923448560254455764e-01,7.292382925257137050e-01,2.571563197624601393e+00
1.866256513772278414e+00,-9.412508514247468483e-01,2.771382061356055249e-01,7.108259212083539724e-01,-1.956377716778363585e+00,2.613928911846144509e-01,7.608955241949886261e-01,-3.711120993613066799e-01,-2.880058591061213091e-01,-4.754488467685357156e-01
4.678288668816060536e+00,-4.025398479935063389e-01,1.235029737601573308e+00,-1.430527744469429097e+00,1.507116721140586924e+00,-3.602719316781404668e+00,3.146117901539160489e+00,6.232935936575293434e-01,2.260836003292462593e+00,7.034890034545429049e-01
-8.394531618736981171e-01,4.033453790636306602e-01,2.827805430950053878e-01,8.463002080300668917e-02,-2.523738343434955844e+00,-5.578454429786183777e-01,-8.763109583280913606e-01,-5.784560989943242637e-01,1.356405179886252643e+00,-8.247057894530770428e-01
-2.295651841999434950e+00,1.610803841155792782e+00,1.930617236891091215e-01,-3.258751274649867913e+00,5.080210648755444147e+00,-1.550125473101803930e+00,-9.093482768782348291e-01,9.723145917845609221e-01,3.545621380033738279e-01,-6.326356739143110253e-02
-1.810128644243865770e+00,4.102962695788717196e-01,-1.661077513049230847e-01,-1.592644696299720275e+00,1.540037810656229800e+00,1.468702206757125150e+00,-1.543996596789326547e+00,5.961809354053932974e-01,-1.922252327593727106e+00,-1.810383261373549324e+00
2.230448022500702621e+00,-1.520536440480363183e+00,-8.273488578765832990e-01,3.633407102253031873e+00,2.478139208161773965e-01,6.360653236786348863e-01,2.477991197872997375e+00,-6.842895592180998632e-01,-5.667700895249206949e-01,4.048187313743381033e+00
2.442975407065264837e-02,-6.449583489769258327e-01,6.565668189957444278e-01,-7.081835023446932942e-01,2.748248120029802344e+00,-2.941808196602754055e+00,1.185085850303593480e+00,-2.001631711668476310e+00,7.251172925280602310e-01,3.187734397798959396e+00
