7.111676581344621439e-01,1.031744439830659388e-01,2.636886447809558831e+00,1.012511366863291462e+00,-4.958634898711403172e-01,-1.691944385548196095e-01,4.503242119482653294e-01,2.008659055667276316e+00,-3.509168560180238594e-01,3.934814979136398022e-02
4.606112734046586832e-01,-8.639874278553102416e-01,-1.063441725550963834e+00,-1.009156640715075604e+00,7.439029394041623000e-01,6.024607487324774580e-01,-3.831350950205787420e-01,-4.205151596114250268e+00,1.712132773206680891e+00,-5.220114764689506304e-01
2.957219155325094273e-01,-8.280578204912538709e-01,-1.787163830598891945e+00,5.481678041379685062e-01,8.175448332405343965e-01,1.322471819944695537e-01,-4.930398646231236581e-01,-2.872071664591944740e-01,-6.669535110330170047e-02,1.331320049595306809e+00
-1.051152425973289839e+00,-3.309560293697592637e-01,-1.280424688877232375e+00,1.412041690405618603e-02,-8.877832036585620035e-01,-1.941293017637207158e-02,1.443171252053833051e-02,-4.320451275336357533e+00,1.495523090778016762e-01,3.608215088510417501e-01
-4.010146919322675529e+00,-1.233803275914316933e+00,-5.851751890182900873e+00,-2.109396302020852154e+00,4.652405932738535199e+00,-7.707210888741112820e-01,-2.005477510570682576e+00,-1.569181729157431482e+00,1.386643164722687560e+00,-1.057328715763921734e+00
-3.148170191981867205e+00,-9.952021987742124542e-01,-2.959579623967427242e+00,-1.820127632331478285e-01,1.345686346389457722e+00,-7.268350603736057902e-01,-8.281363910682978391e-01,-3.631628969161835307e+00,3.947487213511824411e-01,8.739081689933515806e-02
4.481268126974989663e+00,-3.882028021358975567e-02,4.253167728391458624e+00,1.077958359934583221e+00,-7.832198159072157884e-01,9.954618706719011723e-01,7.561840136246604782e-01,3.152736375946080027e+00,3.223180501354781513e-01,4.535565651757592076e-01
-1.863017591297449760e-01,7.724160146951337680e-01,-2.964295722729458848e+00,-3.002821291603056775e+00,2.099764426293132757e+00,4.154623333597947110e-01,-7.736394627345412056e-01,1.669110492738140827e+00,9.351128681049247771e-01,-1.801164590509909624e+00
-3.692662193777904278e+00,1.988665583989294161e+00,-3.692496099168719681e+00,-4.864388450554307575e+00,7.547558250342439878e-01,-2.214243976203446596e-01,-4.549823117521651916e-01,-2.606034705559400866e+00,1.129065921021701113e+00,-4.122818122695512066e+00
-3.586481319696164238e+00,7.453583799357013095e-01,-3.547423342453110973e+00,-2.108957029522279925e+00,8.695783891645219033e-01,-6.658913197156710595e-01,-6.030760571784954394e-01,-1.542087994833455378e+00,4.073243700960578473e-03,-1.508234310175624149e+00
