1.367228780775368913e+00,-5.329984206552366988e-02,3.024306983237361912e+00,-5.323584681909214744e-01,-6.982810277107813768e-01,8.690637985217883332e-02,-3.413233989442520100e-01,-1.438625315563373808e-01,-5.396720200593396743e-01,3.125817206974207396e-01
4.087389666807530908e+00,-4.128825458658511582e-01,-1.111680516716739398e+00,2.437299812138570498e+00,-1.121237306653141141e+00,7.709306929905479500e-01,1.083141249499508518e-01,-1.092538523487956326e+00,-3.362716146334270295e-01,4.062152614490040503e-01
-2.540515863344355640e+00,-1.704058466562148322e-01,1.261438790974427349e+00,-2.525771806887490811e+00,1.150176712030030357e+00,-8.103323716386818809e-01,1.617753026857569054e-01,1.523013524426316323e+00,-2.765288863562647137e+00,-9.576191958680349003e-01
1.004366969214294514e+01,3.340394534456589959e-01,-3.757771668916964458e+00,1.972352561066652354e+00,-2.220849624274171319e+00,3.172890326204917955e-01,1.759096291530078293e+00,-1.151780332895569803e+00,-2.128640831411646506e+00,5.069378417982610685e-01
-4.101106310836513558e+00,3.291617658673099633e+00,-2.983480615501926447e+00,-4.690750584256694999e+00,5.231872428892307969e-01,-1.345491153990846289e+00,1.448975679409974404e+00,6.240417229320347481e-01,3.719858136430675088e+00,1.000632457705145750e+00
-3.333259905926515554e-01,-2.067487604610571239e+00,-1.965166005980171882e+00,1.258628024798370992e+00,1.893882227374776850e+00,-9.639107063804811526e-01,1.106283673377237431e-01,1.623963022306848192e+00,-1.247079471780671467e+00,-2.441959317976676758e+00
-1.979636753502278523e+00,1.056400188534042384e-01,2.812571680997438150e+00,-9.373353039646269425e-01,4.354391705112653499e-02,3.615022405091411484e-02,-6.735122432736815323e-01,6.714573420037717177e-02,5.974353288018624530e-01,2.794934659041424796e-01
-2.668952226175348219e+00,-3.050343694323277566e-01,-5.740038717128999046e-01,-4.366191813737512750e-01,1.157253559472651183e+00,-5.618151333400787095e-01,-1.126665400271955053e-01,8.026976980100146708e-01,8.455089953253392965e-01,-7.719791538848368440e-01
-6.103716762091035086e+00,-1.377376390623894498e+00,3.628240632282496048e+00,5.774007527411801899e-01,1.410934519289811062e+00,3.213081834662731007e-01,-1.912347045505938592e+00,4.318973788784714607e-01,1.138800067201283461e+00,-6.069229503499329326e-01
1.063250671332771624e+00,6.340611948945514831e-01,-4.710725053666376283e+00,8.349670597739464739e-01,1.778924805672208453e-01,-4.431741663053368474e-01,9.683643687578711301e-01,-1.705721483595435961e-01,2.750744656317579029e+00,-7.167062407264523927e-02
