-2.355605804534166126e+00,-7.063516224930594944e+00,-2.546536367392806532e-01,-1.660983069400666423e+00,2.751777653509875243e+00,-2.735777573021708875e+00,-3.999186270250825181e+00,-3.011163850847512258e+00,2.915713679756789745e+00,-1.042811511424868876e+01
-2.643019751058642619e+00,4.200358982799219376e-01,-6.342597276289431152e-01,3.728348483465893093e+00,-1.376078969072571101e-01,-6.778100655894570004e-01,6.382102902064645811e-01,-2.571581953985085711e+00,3.530185294831189591e-01,2.205174376840909112e+00
-7.147217510864650736e-02,-8.436949033173458679e-01,-3.467328194128977525e+00,5.516026472651821555e-01,7.872523056771746353e-02,-1.945315764989907326e+00,3.247961085955328286e+00,-2.263644421604173118e+00,9.276783259900214240e-01,7.243624253398404100e-01
3.764808451089164398e-01,2.625985358921350432e+00,-2.369383473371805771e+00,4.503037394670807991e+00,-6.125306215707658763e-01,6.225989716509732208e-01,2.459264746144139924e+00,4.923913243708484266e+00,8.532670750480558786e-01,4.348634249665129126e+00
1.077261880870346022e-01,4.058624645576057732e-01,-2.003874839306368116e+00,-3.703958172315380826e-01,-3.821180408601950740e-01,-6.447936920322230314e-01,2.235687994423097624e+00,-1.251833202923565702e+00,-2.761135186071491665e-01,1.617395275042899483e+00
-1.846200185603356747e+00,3.882937177396785788e-01,3.448087023639181847e+00,-2.568719755571077457e+00,1.318816234476489768e-01,3.084558040297661119e+00,-5.843693029328823840e+00,3.927532013425904633e+00,-1.993656305362275116e+00,-2.684342172056525921e+00
3.422957164088297199e-01,-4.401895799769941497e-01,-5.218642702902506869e+00,1.738064850782037984e+00,-4.097842376053917324e-02,-2.390425666604462762e+00,5.011884094911842169e+00,-1.362406538344145712e+00,1.516785077375337965e+00,1.978590829752297608e+00
-1.263206167863871299e+00,-3.667209557151458466e-01,4.070874410250448605e+00,-2.111283231974511732e-01,2.627435832377748581e-01,1.072093946718211566e+00,-3.860905540882787701e+00,-1.126769185665507544e+00,-7.001108458445368665e-01,-1.787822490189781899e+00
-7.645341978976363251e-01,-1.923319247954392797e+00,-1.125968626377125692e-01,-3.326182322115655676e+00,3.194302158059205143e-01,-9.894154772971454070e-01,-4.441803775242346708e-01,-4.271156677924858869e+00,-6.653342550774208330e-01,-2.424962600029129334e+00
-1.484603083000172186e+00,6.364280735365721586e-01,-2.438754754601800689e-01,4.129304650173559743e+00,5.998931844677513059e-02,8.627203246178716256e-03,-4.224480494333260339e-02,1.024813236353449009e+00,9.408317286594716222e-01,1.507799554398464359e+00
