-3.055195991416852053e+00,-3.801448841394332145e+00,-5.544976285035799535e+00,-3.165208104645018672e+00,1.129084838842612376e-01,-2.411206198028099379e-01,4.191065921654130833e+00,2.347535228540058583e+00,8.038867739896561615e-02,-1.651423776965831591e-01
-1.187663623349599407e+00,1.865562314040346004e-01,-5.502342496612924183e-01,4.518987262395843807e-01,-5.276556951318172040e-01,-6.946725894469059082e-01,-2.563423548974445243e+00,1.123419727850754501e+00,3.775685368681463427e-01,-6.299421167057985826e-01
2.309809001320977995e+00,4.486736832289107468e+00,4.062946613288865194e+00,3.485618642263171196e+00,2.735137318976773368e+00,2.322223967279426482e+00,1.643804097679188114e+00,-2.011826263065870091e+00,-5.208724876553941785e-01,5.739676261673950508e-01
-2.110687836807832340e+00,-1.036632197962556567e+00,-1.866551072352675034e+00,-1.292345576868475732e+00,-1.296589562243365634e+00,1.564666710289035756e-01,-2.634108242455189597e+00,1.999875335650088015e+00,1.454389154708485288e+00,-1.940767898859746099e+00
2.688659018290947555e-01,-6.659852978995314920e+00,-3.273202419122753337e+00,-4.819846882282881495e+00,-4.721775161815952693e+00,-4.174432775083439573e+00,-1.736830149721569905e+00,5.598700732414264580e-01,-6.367870663029334688e-01,1.552357483701154672e+00
1.497194382695368420e+00,-1.326632405637127254e+00,4.703932045391099326e-01,-1.183934484366420126e+00,-1.973707969546583341e+00,-4.751078755022772881e-01,-1.494847580322471670e+00,-1.907385559373607486e-01,1.634408984508534807e-02,5.665481142396480152e-01
7.817786808557255718e+00,5.187444406216286552e+00,9.629454604443768773e+00,4.365149381361844050e+00,6.455042875449409356e-01,8.485087078787237891e-01,-1.192811669243915462e+00,-5.876043034180891134e+00,-1.770972221246073675e+00,2.911341788747654036e+00
-2.185858336708692562e+00,-4.195514438988630523e+00,-3.466064755852949375e+00,-2.669224687502893989e+00,-1.308830371745443477e+00,-3.659507266219533594e+00,4.462697738724537011e-01,2.487669679206837292e-01,-6.400045526391502371e-01,3.770354841683227209e-01
-1.413553581630150324e+00,-1.281395513153793297e+00,-2.651952842755880724e+00,-1.716938839515065873e-01,3.219832852396709716e-02,-1.235253585455104108e+00,7.797212546759481056e-01,1.718932496727348713e+00,-7.460846966473158037e-01,1.022011565886144391e+00
1.133839389966653011e+00,4.376854108279643718e+00,2.677278230164183093e+00,3.119897277879539299e+00,1.593980193923010269e+00,3.295387729046317382e+00,-9.275414918704053546e-01,5.436553873520620916e-01,6.372618017894118303e-01,-5.524057464939344797e-01
