2.410034924592761474e+00,3.854194560221031018e+00,-6.342067108275029952e+00,6.601983220000315455e+00,3.598811128808437232e+00,-1.481899863283291818e+00,-1.458127507966251180e-01,1.326080320192830175e+00,1.074676043151069127e+00,-3.077012398779872537e+00
-8.014727645446488857e-01,-6.075859407946445634e-01,1.252651442432255680e+00,-2.629809330049692306e+00,-9.458068210454179114e-01,2.887474154516163516e+00,1.847406845987106527e-01,-1.383525903371427834e-01,-1.356865386550095975e-01,-3.150312884047638540e-01
1.428652117371510322e+00,2.313307343952740958e+00,1.157567655921817540e+00,-5.234415267030758656e-01,1.222114007352138376e+00,3.471110903598356501e+00,-2.800397715365662954e+00,5.714286574768039362e-01,1.507166428742849007e+00,3.207661029425580956e+00
1.408128320955902124e+00,4.716126345746550208e-01,-2.684054147826312686e+00,3.040539188095867651e+00,1.631400043487344798e+00,-2.763879694704811651e+00,2.470260148777195131e+00,-6.531242365910848724e-01,-1.157963338582128854e+00,-1.219674817390084209e+00
2.093982764917805106e+00,2.250971036581796980e+00,-3.071051729553407661e+00,3.415389265490930359e+00,3.478836657189218418e+00,-2.770863333444848919e+00,2.588396930151362962e+00,-6.455814465880631292e-02,-1.130368690220241890e+00,-9.685618206330359747e-01
1.769091279701862918e-01,2.572483937451796265e+00,1.157829132365165936e+00,-8.752810842292725324e-01,2.476514584034624544e+00,-4.016656505713385172e-01,-7.155676277488676185e-01,1.390622074361244520e+00,2.988850340431428720e-01,1.288554816430751204e+00
-1.567804349701567679e+00,-2.497416614618657160e+00,1.842710386570824088e+00,-2.136898394102377363e+00,-2.525702680765898656e+00,1.932371536609304163e-01,4.057244594000577673e-03,-5.933077445244970827e-01,-2.896412190393889419e-01,-2.517026288415858543e-02
-4.469778771629532854e-01,8.037679154608718957e-01,1.562746725233338907e+00,-9.176924896389333508e-01,4.180077676566016365e-01,-3.966618002326773307e-01,-1.540159308087421186e+00,8.855967961016668610e-01,6.563055141301346040e-01,1.401551248287396412e+00
-1.167340846380597208e+00,-2.324200108717688895e+00,3.236403174648775360e-01,-6.467789017273879448e-01,-3.728460653080406306e+00,3.016440727316377135e+00,-2.577953539956900908e+00,-3.407846711656342675e-01,1.515889760288846810e+00,-4.267223609725567246e-01
4.422307768732831185e-02,-1.329621569019193705e+00,4.163460125199940909e-01,-1.178135338705433854e+00,-8.407032474427752478e-01,1.158162767664206338e+00,1.647533809739852417e+00,-1.165356473760270850e+00,-1.010500721266230029e+00,-1.383009772602921961e-01
