4.435321618396658394e+00,-5.913471193689731287e+00,-2.669907689504043447e+00,1.041577427361127572e+00,1.184889763222405579e+00,1.169059460010203333e+00,-2.212628642762145326e+00,1.370239430985689344e+00,3.374288179445800839e+00,1.826408439686693530e+00
1.008685360394949937e+00,-5.165984224791438706e+00,-2.844630698312318184e+00,2.861764028574037777e+00,2.263171330497045775e-01,1.491525252918841637e+00,-5.952865203835991936e-01,-1.391251937634884195e+00,4.896787293180684397e-01,4.260052993296301604e-01
-1.026790886628377919e+00,1.883994218936345444e+00,-2.252618364327557965e-01,-9.999748804622603515e-01,-1.671243720211649908e+00,2.549796197001047204e+00,1.862897861269747546e+00,-4.234623648934923712e-01,-3.137103959960176880e+00,4.768447572382233934e-02
2.772990046742458414e+00,3.883805336161897159e+00,-9.679701537783249599e-01,-4.204201341323519969e+00,7.766519910535146787e-01,4.195514698334910642e-01,-1.053806674679041988e+00,3.722577014414691021e+00,2.156209608794017019e+00,-3.482804565249807416e-01
5.963804388254961841e-01,-4.713272689893885037e+00,-2.638113785279087242e+00,3.573932028567385011e+00,8.163667881718905672e-01,-6.849785827180434605e-01,1.195454468953565330e+00,-2.810411874529804788e+00,1.053700097626927290e+00,4.721772743916517745e-02
3.891524794489454320e-01,7.717934699341619798e-01,6.262439316263467282e-01,-6.859378698041802558e-01,-1.016884893400132883e+00,5.303101636568351429e-01,3.387546686215209490e+00,-9.293956278189442477e-01,-1.707060458255273971e+00,1.232168031150075116e+00
-3.547318934202436047e+00,-4.868073609842007876e+00,3.092335813659931265e+00,2.500890120282825979e+00,-3.869138225933085096e+00,6.238662297441631033e+00,-3.263887493952680074e+00,-5.091145348450897279e-01,-6.385490768441550280e+00,2.267888579951572670e+00
3.827124641950896411e-01,-1.897912897808945454e+00,-1.958518363205557222e-01,8.258720520693751954e-01,-1.519663593359020237e-01,5.706714770544550897e-01,-2.331882285038400227e-01,-2.915324295718725867e-01,-7.537448073806325699e-02,6.370733338052719796e-01
-1.193624736206959858e+00,3.460288880440489656e+00,6.876282423816086897e-01,-2.020536284511905478e+00,-7.143495684700087445e-01,1.177783541832692071e+00,-8.559168632931782872e-01,1.403682980026725424e+00,-1.359751376439062742e+00,-8.862345653586833905e-01
-1.982668535874809512e+00,4.460968502016524617e+00,3.129955983885655879e+00,-1.037089260049607109e+00,-9.935028711594759421e-02,-3.420044434021492386e+00,3.458486959220995249e+00,-1.325291682539677662e+00,-9.300283794978588814e-01,-4.267218409352178665e-01
