-1.865723750236746081e+00,-2.076907745337494005e-01,-1.369961985085516309e-01,3.043728029726394890e+00,3.181683039750363040e+00,-3.878390390971550694e+00,2.107234009380410278e+00,2.944469799123594189e+00,1.422768906725805582e+00,2.663008551487723530e+00
-1.224289281504250093e+00,-8.255653470412953610e-01,7.057589411490248210e-01,-2.506817880784334651e+00,-2.012162400725309386e+00,5.698243503929227849e+00,1.589475580778480612e+00,-6.167748259512009223e-01,9.231304027968224579e-01,-2.286409398120716752e+00
-1.044276681381056893e+00,-1.286565697097363570e+00,3.765256694633560830e+00,-2.688238756025743026e+00,-2.406981855572101203e+00,2.813493522641705158e-01,-1.746365493796446566e+00,-2.125051201857565353e+00,-7.288076619002313628e+00,-3.461539405560678073e+00
3.946231382484609029e-01,-1.835085456258877645e+00,-1.013092658441357763e+00,-2.396944850275714245e+00,-3.447428460125007810e+00,1.933763086278303955e+00,-3.180585292922301077e-01,-3.221705587123008030e+00,-1.470265746600856183e+00,-5.344047823129685071e+00
-1.516974941057897652e+00,1.540711630914631119e-02,-1.178727937370520840e+00,2.079329702026867233e-01,3.707285567926480452e-01,2.588092592570162331e+00,2.931713046290548963e+00,1.994405226348926918e+00,4.754653336495886506e+00,-9.728310907656555206e-02
8.685824394493049105e-01,-1.226262105926023416e-01,-3.935621239182207631e-01,1.775276467007199210e+00,1.498528580760351669e+00,-3.688970162288339960e+00,-9.942704694700748025e-01,-3.281687987273279039e-01,-1.446618369813166050e+00,1.833977835641069865e+00
1.024150782666212622e+00,6.718490645518254700e-01,-1.167553301303340341e+00,-6.204733701719526984e-01,-1.491403920921173576e+00,-1.050773895801939029e+00,-1.195115398798696660e+00,-4.777539980121209839e-01,4.817484555502423715e-01,-2.419737353230046129e+00
2.480823445054655796e+00,-9.699355269700443705e-01,9.185916527351173713e-03,-1.666111392492509946e+00,-2.706856042294733533e-01,8.180147752286451635e+00,-4.414745241393597253e-01,-4.011861458642383305e+00,1.013441699172730817e-02,3.837402050870735160e+00
-1.881504298497304717e+00,3.508638434851251819e+00,4.439421108287318063e+00,2.006319102175182501e+00,3.198300606008557700e+00,-6.398702928808571500e+00,-1.553611558182677044e+00,5.629549584210213453e+00,-2.696465011041772719e+00,3.781050176231391724e+00
-5.997896592568586760e-01,9.531712977679064336e-01,1.001774579991533409e+00,-6.270919650547558399e-01,-8.946955864655480317e-01,-1.789829893190030496e+00,-8.430932715039775038e-01,1.120154284971410119e+00,-1.088747937838465685e+00,-2.061322703450511273e+00
