-3.280467376830756288e-01,-1.534531870231781614e+00,-1.486243370851783041e+00,-3.627386421844530418e+00,7.270254854793296584e-01,2.575652759982886231e+00,3.633319820319014681e+00,-2.542246185039996664e+00,-2.842206806692598731e-01,2.598668493454472816e+00
-1.146826253572842125e-01,-1.127175180874803173e+00,6.035228601685560523e-02,-1.435545255582209023e+00,4.794993233086439766e-01,-6.604978784387538493e-01,8.101002070003306965e-01,-1.517203710691100271e+00,-1.420589659116017867e+00,5.065461801984083579e-02
4.093412909137771338e-01,1.387085969070999347e+00,-1.979653337214334119e+00,7.839333285309872945e-01,6.899198094424523475e-01,5.591168231019660873e+00,2.009096582192228198e+00,5.326095504967427452e-01,3.681454709348414234e+00,1.890730896566710451e+00
-1.495315518822082357e+00,-7.933547924306896260e-01,4.561688169865090181e-01,-6.053519034453685776e+00,3.520941482056400673e+00,7.318117923807093916e+00,-2.146399036870903387e+00,-6.107713337294288003e+00,-2.298032667447111876e+00,-1.119273494579120287e+00
-7.139829380909917811e-01,1.481043139810489295e+00,-2.526119428597306538e-01,-2.445403398466118317e-01,1.271201113501454483e-01,2.766673305532596938e+00,-2.109725638653832114e-01,1.226317940984125832e+00,1.821335945154804348e+00,6.222203615910593122e-01
-1.580949097248213198e-01,-1.173178971712752205e-01,7.698908952326727340e-02,1.284379123515618559e+00,5.264955962658198763e-01,-3.323715580139781967e+00,2.913105934863542856e+00,1.618641079611256695e+00,-1.111392344399638743e-01,-1.066832151489330860e-01
-1.637401486637875880e+00,8.845137373500977507e-02,6.783697310549507975e-02,-2.169902761221361942e+00,-7.417651709473118693e-01,-1.990538395263020677e+00,2.832585226931804812e+00,2.010210291984888098e+00,1.418103432897455107e-02,1.968163375253312308e+00
8.184100384042686249e-01,-1.760373267436268763e-01,-1.142109517698168597e+00,4.708431527330022570e-01,-2.685830354654024088e-01,1.714648519411526184e+00,9.541730862732050733e-01,-4.441734512271831026e-01,1.160761439841469844e+00,1.129867548194753768e+00
3.030714885888607379e-01,-1.644231082819652467e+00,-3.678465093960876509e-01,-2.367191296684708401e+00,1.406658799736352661e+00,2.144837153455493972e+00,2.105195198152694236e-01,-3.911573992177513226e+00,-1.701943435048914210e+00,-1.395557707965821292e-01
1.366720025209005263e+00,-4.373480233464881461e-01,-1.059922672787504627e+00,1.778276460632477241e+00,5.381001497567488023e-01,8.110350772703240896e-01,1.318146190627456082e+00,-7.906147154359821627e-01,7.975590833707331129e-01,1.146771773427236740e-01
