2.089487337096989084e+00,-4.426916874631571797e-01,-1.364532361551079154e+00,2.169938766567395039e+00,9.090777978594209718e-02,-3.440022805029129049e+00,-1.268585737386945800e+00,1.532447474929429676e+00,2.143588850287636127e+00,-1.733420152296895334e-01
1.978113878318263019e+00,2.980673867016646050e-01,1.095251001748633879e+00,2.455953524818573985e+00,2.303649712187869181e+00,1.078725296500478548e+00,8.948300475064069337e-01,5.316768844897056256e-01,3.880241306646933896e+00,1.592092060761771455e+00
-3.250934898471438128e-01,1.895944682302305173e+00,1.195738353478283500e+00,-2.334417942009628710e+00,4.760091258595007702e+00,3.213992569404550803e+00,8.379907447104851803e-01,-4.648287936522751962e-01,-1.871666803604518980e+00,1.628956844561192607e+00
-4.596663779908290337e+00,-2.268002238551067862e+00,-4.907952036793046702e+00,3.626436410101844032e+00,-1.571689551743297608e+00,-2.709953240619889847e+00,4.783668546749000328e+00,-8.476077802419612617e-01,1.683247944532738405e+00,-1.136200819284728603e+00
2.000791261437328661e+00,-7.312817694020588011e-01,1.387779908933582051e+00,3.100331158818079302e+00,-7.537690718974233706e-01,2.865474765371937571e-01,7.852708920064389586e-01,4.908593412069870987e-01,3.941602644102903064e+00,1.032131643870593862e+00
-5.483671631810858038e+00,5.551788646339208544e-01,-1.782750410856742906e+00,-3.216242660384104557e+00,1.230767192585782155e+00,2.646802190018644030e+00,2.640244797162043078e+00,-2.290128072074885779e+00,-4.104040248511223510e+00,-8.707707048154029739e-01
7.161806739996514626e-01,2.006135159624689024e+00,1.633575875031794133e+00,-1.925364673624056389e+00,3.692091144173563766e+00,3.412127186946380064e+00,-1.250725671720834598e+00,-4.471510341899971319e-01,5.630608385129828308e-01,6.038410329178182101e-01
1.018432253132859122e+00,1.607797575431835879e+00,-9.788496216089458413e-01,-1.691988581506203015e-01,4.081393843784105968e+00,2.329103195642326096e-01,-1.912750423024158097e+00,4.364585815940906222e-01,2.419317891189528336e+00,-2.685952344071873554e-01
1.461186180411954361e+00,1.405289592309078905e+00,2.544344305795865235e+00,-6.811315338503152184e-01,3.382631541081405402e+00,3.290924705199150146e+00,3.718866396570429944e-01,-6.800869601973189016e-02,5.600382314220596625e-01,1.954794422841082291e+00
-6.493263313740630371e-01,5.883777280915315488e-01,3.138457395568818309e-01,5.478030935484423658e-01,2.866921759501606104e+00,2.207280804480461711e+00,2.140730738953163570e+00,-5.025720588944890821e-01,1.144486170151885585e+00,1.270439957314403623e+00
