-3.523738817891449493e+00,-1.071123135624846290e+00,9.404407066608888588e-01,2.602910772920552951e+00,-2.239422246048466958e-01,-3.730898456774258687e-01,-2.949939168087582164e+00,1.393206887362682167e+00,1.176658424072049014e+00,9.223256902305383420e-01
3.002878568833905693e+00,-1.179801765417186399e+00,2.774234588969982873e+00,3.448888056722473561e+00,8.405967388143178454e-01,2.408024792104619394e+00,1.265596387093852471e+00,2.240144914324361802e-01,-3.839686745210082019e+00,-1.466245185561705577e+00
-1.241224576421152914e+00,-8.479970751326969536e-01,4.049143893749233669e+00,1.887732383825893256e+00,2.047218410766832863e-01,-1.087607393294964808e+00,3.938269840379512443e-01,2.809276732381482233e+00,-3.830394943429736632e+00,-8.610655256979196093e-01
-2.285871246616709707e-01,-6.976613014073145269e-01,-1.338607471869721177e+00,2.623000853866383597e+00,2.895171570048795662e-01,1.464485265388620672e+00,-1.676105280149787768e+00,-8.898869711962535956e-01,1.552266148785844457e+00,4.000423950558577024e-01
-1.269737069675225705e+00,8.233575162777547751e-01,-2.649528832593521788e+00,-1.067731735559090955e+00,-1.196327001847096394e+00,-1.959010981475261870e+00,-1.567367681270304125e+00,-2.101083868822956724e+00,3.371126052572148257e+00,1.681767617510709467e+00
1.254541005830179801e+00,-1.641884353849017986e-01,4.408321767673340830e+00,-3.791744387391626780e+00,2.591468769425732399e-02,1.868173907150925572e+00,1.920272698905815645e+00,2.240828096454410279e+00,-2.187562397982255824e+00,-8.140828418503692765e-01
1.055352328550794860e-01,9.841180080728056945e-01,-2.049388404656150797e+00,1.038662015244459669e+00,-6.933554843053792993e-01,-3.725095059308905387e+00,4.684623747160656659e-01,-1.866402346152940428e+00,-4.980756278901313783e-01,3.294393046082139120e-01
1.188018195678131939e+00,2.234549686962834514e+00,-2.004990292489820192e+00,-6.765169060921309097e+00,4.381177771697631895e-01,-1.794474114682830468e+00,3.973153457969570646e+00,6.787071454753341726e-01,-5.707747940355010208e-01,-1.146579358742654708e+00
4.226249770107585846e+00,1.523405189543273641e+00,-8.561518168102006943e-01,-3.761948409511920222e+00,4.938909545947915425e-01,-1.330269708251696770e-01,4.416830450480402348e+00,-9.699720229516483050e-01,-2.402730308716854779e+00,-1.588573377454001179e+00
-4.208108138480241678e+00,1.404810205594482442e+00,-2.278351661531842876e+00,-2.815959459546525157e+00,-4.212860147748797024e-01,-4.750877189024931724e+00,-2.587503589625061995e-01,1.472350583758354814e+00,1.472112853790315423e+00,6.209200214867829359e-01
