-1.167079574144044951e+00,7.842949299226967264e-02,1.389531109950762788e+00,-2.252546330847396749e+00,-1.955272809417720262e-02,-1.376158373883294761e+00,1.837923655708809945e-01,-3.453076779705818389e+00,2.113743829639636029e+00,-2.685789926451793264e+00
-1.020412897571646438e+00,-5.940909218099892086e-02,-6.080744242584386061e-01,2.449402160293158826e+00,3.966185325843570864e-01,-1.666730154314362444e+00,6.381742355277031375e-01,1.157256918409965696e+00,-2.575505248196318320e+00,1.173460023071269065e+00
-8.264401119077621205e-01,2.699657069195749437e-01,4.509883243142968068e-01,-7.472854312758960837e-01,-2.485256861645460391e-01,-1.137708603790205331e+00,1.693979730661965555e-01,-1.337026671187713012e+00,1.370739616628496860e-01,-9.665002183733363283e-01
-1.777523311928683292e+00,3.546382397543959564e-02,-3.510032605604763711e-01,1.690738704518320867e+00,-3.642089924534324535e-02,-2.568882242253795134e+00,6.687988676264271515e-01,1.757813076734751900e-01,-2.883609390427559038e+00,2.017358448755912081e-01
2.224816864772308556e+00,2.014151873937372272e+00,1.456131338614952586e+00,4.242231670194139270e-01,1.665094990438643174e+00,1.354546908163925645e+00,7.071422497081283343e-01,-6.372711247683884306e-01,5.366059753335021831e+00,2.361802966138800919e+00
-4.979789712793064038e-01,1.436333886812515281e+00,1.973783601711456726e+00,-2.179218277907815970e+00,-2.010309037788715170e+00,-1.070313058218219648e+00,2.641634596085150055e-01,-1.609248971416247675e+00,-5.130512610444342148e-01,-1.601072847435531576e+00
-1.095631295392602400e+00,-1.887891429658649922e-01,-3.382445938424150089e-01,-1.424936613318187995e+00,-6.205009398311224222e-01,-1.000450346919743438e+00,-3.283157049593342092e-01,-1.303777287051050005e+00,-4.357794347967763882e-01,-1.490488794014609431e+00
2.718487478208654884e-01,7.333044708033770176e-01,5.335962238376815714e-01,-1.671022794265991374e-01,1.067073102107504834e+00,-2.260427420559286971e-01,3.563244825721935127e-01,-1.377509180863323746e+00,2.887243216787165334e+00,3.655419949724232898e-01
2.214519557178320053e+00,2.677868697821236488e+00,1.507140661476908505e+00,-1.086414198221863803e+00,1.797911147633229345e-01,1.386519299692953400e+00,3.116231519303442332e-01,-7.335816023354884141e-01,4.515741958317066818e+00,1.857776549002943867e+00
-2.105396817047008540e+00,8.777773048159319691e-01,8.484915730077763341e-01,1.131625294256279890e-01,9.566764318990849114e-01,-3.489140279459518990e+00,1.049517535639053367e+00,-3.129493493892234746e+00,1.263484663577913558e+00,-8.935557595589307400e-01
