9.883423789383862790e-01,-1.092998436536950280e+00,-2.480000026177526351e+00,2.550081884869473292e+00,-1.769850173955994421e+00,1.715840114893891544e+00,-2.128667172586582002e+00,-2.700169652075893101e+00,-4.886528971877035499e-01,2.610620305768754701e+00
-1.152928666934682322e+00,-3.531669706697142974e+00,6.468154393929514967e-01,1.074546013797815336e+00,2.061536918768593019e+00,2.687049784685097809e+00,2.120264451311033138e+00,3.780535508735075823e+00,3.529022875025941364e+00,-3.262577398470317469e+00
1.574744016268056601e+00,-1.650800729758506780e+00,1.799047276700635356e+00,7.066370376010145948e-01,1.706083647942003401e+00,2.442328561808438103e-01,1.061799149486016614e+00,1.090347943361531513e+00,1.843035135881551656e-01,-3.046096449653921123e+00
-7.291874392369863678e-01,-2.777495682599533833e+00,-1.517075292751169258e+00,1.515532430987046819e+00,-4.075711941074657840e-01,2.069932833889241319e+00,1.671231284347846069e-01,1.472333034405239882e+00,1.802197982725752157e+00,2.013584497459352196e+00
5.355452793121298072e-01,1.209731399869536039e+00,2.464790869933738138e-01,9.854288883767863272e-01,7.467920517547843584e-01,4.389613604118560164e-01,8.485339334054884386e-01,-4.346012855743038861e-01,7.206647085094838312e-01,-2.004687494166532691e+00
2.201625252365133623e+00,-1.040304902383769825e+00,1.072001331904080867e+00,1.534361212385628281e+00,1.093789882731065699e+00,3.869430281380601966e-01,4.287876070439855525e-01,-3.277409406026662864e-01,-2.963156798443029039e-01,-2.257319560723114460e+00
-3.337672489467650383e+00,-2.149413784616418965e+00,1.680575235259068378e+00,-1.641698313685633570e+00,2.638351456940838169e+00,1.562245013566099905e+00,2.925110039166931131e+00,5.378503747640528410e+00,4.022675975512890467e+00,-4.555096165293904598e+00
-2.098930602352122587e+00,-1.551386560825073424e+00,-9.021622210878581516e-01,2.143936877463045176e-01,1.936790280911170059e-01,1.890970653194015139e+00,5.645958989166376396e-01,1.876009465167074897e+00,2.406033637080497112e+00,-2.304645226794722057e-01
-1.852778179510191359e-01,-2.049091879680447370e+00,7.981791870808196965e-01,-2.712843831609804690e-01,7.667250410901205182e-01,5.624105849131266766e-01,1.293274739885359181e-01,1.252955872313719299e+00,4.124878758485284180e-01,-1.561865654006997728e+00
7.604008451256888401e-02,-1.652251495335820719e+00,1.324250746754951358e+00,1.618923402747128037e-01,1.630935310636858926e+00,3.896933833899926536e-01,2.049678921455025282e+00,2.882977215442114272e+00,1.511569614139889772e+00,-1.603935766347562408e+00
