-2.900874446937153461e+00,2.336691264496326248e+00,-1.362670053762544464e+00,5.966065852925452884e-01,4.054434133923483508e+00,9.655079212007986467e-01,-2.675753931062055724e+00,-3.285445807824444175e-01,8.775044896469809119e-01,2.813736139305420547e-01
8.462147793220682335e-01,5.071479681099703152e-01,-1.482919378403128874e-01,6.033523563838668613e-01,-3.427332229134137709e+00,2.796805690549059031e-01,3.596360079684000066e+00,-3.448828493913869586e+00,-2.587962460561897604e+00,4.497829321719080120e+00
-6.446067375354402884e-01,-3.114303787867056972e+00,3.541120774286429906e+00,-7.769123153813418670e-01,8.506962792470886825e+00,-7.665774875400509503e-01,-3.075036404257135203e+00,3.871593242123562151e-01,1.205230889657249227e+00,-2.739247118928246127e+00
-3.815839138936001906e-01,-6.212312263486766684e-01,-6.541606418848640025e-01,-1.333876529266089239e-01,-2.158988075539872931e+00,3.980339467039170076e-01,-1.645942600884552354e+00,2.055517900056785141e+00,4.054191613570748420e-01,-9.432014981273242338e-01
1.262963902616936140e+00,1.984500076588242345e+00,-1.544160564182485151e+00,-8.499474305270972030e-01,1.010161903723713755e-01,1.038327968158278547e-01,4.161313013369655200e-01,1.215785685475907707e+00,8.480804387453784177e-01,-1.787164813727291524e+00
-2.944012289811223759e+00,2.021207479002042895e-01,3.282724540128038049e-01,4.800443140215119864e-01,6.100120477311188338e+00,-1.237391193608582407e+00,-5.089664065869050624e+00,4.566406875038014235e+00,5.048403167556873683e+00,-7.080980632475586845e+00
-1.587599865179005310e+00,1.482233180097854985e+00,-1.119893799772139431e+00,7.178424127873442862e-01,-1.833277199764245524e-01,1.154860664628048816e+00,-8.059281835680212613e-02,-2.113548479956417037e+00,-1.342421238085196089e+00,3.376383677968850971e+00
2.660311084716094343e-01,-3.623238641926736836e+00,2.879484225828182975e+00,-2.848636805913966619e-01,1.167965751440153799e+00,7.460751913621977982e-01,3.815903697947885531e-01,-3.570388442541162721e+00,-3.512003843399209568e+00,4.753688546518676006e+00
-1.824809630857768261e-01,-9.561690010043664145e-01,-4.837232761466321862e-01,9.242334864374260883e-01,-6.922340401109678076e+00,1.025884050610026410e+00,1.879730377333890035e+00,-2.232791429370562852e+00,-3.189053181814622384e+00,5.406504213905352962e+00
2.263114269342918927e+00,1.137877611754556151e+00,6.330514082088671557e-02,1.004667820640046116e+00,-5.521377866323302186e+00,-3.747720168895755100e-01,7.297440006556768388e+00,-5.673463681596464525e+00,-3.651446137311539886e+00,6.317025113551607340e+00
