-2.053268170714995566e+00,1.075774798753258210e+00,-1.898991738553489794e+00,-1.233889043303537880e+00,-3.502728594375746352e-01,-7.319921088536985865e-01,3.754761589392022980e+00,-1.467963836288865842e+00,-1.154217476002942888e+00,3.695376799917402533e-01
-5.389738933088348283e+00,2.895896989671767230e+00,3.125874537265561859e+00,-7.926552886563136002e-02,-5.112167644513789355e+00,3.098215660964724893e+00,-2.834028278580089211e+00,3.218867114218655345e+00,-4.109180862772682935e-02,-1.723572540223069938e+00
2.879965964188600402e+00,-1.535957028955089898e+00,-9.178047866096491703e+00,7.899449765365674780e-01,-4.336790683388810130e+00,-1.133866462181682300e+00,-3.619766202962010571e+00,3.104703555579578556e+00,2.223673376643357791e-01,-3.872719006357851601e+00
3.274344436610370224e+00,-8.238627064732805261e-01,-2.889111522584117520e+00,-1.197059701765087025e+00,2.095567275526662332e+00,-9.835893427194346561e-01,4.312206522734213787e-01,-1.586126169603580216e+00,4.355298365947515848e-01,-2.276735534493789237e-01
-2.436846778470695529e+00,1.381573235464040650e+00,1.537484047788794328e+00,-3.900165140141185205e-01,-2.925306690402650567e+00,3.095487890388131547e+00,2.658690225691590747e+00,1.574436875711551442e+00,-1.172861361655187729e+00,-1.528698700750554584e+00
-5.840331827459872144e-02,-1.107465886847011305e+00,-5.909543301570963969e+00,1.030479954054364766e+00,-8.593869369433876360e-02,-4.932486783325590096e+00,-1.911749778436163671e+00,-7.675478066489473949e-01,1.328646280661550660e-01,1.008574163516458677e+00
-4.818962980941766117e-01,7.519635817372390951e-01,3.134754754663356291e+00,-4.674986420374946938e-01,2.221523895563200401e+00,-9.617774993789433013e-01,-4.236872285013528305e+00,-1.119045637792202896e+00,1.666974271726150425e+00,1.685919066097902652e+00
-2.673606413681831384e+00,2.187382362147793025e+00,-1.726985534277349910e+00,-2.854878297249855645e+00,-1.281612035699126739e-01,2.308477543434775958e-01,5.919716111971625061e+00,-2.455989714977068417e+00,-1.530606086106662156e+00,1.211463657190039733e-01
-1.304443581806536523e+00,-1.780385572283626761e-01,-3.810444288415304470e+00,1.243510667131984965e-01,-2.614580449667039952e-01,-2.711636346280410503e+00,2.582241704539006921e+00,-1.215102489840049538e+00,-1.047100820881222027e+00,8.454726948239793538e-01
-2.817726647934381212e+00,4.753623069177222993e-01,-5.698096184681808452e-02,1.643530415999254313e+00,-4.288035916733180741e+00,9.157968720357166914e-01,-1.921749745555818123e+00,3.160282342731988159e+00,-4.303811721924003519e-01,-1.349374754260439069e+00
