-2.097037065007903323e+00,3.745298022848244646e-01,1.560863511572686990e+00,5.755382841874389088e-01,-3.581412251857279405e-01,1.892301991563249963e+00,1.273315463731485853e+00,-7.997386097874653599e-01,-1.241228519072129055e+00,1.311125173464795513e+00
-1.170592903928526551e+00,1.514973664502529682e-01,1.132609640279754748e-01,-6.217989471867562123e-01,-1.091303215833915763e+00,4.314904713810590042e-01,8.769543288654643165e-01,3.839153612516445491e-01,-1.248274720060306708e-01,6.519273870773726332e-01
-1.016868346672053836e+00,6.657535631246588870e-02,2.037718231854550588e+00,-6.854685407899975269e-01,1.864091310040379978e-01,-2.838390398452450114e+00,1.430223285828427171e+00,1.453585067271992992e+00,-2.659798454844773730e+00,1.908758479490088700e+00
6.442189315840448627e-01,1.847958953452162545e+00,-1.874152661312194823e+00,3.245716266614446788e+00,1.157951747429820433e+00,6.106445714948613102e+00,2.867902628784861907e+00,-2.022731661569731720e+00,3.901744846466510541e+00,-2.936599928092230805e+00
5.121549677799845657e-02,-1.728549520764080860e+00,9.037534309814111433e-01,-1.318101940938287919e+00,3.114813608940383838e-01,-2.400930911432530124e+00,-4.130465195254461541e+00,-1.078388971425543463e+00,-2.182983287776028458e+00,1.751581857974741308e+00
-1.060733505536638477e+00,-1.689740300332115142e-01,-2.873955778073386202e+00,-3.108040646099370363e+00,-1.537388865363046975e+00,-7.005683337420356427e-01,5.183734283065081216e-01,-2.035497817299004031e-01,1.876012742079746776e+00,1.596492501341358006e+00
1.727742249556475596e+00,-9.727469860826702674e-02,-2.296662020670077631e+00,6.776661943592091619e-01,3.824019187786136698e+00,5.508186369934791049e-01,-1.403711512480079415e+00,-4.137287515650322156e+00,1.788659818064476381e+00,4.063507261071244159e-01
8.319185346365207678e-01,-3.859345186217670309e-01,2.060556776668213352e+00,1.118121880813320423e+00,4.056816121993216839e+00,-2.673591688420600132e+00,-1.026383995985994169e+00,-1.980830577537247450e+00,-2.906329603792327188e+00,1.929574814002525285e+00
-9.853474858158020599e-02,1.159453566543734215e+00,1.576679280860041610e+00,2.857524858673129220e+00,2.266620273587285350e+00,2.111629133960391869e+00,2.293423612743182183e+00,-1.206383002550007300e+00,-5.836647556811525028e-01,-3.580882571536729286e-01
3.626324459989409110e+00,1.832470472710639786e+00,1.066029521594467067e+00,3.027880729639488955e+00,4.212525922963023528e-01,-1.973216110938620815e+00,4.088584509711527204e+00,5.872162777895904462e+00,7.919292167773964719e-01,-5.279297557733134028e+00
