-1.715628082478704908e+00,7.062648227104213472e-01,-1.927218848610750213e+00,3.120082859063811664e+00,1.835655118041341627e+00,-1.145448829342992969e+00,1.305809298379225991e+00,2.983901853418219119e+00,1.623143788756601591e+00,1.746214804714553703e-01
3.151469942287951742e+00,-2.814817748542044917e+00,3.497523623612483146e+00,-1.520968265272172992e+00,-2.076331165293745951e+00,3.788202789200533216e-01,-3.227892362377428714e+00,4.344162503568977485e+00,5.126046919440621630e-02,1.325136708210743919e+00
8.125244708707487495e-01,2.321228540750280622e+00,-3.896923447999575352e+00,2.870645666139731933e+00,3.458745649694387581e+00,-3.190883614890543729e+00,3.956998118959306865e+00,1.786102329393713273e+00,-9.522840282935187695e-01,-2.566065533528668396e+00
2.519052630316863883e+00,-6.475007804704546288e+00,8.554471044311973138e-01,-1.910805791737228754e+00,-2.750903512840793486e+00,8.749702054608009538e-01,-1.206835151876607171e+00,8.661508901643019120e-01,4.575278529331702870e+00,-1.637347237151784318e+00
1.163400076300926400e-01,4.028698541514688536e+00,1.486616111166489729e+00,-3.288732377373769111e+00,1.091112647110911604e+00,-6.015608639184604201e-01,5.026727649035411805e-02,-1.313775029503859049e+00,-2.503962120083158105e+00,-2.534760367538251291e+00
-1.744670777726524680e+00,8.106799867949668337e-03,-2.881029416217051775e+00,3.755501183405933752e+00,7.799591768535397707e-01,-6.556491185080395682e-03,1.709728551336064051e+00,-1.265271256195316329e+00,4.864642048120837795e-03,2.048109817068782590e+00
-4.201309878203918657e+00,5.724617767137580415e+00,-2.392259521801801014e+00,-9.626647648062792717e-01,2.290133161665812267e+00,1.695849084614535207e-01,3.007167941855325655e+00,-7.415629907269383203e+00,-1.892829317615197571e+00,-2.260951957491578845e+00
-3.626667876335126217e-01,9.968019244472460239e-01,-1.240748199796283480e+00,-8.688767598730254837e-01,1.604945497939967769e+00,-1.329443747939200726e+00,1.789890726202162163e+00,3.837868842879081921e-01,1.726253011874158805e+00,-3.792787844350942628e+00
-1.979800494710342695e+00,2.144584079075225080e+00,-4.730726344799625060e+00,2.216598338416878811e+00,3.099854645736037639e+00,-1.873759614685567509e+00,4.503141998093961540e+00,-2.025880101362405483e+00,1.166532460537888172e+00,-3.273420616910738268e+00
2.777922245011710700e+00,-3.674254413192479696e+00,1.604210362505965382e+00,-1.876045991418494374e+00,-2.420816140024656615e+00,9.070005031485601776e-01,-1.583828715841758994e+00,-2.712723871855576285e-01,5.291495168222267731e-01,1.677121465609692497e-01
