-1.948513152099139889e+00,1.901238311791454638e+00,-3.346909890751703198e+00,4.758026931610077059e-01,-1.580256114023975256e+00,-2.122446310470325503e+00,-8.866218165977859389e-01,-6.042410882079363166e-01,1.697320535885577630e+00,-1.454473341579305634e+00
1.660016861339436378e+00,3.207212863422538085e+00,4.709341167241005266e+00,-2.554521731374335969e-02,6.838955374817032862e+00,-1.793718423719048438e+00,1.335113511301629252e+00,-3.684048682963194210e+00,-1.922287065409066464e+00,2.283311493065105946e+00
7.539311555092137462e-01,-3.189375309132760794e+00,3.100986984126259838e+00,1.258312387326967707e+00,4.170659741519116892e+00,-1.367701753677789345e+00,-1.943108740209044116e+00,-4.497870274302218641e-01,-1.020277367687785874e+00,1.107936991234258206e-01
-5.812960891930234464e-01,-5.486290771087329432e+00,3.168820239294741992e+00,-6.550878031955680303e-01,6.287384369595315770e-01,3.500036247351539842e+00,-1.980920535003064087e+00,1.387383271299225562e+00,-2.944513285791181545e-01,-6.377637688291056817e-01
2.236840167986490491e-01,-1.945275264498947387e-01,1.033014082551429569e+00,-3.047120737297709936e-01,5.999667148680391804e-02,1.536106899948079807e+00,1.155669774142201511e+00,2.617733377136907125e-01,-6.537306613458353233e-03,5.262735401637845811e-01
2.213376211540879268e+00,1.476136011166200301e+00,4.107666334633766958e+00,-2.068178956217403552e+00,3.471550116857379464e+00,7.359433912296612368e-01,-1.275638427066073111e-01,-2.034749994436923615e+00,-3.201020235886110843e+00,1.961172873719371434e+00
-1.391744547197563575e+00,5.422489775172565363e-01,1.861281019990726759e-01,6.795527305157622600e-01,1.342017669144718983e+00,-6.233663622090775958e-01,1.489712075883973807e-01,-9.553923004652477013e-01,1.285466625047180900e+00,-4.703891054310141429e-01
-5.204621936600322130e-01,-2.040323584137282431e-01,-1.020979282668263433e-01,-1.897338990317730012e+00,-2.378245757382154491e+00,2.913762131799293886e+00,-5.661281620968054706e-02,6.430551138184144033e-01,-1.271562310003657159e-01,-2.031839154364046551e-01
-6.576879458670935596e-01,1.606204925492285218e+00,-1.655830780867670438e+00,-4.903256460638574787e-02,-8.715867626300802251e-02,-2.207784900832576280e+00,-1.447588927751156218e+00,-1.047802667776212227e+00,9.288011047854254076e-02,-7.125198551179904305e-01
9.105396714772834299e-01,-1.236344517468296988e+00,3.602748673499065024e+00,2.696956367868292292e-01,4.378573761443050216e+00,-7.238726282643203058e-01,-1.043948494007458150e+00,-1.328781519328791960e+00,-1.412640085266725798e+00,7.270577511975848672e-01
