-1.627599188973403999e-01,3.761926007005515160e+00,1.032316074853254273e+00,-3.875706324262302882e+00,2.666569392432464880e-02,2.081662692042072660e+00,-3.450051604127807092e+00,-1.673441508994927052e+00,-2.081618266377811111e+00,-7.787871409203397377e-01
-4.879465462904682416e-01,2.676955480996015435e+00,3.180923433781025267e+00,-3.416728004959030951e+00,-1.399040531557512734e+00,2.536210741752582543e+00,-6.459121467733671018e+00,-2.830958227426477514e+00,-4.209975289918130303e-01,3.016525739746041879e+00
1.002235117084919080e+00,-7.091093107852644017e-01,2.510598562403556944e+00,5.531540579261711166e-01,4.263073689029224789e-01,6.555880626344261497e-01,-1.225958095993421759e+00,-1.722752852206343999e+00,1.658790318605662950e-01,2.557119080942705125e+00
-3.436201603611314770e+00,8.267276417157269908e-01,-1.062478086959946388e+00,-1.872094237170637054e+00,-6.742243749750570503e-01,5.503047290275880910e-01,1.242563332649681218e+00,4.330573855375618564e+00,-8.672477178079569526e-01,9.598236741314032372e-01
6.867461253658202480e-01,8.563647608095170671e-01,1.433512613208940897e-02,-3.057496082595680398e-01,8.399307764884818006e-01,4.010494328253964569e-01,7.714441321713032540e-01,-5.171134574454880894e-01,-9.167197002249094506e-01,-1.220896344809162093e+00
6.310399739577221556e-01,-2.200012872910698913e+00,8.966569943410918064e-01,1.246828133682765349e+00,4.263612462666900305e-01,-1.020347384513699662e+00,-2.672626426105311204e-01,-2.697303068454259267e-01,6.005681695771711848e-01,1.854507848332328956e+00
-2.968934526062099594e-02,-7.793286076114784855e+00,7.171787093884929298e-01,4.134076282288569715e+00,2.440497740648177150e+00,-4.127539775538303424e+00,4.037899008964447312e+00,3.998097084282200342e+00,6.762848600898118123e-01,5.040360454379558597e+00
-1.460798335075757182e+00,-5.114194624142620604e-01,4.407701822142573889e+00,-2.074271841036518182e+00,2.441906432829659412e-01,1.615987293408233549e+00,-3.421929951418893445e+00,4.137538067457789404e-01,-1.041815560146187147e+00,6.708517115193232350e+00
2.617599231901925894e+00,-3.260365050136936116e+00,-1.742514683335371073e+00,2.390339326875656312e+00,1.790450378722246327e+00,-3.472938243713313611e+00,1.500468482207696574e+00,-8.210143850608315752e-01,2.913582032444692604e-01,-2.374651905397810570e+00
-1.908758846452112579e+00,1.531759330607030511e+00,6.989792507198877569e-01,-1.500558161737703289e+00,-1.060647291752893517e+00,1.641651442894690227e+00,-8.010416898442016542e-01,1.152268701154292918e+00,-1.959742058104290696e-01,1.545867558975507761e+00
