-3.228327099873915973e+00,-8.000948166071766288e-01,-1.633893021734766471e+00,1.059678678108451733e+00,2.500269488383994432e+00,-3.147053453372618215e+00,9.392552346256777263e-01,-4.220481957528528505e-01,2.455700859391596325e+00,5.786493917552943955e-01
4.331508884923490066e-01,-2.474923343426654210e+00,7.624481343714946124e-01,1.401866837405201460e+00,3.056130038988716713e+00,2.044570234190283387e+00,-4.276138807619682125e-01,-1.951291839161155339e+00,2.429994192235642281e+00,-6.904701084119350130e-01
-2.736169550343147794e+00,-2.449874748897683752e+00,-1.949414752455703503e+00,-1.898282428018469303e-01,3.800951384370576669e+00,-1.299738552746336137e-02,3.101644877392141009e+00,-1.083574891872169488e+00,2.791873374622142912e+00,2.083911829444187180e+00
-3.017810169946884447e+00,8.605722839306501060e-01,-2.907129884227174443e+00,2.779725929805989537e-01,-1.176934093944419946e+00,-4.776812079691058699e+00,5.263237203081379434e+00,3.073785826701757262e+00,6.985467305210202316e-01,2.552315261399180635e+00
1.175895920114297333e+00,-2.650175650270078620e+00,-2.084363996237571792e-01,-7.850083617197074481e-01,1.848124312988462803e+00,4.252140903697402941e+00,3.667746649564105788e+00,-5.941130392929817594e-01,1.098166492526658322e+00,1.874451474949601071e+00
-1.214035973996361095e+00,-7.061358674022096826e-01,-3.368666603229613643e-01,-1.021135033500780720e+00,1.256877367080973251e-01,1.048244785199998974e+00,-7.435565128452129580e-01,-8.715935557772841458e-01,-1.050348808657322747e-01,4.319415232029412133e-01
-4.819956326689151527e-01,-2.098173547740309175e+00,-6.558479922362391301e-01,2.163775772155712984e-01,7.738967447586373449e-01,1.581179443681860475e+00,2.955373291203282626e+00,6.571993480726917580e-02,1.463403798191538208e+00,1.386221926909903424e+00
1.757446532021535862e-02,-3.738788505955719654e-01,6.425785797238553476e-01,-2.083759734702931521e+00,1.598366452139140081e+00,2.809921686067403446e+00,-3.384719180774780067e+00,-2.613283653684131735e+00,-9.111691348118293732e-01,-4.360768467655175562e-01
1.700566613425845031e+00,-6.184562063968939150e-01,1.523405437586582201e+00,-9.719750967845274259e-01,-4.938946995073454915e-01,3.740869826423646405e+00,-2.500464730330525409e+00,-1.425657636745239154e+00,-1.121640052577143498e+00,-8.691525736728571427e-01
3.029763597596010882e+00,-4.208012508989811828e-01,1.816037426741989425e+00,1.796128441662359077e+00,1.480768202341710138e+00,1.327687130995168552e+00,-8.526049115553127056e-01,-6.779455403149647896e-01,8.547522596109534687e-01,-1.690027573992185506e+00
