1.238456306338756585e+00,-8.125811338816516516e-01,4.065335372562467242e+00,-4.763637643965556445e-01,-1.310856345487046770e+00,3.579930009474414643e+00,3.285787562587761279e+00,3.719036550223626669e+00,-2.493721000574394164e+00,-1.433848015715987856e+00
-7.503283316934328262e-01,-3.032882286869386768e+00,6.215378688037759281e-02,-1.618191710065410627e+00,-1.389469287961215826e-01,3.123993916717368702e+00,3.104112495073853228e+00,1.947278151779025634e+00,2.244122378587149580e+00,-1.265237766692901111e+00
-2.115849370370541216e+00,6.691377106741129843e-01,-1.656481258777783516e+00,4.529572458140276314e-01,5.109131484547952962e-01,-2.071938213676799978e-01,-7.300849818588692752e-01,-3.925950167952221292e-01,4.201887823180123327e+00,-1.712671684200608446e+00
2.430095506043825626e+00,1.216252118466902399e+00,7.530411718693360790e+00,-1.478236340408362492e+00,-3.909187716562723125e+00,1.793571742339987063e+00,9.516145028478993906e-01,2.886066138292122218e+00,-4.084432754738530846e+00,-3.861238718652431512e+00
-2.525493023585273278e+00,-3.533132274766052294e+00,-3.621939043347514042e-01,-3.679595391183874131e+00,-9.531605501520417079e-01,2.607816442417259850e+00,6.954828541839105371e-01,3.123096453731628516e-02,2.934452661697253273e+00,-3.309249061188514585e+00
-9.114949977311196383e-01,-3.279933294112247655e+00,1.311384750939321053e+00,-2.256060202822403937e+00,3.200393774033899463e-01,4.555336241352861748e+00,1.166273004890062692e+00,1.373324935436511796e+00,-7.598403880079803940e+00,9.288679495287710530e-01
2.831936612275325782e+00,2.279295624135696308e+00,9.171611453220528398e-01,2.407949685627665648e+00,2.165880857208016264e-01,-2.114112822294694549e+00,8.681730401973879185e-02,1.881192867115097367e-01,-2.182886665775800150e+00,2.584717803271832537e+00
-4.870119814948448700e-01,-9.665601326272817984e-01,-9.799467844728704247e-01,-7.450915138611041710e-01,8.511146190067118977e-02,-8.030888718639644930e-02,3.533364468534362646e-02,-5.537156023267439942e-01,1.499946962010782814e+00,-1.776863351130993085e-01
1.098616342970488047e+00,-1.492797574033378760e+00,-2.701578211229384019e-01,-5.775971829867114771e-01,1.720342947590201843e-01,1.752167577606657534e-01,1.057271936523299871e+00,-1.237900900472385310e-02,-1.167889722347980941e+00,1.609518614773169265e+00
4.389682503610156106e-01,-1.582255656804972599e+00,-3.179359062224877519e+00,2.893851592800522274e-02,1.655935045774022063e+00,-1.246389740209415287e+00,-1.575387241997033838e-01,-1.805717789194803080e+00,-7.641435763474331289e-01,3.628890444454681230e+00
