-5.590757635582220830e-01,-5.048848246390160277e+00,-2.660253379802989482e+00,-7.433215662356436049e-01,-2.671403197498008808e+00,2.692759894441341562e+00,-1.030649709254954693e+00,2.381818853481763587e-01,-1.044058484175761414e+00,-1.970606968501974920e+00
5.172217787752163565e-01,1.687187439062595162e+00,1.682898922505673855e+00,1.117421495982529489e+00,2.741612667724229180e+00,-7.314701143896400193e-02,-6.804539342454382078e-01,1.579271084216845811e+00,-1.443020760689200759e-02,2.328449805193507416e+00
2.622617557952676148e-01,1.493791053648115374e+00,7.452656588289328088e-01,5.617646520741607918e-02,7.113388365336595354e-02,-2.117560806187537559e-01,2.662125604780604671e-01,-7.165149157454659967e-01,7.388757419658036341e-01,7.281601405806901184e-01
1.320562823097182759e-01,-1.227234972579959171e-01,-4.245150957084450893e-01,5.334001069503535586e-01,1.575425591753614463e-01,-3.801308955081337260e-01,4.031604276143994636e-01,-4.776801413241845706e-01,-1.688594530683017902e+00,-8.872807194530439867e-01
1.216110597858518716e+00,1.799041525736892799e+00,1.226136019055255932e+00,1.857470973502453715e+00,1.942426199682502297e+00,1.006947677533127861e+00,-5.557424504089112371e-01,-4.104304082979920998e-01,-1.615830257096210421e+00,2.335815246107348031e+00
-1.152748688253084491e-01,1.376537618023253362e+00,6.295775161510944185e-02,-1.539060814504481289e+00,-8.285463510746622351e-01,-1.166057436347945453e+00,1.426962871959258916e-01,-9.120613447621267467e-01,3.062482927846178260e+00,1.523019189295355291e+00
4.088657052545100618e-02,1.754774776243616996e+00,4.546100696789036610e-01,-1.241715522664778026e-01,2.879865863138510118e+00,-2.965820687650298826e+00,-1.352353035724385144e-01,1.572649609656062042e+00,4.770954572559535367e-01,2.093897180907766664e+00
1.069352692228127538e-01,-1.841464365240751189e+00,-1.247536895028853454e+00,9.981100088148932015e-01,-1.405467021554951623e+00,1.239613910254524498e+00,6.279022918621930405e-01,-1.399513950699691867e+00,-3.466588725447998343e+00,-2.996742844248224458e+00
-1.469737650949537899e+00,-6.028979921349786331e+00,-3.175685033974527727e+00,-4.630024239700131217e-01,-3.346984445704649369e-01,-3.045395027596139448e-01,-4.012811227258513691e-01,3.071960418924368330e+00,-3.230874760173478855e+00,-4.306232223818810212e+00
7.914802061445860293e-01,2.200848657696468536e+00,8.664888504294430138e-01,4.654254611382953044e-01,2.750885325632333789e+00,-1.185731522677660799e+00,-8.305383658675821179e-01,6.871998911777020824e-01,5.128192815360020917e-01,3.841730683248491207e+00
