7.438528788239606726e-01,-8.363173156612252468e-01,-2.896006934529213872e+00,-5.583497802205529270e-01,-1.857877785905174051e+00,2.192222685573977703e+00,-3.320712737046746521e-03,-8.130123952692084321e-01,-6.594261373472767307e-01,-4.089856437188525540e+00
4.481880429596916682e-01,-2.242382873869782411e+00,-5.177935438100372600e+00,-2.471937483771011301e+00,-3.344318089622120432e-02,5.702376275025957675e+00,-1.864348263438982967e+00,-5.364142281232362475e-01,1.344282049983852589e+00,-3.431920042403127091e+00
-2.157303962745277026e+00,-7.729743580847178164e-01,-8.109154954201756027e-01,7.858672561693745839e-01,1.243853158940853909e+00,-2.105862720128945931e-01,1.252244001141222585e+00,-1.563964181078058679e+00,-1.553590043662671505e+00,7.309313085418098765e-01
1.388461111364932332e+00,5.851725308411213078e-01,1.766355340477208324e+00,1.323470198060678005e+00,-1.606026313929257432e+00,-2.441164114750832503e+00,-3.712333798812359476e+00,3.146692505053403810e+00,3.328295815070628549e+00,5.290395740592241047e+00
2.906474173028326669e-01,-2.079143229798123826e+00,5.588870529945978438e-01,-2.258794603344548957e+00,1.707546239798731103e+00,3.981354998357140129e+00,-9.757128875379599275e-01,-1.556688594719933150e+00,1.374292716581578588e+00,1.477893352202441557e+00
-7.404578932778320688e-01,2.978571892370167173e+00,4.036857887355912666e+00,9.804192755042135943e-01,1.625899032301330260e+00,-4.403272802798473329e+00,3.810007075212564764e+00,1.603791363247037416e-01,-2.494224962758967656e+00,-4.363860893475456360e-01
-1.785600041956961759e+00,2.521349649213275312e-01,-1.849348009174670571e-01,2.955409004992623156e+00,-7.973929456851762687e-01,-3.555285686200902351e+00,4.915680863015446656e-02,2.767445418707417115e-01,-9.825711449107462636e-01,2.769825590164511908e+00
-3.145563015897172021e-01,3.306762502302318385e+00,3.842588473151840933e+00,2.430965555392158084e+00,-5.637997982488184290e-01,-6.069325422818324434e+00,3.547796429107822558e+00,5.504393598840188195e-01,-2.924296836763598417e+00,-7.202585915558833429e-01
1.088929084989038731e+00,9.312144549555819717e-01,5.220702779486293688e-01,1.855975199219122018e-01,-9.737417398899069765e-01,-1.014572131388926213e+00,-7.534950581198667230e-01,1.461292174027843505e+00,8.359323811924049830e-01,-5.321859102782435652e-02
-1.153311643418389654e+00,2.913075550618958953e+00,3.248506884610923517e+00,3.174362968622566950e+00,-1.647979189805599265e-01,-6.651695300221327045e+00,2.181846499881404000e+00,1.300841051734451304e+00,-1.928865255560687331e+00,2.037505018439226046e+00
