-1.005342309433920445e+00,2.049814016275252282e+00,5.440433358638129269e-01,2.700172974065503245e-02,4.278762554061961154e+00,3.072068925959998253e+00,1.662089296875450595e+00,4.318636242368055100e+00,4.929477782791277796e-02,-3.359424699577327811e+00
7.426025894223272639e-01,-1.486117340465202163e+00,1.369009535050557946e-01,8.646995457209792901e-01,-2.458669800967579810e+00,1.089305495280399327e+00,7.107856711395432736e-01,1.235141645872521954e+00,-4.464078063485502068e-01,1.085072000699759176e+00
1.663204274150658302e+00,-1.303098537056742501e+00,2.763943405683683130e-01,-4.070794940291324604e-01,-2.848374798583967471e-01,-1.225279259486333316e+00,-8.930008931205651868e-01,-4.492002669629820311e+00,3.152454304824622522e+00,4.293682702274559837e+00
-1.776414360699906769e+00,2.298748433343651865e+00,1.423044812850301266e+00,-1.711527510867358326e-01,9.263867937693447407e-01,-1.660523132216962933e-02,2.545295052298399696e+00,-3.340247461130617435e+00,-3.019149782837584173e+00,2.887883740084420836e+00
1.970849490321766595e+00,-2.994815917683566475e+00,2.282828648519602197e-02,7.763775530604759556e-01,-4.897276404687496587e+00,-3.532662085122990070e-01,-4.270417736438320233e+00,-1.117962932096904671e+00,-4.225228074590368976e+00,6.013184942824796320e-01
-2.836508511215038997e+00,3.060981743620514006e+00,-1.416211025054515404e-01,-6.395371521481711952e-01,2.321603572658659687e+00,-1.242647744562320966e+00,4.658505095257372552e+00,-5.591930047887621047e-01,1.695979546566952711e+00,4.370467511733517330e-01
-4.202353886627334667e-01,5.705099665460120484e-01,8.745708185176958027e-01,3.728302424577000784e-01,6.687074514414679260e-01,1.374461768428571595e+00,4.701806377095770095e+00,-5.235295765734055973e-01,2.628565497706253140e+00,3.828329354245913585e+00
-1.407985385523928157e+00,2.230225705065489450e+00,9.437304595324151890e-01,-2.912374509630912822e-01,3.066570887863340644e+00,7.887440727316922251e-01,5.268531676768007266e+00,-1.405092770642210720e+00,3.224144840707926729e+00,3.347532647895365532e+00
-1.121099610555157611e+00,3.574344460143339397e-01,-1.185320403929404076e+00,-6.297694750557394916e-02,-1.431287255118147250e+00,-1.330204010529100422e+00,-2.932851540552780634e+00,2.720119476751905019e+00,-4.442904095963456257e+00,-5.551432302223901161e+00
6.589381675751360135e-02,1.056982180777876063e-01,-4.222742587860872088e-01,-6.275329057031593383e-01,2.258248518364821544e-01,-1.774535353197333576e+00,-2.105609747529011422e+00,-1.872826575356937306e+00,-1.558763481067910184e-01,-5.405555661406817869e-01
