-5.142960457873688163e-02,1.097955740501049826e+00,-8.477935665093909445e-02,-3.107997042377588670e+00,8.489229189014392551e-02,3.233682853419731273e+00,-6.343451241635346127e-01,-4.022581664066556262e-01,-9.672551397859298072e-01,6.828662492753170277e-01
8.664533802733452861e-01,3.035349697492493171e-01,3.396897990871284301e-01,1.005217657641444662e+00,-9.603028219576492663e-01,5.937872363831467881e-01,-1.057433501050059510e+00,5.739966237259312987e-01,-1.184973119116260021e+00,-1.672645399377737485e+00
-2.998172391893572652e-01,-1.737194554651048772e+00,-5.133881074004228440e-01,-1.354385276534052274e+00,5.930618566404104453e-01,-3.247385266982406038e-01,6.122135094169295355e-01,-1.437167011450383836e+00,7.412208469622643126e-01,8.715580766514732236e-01
-1.982690503821766370e+00,1.993068155007160502e+00,-1.683137636785966840e-01,-2.676440323180085734e+00,1.757806086566219061e+00,3.538451974481866547e-01,2.300996548626357274e+00,5.363594726853477823e-01,1.781523470097935880e+00,3.724576625434927735e+00
8.909226121173748902e-01,1.064154748433780995e+00,1.279337056864951361e+00,-1.177324188694730545e+00,-2.590530883206779711e-01,1.876519997473248491e+00,-3.786936432918779349e-01,7.132262170225314724e-02,-1.190083540540728402e-01,-2.257784612072887054e+00
4.024457602773907627e-01,-2.495915217271170994e-01,-1.538269161613437630e+00,6.792649754143963214e+00,-1.276476028413145558e+00,-2.669047946125383319e+00,-4.037328551568632129e+00,2.693381343439572029e-01,-2.175193439298840126e+00,-3.570989653569411892e-01
1.609719914765868731e+00,2.842741165077161014e+00,2.429316642089354161e+00,3.099798021891809530e+00,-1.100442846704337674e+00,9.377606928779536055e-02,-1.061697182467351785e+00,2.133780560593484310e+00,-2.306685980306306116e-01,-4.768352860911197588e+00
-5.569886088732312057e-01,-2.052597893324250578e+00,8.742999596960764064e-02,-4.179244176194115923e+00,4.945802211856043518e-01,9.096199686550988928e-02,4.068088134904446207e+00,4.273907823819819013e-02,1.288946238905702257e+00,1.459596207274655999e+00
-1.660414044407730660e+00,3.838085266314945065e-01,-1.157792294279150092e+00,6.948762996221798105e-02,1.092109193797100586e+00,-1.292640769775812215e+00,8.455122832021391144e-01,5.760420195977355301e-02,8.606540391069565921e-01,3.544834409404885811e+00
-2.772676747714864831e+00,-1.204805877999887809e+00,-3.025176121145268571e+00,-1.957464158610119798e+00,4.345401626223930336e-01,-1.294282671352484426e+00,3.322330852917942501e+00,1.552183417664824150e+00,-6.526841456359786520e-01,7.530538223319044100e+00
