-6.660338175438310637e-01,-3.020565871555310089e+00,6.085088864554200061e-01,1.782515067065165493e+00,-2.609568054141616633e-01,5.055304556403235061e-01,-1.478357393028335853e-01,-3.835595732261763979e-01,4.276324069977540110e-01,1.325758553504039483e+00
-9.915911997620114882e-01,2.308291943678719704e+00,6.189574301056891548e-01,-9.943895443381294275e-01,1.820609514246955385e+00,-3.407527498400788057e-01,1.576488378724808737e+00,2.493755463132637296e+00,-2.108156047358796137e+00,6.305657291091513184e-01
-2.059555150788697553e+00,2.373173874923109050e+00,1.276881901076998505e+00,-2.958727958453069906e+00,3.253248198816023340e+00,2.872571215867184002e-01,3.483692299250658042e+00,3.333201134180982184e+00,-2.091518842705344827e+00,1.896651497006710541e+00
-5.320332133268301789e-01,-1.471386981714072339e+00,-2.274957428036368245e+00,1.520945138095265436e-01,-8.225695580651569416e-02,5.564367669811079997e-01,1.200447735997227372e-01,1.687328937847196730e+00,-1.579651008393635481e+00,2.289925091829570825e+00
-9.251892674033564967e-01,-7.488964279498858678e-01,4.798489934291629289e-01,-1.712441969108247752e+00,-3.299521867980006462e-01,3.918464280511521736e+00,1.611861629154219822e+00,-1.808946413002305853e+00,9.178782724573571195e-02,1.447876010958004667e+00
-5.381384646194282695e-01,-4.378407250241233228e+00,-3.957526438765386900e-01,7.067997122691370704e-01,-1.237504844539580207e+00,2.434742863767341170e+00,-4.079019014639174989e-02,-1.993345777901471605e+00,1.364260733794588676e+00,2.039000008715223355e+00
-1.250060592628101652e-01,3.644690552305231535e+00,1.014211216009045735e+00,-2.878500249227651242e+00,2.846190607611901235e+00,-3.362130637418742740e+00,1.570924200810381421e+00,2.739886526965026992e+00,2.127278457184871852e-01,-1.227097795885974785e+00
4.360052622962674040e-01,-5.917683983852344703e-02,3.881077180418590067e-01,-7.740704290098244789e-01,-1.247570141944437161e+00,2.272709292537258730e+00,-7.740356646039618649e-02,-2.823428265083864019e+00,1.213506455335395584e+00,-7.296470725428430004e-01
-5.599907733586603209e-01,2.685461081954962914e+00,1.550926295384346565e+00,-2.725749670820191817e+00,2.008302240863343524e+00,-5.977990893184017551e-01,1.956722027404341979e+00,9.851811839158552964e-01,1.706555960891848744e-01,-5.502046373602409446e-01
-2.497029243273969801e+00,-4.727431755434936100e+00,-1.184732542552313861e+00,1.618594726212833512e+00,-3.673711133125411865e-01,4.589700618906551455e+00,1.435379202434525991e+00,9.713077037768351740e-01,-2.914266698508446662e+00,5.464749581812131218e+00
