-1.195930862313295817e+00,7.847014791458192251e-01,9.670177681266713954e-01,-1.450839622919537497e+00,7.957552439188900761e-01,4.113513736082947680e+00,-7.351837710425596084e-02,-2.557502666718737050e+00,1.535448427270669214e+00,-2.910953524532279069e+00
4.361965362433161353e+00,1.045958443115419856e+00,-7.086989344028373772e-01,-8.326653527352113615e-01,-1.891094724119043669e+00,-1.018660894219160085e+01,-4.493047521194372673e-01,9.171643602325741940e-01,-4.017162486628618190e+00,7.632300756618837667e+00
-1.940545656776726302e+00,5.667469857270257538e-01,-1.867989266079709942e+00,-5.941299765863136129e-01,1.191314103129612834e+00,1.245911707245542649e-01,-2.754633929412354743e+00,1.368184873426797843e+00,-1.790179640547690632e+00,7.879385949836876790e-01
3.576575128291059058e-01,-2.593271942522617390e+00,-5.782676398086897818e-01,2.648740668379711227e+00,4.239653803944220534e-01,-1.408793956079011034e+00,-3.723888854108389768e-01,3.034726614061808547e+00,5.949612254311316129e-01,-5.727503337194463084e-02
-1.126587976769040989e+00,-6.665515759772464577e-01,-1.237927190434914726e+00,1.255485850188351460e+00,3.952012647397976641e-01,2.318583971819967726e-01,-1.685371424696635589e+00,1.982943797124906871e+00,-7.429078788893903607e-01,-3.413116407062500857e-01
-5.726211412595840766e-01,-9.671007019174827635e-01,7.347398815060038890e-01,-5.364838089033353574e-01,1.678557250810926549e+00,2.355078710929859209e+00,-3.701349026051799496e-01,-9.129046421255624377e-01,2.073309735212312432e+00,-2.166692752496823360e+00
-4.044799390359924196e+00,2.610171804259608375e-01,-2.354831264762764054e+00,-1.757052022286666459e-01,1.985004764334410199e+00,3.271562698500129596e+00,-2.798387564198351107e+00,2.044621462631305953e+00,-1.080450841857198307e+00,-1.078716644462378804e+00
-2.882538770886155621e+00,-7.591856364490894016e-02,-2.478604932566839558e+00,6.396792401392812355e-01,1.199629128147218449e+00,9.670449336346036429e-01,-2.666193634186752703e+00,2.868281226465380751e+00,-1.755174219897534638e+00,2.129588139550641912e-01
-5.423761726770125691e+00,1.920664139981808072e-01,-3.520196855267838654e+00,2.045822877397048600e+00,4.510967001577483870e-01,3.814038444238918135e+00,-6.239124139721311524e-01,4.819227455862520770e+00,-2.010047370839813663e+00,-5.340309761583794668e-01
-6.888422421436556364e-01,1.365151611246896435e+00,1.358383904457467484e+00,-1.130346140234941954e+00,-4.095013023584596623e-01,4.160897121022259171e+00,6.406678768894576992e-01,-3.156069805642716997e+00,1.289462846398998330e+00,-3.129876633153386489e+00
