5.153611667858780665e-01,1.813988579037420501e-01,-1.047795811509107500e+00,-2.655895978733389118e-01,-2.300404888402043935e-01,9.394980355046669285e-01,-5.960092321117431702e-01,7.027127737519783812e-02,6.992150255512237511e-02,8.744499824291518397e-01
-3.351873569499563832e-01,-3.486187133142736316e-01,-4.899610136487195233e-01,6.820715063185103233e-01,-8.642832710824335241e-01,8.104934185737817653e-01,4.508852465676272958e-01,7.205845594776463248e-01,-5.762292692187464399e-02,3.147073528273502396e-01
-2.948388978468841959e+00,2.585639681307312809e+00,3.772323345890150836e+00,1.987916589840894366e+00,-7.548641679736093346e-01,-3.498421367836295648e+00,1.096185461736986388e+00,-2.196989097085554621e-01,3.138729880416646356e-01,-3.355538763861977358e+00
-1.139318958084138966e+00,-2.752345706806339720e+00,2.535523502296440856e+00,2.310167007911923531e-01,1.114738091288285604e+00,-1.468694562622032906e+00,1.559450585991263516e+00,-1.514918780011262865e-02,-2.121264689411689330e-01,-1.467154164823602613e+00
9.379450949056032938e-01,-1.060235326991476823e+00,-2.777031636128362013e+00,1.236576143064074929e+00,1.533372572831283309e-01,1.130473821249450062e+00,2.939231322145455794e-01,2.096008188669541195e+00,2.797385298814148324e+00,5.001841107724955826e-01
1.000687538937111487e+00,-5.186736540963594599e-01,-1.086742970716480849e+00,-1.528300300699355629e+00,2.325581182354056864e+00,6.278834337746442840e-01,-3.573133912751510710e+00,-7.552111320748804424e-01,3.203691768646408367e+00,1.476698723528662383e+00
-1.326834609794435238e+00,-1.689807662436562552e+00,1.975251249503887863e+00,-3.685837086324302847e-01,3.057449824103766756e-01,4.188752135155735662e-02,-3.965073133745240508e-01,-6.347509947727524304e-01,-4.722860979037447615e-01,9.163297380077166376e-02
8.732273030228936417e-01,2.479344330485607539e+00,6.664809883064491958e-01,-4.973933885605740235e-01,2.410270626728228116e-01,-2.209969007249325212e+00,1.125780722135178324e+00,-9.858547739199199356e-01,-1.670100895037585076e+00,-1.573986317424858061e+00
1.046018993285254606e+00,-1.590932808371408047e+00,-2.728382071311258983e+00,9.589726636650829361e-01,-2.437435073504916339e-02,1.512766277178563934e+00,6.202232244772373226e-01,1.973559279063840988e+00,1.907712460760248474e+00,7.941171094462694535e-01
-4.294780699278383018e+00,-4.614367040449644186e+00,4.654319000407559415e+00,1.053040173081670472e-01,2.079558871735321113e-01,9.029706568387385612e-01,-1.586448986688239637e+00,-7.037487904609938116e-01,3.971682814401552575e-01,5.792121518851589546e-01
