1.671476410322000339e+00,1.243379917167894977e+00,2.297057848960379900e+00,1.182179564740512223e+00,8.360986997152135558e-01,9.083825978021600189e-01,2.308549684218603737e+00,-2.025843398919740856e+00,6.906065357858154341e-01,-3.438647647403412222e+00
-3.395988784800081928e-01,-1.351900724588558145e+00,-5.575045457081403200e+00,-2.871928189923318886e+00,-4.373396657573530355e+00,-5.717547184454409015e-01,-4.843516125351383927e-02,3.868939207289788129e+00,1.003466535813033245e+00,5.356920045917671125e+00
-1.182107812785790468e+00,-2.589402252385025083e+00,-2.993044677261349484e+00,-1.166828105330870891e+00,-3.050127333148998421e+00,-4.311037332870211736e-01,2.794599046126299696e-02,4.362694532410608339e+00,3.658394231625932136e-01,3.496670571078936085e+00
-8.872544693803434690e-01,1.267588787272906803e+00,-2.069419374030145420e+00,-2.880634475677883444e-01,-7.932992603869900572e-01,-1.325113508977676879e+00,-1.919402780362720495e+00,2.922767648180083500e-01,-2.622328915859438100e-02,2.534923036495310367e+00
2.457966916272304569e+00,4.385062681150448949e-01,2.154847242627494719e+00,1.995672765655916114e+00,2.072115259931107456e+00,1.259884889778767780e+00,4.702341325743348843e-01,-2.453932856254834594e+00,1.361372376089948766e+00,-2.226619036037650101e+00
6.576445120118317167e-01,-1.234204707077016350e+00,1.643131526081018201e+00,2.121297086754143191e+00,1.056984918586552080e+00,5.761242386128591075e-01,-6.347194140893855363e-02,2.663197405553286434e-01,7.782210320330394948e-01,-8.935662445899097417e-01
1.525537131037564498e+00,-2.642375681878642801e+00,3.858019295523249959e+00,1.581929491366096618e+00,4.908742572024106465e+00,2.107013134857627090e+00,-1.711847926417138011e+00,-2.425308960445599737e+00,-2.817452244887801438e-01,-2.263793714476808994e+00
9.881576705880178169e-02,-4.114465196371235034e-02,4.588697261187649756e-01,3.355233716044135894e-01,-2.096718143628604480e-01,1.152978056284145320e-01,7.634931231450072797e-01,1.925382238318919803e-01,1.393909793252194051e-01,-6.948162861515007060e-01
7.724480222269346497e-01,-7.446988492610143728e-01,-3.667050501196457812e+00,-1.089602893713119469e+00,-2.125787343130549178e+00,-1.065070221121519889e-01,-8.427385419688274704e-01,1.736008199551198672e+00,1.461918507712719473e+00,3.910005163757284574e+00
-8.105978408002653124e-01,-1.502947981338757621e+00,2.528474834661056381e+00,1.274458280760371931e+00,2.310820719301803994e+00,3.004354956173400093e-01,-1.109594456375210703e+00,-1.985249812859743168e-01,-9.994386549376869100e-01,-1.351373790706042355e+00
