2.968805890011953164e+00,8.458987547604162049e-01,6.618094575485864439e-01,-5.800881436758991566e-02,-9.948432166088637396e-02,-7.391743414989522254e-01,1.084243235352500889e+00,-1.010606795866264784e+00,3.679446857542476579e-01,4.671032128737775957e-01
-2.777872107543750690e+00,1.300454297875275889e-01,4.599484780639186421e-01,-4.269773165782067559e-01,8.127978940651006123e-01,1.935558664391140216e+00,-6.908694172205639417e-01,3.176536418769571601e-01,-7.689831051114676130e-01,-6.531594099663629027e-01
1.636403658098226410e+00,-2.182340338021219406e+00,-6.374041263035548077e-01,3.548299613284671583e+00,6.256627852194789341e-01,-1.115475155690087483e+00,-2.466329214852039375e-01,-1.829173481454484218e+00,-8.316931762021777252e-02,-4.360924950912530712e-02
3.687452194699611052e+00,5.700026191327907554e+00,1.621873546050373927e+00,1.669614013846285328e-01,-3.004172352918984323e+00,2.333807354902994458e-01,3.261782896173248125e-01,-2.059376822397600115e+00,-1.800677948521405281e+00,2.456327720465791398e+00
-3.615734868201655683e+00,-6.801963446516289258e-01,-6.895207093177220248e-01,-1.883527362241330938e-01,2.621287360424913448e-02,9.488462696715048716e-01,-1.431431214919076655e+00,1.958696730864357027e+00,-1.250201073375035166e-01,-6.512637747111647002e-01
-2.334874347715131915e+00,3.472202801855857945e+00,-1.499680814355016378e-01,-4.283373026508043857e+00,-2.718517303451035261e+00,5.155239710131170883e-01,-2.775630315100960921e-01,2.460820173483919238e+00,-4.689413911470456386e-01,1.075093375137701202e+00
5.337607781552381248e+00,4.804222221333978915e+00,1.378190310477206637e+00,5.855608649870869264e+00,-2.648322692153721292e+00,-8.859656406213890500e-01,-2.881505967267243395e+00,4.036616457180302930e+00,1.877090515847389174e+00,8.609421014759340851e-01
5.241849664960918531e+00,1.833884291145025311e-02,2.931970897952640431e-01,2.381700535144361641e+00,-3.384404056092687463e-01,-1.833348713855739609e+00,1.563542194912941774e+00,-4.358190613465464658e+00,-6.997093986236965213e-01,1.329646666318447634e+00
3.131979387444169927e+00,4.310796548852360743e+00,7.507791648953494601e-01,-4.018089473718101101e-01,-2.782456486490209713e+00,-9.579073443056144166e-01,-3.688350935941452913e-01,2.439192129701181155e+00,9.760134938851570130e-01,1.330922185196828034e+00
-2.001456615446378873e+00,8.097790606919164080e-01,-4.885439579754005113e-01,-3.024100958299943187e+00,-9.872743417364633345e-01,-1.199334413665612865e-02,-1.397343000785596367e-01,2.640910889223680780e+00,6.468030954259710308e-01,-1.076398846036791777e-02
