-1.502199315655149692e-01,8.983725869352454305e-03,-6.871714555724504070e-01,-6.031818512588530412e-01,7.574110084585410352e-01,-5.157280131670581858e-01,-7.293814953385067135e-01,-3.442388805953544573e+00,-4.059497667193542880e-01,-5.221405984250688803e-01
1.722143624843400778e+00,-1.606042845903088434e+00,-7.091135380075320738e-01,6.058809081528924306e-02,-7.301634606242692893e-01,5.096031540989799657e-02,-1.555536781892502551e+00,-2.014556375643453467e+00,8.409254675652187982e-01,-6.841459791666182344e-01
-1.314373105092944582e+00,1.238816653604095208e+00,4.359710787749006000e-01,3.803973299303757272e-01,-2.784749783290249026e-01,1.274908544001431519e-02,2.485893711640114467e-01,1.502851769254785586e+00,-1.535801331385099888e-01,1.037115857226775933e-01
1.189712391602148811e+00,-1.428688644048394130e+00,-1.781744271344795960e+00,-2.716029539081912803e-01,9.658410225859138665e-01,7.968399157924032083e-01,-5.882319214204857483e-01,-3.580638671884373903e+00,-9.404853334885918681e-01,-1.670526463587024502e+00
-3.633126316162758940e+00,1.588607518332605606e+00,2.308609984833009943e+00,2.134556551849064565e+00,-5.183704659308696172e+00,-1.159561883673462246e+00,-1.673327625599528412e+00,4.540538450076713417e+00,1.667508481763152250e+00,-1.063311231689128444e+00
-3.267799128589297553e+00,-1.603669575311273077e+00,1.537886574353160229e+00,-1.188278641347666059e-01,-2.669963082911081642e+00,-2.104437328787256867e+00,1.004459038169154494e+00,-1.396786747306781873e+00,-1.255198649204377404e+00,-2.553533772741707786e+00
6.867357698827583068e-01,-2.604587586410970435e+00,-1.330858672137237741e+00,1.518059592388703694e+00,-1.577737527245172577e+00,2.336398158618107956e+00,4.023280687411478485e-01,1.575509254450270236e+00,-1.241097809366415339e+00,-3.444143020827852730e+00
-1.378045251435066065e+00,-6.878843829618639383e-01,-6.132827313097461985e-01,-1.007690575994954763e-01,6.582743213891872891e-01,5.498347030269923330e-01,1.688976486876626160e+00,-9.533159640228858756e-01,-2.336355481272419876e+00,-2.034265828805360332e+00
-2.831598336630637647e+00,6.412866683113017663e-01,6.533335954252471600e-01,1.338950800739274305e+00,-9.693767899975966884e-01,1.377073050773144791e+00,2.707787154656423390e+00,5.238900777839641698e+00,-2.033962586728832456e+00,-1.675567940958381463e+00
3.226843970675614681e+00,-5.729759004846400883e-01,-9.104797558535362434e-01,-8.955714862547629052e-01,2.278351943802435109e+00,6.178236366927634116e-01,-1.385888811932800002e-01,-1.110060752514390625e+00,7.356936684132667770e-01,1.935794646407606123e+00
