6.099703388697965245e+00,-2.831672579828458325e+00,-5.351026101987030437e+00,-4.360798684320219110e+00,1.392451685300335473e+00,-7.514842810872534029e-01,2.651951483089860950e+00,1.978566192692037706e+00,-1.448003740794070238e+00,-2.021616065509041604e+00
-4.577230548239584529e+00,4.579310288876584645e-01,2.296440253884481031e+00,3.108099696993773531e+00,-1.933023774887953627e-01,2.115882314342583115e+00,-1.837706661368806449e+00,-2.206288283597834354e+00,-6.305657385165894246e-02,9.209906053575153129e-01
-2.156998733083364872e+00,1.350813888663439655e-01,-6.817285053240661474e-01,1.894480363223284280e+00,-1.043945577988879103e+00,2.025683292729902885e+00,-2.462121798956488750e+00,-1.743962224817989570e+00,5.508993729684160678e-01,1.066038502798784648e+00
-1.175316960262904747e-01,-3.394355299965884920e-01,-1.432130773002035395e+00,1.037732721817337778e+00,-9.038900326681788000e-01,2.353869942520558090e-01,-1.378460205265207073e+00,-3.401064187918684811e-01,-3.016821722936893213e+00,1.905014827850012971e+00
-3.822870752473663813e+00,-2.315571339065251255e+00,3.119428208976415262e-01,2.123337096164575666e+00,2.953047538751757184e+00,3.023149029961307299e+00,-4.147571182632449061e-01,-1.240255014233966557e+00,-2.899058365685256988e-01,-1.631667107823410845e+00
-1.716270919199109457e+00,-2.479214346864754559e-01,1.657064955038443310e+00,1.255221476559492233e+00,3.684380547194305300e-01,8.091824835050275000e-02,3.810650597072425261e-01,-5.827033054994984473e-01,-3.385553185913475538e+00,9.776521488090061940e-01
5.410950466780318102e+00,1.195309568775616560e+00,1.282949332306757784e+00,-4.946633297920684846e+00,2.011786538134769375e-01,-3.977536876857289183e+00,4.656018588308071138e+00,2.749978738735719741e+00,2.220219325930092857e+00,-2.238493016081278597e+00
-1.753060977520178643e+00,-8.504518582593612042e-01,-7.904416721223903597e-01,2.454698383894207581e+00,2.770112497280452502e-01,3.657541803792500601e-01,-1.858118727380622337e+00,4.305585610242151223e-02,-3.962139916964949826e+00,1.947507201819683065e+00
5.906473794391064125e+00,1.472316645311265937e+00,-1.166251482334041745e+00,-5.022462264783444930e+00,-2.200338807326550850e+00,-2.146983029235622897e+00,2.772281618039099005e+00,7.692064159278082514e-01,3.075652014873487605e+00,-1.092654507437094802e+00
-3.943839540328327509e+00,-3.908680157191947169e-01,2.227859241215082609e+00,3.832444903723403407e+00,2.123654534722100529e+00,-6.754127756767056567e-01,-1.525308239316107706e+00,1.324159542519717681e+00,-2.967514514097400191e+00,1.130326968674371990e+00
