-1.877371901089651685e-01,-1.463424593156240849e+00,-1.963071516780178438e+00,-4.064887462719864786e+00,-6.594437658046113704e+00,-5.433344792197269957e-01,-2.741043828603792143e+00,1.008880331738949643e+00,1.353311602961544180e+00,1.010428752290963184e+00
-2.680819277240034548e+00,9.487943867960770827e-01,2.646076761258404630e+00,4.046516907300624410e+00,-9.303784317442010732e+00,-1.071498923528391822e+00,1.600426127050722513e+00,9.204399773253389982e-01,4.406437565293209069e+00,6.734202988268372714e+00
-1.724952518441634552e+00,-3.798879812973164904e-01,-1.486713906764732807e+00,-2.115097723650737060e-01,2.456680774809558709e+00,6.517281063533478802e-01,-3.346603806273288351e-01,-2.668955094952913387e-01,2.147321321243259862e-01,-2.559699635499551817e+00
-7.887922650223596621e-01,2.443613714168443085e+00,1.812001099025486450e+00,8.049466426387267282e-01,3.188236704537085853e+00,-2.443553056445389338e+00,1.698652396926649377e+00,-2.046637761827737378e+00,-1.658324730796219670e+00,1.913673714904390755e+00
-2.379006536736500976e+00,-6.028451296751609068e-01,-5.077407404776265731e-02,-3.766794132669475936e-01,9.581514299794642309e-01,6.786283321741147789e-01,-7.049939196617656112e-01,-3.773031310530083338e-01,8.550478679411254168e-01,-9.318574180842951193e-01
7.675818749092216953e-01,-1.580422368750386886e+00,-6.313166585260776564e-01,-4.812672071024445053e+00,2.473169437432132245e+00,6.397869034570692337e-01,-2.786846619938144975e+00,-5.433538985465675708e-01,-1.826393147527742400e+00,-2.363803883057685962e+00
-7.216572975515623822e-01,-8.828391579777439269e-01,-5.146605245374819004e-01,-2.045115906125682503e+00,-5.780863754021972944e+00,-4.354805223444464524e-01,-1.625471484344229278e+00,7.356682329005392873e-01,1.657622106547927299e+00,1.925087642220983497e+00
-1.875575642486526640e+00,7.800100784858415848e-01,-6.879511520806472769e-01,2.912309354332454525e+00,-2.571737544361724637e-01,-6.757039553661003950e-02,1.532174480436594655e+00,1.714889197106304053e-01,1.477082788990353723e+00,-9.008194929054796907e-02
-1.312061247951846754e+00,2.951094165872832242e+00,1.301641946431602692e+00,2.885744715056576482e+00,1.792427925004276279e+00,-2.559735765009986341e+00,2.805077423557754024e+00,-1.556249663938507943e+00,-5.628341565469080487e-01,2.354768890079343535e+00
-1.836559995677021107e+00,-1.599862873699805066e+00,3.359622805178323901e-01,-1.479163231730771244e+00,-9.030359052547801468e+00,2.338787764062997265e-01,-2.044178680119875580e+00,1.362424278817488954e+00,3.512619827777470949e+00,3.411289871969170218e+00
