-2.609510713253544889e+00,4.759828254020292526e+00,1.292510805498594317e+00,-1.400697419446660597e+00,2.549795540780694036e+00,3.911479832419806346e+00,-2.895643783732654963e+00,-3.449834000751148100e+00,-3.086707624109668591e-01,8.429382981825488397e-01
3.675911865649726940e-01,-3.904891413727424876e+00,8.280119836789455734e-01,1.017112486682774097e+00,-2.683359238224564791e+00,9.671450601321428531e-01,4.531044069306478406e+00,4.757851505342824971e+00,-6.091673449332818402e-01,-5.410366775114191507e-01
-4.029119647070232846e-01,3.411044404556939469e+00,-4.686231343040124231e-01,-1.134545557426459350e+00,1.761530564759058892e+00,-8.810315102403075693e-01,-4.247500518698114291e+00,-2.649213867099774689e+00,1.103890141072701558e+00,4.695464026425108517e-01
-1.331482276837217205e+00,9.139398159418146150e-01,1.380341055751466817e+00,-4.539665343506257833e-01,-1.605041299500298724e+00,1.288866376901623756e+00,-2.076686773988620338e+00,-9.461945739389279186e-01,1.872088490720196230e+00,4.257784412620648773e-01
2.357661804768647340e-01,-2.075847918030330863e+00,-2.028605390354733196e+00,2.945569710284053677e+00,1.939601308906256705e+00,-4.682092867262190872e+00,-3.039459006758447601e-01,-1.202574191039256446e+00,-7.146703120364081840e-01,-9.075788851206875729e-02
-2.673710340287006382e+00,-1.000802833250197921e+00,3.645921733224117833e-01,3.191345742190954127e+00,2.425789458120590325e+00,1.708730099736193164e+00,1.627400264632212989e+00,-5.561287473874945597e+00,-2.549565146027149787e+00,4.656705324154919445e-01
-9.417233911806670577e-01,3.695738278908750618e-01,-3.926506809839139939e-02,8.171226573397276649e-01,7.955781310307752374e-01,-4.364487207156244608e-01,-1.184681750113345533e+00,-1.741437506317908834e+00,1.170199943747446264e-01,2.796107722021569653e-01
9.076803031987480397e-01,4.659397052912368942e+00,-1.039788271421012267e+00,-2.552873368006850718e+00,4.017877620919771964e+00,1.755646325527197904e+00,-1.249085545626267724e+00,-4.379811848881708158e+00,-2.017469747845606509e+00,1.372170550695697155e-01
1.661256111252230605e+00,-1.150469434677785063e+00,-1.692760210868216264e+00,6.877503536566696996e-01,1.998977675621626426e+00,-1.266656712400676676e+00,2.647467146927342085e+00,-9.349543684756194128e-01,-2.513193297939052329e+00,-4.772559971671920254e-01
-7.620295911527510402e-01,-2.191638644092489541e-01,-3.862350164696695676e-02,7.455073119843377283e-01,3.756845248822235916e-01,-9.811501272756713021e-01,-6.347625481402746628e-01,2.237789794429344781e+00,3.403118682626533054e-01,9.518444340597789766e-02
