-1.667161002424785599e+00,2.334309028989677071e+00,-3.819339749512557169e+00,-2.304515947232171236e+00,6.226713604727959428e+00,2.942671001935031949e+00,2.359343580615449021e+00,2.281973092144020221e+00,9.405439442350607138e-01,-2.010950430818125412e+00
4.469450219853349893e+00,-5.587337848398999718e+00,2.317519159162604758e+00,-4.597981142296088564e+00,-3.519586724138397127e-01,-2.772795190289466305e+00,-2.290814977973430810e+00,-1.452022904367235689e+00,-1.997542463610213259e+00,8.170879749134438708e-01
-1.594480658165134512e+00,5.704292355945702608e-01,-4.332252203185323336e-01,-1.086265467190817846e+00,1.841816368436308138e-01,2.545552623297388184e+00,-9.125440415286558693e-01,2.489493176911298900e+00,-1.592190238650287082e+00,-9.193668187530438241e-01
-6.128169191882708589e+00,5.932204904467821116e+00,-3.556467384924384412e+00,-2.288350980371891108e+00,5.658906592174896666e+00,3.949713574784669223e+00,2.576349320727778558e+00,4.084285729320596303e+00,2.035124187632076642e-01,-1.414267618207529997e+00
1.625634386523057362e+00,-8.628004570066535872e-02,-5.048289104827182960e+00,-1.387497189123857666e+00,5.755647700540167389e-01,5.433812580468424525e-01,-1.680256188844549303e+00,-4.495962576811134426e-01,8.907837862389327288e-01,5.720003504346988787e-01
2.429206812953758288e+00,1.757530135837439278e-01,-3.552987116854942062e+00,3.561197465443152854e+00,-2.349421905502120822e+00,-1.147102342789641849e+00,-7.745462095653277146e-01,-2.837876458607613728e+00,2.725885635323846312e+00,1.171458851477138685e+00
-3.147991584741947069e+00,3.407582182392636660e+00,-1.076653043903700535e+00,1.508081497254206704e+00,-1.687681185995485666e+00,2.463457955840205882e-01,-1.617217180190627379e-01,3.675271587739733503e-01,4.397292195361337530e-01,1.188958470614936758e+00
4.920850291630570084e+00,-1.908999580676468133e+00,-4.675418206763881201e+00,3.155397347374117256e+00,-3.519491177313989638e+00,-1.385826071993156328e+00,-2.509441605715614365e+00,-3.589057134565069251e+00,2.547545886815522742e+00,1.418457318924693622e+00
-1.520777652490968634e+00,-8.392991103943565623e-01,8.030163593226552265e+00,1.371140775621241481e+00,1.597689177250082748e+00,-4.168643609160512797e-01,3.825737080894086706e+00,9.301913307913025619e-01,-1.158309860104530964e+00,-2.101863112964741820e+00
4.229108600366743298e-01,-1.450984320067901345e+00,4.003642124898305177e+00,-6.112724691718334213e-01,-1.169821516219825330e+00,-2.726062083046422835e+00,2.291711805522888556e-01,-1.273463881961098609e+00,-7.550151284056436651e-01,9.959847242106337761e-01
