1.397221289028540259e+00,2.041829936507963128e-01,5.235669931298548851e-01,-6.038774148431768296e+00,-4.217013373875060922e-01,-2.625891267085678660e+00,1.106134865428608727e+00,-1.916361073328237019e+00,6.481251594280860173e-01,-6.853553080984476686e+00
-1.795771320832727502e+00,-2.310361781272769033e+00,1.192844204751347004e+00,6.151170317180583436e-02,-4.116864147158795784e-01,-3.116976584117982174e+00,4.167079866551484657e-01,2.497454103242678913e-01,3.715003098062714115e-01,-2.507764613729146497e+00
1.227924765916645899e+00,3.011453972370856214e+00,-2.502516404522818760e-01,-4.321841854648288184e+00,8.959971621599485125e-01,4.586539808571839516e-01,1.510058379714117383e+00,-1.257119297980238803e+00,4.578741435658992276e-02,-8.114795667675972490e-01
1.799842741301960647e+00,-2.860108148748435331e-01,-2.169944628289290911e+00,4.032216211306600684e-01,1.092844600976655256e+00,-4.216228394770488719e-01,-3.121613694340409140e+00,-3.086444245230438810e+00,1.031708857007366115e-01,-5.430147792240534343e+00
4.160251433877649951e+00,3.276182204116815821e+00,-1.772270464111081134e+00,-5.689252090253232197e+00,1.504767256373320761e+00,8.302915563887135475e-01,-8.949800081499875715e-01,-4.045767167243157658e+00,-1.569311948773439158e-01,-6.007957029756587630e+00
2.019250386132443342e+00,-2.185616870138712198e+00,2.795662804961216885e+00,-1.887902095344975439e+00,-3.463884161059885836e-01,-9.413330675079135679e-01,-3.447076347530181883e-01,-2.812291437798941640e-01,-1.657016307039016256e+00,-3.460072569228548112e+00
9.717259501987278725e-01,-1.058262164906299402e-01,-2.763949816825070460e+00,1.030036694692672450e+00,1.587717689065569093e+00,-9.728388121824621537e-01,-3.278894697521624657e+00,-3.441163040788151495e+00,4.441106066173295397e-01,-5.532261961637889414e+00
3.641185744913275762e-02,-1.523510560062504515e+00,-1.022721337347972881e+00,2.397112812931927461e+00,-8.267054798155457074e-02,-3.546632440052052693e-01,-2.042277400557790834e+00,-6.271734928915851937e-01,2.063083576632424032e-01,-1.753326226502103902e+00
5.115503583953122657e+00,3.100863444019818171e+00,-1.661805620195663524e-01,-5.417438778866647375e+00,-2.399084151255266029e-01,3.457094383300618912e+00,2.679947282775956285e-01,-1.363742643247527475e+00,-9.095933357328850333e-01,-1.390896371932129227e+00
-2.804197534987941776e+00,-8.755447642912226769e+00,2.344283245174144437e+00,7.182115859081322107e+00,-1.853869768050344868e+00,-4.529922185258893563e+00,-3.184590712210230823e+00,1.643956920780635045e+00,-4.021214930882868743e-01,-3.821608169831222757e+00
