1.749873847059600473e+00,3.668710822364759316e+00,-2.643988508756009548e+00,-1.429667816330368602e-01,-1.677276493912221111e+00,1.765316255855301275e+00,-3.003642453031619031e+00,-1.106547476462928392e+00,9.008522682372112067e-01,2.422176186421797439e+00
-7.624391751406061069e-01,1.255121325384629616e+00,-9.322668269071980873e-01,-3.997497675911328985e-01,-1.422999237085205593e+00,9.119849967916732192e-01,2.727258890726974583e-01,-6.436097978649109042e-01,3.573979114858095163e-01,1.459458338413535672e-01
9.429424890835844675e-01,-2.558537988338705382e+00,2.546172113423344818e+00,-5.125237731754199444e-02,2.295913713263032285e+00,7.324034631072571244e-01,1.333660934906012230e+00,3.702247555415483227e-01,8.545865267908263618e-01,-1.906062584658673731e-01
2.566754451965676420e+00,2.438348322035686966e+00,-2.618678664574353387e+00,3.389966708791972705e-01,1.743771257862069879e+00,7.124079295264534872e-01,-2.389464065483862587e+00,-7.514019610392678183e-01,1.766229168913081127e+00,3.774505816658970669e+00
5.601639709950866575e+00,-7.717943071147930212e+00,4.642795901511559187e+00,1.181997942084803244e+00,8.314908125637225922e+00,3.508958513580672900e+00,1.652073745169196639e-01,1.215329198428051649e+00,8.765906633024014294e-01,3.399449550784108265e+00
2.803540338111433883e+00,-3.530565108998016677e-01,8.717135675683904683e-01,1.717580276268426964e-01,-6.179732116579866874e-01,2.686270122171649621e+00,-2.692881808381138775e+00,-3.426251303743765159e-02,-5.142121937920203223e-01,1.010783708143380588e+00
1.442472361472556308e+00,2.221023536014464561e+00,-4.624801736348529424e+00,7.870720894936381606e-01,-3.196154145270170555e-02,1.493439740025827689e+00,-3.166544249304325209e+00,-7.638307732119419269e-01,-7.099703025990580230e-01,4.174210506345227500e+00
-3.804029255201404336e+00,6.200627748885193746e+00,-9.877858512913599398e+00,1.956513686685039388e-01,-3.336160349057899932e+00,1.051749479420881622e-01,-8.038496036536197931e-01,-2.146042531199241488e+00,-7.999377565899215003e-01,4.179840985067149184e+00
2.447938756531158777e+00,-1.054642858504543756e+00,4.029433987724051924e+00,9.504477771754510449e-04,-2.758800549900075616e+00,6.747158348247970228e-01,-3.178962632765335528e+00,1.084889463965422296e+00,-2.018853143392123517e+00,-2.989511082626550298e+00
1.680872939550439371e+00,2.769502502026855439e-01,-1.183112380010964415e+00,2.724965061863649507e-01,1.719278206557437183e-01,2.240301661562620783e+00,-1.728690571990545433e+00,-4.387483630536901935e-01,-1.006928932103983571e-01,2.249605302523070005e+00
