-3.886443534480072515e+00,1.962046931530980087e+00,1.302752880387271661e+00,-3.551120149062621412e+00,6.490946716806960115e-01,2.767111734602040851e+00,3.228408335776129956e+00,1.852730667818714316e+00,1.092722593015157839e+00,1.220241519797222285e+00
1.743583846739939380e+00,-1.251278695505879446e+00,-3.485607714348687991e-01,-1.812730837832508657e+00,1.374080997196882370e+00,-1.108359341950018395e+00,-1.355677532272030916e+00,8.003393384469118521e-01,-3.065252435778598628e+00,-4.154379098751108113e-01
-1.063052600654518676e+00,7.329269894853945866e-01,2.122573770421787742e+00,-6.838515084911158670e-01,-1.611514725499030298e-01,1.166165075976817844e+00,1.004430240095351756e+00,9.096469964201585601e-01,7.060413277730247517e-01,-1.158394569176128153e+00
-2.226295414366207925e+00,2.203909176415141058e+00,-3.861736759725311607e-01,1.493250889195909314e+00,-1.463944166060178631e+00,1.658187185957741283e+00,1.333943385861016351e+00,-3.057716028439778078e-01,3.634518588038843312e+00,5.140764673791229367e-01
-8.513296644194889851e-01,-1.429601823547309358e+00,2.363539651242172024e+00,-6.425201094676152858e-01,3.028062646082142484e-01,7.104809844811921238e-01,2.168931567326347398e+00,-7.768490351658714488e-01,2.702844672609677201e-01,9.282489246316945053e-01
1.298537014184391492e+00,-1.177074825078489040e+00,-2.762686560814936243e+00,-3.132874966592428811e-01,9.743934303504373506e-01,-2.644886240228213836e+00,-1.725018357149692649e+00,-4.636237912456647736e-01,-3.169265188696871238e+00,1.319445584003175576e+00
-3.518052041363223248e-01,-1.181047534424525258e+00,7.360714052503976035e-01,-1.175273589967580495e-01,6.744956148542955443e-01,-3.349535954243798130e+00,-5.055506134054751355e-01,-1.162807709672691453e-01,-3.979601926093181419e+00,-2.282633739130723871e-01
2.370655006016752608e+00,-7.016682761063997020e-01,-6.211064109870266803e-01,1.993532672222268820e+00,-5.561280059444708712e-01,-6.867551041589229355e-01,-1.834238681837265350e+00,-7.851788339047286458e-01,3.094484252966832050e-01,-1.083389339216859648e+00
1.862391493557876698e+00,-2.438682828856552298e+00,1.276288385897508815e-01,1.772190360592844183e+00,-3.568842378075725574e-01,6.216097028022155024e-01,5.490572822605656045e-01,-2.525847248781618593e+00,1.818362379206793999e+00,1.489110102763630872e+00
1.565633336303909662e+00,-3.425556315035478694e-02,4.407270288410713999e-01,-2.642742974013311485e+00,1.411892440507318991e+00,-6.567679004726856284e-01,-1.899568181960904267e+00,2.391470042262066276e+00,-3.370880956937631900e+00,-2.249397180277185715e+00
