3.237877733449701090e+00,-5.035023828920703437e+00,1.565174586493795372e+00,-5.092420959442601341e-02,1.892142289147745737e+00,-9.282969234783735590e-01,1.650204453476789290e-01,1.681598133518456883e+00,-6.445627198981755679e-02,4.786792823680363185e+00
6.065708694147107366e-02,6.312657629951975991e-02,-9.298144813268953701e-01,8.199017696624540941e-01,2.080550210039873449e-01,-1.141742493743797549e-01,1.146154649363336109e+00,-2.070134113923872032e+00,-3.114084828258482651e-01,-2.556261161116120117e-01
-2.794051362791536430e+00,-9.735447005819268806e-01,6.083551052773372714e-01,-5.110133219630950130e-01,-2.793227009405515826e+00,4.421413936110820675e-01,1.088425342625155556e-01,1.244615417783531797e+00,3.771032948617665803e-01,-2.836642055489355219e+00
3.390823208339223127e-01,1.298253085315444366e+00,-3.115766618421245485e-02,1.379693190550512538e+00,6.311127256570991939e-01,-4.286949823206772092e-01,3.910268091980478311e-01,2.988438357324881001e-02,6.660068414933023595e-01,-1.771635067065554514e-01
-1.503287812954283265e+00,-1.657570757399263517e+00,-2.864667642095871880e+00,-3.483534661237499552e+00,-2.097093138559630088e+00,2.173263193122739967e+00,-2.024696062142498486e-04,-5.871859442963343945e+00,-4.255295589964800840e+00,-1.511682218224255303e+00
2.379050904460824900e-01,1.751614805587617507e+00,-3.449368861713203449e-01,7.322754134373919699e-02,1.024760739797557774e+00,-3.645880139530332520e-01,1.302246899711673456e-01,-1.072443254981904348e-01,8.885732019043730556e-01,4.663026262707338776e-01
-1.797317888757555382e+00,2.471418133958260821e+00,3.649255124040676201e-01,-1.582560497605276950e+00,-1.292625689886340190e+00,7.744904722178921341e-01,-1.839516685724011502e+00,1.848335863918899369e+00,2.737837185097521386e-01,-2.010436554297379885e+00
2.096629864356325257e-01,2.398228959592363374e-01,1.211498202413944458e+00,-1.252429776231708036e+00,4.455848025533598045e-01,-2.075483654821617951e-01,-1.311442023665813528e+00,2.936213288077046180e+00,1.113843186400096386e+00,1.147213604448935387e+00
-9.458964892110978129e-01,-2.974302220866886337e+00,3.639263950022222360e-01,-1.505116381781415491e+00,-1.998564326088150267e+00,8.885366377234201751e-01,-5.313054228424693992e-01,9.694307035619258162e-02,-1.567673030502098719e+00,-7.375945398960669364e-01
-7.068058012810176649e-01,-4.767991408874753811e-01,7.727890522121153571e-01,-2.945500633348454578e+00,-2.045290249965444063e-01,1.531998567462081462e-01,-1.260050714867149813e+00,2.300506863717509454e+00,8.606872445371130942e-01,1.035277993509737149e+00
