-8.899809893181296339e-01,-3.914864588303482940e+00,7.669160736598491512e-01,-3.520615566873756652e+00,-2.911869320646217396e+00,-5.851855952855361309e+00,2.595825160463356429e+00,3.071992325429352411e-01,-1.188923426268659211e+00,-5.715786725346413411e-01
-1.969709783018504412e+00,-3.508954434319565330e+00,-2.743216143936819229e+00,-3.198906244519895914e+00,-7.552322605511835318e-02,-3.361459388004015558e+00,1.027120463883514356e-01,-6.213890539543534430e+00,1.403664635907496461e+00,2.892571709129993174e+00
-1.078955829088394047e+00,1.676427497578823145e+00,1.772625027421797395e+00,2.318093145140120548e+00,7.910190396038715432e-01,4.332676739554100820e+00,-1.508418870274636170e+00,2.381498759751339289e+00,-1.942766844147663985e+00,-2.599239062471303985e+00
1.090141985387034440e+00,2.469916858819509731e+00,1.091884412971138918e+00,1.320498745633878812e+00,-8.304827443894212680e-01,1.128077556124811531e+00,9.109190710932272284e-01,2.797222854319444174e+00,1.038575700647950573e+00,-1.606728873855490125e+00
1.860841441293920706e+00,3.398997009516536494e+00,-1.448762131725966351e-01,2.351281977649353205e+00,9.232014592746342618e-01,2.223651702337638092e+00,-2.713796710270072743e-01,1.439995273829406619e+00,1.738472320953745154e+00,1.261454094723156172e-01
6.581228171295192553e-01,5.020625176063248096e-01,1.867245907589910825e+00,1.651092344133882950e+00,6.308073618247722614e-01,1.037185492452753266e+00,-6.390236649806350089e-01,3.724359978452097319e+00,-2.920995950210313108e+00,-1.438723843117572843e+00
-4.744343734955154268e+00,-5.968350476238195590e-01,-2.659931958120506645e-01,1.046475857594181935e+00,1.084957498574155688e+00,9.829302926077473357e-01,-1.476046033150971271e+00,-2.935404711602538352e+00,-1.116003160092819080e+00,-1.304215551974008180e+00
-2.434226668079281404e-03,-1.212295149571797959e+00,4.215454293779927752e-01,-3.208618255965650090e-01,-3.527061999730255470e-01,-3.306107780251418937e+00,8.717254270240498704e-01,1.019076737679611711e+00,-1.298025186589535362e+00,6.225409088204181957e-02
-2.298425883471711728e+00,-1.815793820764223021e+00,1.172605955367275854e+00,-7.815567152709652632e-01,-7.004897808728597353e-01,2.015195074698196698e-01,-2.443839993378370545e-01,1.856781001661138852e-01,-2.213344113940197921e+00,-1.801517671823863687e+00
-1.797301897052898223e+00,-6.951857195823746949e+00,-5.995528716126933277e-01,-5.556205409921925131e+00,-1.968786859906999753e+00,-5.840256655457876533e+00,1.150189036659485353e+00,-3.291652973925657033e+00,-2.248883162944594449e+00,1.486961116894840451e+00
