3.803458535814635777e+00,-1.875572784775233703e+00,1.152047367642980769e+00,1.236018010306979276e-01,-3.261302520346677780e-01,-2.626734618010033273e+00,8.704527794572068933e-01,2.256725572403948110e+00,1.106342976189721578e-01,1.936561165275975105e+00
1.552484338161298716e+00,-2.138661466532229216e+00,1.613954368326151467e+00,3.753950106762659611e-01,-8.210048868659838295e-01,-2.079104344982664720e+00,4.199396617421587430e-01,-3.370905469670745780e-02,5.628794990777228474e-02,2.608237232706918984e+00
4.306005902878355052e+00,-7.510065120739187750e-01,1.479112080437531063e+00,-1.133206826282309176e+00,-8.353604870156593476e-01,-3.964593485259245931e+00,-1.124125382113869920e+00,2.278183406474834527e+00,1.579677556254652782e-01,7.684913340413547234e-01
-4.146854385224505890e+00,-6.372781276496165548e-01,4.874367176595825746e-01,1.718580436952621415e-01,-3.520162813701337878e+00,1.518849732293218402e+00,2.020563798059789862e-01,-1.849386554781651260e+00,1.807145360209415186e+00,1.482992949987271547e-01
5.346248938260084849e+00,-1.409445278032946502e+00,6.729290317410898670e-01,-1.215385277825935750e+00,-4.825574462212882665e-01,-2.828651880022830412e+00,5.401797175348400648e-01,4.318266379505729446e+00,1.100063544999628107e+00,5.360379984082666027e-01
-3.328177324689337579e-01,1.896421642925330220e+00,5.172017799216065415e-01,-7.211958066870913786e-01,3.598717670617983533e+00,-1.454137470662200338e+00,-3.667036531972229341e+00,-3.984305297371157017e+00,-2.973166074930843727e+00,-4.824339736223966224e-02
4.713108257235682608e+00,-4.440132109223466905e+00,6.239099375165420014e-01,1.270259289497262412e+00,2.825547652366483753e+00,-6.444678966877548376e-01,3.936109343886526890e+00,2.279745834450167319e+00,-1.766618800948584200e-01,4.549912917349636210e+00
2.281351653960637105e+00,-3.528650066977808031e+00,2.185786058145485988e+00,1.130876185145283097e+00,-2.050727121412948328e+00,-2.656153545252425641e+00,1.749571901207537472e+00,9.131420605329794160e-01,5.415523010208427301e-01,3.918097263705342392e+00
2.129928904454100991e+00,-1.639807214083421449e+00,1.218585016428231249e+00,-8.596604793228899977e-02,-2.435822559655271835e+00,-2.127703427945177861e+00,6.766984497278218935e-01,2.067604745355894558e+00,1.167422653122258680e+00,1.239322661985050811e+00
2.993882696549091893e+00,7.905275734623504191e-02,-6.731211765017242055e-01,1.266325884934642876e-01,1.445745316408433290e+00,-4.725804053582521869e-01,1.016297614787599723e+00,2.665260871969484135e+00,-3.966525542808328475e-01,-3.438768744257179599e-01
