1.740787470325650510e+00,-5.406680729399147012e-01,2.339168964534884765e+00,-3.512827967202534762e-01,5.588239453371945054e+00,1.733781920602254667e+00,-4.046396734686522834e+00,1.111580354664138515e+00,-4.051172202555520130e+00,-3.983935256086137411e+00
-8.552824569474704042e-01,2.126725558247293257e-01,-5.334263139031609341e-02,-7.648806166719335220e-01,-1.436583553853527429e+00,-2.544554395016025428e+00,2.922377543516253340e+00,7.952827787089761236e-01,3.153265377822901616e+00,-1.067920672863645004e+00
-3.622852585127452896e-01,-6.344687036672391756e-01,-3.146135826900836818e+00,-1.370289530285890622e+00,-1.617957900856388687e+00,-6.093624275651088329e-01,3.905877355810252638e+00,4.171330342742294861e-01,3.947460209424094923e+00,-6.403572869254649247e-02
-1.622218685367295743e+00,3.069828813516504162e-01,-1.280447472599949114e-02,-7.490572183831082365e-01,1.893196836180122578e+00,-1.821122824779951577e+00,2.000688242746856194e+00,6.537488057938201091e-01,1.473994845134957155e+00,-2.460156885382455361e+00
-8.969013459907875241e-01,2.714094733246475988e-01,4.246562738946217386e-01,3.294801485109106309e+00,2.481521724472917967e+00,1.195249508640117586e+00,1.327567846820560116e-01,-4.361452312349388905e+00,-2.431750651793957108e+00,2.344093354430663911e+00
4.660741791435746961e+00,-2.970125629176337601e+00,-3.223037148474520386e+00,-1.777778396731824140e+00,2.991348902871431292e-01,2.104032431966976091e+00,2.974720617815770574e+00,4.897167043581021062e-01,3.401585427784442395e+00,-2.324069027670950138e+00
-5.295233579625221232e+00,2.316523540963692618e+00,-1.939844660585215430e-01,-2.020122679834520873e+00,-2.430317820133040652e+00,-4.383007412289070537e+00,1.884464457921164904e+00,2.960647660940790349e+00,2.804520226555076601e+00,-4.914458184144150366e-01
3.541772798936110522e+00,1.313402597072440836e-01,4.244715387136008822e+00,-2.087053164670082506e+00,-3.499160891533820372e+00,-7.496662352903213367e-02,-6.501792339446683222e+00,5.065235396501397425e+00,-2.371137928247891935e+00,-1.474966761435017704e+00
4.867026873486643979e+00,-2.368313092410399889e+00,-1.421084817070519479e+00,-1.096266963374527670e+00,2.162177255336944492e-01,3.031840704166138600e+00,-6.678630037704996747e-01,6.691189389816744049e-01,2.763243726282912927e-01,-1.241489808260032524e+00
2.867290708475941141e+00,-1.113795065620945435e+00,1.963452726878840704e-01,-6.414131749671478366e-02,-1.388174762666217088e+00,5.657050851911054057e-01,2.856953274085071159e-01,2.577146330047317899e-02,9.308050910827634361e-01,-1.524603573346602903e-01
