2.199562444597530642e-01,3.569792676145433941e+00,-1.758550670607102795e+00,-1.743627497631415668e+00,-1.199851356953018033e+00,1.560776343925297294e+00,1.368541889007330647e+00,-9.793623050539841390e-01,-2.467126800803214781e+00,3.232451214489619140e+00
6.675497267274728141e-01,1.851673217444525843e+00,-1.499023121960842309e+00,-3.963476665665045751e+00,-1.115749309368498698e+00,1.906061496325750282e+00,1.124497975333251132e+00,3.613751254171709837e-01,-5.287457780651768635e-01,2.944905480807739728e+00
-1.888819833026238904e+00,7.346120986655439999e-01,1.190746517745071564e+00,-9.821939931678752567e-01,1.516034322802792156e+00,-1.701148783334844650e+00,9.224932265767266104e-01,9.029103842472903096e-01,1.850757162709018244e+00,7.337680105527669694e-01
1.026393206587843165e+00,3.750913749460094704e-01,-5.532875977802323986e-01,-2.060020942739890337e+00,-1.800667164208816118e+00,6.405849638559085735e-01,-9.483099789775221999e-02,-1.078207239340203349e+00,-3.446357655235225970e-01,-2.581446459329831203e-02
-1.604064198153857812e-01,-1.951197204920069206e+00,3.466791762525499032e-01,4.888209869681570119e-01,7.547861145699169549e-01,-1.286799479218192835e-02,-6.325959651187067490e-01,1.365846346548065915e+00,2.526509440669458595e+00,-1.049756493676560209e+00
-2.325162871343261273e+00,1.260643326795273522e-01,9.799769815376120352e-01,-1.678781349894622243e+00,1.281364689607408014e+00,-1.510907870492908422e+00,6.391872687018866905e-01,1.611597243980514627e+00,5.499849726008655182e+00,2.959331270581425088e-01
9.357000560598445482e-02,-8.298625569095136045e-01,-1.254576642551138432e-01,2.098395823911757052e+00,3.492798259011969941e-01,2.116427884815868798e-01,-5.891038684324505503e-01,1.929242818345051624e-01,1.846994700825615454e-01,-8.242989386354383496e-01
-7.089094520312977377e-01,1.318197159982777089e+00,3.705240214415671529e-01,3.938057215275507228e-01,-9.102434565349620810e-01,-1.258510257163147461e+00,4.164125338121854591e-02,-1.783413880465809731e+00,5.408791087017130739e-01,-7.773007545642818261e-01
1.390133268741710504e+00,-2.538474630808023047e-01,-1.222525840805173125e+00,-4.291400247463451834e+00,-1.673191608683378240e+00,1.981618918353666547e+00,1.315057297858493734e-01,5.978962771872020632e-01,1.275966662544582020e+00,1.144066711962752558e+00
-2.285286079261293679e+00,2.723422766914036064e+00,-1.311562911067053194e-01,1.603848380943109220e+00,5.504858568105869265e-01,-1.055088124597585386e+00,8.455755327501832674e-01,-5.466654682275322585e-01,1.974977879155480176e+00,9.749078228757596110e-01
