1.271470328126874882e+00,-4.304711139059480551e-01,1.749535627267017945e+00,-5.460485655411184691e-01,7.540873861451931059e-01,1.810237738267223229e+00,-7.714274578068461841e-01,-1.095026640696554532e+00,6.394678101673525461e-01,2.485754725643821050e+00
-8.442684357992795707e-01,-1.392023244924305070e+00,-1.174931882286382123e+00,-8.639669974250229201e-01,-1.220063171860346296e+00,2.341733192533586916e+00,-9.085231016132178095e-01,-1.488979479967875275e+00,-1.859513412865310800e+00,5.003805324764540874e-01
2.705877789203808836e-01,4.624365739317278789e-01,2.973697165174165047e+00,2.653985757230470921e-01,4.518206178471882772e+00,1.414246779843263413e+00,2.318613901014322798e-01,-1.253145119717012701e+00,1.243405698316448205e-01,3.459973698586699786e+00
1.346020138208469996e+00,2.070545436183187871e+00,-8.033356188286867872e-02,4.643499282033881903e-02,-3.808370656884937366e-01,-2.173208808127110814e+00,2.550303446950279440e-01,-1.339377102660999297e+00,2.313008899628346438e+00,-2.811157481006314018e+00
-1.796346697816447735e-02,-2.425282988419880770e+00,-2.489844622679755926e+00,1.059202279581986872e+00,-3.939615160884911038e+00,1.746582453096799270e+00,2.463616430838749594e+00,2.847062676768359779e+00,-1.733587295740459000e+00,1.274081783380431312e-03
-1.940117111007118922e+00,5.415213753789063604e-03,8.705972545646933902e-01,6.356520039802281419e-01,3.762816439409696123e+00,4.825453597149593210e-01,6.600788702123476792e-01,1.355538458154776360e-01,-1.809541882540654845e+00,1.759256233198964736e+00
1.756001889159224394e+00,1.392745415124113428e+00,2.946884032912749252e+00,3.980468257993930448e-01,2.314253202828383760e+00,-1.657414128068162906e+00,-5.760498511871019883e-02,9.635843429001967886e-01,2.710947543324666587e+00,1.413492192372929557e+00
-9.087359438467433881e-01,-1.505985240059061203e+00,-3.394763101607427558e+00,-1.397367285180342589e-01,-3.165566767900818146e+00,2.669515873708482978e+00,1.132267141835239910e+00,-1.810606493218980706e+00,-2.558980216075867453e+00,-1.664402453579500563e+00
-7.289146718777439471e-01,-1.122415150146386098e-01,1.022049692530276666e+00,3.838422216579316926e-01,5.221845669225502196e-01,-2.805272533157825876e+00,-8.346059740640424662e-01,4.406551602476003637e+00,5.725710074402642347e-01,7.174137278288770236e-01
1.273914490464234384e-01,9.223845702207686403e-02,-2.996478468636020409e+00,1.106072248613427789e+00,-4.511086418285578326e+00,-3.224492423494560889e+00,1.777338084859705569e+00,3.773850587433041692e+00,7.183010576337759412e-01,-4.232126627357670756e+00
