-3.719643672036774262e+00,3.470265714666662116e-01,7.989324488392005597e-01,-4.142529702037892614e-01,8.121694687614878783e-01,1.486102361098404545e+00,4.431451420993065549e-01,-2.531019489837937897e+00,7.483091118914433348e-01,1.423387669789354160e+00
-3.909117898310359163e+00,-4.717867220723050981e-01,4.968246834721767868e-01,-2.329723383614922927e+00,1.274221604168487065e+00,1.955445946227693632e+00,-2.067504500421352365e+00,4.965132652164169769e-01,7.995810085007321044e-02,1.393583297210271743e+00
2.777289353027102337e+00,-3.333990688081771125e+00,5.371036900832630578e-02,-7.924226013650574885e-01,7.587268737281273046e-01,-8.828858354292878907e-01,1.523492140343164936e+00,1.742216490348910352e+00,-2.803549901443490366e+00,-9.698509200033338384e-01
-2.159518911411795195e+00,-2.071831288756229128e+00,2.823385122481115173e-01,-1.952984937532284526e+00,1.784779789874433031e-01,8.347528107777502093e-01,7.867892339961314319e-01,-1.043318379148863578e-01,-1.572931741033110287e+00,-4.684210503556219263e-01
1.440071875207775243e+00,-9.063380439374832953e-01,-2.933093623971202213e+00,2.330082857519674006e-02,-3.074598200998793551e+00,-2.458996133446402776e+00,5.944111319987368525e+00,-1.350839896053440903e+00,-1.952197884760817459e+00,-4.228503800816598712e+00
-4.449775780425784255e+00,-3.693695497592699439e+00,5.407974584848254551e+00,-1.667931890904424730e+00,7.702300388937377562e-01,3.532102285421153010e+00,-1.998015187410703497e+00,-1.744544294592585532e+00,-1.664167116386079615e+00,1.335300370551712801e+00
3.289738020353452086e+00,2.653860692823080125e+00,-2.171990741953633730e+00,2.132486471026675545e+00,1.762899396221370152e+00,-1.683605424938146244e+00,3.011956030458758926e-01,5.461610070807230155e-01,1.928559308276771800e+00,1.655971964468497593e+00
9.361647316952632636e-01,-1.565079730963838456e+00,-9.931972853170408788e-01,-5.820914063425534080e-01,-9.601408948366592089e-01,-9.813609863212524598e-01,2.530920486476137654e+00,1.135125013496787322e-01,-1.731029458778771346e+00,-1.937096598976739470e+00
8.711507756758726018e+00,-9.328874997417978321e+00,3.996020146980067800e+00,8.778320332454286890e-02,-2.508311441597197433e+00,-2.187025646112986887e+00,3.281829829705773527e+00,3.015588140372137183e+00,-7.815865491936221154e+00,-5.472303971345309215e+00
2.452784323581643111e+00,-1.204567497268176579e+00,-5.551490251622385186e-01,-3.840274791755194372e-01,-9.947838754228850444e-01,-1.043279628177079088e+00,1.016000251152507083e-01,2.091774979113120381e+00,-1.398570359447410372e+00,-1.768173542215710992e+00
