7.568661265608507271e+00,3.972734856191146857e+00,-2.757889529654344418e+00,2.463621809480263991e+00,4.102531667295748363e+00,-2.332775389857139281e+00,3.734082014039941999e+00,2.114916695619700970e+00,3.746256965961624275e+00,7.314893661881800568e-01
-4.030392026510378756e-01,2.685594066064818097e-01,-3.854483602269779485e+00,-6.502101581718818801e-01,1.431873239164263012e+00,1.848866966454950855e+00,-1.253734772047887525e+00,-1.428954713374786190e+00,2.168164840129991777e+00,3.647224169368170066e-01
1.897882733070146155e-01,-1.011900072088090630e+00,-2.058550922370835146e+00,-2.310661267901124860e-01,9.816476059642762486e-01,1.278966338370947309e+00,-6.944584244157696595e-01,-2.057067707963746273e+00,5.736428067110125317e-01,3.514843406233462697e-01
-7.442313902090700317e-01,4.245557124096466795e-01,-8.965785530777109491e-01,3.354450800477558614e-01,8.007551146321970625e-01,1.846936717311681520e+00,-2.564936534499852039e-01,-1.882801658630266939e+00,-1.571837419489285459e+00,-5.193863422294939802e-01
-9.874104811308835883e-01,-1.793531828467503919e+00,3.745678009810156084e+00,2.151688724382422535e+00,-3.348787655989404310e+00,-4.519183588632862403e+00,1.139063760825572702e+00,4.745149629515323930e+00,-1.024698201080422644e+00,3.338380126562868755e-01
6.990527426182930881e-01,2.842233879265447349e+00,-9.241001002988651347e-01,-1.353210191821348607e+00,1.591071487040601973e+00,1.872783686491334088e+00,-4.605016431420994732e-02,-9.278991351442086311e-01,6.707031833627812301e-01,-5.827212344294191437e-01
5.114726747471488588e-01,2.609230501506095479e+00,-2.159197038848140515e+00,2.720337811784223625e+00,4.560755059186110683e-01,-2.038003187848021369e+00,1.324410460603956619e+00,4.116698258140690569e+00,1.821577389639423394e+00,1.364655567773386813e-01
1.589435220714435548e+00,2.206953406205063750e+00,2.071499083130249552e+00,-4.176914755144173874e+00,7.871595052722972774e-01,1.608091059156436353e+00,-3.674182078994997491e-01,-1.463625224117987011e+00,1.151443689349274324e+00,-5.056114870811391215e-01
-1.405756714829366594e+00,-2.231529457053988530e+00,3.314524114676728139e+00,2.699772866127738147e-01,-7.505146745877807613e-01,1.853496928378152608e+00,-3.653895735180635179e-02,-3.900575896732992653e+00,-5.817316589634994095e+00,-9.926919095385352554e-01
5.177910251504848071e-01,7.894297489382797739e-01,1.028920979614378783e+00,3.465657607762731018e-01,-6.240616965403051886e-01,-1.703421394241389164e+00,7.150325430614661304e-01,2.362393666615505428e+00,7.423965307975178840e-01,8.121678850204036570e-02
