-6.267144220126932286e-01,5.706615669733459267e-02,2.166050619360509355e+00,-2.108231752918356072e+00,-4.349994065048579735e-04,1.871859087046026104e+00,3.347957974283273686e+00,7.687694384138816783e-01,-1.123353830349339777e+00,-9.338158282379664943e-01
-1.317036608474217108e+00,-1.193441785191454718e+00,5.833949268668180421e-01,2.423303582146616009e+00,1.760495601798128806e+00,1.616606425838993388e-01,6.439394383557195400e-01,-6.767861784613751208e-01,1.846599201470414231e+00,-7.013122575984869211e-01
-1.193622618749200281e+00,9.139406085070951313e-01,-5.350049736778555776e+00,1.111713819996688501e+00,-5.334215049746562798e+00,-2.870658578602148236e-01,-6.680588741792391483e-01,-1.403333120106192933e+00,3.061761110970115052e+00,2.883191797013790580e+00
6.999443599540834393e-01,1.210753247855029135e+00,1.653373245429381910e+00,-3.259024225444460576e+00,-1.099572254668945037e+00,1.213870455026025974e+00,1.203852756487374442e+00,2.095715973401925947e+00,-1.276868995571333265e+00,2.431092021846939233e-01
-1.715913617684116543e+00,1.001172652033452293e+00,5.292360378266709464e-01,-5.195605033221468716e-01,-2.084168866153687460e+00,-1.306853710770991661e+00,-2.134871510163281805e+00,1.768896953441770448e+00,3.752093148592424043e+00,3.810830112338713604e+00
-5.089775482438267940e-01,-1.993533601393979449e-01,1.233858632218566953e+00,-3.046294222086607384e-01,9.819191293619574656e-01,-3.090392528020643237e+00,-3.150992593596279256e+00,-4.832308987456839788e-01,-3.892976691382731280e-01,1.867077871041454618e+00
1.427597542210173209e+00,1.785113929807174149e-01,6.932389926947098990e-01,-1.422460486042276956e-02,1.182996577196724575e+00,1.387209028619549978e+00,5.418720405638418613e-01,1.315763090938314450e+00,-4.907986617811244678e-01,-1.630341220711727601e+00
-8.069660232456702387e-01,5.336176120929538857e-01,-2.290971226729201948e+00,1.485246747208500029e+00,-2.480630833700681492e+00,1.736763386933232178e+00,9.986274779325852169e-01,7.517719723500838613e-01,3.721274893638080172e+00,7.936042370813212177e-01
-6.564588778510134226e-01,-1.552579567840056907e+00,1.046453704498290893e+00,2.507536888376363571e+00,3.298138637296325282e+00,-2.205888040708247733e+00,-1.992923305231365294e+00,-1.560937288606854434e+00,1.879049730554589459e-01,-4.001177702032288064e-01
2.693452091020393624e+00,-1.032419759392291914e+00,1.574218781661808286e+00,-8.636945946160495824e-01,4.068655901686469178e+00,-8.802827069260591442e-01,-2.830790879616753575e-01,-1.607769540043848311e+00,-6.261143509476282176e+00,-3.554976734530165494e+00
