1.646474502717575408e-02,-2.041054552039279490e-01,-1.029092141010910400e+00,-9.780501110882459104e-01,-3.656411648862422314e+00,7.823816945239203680e-01,-7.758640759651000973e-01,2.125724954402814948e+00,-1.567666653691450751e+00,-3.177329467965420040e+00
8.315341732193656243e-01,1.493226934038706377e-01,8.813015278042955758e-02,2.568273639984963275e+00,-2.547471254947528130e-01,1.877536303033814136e+00,-2.214505807090063616e-01,2.261115458877407391e+00,-1.995068521544184348e+00,-5.458872219358890110e-01
-2.967173891185418633e+00,1.255364747914722079e+00,1.071899157475979303e+00,3.454766378323815168e+00,-1.269040543710629354e+00,1.074074386175416285e+00,-3.277264683203868767e+00,1.177163823465538828e+00,6.428691027289286097e-01,-2.019110723314716971e+00
4.900199039404695145e-01,1.024723615016863931e+00,4.983499554119629193e-01,-4.671834371538268194e-01,2.816002983785429681e+00,-1.789262310984506721e+00,2.032909912993894785e+00,-1.193333732225740629e-01,1.522227814948187152e+00,-3.532627709583701758e+00
-7.209020706266881795e-02,1.346845658179926519e-01,-9.142366022094821076e-01,2.156385863359668864e+00,2.652254794749278499e+00,-1.156136205887195123e+00,-1.086503655820294290e+00,3.188622322890684035e+00,2.519326519657507646e+00,-2.084476663002702068e+00
-9.207510675870530514e-01,-1.344680448432106434e+00,-1.477041470088343411e+00,3.454830282914508999e+00,-1.062826349300723727e+00,1.620475236924026730e+00,-4.303830793678552702e+00,3.303924563561405403e+00,4.103570541106076330e-01,3.757156501767421997e+00
-3.890636643761198332e-01,1.086732062604338189e+00,2.038280957638724189e+00,-3.218192267001861173e-02,3.009412977575472770e+00,-9.112469802763761839e-01,1.895730761670495035e+00,-3.615489117101086336e+00,9.675366208127883505e-01,1.107641420307458935e+00
1.810339110861225453e-01,1.863744316172149303e-03,-7.241286486324068905e-01,2.175075349207210351e+00,3.163841498672429253e+00,-1.059490576426303843e+00,-7.484945101859611372e-01,2.534125869874118475e+00,2.384191248950206177e+00,-7.829103394162423291e-01
-1.979698340781204102e-01,-9.365583369999169738e-01,-1.697302139792078002e+00,-2.153397865445748405e+00,-3.358475028025828202e+00,-1.661018041646997734e-01,-1.258993397697991012e+00,1.402316816103455599e+00,-2.201745793264392737e-01,-1.175918510165321340e+00
-8.045265973653351610e-01,-8.174602390266985097e-01,-2.186069273572408989e+00,-8.599629865150576480e-01,-1.426832701910171641e+00,-1.301810693560644383e+00,-2.362741750414275810e+00,2.931601011626978615e+00,2.164928699043979332e+00,-2.087545866143544870e+00
