-1.396293439470519093e+00,-2.708663883916840209e+00,7.881215439711068971e-01,7.301463034500926819e-01,8.154204014134128764e-01,-1.454294555034768011e-01,4.045877709961013258e-01,1.707486000944120619e+00,1.363763527295638323e+00,-2.725213571324665907e+00
-1.990718308959696481e+00,-4.672587430044016443e+00,-2.700988867460930809e+00,3.287499980211223249e+00,-2.018261012594489312e+00,1.295701826092005016e+00,3.803522119877700836e-01,2.100603016791569466e+00,-2.412040142229921802e+00,-1.907646088132456619e+00
8.595132601727439869e-01,-3.923061993508317191e-01,-1.544593811042818787e+00,8.367754615765479187e-01,1.528928686336123721e-01,-3.868000067824402533e-01,-5.895140151895887914e-01,5.075517175218969834e-01,-3.956106559054329841e-01,7.773796308813725187e-01
-2.667018101954246934e+00,-2.009080872099048842e-01,-7.729525688548962714e-01,7.179586236260148552e-03,-1.206551351921580251e+00,8.321953815468633442e-01,-2.106539121894392075e+00,-2.996235713041138560e+00,8.172710267734110134e-01,-4.251944977421413974e+00
2.367365600741480502e+00,1.352240545782443348e+00,-3.669058972968669785e+00,2.814161758347676567e+00,-1.052576387537725866e+00,-3.254502287150870532e-01,-9.652952174439556332e-01,-9.688382811250768611e-01,-2.698329189578965170e+00,3.119972226529786230e+00
-3.851139599181542250e-01,7.999173101690897347e-01,3.956371840583013277e+00,-3.065498077128110843e+00,1.201666472453023271e+00,-3.939280180389063968e-02,1.730331975407181311e+00,8.145557889298378207e-01,1.737434447181019470e+00,1.263706975414622957e-01
-5.527384189016253391e-01,-3.460975060394433367e-01,-1.973573030804693040e+00,4.231470925753860080e+00,-2.682227855048126219e+00,1.181496802202042451e+00,7.528495158639894047e-01,-1.211444472718340437e+00,-3.571590609831353902e+00,1.385972888619636800e-01
-1.871323756386394255e+00,5.396434483591603382e+00,3.379373422726090759e+00,-2.525953173454800194e+00,-8.318498369275608706e-01,7.104995689761769428e-01,-9.878033324782918845e-01,-6.544988158529501554e+00,1.728031340944470085e+00,-2.697653600122083883e+00
-8.436521697527209485e-01,1.079994753245245187e+00,4.172729375969828070e+00,-5.009117805581391192e-01,2.957818789200153287e+00,-1.483476809566799171e+00,5.569473274008425456e-02,-1.141571023487377490e+00,4.658078061267294956e+00,-3.997318884662847349e+00
1.220603019505812403e+00,1.657679622537663322e+00,3.087627703356973008e+00,-1.677028917095477967e+00,2.481023151786846626e+00,-1.332039552366852453e+00,8.440600959954721594e-01,4.928425362700081247e-01,2.560036530252125075e+00,5.896315423983987669e-01
