2.323772853090910195e-01,-2.354658423999871353e+00,2.251349176677128305e+00,2.520900276639656656e+00,8.229062104357717233e-01,-2.812849390281364492e+00,-1.937767970414549845e+00,3.681584641202278352e+00,1.768983534222350995e+00,1.828370033492372704e+00
-1.143293293996935134e+00,5.324333230509656900e-01,-2.498715142755919327e+00,-2.800361609670606100e+00,-3.108254287498340984e-01,2.217480450715909157e+00,7.809724584876018283e-02,-4.201948666249922582e+00,2.762518507201355278e-01,-3.533824010696224871e+00
-1.336904176238413733e+00,-2.046441349779313690e+00,1.627961265710347272e+00,1.151705551691921681e+00,-4.226229346636556805e+00,-2.912099994432803651e+00,-9.651918969052598607e-01,1.651683833356557329e+00,4.473742260048476638e-01,-1.285540987131064683e-01
-3.669875107826162441e+00,-3.700613823159652593e+00,1.893622224372694118e+00,1.218005513772190351e+00,-2.547758958640464311e+00,-5.910646396984135187e+00,-2.862968600690734000e+00,2.816133843568765283e+00,2.473025550202057055e+00,-3.502130408042361420e+00
-1.249262013466600152e+00,-3.621599266013330265e+00,2.937068662460143198e+00,1.393203311547995593e+00,-4.830309561207222768e-01,-2.510827606898370146e+00,-1.993645139428015245e+00,2.714353975118145357e+00,3.630385942326008197e-01,-1.663400841296761024e-01
6.196358836014174143e-01,-5.381299691223762061e-01,-1.168679725581301287e+00,-1.293479759103236315e+00,-8.861007225843525736e-01,2.728460325584582957e+00,-4.003855687910002903e-01,-2.908344004289959095e+00,4.487104979299040286e-01,-1.162358470557546125e-01
1.334382935384119007e+00,-7.197901176528698208e-01,-2.919529639548646416e-01,2.767780073855002687e+00,-3.735749881189393662e+00,-2.837213977493537431e+00,-1.755781392700776378e+00,1.888074016692587342e+00,4.246655504754764721e+00,3.205543320502616034e+00
5.489583507514229632e-01,4.045102999144931211e+00,-1.211337301184640530e-01,-1.779835809190758011e+00,5.770544563859869580e-01,3.120338347325324779e+00,4.550531023441695133e+00,-1.251100370042466547e+00,-6.110100093687617751e+00,3.715987146970606281e-01
6.267485089568979317e-01,-4.577331050971522153e+00,2.121051105977392048e-01,-1.555669472542991816e+00,-2.381465282312445808e+00,4.287628720167585783e+00,-2.650759076757114308e+00,-4.077012533437978092e+00,1.128156808666245015e+00,1.573654449981787828e-01
2.534959522228734663e+00,2.768309957785401121e+00,1.152456263576255191e+00,3.010542938802216906e+00,9.182870990891767171e-01,-1.626219008647067810e+00,1.900312695755713710e+00,4.223570242843288192e+00,-9.285826208775062041e-01,5.134116321342577116e+00
