2.701959914377522143e+00,-1.514584348221245769e+00,3.129944395388092104e+00,-2.160091160720233050e-01,4.866392521789578041e+00,-4.963697207407111733e+00,4.795217762462378630e+00,5.429187573224114161e+00,-1.787929805300479735e+00,3.195891953823160492e+00
1.630885823182957051e+00,-4.323564894904768918e-02,-2.365845394535661395e-01,2.958711817816558898e-01,-4.570318072141270338e-02,-2.140308379262343408e+00,1.552534823138802755e+00,3.198572951613009696e+00,-7.706200602907495867e-01,-7.081733035562213230e-01
9.083019638846158150e-01,-6.486252137556519637e-01,3.383061256201286282e-01,-1.117512305861176669e+00,-1.753644641092134471e+00,-1.983208643038292918e+00,-7.118837939453944719e-01,2.700259048512995808e+00,-1.849111702181491790e-01,-2.372881619448341528e+00
-5.414526522449477630e-01,5.646183262545380055e-01,3.114745582954586700e-02,2.330439626208925308e+00,-8.455764420424723982e-01,5.031772131041587492e-01,1.661845053089063162e+00,-1.771296811732675724e+00,-1.332817990318237777e+00,2.582286996201197837e+00
1.755386642803546282e+00,-1.668083815189993491e+00,1.846308389944648631e+00,2.967865327361577932e-01,5.046993293204725894e+00,-3.463311249003206971e+00,2.198377837318666650e+00,4.546598871133532782e+00,-1.407706449005652338e+00,1.995919008471631839e+00
-1.807387917949951073e-01,3.653219337746825279e-01,-2.920753136673954753e+00,1.722985297851588493e+00,5.969657527227242078e+00,2.482144206438647416e+00,-1.193238402414121158e+00,-6.928586755526397467e-02,8.217717907026963475e-01,3.522319132216641391e-01
3.093992049734302086e+00,-5.599707724774965339e-02,2.199934943261022402e-01,5.170342944655792472e-01,-8.678185919579591845e-01,-4.436986304743611775e+00,3.673414214922966714e+00,5.782318390396333108e+00,-1.750831300438256743e+00,-7.283139331932613203e-01
1.313975192549504234e+00,1.324728045080486138e+00,5.857095439869529629e-01,-1.754277654953104448e-01,-1.405011170783083241e+00,-1.017959894400312093e+00,4.245842627887550513e+00,1.331545051072869634e-01,-2.367553545792575043e-01,1.507553487699393457e+00
1.183425076437525592e+00,1.588229048096961638e+00,-5.536804908107178846e+00,2.297930034765267582e+00,1.770491945706170966e+00,1.777571089716513786e+00,-1.150279355826368199e+00,2.155466328199529880e+00,6.346533621005854275e-01,-3.311230712706395352e+00
-1.767805571020379662e-01,-2.753409739380961341e+00,5.537847596519387405e-01,1.436158464847923089e+00,4.947962090192326023e+00,-1.685304047292808916e+00,-2.877656435498859633e+00,3.405618954062822112e+00,-1.504489868075582271e+00,2.137034445305186214e-01
