-5.243281631918362828e-01,-1.083954238256444658e+00,-4.780816024461771452e-01,-1.395654836977192614e-01,2.856845487300156972e+00,-4.054714585530625470e+00,6.065691503217183339e-02,1.705076640661031373e+00,1.729650114169197783e+00,1.760461215216484465e+00
3.703253755440957473e+00,-2.062859503491075719e-01,1.466544530674231739e+00,-1.786453354283429995e+00,1.045394121551702415e+00,-2.404602509555619605e+00,-2.993162409958255665e+00,2.237444205496644800e-01,-4.392402693791577217e-01,-1.568292192182951794e-02
-3.804272139276443809e+00,3.876476143223508863e+00,-2.899401839702687944e+00,2.591548243600349632e+00,3.356835198709518853e+00,1.275098684389577297e+00,2.388824700124134282e+00,-3.412215719395722324e+00,4.750431831965631346e-01,3.152219320993384422e+00
3.802333995467314320e+00,-2.291085314749011115e+00,1.297305990167323841e+00,-3.630051675469173400e+00,-8.125615100292323811e-01,9.495980119506063355e-01,-2.866311412898308042e+00,1.697065209417366605e+00,-1.690374459916822725e-01,-1.154155386730320920e+00
1.038033721657329655e+00,-1.432462252476453868e+00,2.029369719946248818e+00,1.673203244938385126e+00,-1.752946439269810641e+00,-6.715876838738792820e+00,1.021510148090275516e+00,2.843558865505358302e+00,2.121686868803130732e+00,-2.714221810503555599e+00
6.036330702796062209e-01,-5.002138535980673595e-01,-4.246188833626755033e-01,-9.462527217259240064e-01,-1.210622858305264060e+00,1.508117529589965367e+00,9.811558446583354964e-01,9.047877378296863560e-01,2.037061510930911812e+00,-1.608046911979998717e+00
-3.675074601232284799e+00,2.578029105215080108e+00,-4.702902708343278393e-01,4.967656724323836315e+00,2.237145985752262867e+00,-5.623335439695721583e+00,2.373898085145167869e+00,-1.484891219099698345e+00,-5.032645531969739267e-02,1.976978206944365768e+00
-7.154472747799586196e-01,7.537774031285464638e-01,-7.235170561325466876e-01,3.004986195842929142e-01,6.661991257732771565e+00,-5.551883387608786080e+00,-2.091361425356453640e+00,-6.589360199294074238e-01,-7.918480776030348833e-01,5.418245428839562727e+00
2.199001856756799711e+00,1.348320585124195725e+00,2.425026746667395816e-01,-1.610210422633123528e+00,9.760381206728971915e-01,2.310266144706990321e+00,-2.641782664904013700e+00,-2.132347116032150769e+00,-2.054500216797209067e+00,9.652448387812139208e-01
-3.719608850364200414e+00,1.434658591560069141e+00,-1.129482789899249884e+00,3.004052148577836867e+00,2.476322431778006372e+00,-2.353513973810374971e+00,1.569162742020683732e+00,-1.203933184416756452e+00,-6.576701756358274142e-01,2.768309765259978850e+00
