1.205294254422036193e+00,-3.100722068314372692e-01,2.132321610869817086e+00,-2.322635159785629622e+00,7.467075987018623184e-01,9.428408390402355510e-02,2.671122832583032736e+00,-1.996252561770418543e+00,-4.183865363351927935e-01,8.365385174932360446e-02
-1.998967517955954065e+00,8.916785664539499390e-01,-3.497475164890865074e+00,5.995263996779454096e-01,-2.219454695117978993e+00,2.210555227680415305e-02,-2.977897435290937977e+00,1.211645087683339783e+00,-4.204332386799983223e-01,2.261070770275747099e-01
2.120972895939043368e-01,-1.918853385232069941e+00,1.992704493247320352e+00,1.105313135952165293e+00,7.720095659171009039e-01,3.994156009187087797e+00,1.048127266356968512e+00,-1.305353891472933459e+00,1.834502880751626819e+00,-3.158662231187335578e+00
6.851312929873323299e+00,8.080727778342354783e-01,5.202288738969857107e+00,2.749290050852845724e+00,6.517077282032580854e+00,-1.426150666974925318e+00,5.952561277486870139e+00,-4.484104497068663875e+00,-5.848793279946475465e+00,-2.570625117024245121e+00
-4.199750671530253499e+00,5.469569210704908757e-01,-4.763685780945532855e+00,1.644546063079662668e+00,-2.044055155223890807e+00,4.103519141450098218e+00,-6.862210422396468168e+00,1.852539932174432247e+00,1.042468861725472706e+00,-4.258162606230473379e+00
1.636286109823851476e+00,1.638778882689390093e-01,2.682027384669410708e+00,-6.977034350355767467e-01,2.711089020602541311e+00,-2.142978975980937673e+00,1.268961549304727932e+00,4.789316597035870871e-01,1.045238627499911893e-01,8.384267834149681242e-01
1.723972864736927679e+00,-5.147904974950779922e-01,2.398228854693084777e+00,1.243750062607105633e+00,2.760162859181530148e+00,1.891146988604165857e+00,1.218583959827009622e+00,-1.583077623875389639e+00,-6.182782089671454706e-01,-3.133725663596791833e+00
-1.068852344192918080e+00,-1.035209486804147122e-01,1.172596939510291286e-01,-3.356303989578028446e+00,-9.759844070595439236e-01,8.685262720124994340e-01,9.444329941934805073e-02,-8.522472768389141029e-01,7.400044638259334340e-01,-3.904814285979302940e-02
1.241027279775710035e+00,-7.038320544775337195e-01,2.048691330542180999e+00,-2.337730643395594388e-01,1.377828381675526348e+00,2.069358740201818758e+00,1.914270574588039509e+00,-2.210962307930339765e+00,-3.995827247594657683e-01,-2.267594006473264479e+00
1.318302663541758957e+00,6.880512533209446335e-01,1.386103800665720698e+00,-1.020342039844218895e+00,1.706151832342130525e+00,-1.961313825203710337e+00,1.017422374992859258e+00,-2.229402901410025006e-01,-1.053659254126842360e+00,7.598015631322633245e-01
