3.741908550810101319e-01,-2.226750361921295163e+00,1.235778740457288000e-01,-4.797446470060011681e-01,-1.957783363907349861e+00,4.744486731231069676e+00,-8.977024738279859584e-01,3.031499997827469262e-01,3.143459915191631815e+00,2.311603984782404808e+00
-5.213296525357252742e-01,-2.892707913422793098e+00,1.154081917820620973e+00,-1.268130701584016196e+00,-6.875706510156348247e-03,3.958347017980996085e+00,2.686722081858921585e-01,-1.054838995612959129e+00,1.216745923525860640e+00,9.662753065951067422e-01
2.389460215317951164e-01,-2.708838741734645783e+00,6.364432143155298593e-01,1.058726770528530259e-01,-1.821956829784060927e+00,4.231608498474058955e+00,-4.888630885999938891e-01,-2.086327202161267547e+00,-2.081979804549335178e+00,-7.661538830155859570e-01
1.456903844236439705e+00,1.103915358755464871e+00,-9.848576547349965349e-01,1.257772088916295550e+00,-1.769075078929421618e+00,1.169240472402262254e+00,-2.075454890874065761e+00,1.223874621177939437e+00,2.169451608932146058e+00,9.097171134378601032e-02
1.705599651664708727e+00,4.039670914667865986e+00,-1.138209194947754854e+00,1.779099851990604275e+00,6.684026898702879471e-01,-2.444533571990909593e+00,-2.591393718514001687e+00,3.102993033906958686e+00,4.574537585829037134e+00,-6.847217131115782007e-02
4.732271938218303720e-01,5.241689755168794651e-01,1.190308705324339966e+00,2.438112520942545824e+00,7.619908717576358015e-01,-5.801864893288463110e-01,-1.180364403815305607e+00,-6.318232711005961066e-01,-2.710408929027610991e+00,-1.977808256133402609e-01
-1.804892497041707122e-01,-6.833823163513325083e-01,2.461738365065425427e+00,2.129616517398245978e+00,1.957445542987649612e+00,5.321829510227640281e-01,-8.667461522054831224e-01,-3.643621052366314284e-01,-1.122454658918204062e+00,2.305370170335836022e+00
-5.708151177573788093e-01,-6.994929352081459273e-01,-3.126670551923859676e-01,-1.893275753500614833e+00,1.477404643857382349e-01,8.610480935537824232e-01,8.324398523124062477e-01,9.800790073172523931e-01,3.524335091199121361e+00,1.633982823551095365e+00
1.152768428279545621e+00,4.270684300142406187e+00,-2.111259609827456973e+00,6.801241180830701616e-01,1.934830494899416609e-01,-4.327142606149000592e+00,-1.004686842659360035e+00,2.202824580364420637e+00,1.862888612171308855e+00,-2.127899213972268555e+00
8.187190947133961005e-01,1.132988301018981181e+00,-2.122352558749613927e+00,4.843673769483705649e-01,-2.988421451452623057e+00,-1.025372142391678620e+00,-1.464725301954738768e-01,-2.499800620756799652e-01,-2.612805020383241139e+00,-2.208945875190472918e+00
