-1.902092029262754336e+00,1.334734525063208110e+00,-1.967504511303625470e-01,6.156898937970161079e-01,3.433683845870320273e+00,4.349389985586851748e-01,3.005858030735878650e+00,8.107866496999774908e-01,3.196805549423493265e+00,1.831448318490360994e-01
-3.426523829184404679e-01,-1.736799906065280119e+00,6.938667495346395597e-01,-1.129474378789019129e+00,1.938052798170717850e+00,5.921992973355333367e-01,2.222332739877382668e+00,8.441100908228982291e-02,1.297100702752648216e+00,2.885368727551327783e+00
-3.255836444678713804e+00,6.045510733705751205e-01,-3.397910356845298185e+00,-3.194471741703278078e-01,3.550304533364309734e+00,7.840166693032621925e-01,1.917201342148835419e+00,4.427762860115500132e+00,6.554424740576173747e+00,-2.295563707159163247e+00
-2.867830576340133497e+00,-7.288436660421874214e-01,-3.718676664264409237e-01,2.206465560692436045e-01,8.742681293018590705e-02,9.849909885995644654e-01,-9.650449338125072218e-01,3.964658598199828798e+00,7.596830019408919998e-01,3.463614386069690187e+00
-1.445918112135167188e+00,5.797221888347806384e+00,4.640094695375649003e+00,5.233904039578002987e+00,1.833901256878190278e+00,-4.979945001480720057e-01,3.168516197492619924e+00,-4.580235775242563534e+00,-3.875334329306223236e+00,3.250650825000961142e+00
1.385623599147895346e+00,1.941515959998222352e+00,-1.689580070908609066e+00,-7.266938756918926989e-01,5.730450991012385753e-01,-6.556993410236565678e-01,-7.781854231636167185e-01,3.091585846807542448e-01,2.611924787516284319e+00,-7.226554536767316073e+00
-6.503821924754732420e-01,-9.960640662045947558e-01,-2.437785883506576046e-01,1.784755632846479756e-02,5.251577907685773816e-01,2.557419978637803237e-01,1.204710307906777578e+00,-1.265423923241055237e-01,3.404057468624043792e-01,2.019816704891390646e+00
-2.857027578540248136e+00,-3.888696235552667191e-01,-4.606914740840400313e+00,-1.680738530976114836e-02,-3.915486566761448677e-03,4.654585675810223866e-01,-1.128487938031066173e+00,4.742500163101169619e+00,4.086699029334865507e+00,-2.359142283955230290e+00
8.930308837784837195e-01,-2.422304394608565392e+00,2.897900105976765617e-01,-3.055113503749999904e+00,4.300291772998834361e-01,6.103415330028073571e-01,-1.067858880007054534e+00,2.396234807959659374e+00,1.549905071923556088e+00,8.721473132500486003e-02
-1.226623467399903245e+00,2.784163345404376155e+00,3.297864601267035956e-01,3.154346502818901943e+00,5.161567638298550920e-01,-4.536979907807002776e-01,1.842218192459715187e+00,-2.360794977483270163e+00,-1.154687783080479146e+00,5.169353573245273337e-01
