-2.624513740793580352e-01,-4.595675774166580463e-01,6.288709496974143054e-01,-7.336212787900295851e-01,-1.516914423635111309e+00,7.315772915715433866e-01,1.411197642367063354e+00,-2.513147679900126774e-01,1.629217310956141418e+00,3.075461742026570633e+00
5.349919367849880203e-01,-2.039508733666245188e+00,2.132481437884423681e+00,1.621815303310470524e+00,9.060637218718486929e-01,2.123021300160643221e-01,-6.574758039027021050e-01,-5.153784845383192481e-01,5.000265166567928743e-01,-1.674183830378420224e+00
-9.050387227431931914e-01,-7.837956106643492182e-01,1.810791084259430583e+00,-1.483117539097159598e+00,-1.095048219319801008e+00,1.652069899754476656e-01,-1.760797543189635439e+00,-1.906704283695259017e+00,6.394541841793990322e-01,3.955574991298748122e-01
-9.876156318707800530e-01,3.982596297547144726e+00,-2.284940713777264154e+00,-4.338128043391057176e+00,-6.475929255390046047e-01,-6.429607633443579218e-01,2.454249509048155309e-01,-2.116187507953420699e+00,-1.584870473753560383e+00,3.261491279251325537e+00
-5.016297755368953615e-01,1.101360326201494377e+00,-9.651379594835302056e-01,-1.751449790170303222e+00,-1.690240139580156731e+00,3.276107976460174709e-01,1.561442922531620203e+00,3.509857005663025165e-02,8.128836720873884314e-01,3.493825134040096092e+00
-2.978213650546494673e+00,2.853776347984415818e-01,1.524991430917074453e+00,2.211107468750949323e+00,1.523730590484554615e+00,4.528762735897455372e+00,-3.446923446339490660e+00,-1.386962762578697106e+00,7.683510088696492435e-01,-1.907652099498010900e-01
4.802508041223635393e-01,-1.760879464948912565e+00,8.884145027534678940e-01,1.954083416378698423e+00,8.809014905321779221e-01,-6.075612340193977667e-01,-1.797285388279788343e+00,8.895658355933745431e-01,-4.411102960787355309e-01,-4.083189047696895280e+00
7.530787840991456372e-01,-2.834120862220877779e+00,2.074060304970032576e+00,-1.188343860040371069e+00,-2.725823758645979922e+00,-1.480570083636822742e+00,5.605206415053279878e-01,-5.990577202688064651e-02,1.863750369461355971e+00,7.092425815152874069e-01
-2.585139377887497592e-01,2.675951114265874509e+00,-2.273553188309744844e+00,-5.337960687642310909e+00,-2.688582943826054894e+00,-2.547515831580027257e+00,6.061138429703977204e-01,-1.016585053640416625e+00,-1.075259716909985563e+00,2.741058398993906131e+00
2.674443248400696138e+00,-3.841899942540069723e+00,2.302374369123800779e+00,9.456473918508168097e-01,-1.151561696354876263e+00,-1.983226720598266324e+00,2.928327405489292712e+00,9.302057176333325961e-01,1.873359692143390598e+00,1.208604046111215469e-01
