1.940259982394749283e+00,-4.268269315424637611e+00,-1.928446839761442266e+00,-2.891406361618616971e-01,3.571761109083737118e+00,1.448589105795688337e+00,3.349716894071734785e+00,2.151947306712846508e+00,-1.187100955260184332e+00,-8.466568366153810477e-01
-1.271681771326406141e+00,4.669618505958731625e+00,6.122974851148632602e-01,-5.054906808127110907e-01,-3.200135558915278455e+00,-2.060017052722699749e+00,-1.235346033519762132e+00,-2.498303749999623680e+00,1.327662441257468462e+00,-8.669718078141371853e-01
2.994554244822810407e+00,-6.482949570174090237e-01,1.218875923530737593e+00,-6.381367052601303325e-01,-1.496206323473252553e+00,-2.193961989350161623e+00,4.695818411081210120e-01,9.032186595856489530e-01,-1.992298852861511982e+00,-4.387973237523248859e-01
-3.477418546911706265e+00,-1.747279337944074085e+00,-2.925854397041536714e+00,2.889271768082025460e+00,5.592219024503956026e-01,3.299573959681054713e-01,-1.297843710204893641e+00,1.790222047932659988e-01,1.979634392886011840e+00,-1.440532915493090149e-01
3.863008095626534022e+00,1.491465425019701474e+00,2.643541510823756990e+00,-2.248001674732162058e+00,-1.327442957529872958e+00,-2.514755482711572010e-01,-1.127653872341404462e+00,-4.700991909734708041e-01,-2.434128517617177856e+00,-9.763158728198524650e-02
-1.371949715245640133e+00,5.061866638367879645e+00,2.495919858727903229e+00,-1.301210633779820158e+00,-9.761291131371562235e-01,3.377644960491387849e+00,-5.395302246063848450e+00,-3.357431989262738448e+00,8.165212747521186643e-01,1.519628483894170490e+00
6.444450505594029321e-01,1.727228741050166105e+00,2.142774401875272350e+00,1.153566282485565031e+00,-3.748569710149796563e+00,2.005634553275165849e-02,-8.222242258769423273e+00,-1.532399628681372361e+00,-1.228384474476005517e+00,1.116926468984309695e+00
1.054525467569253916e+00,1.347308075400930782e+00,2.793919345515663899e+00,-6.139104724971179428e-01,-1.422680082064335272e+00,3.855154948194035591e-01,-2.820993991955733193e+00,-4.471373559589415514e-01,-1.093417657287485634e+00,1.514766656635985864e+00
-5.196127797374339163e-02,-1.676939343638773172e+00,-1.109480955031507676e+00,1.171610028724172636e+00,2.002364336327563388e-01,2.318818935649856472e-01,-1.338899960608790796e+00,4.772508622308910264e-01,-2.275475631206536620e-01,-2.268668494915444256e-01
-2.639618307625797300e+00,8.009633994973552884e-01,-1.249127997277368785e+00,8.466640888031211620e-01,9.873879462096650794e-01,2.470420173744453773e+00,-2.266309330889232587e+00,-1.303726772417840740e+00,1.655888520573342904e+00,2.845906774834218167e-01
