-2.150697321813970220e+00,-1.512347071728118220e+00,-1.424599824385847091e+00,1.440827221827315485e+00,4.044813633342567161e-01,-2.681438575723431139e+00,-7.912985888541337332e-01,3.217208390994243494e+00,-8.750026497080346521e-01,-2.108135124011317529e+00
-9.674275545060293524e-01,-1.218622687836493856e+00,1.598850512095340681e+00,8.451497230419562356e-01,-3.578921382703660892e-01,3.526550111809279575e-01,-1.626294371767877389e-01,-4.289241202108812212e-01,1.014445707975688116e+00,-3.203888383200150791e-01
2.911240668724388136e+00,6.783570340429856405e-01,3.251172765263040110e-01,-6.567803736982390506e-01,-3.829448400075933789e-01,1.383364451792149508e+00,8.570393372547299160e-01,-1.979509327481250747e+00,1.810308563914633462e+00,2.020689028320276748e+00
2.416520730402336170e+00,-2.781794757685356334e+00,-7.594066387500734983e-02,-1.293574719613382218e+00,-6.474897432726676172e-01,-2.015775847101065055e-01,4.859128768911485374e-01,2.250444613411183514e+00,4.472026441242050177e-01,-2.817625666787147987e-01
-2.594230601225254507e+00,-3.846399975913104008e+00,-8.364651879104312293e-01,1.435382814970776577e+00,-4.162290779072674862e-02,-3.038836498983914503e+00,-1.097923919528644987e+00,4.789182678707706309e+00,-7.380565819155883167e-01,-3.036387805917081018e+00
2.074601963451664144e+00,-9.365582650110374496e-01,9.877113346029530172e-01,-1.186061551981166584e+00,7.412986238871725753e-02,1.337512409432766447e-01,1.392135159945697254e+00,1.244841774699004366e+00,-5.501639954471589933e-01,-8.456090504473557923e-01
9.193268279038817603e-01,2.123081680650791281e+00,-3.608256285952106790e+00,2.238027977940394653e+00,2.364686437517547757e-01,-1.526545981264176399e+00,-7.147293524833565614e-01,-1.409095920679956482e+00,2.763700718628385733e+00,2.542125306771407356e+00
2.293235803399201522e+00,4.873618302110078737e+00,-4.430029039465412488e+00,-2.063388670153340210e-01,1.066448032061661610e+00,-8.975412461658553998e-01,2.804771540409871089e-01,-1.418370705581303737e+00,-3.672290048436523957e-01,2.403144317405321306e+00
4.127429828711550286e+00,-4.225871561356376205e+00,-1.188444122009896464e+00,9.469215427931590989e-01,3.139818466565972438e-02,-3.458309172702429102e+00,1.817852848744468730e+00,5.257614707743719862e+00,2.004390147705049419e+00,-1.754593189135960962e+00
1.456940599246415946e+00,3.871025904448072708e-01,1.066068606572402766e+00,-1.451162826454769128e+00,-7.550576227004656138e-01,2.450147681286837908e+00,5.245502664091383077e-02,-2.456922263364439640e+00,9.039190571924065054e-01,1.956551493821801824e+00
