1.590683948744517684e+00,2.106552229323162884e+00,2.013599978378398436e+00,3.521226693680158948e-01,2.833394863853563095e+00,3.439345742225032310e-01,-2.500047022310751377e+00,1.496449162852369286e+00,5.338052920971330551e+00,-2.122880347576034055e+00
-2.978935888848235791e+00,5.188266817686689514e+00,-2.171719894620654512e-01,-4.966868452978671078e-01,-2.017244741469545133e+00,2.021781913265137565e+00,8.290678579563854900e-01,7.636784905555286107e-01,-4.759184384256247013e-01,4.408135505114885166e-01
5.544481103857130770e-03,1.663747462881494943e-01,2.547374863095424047e-01,1.810321055212530672e-01,-1.571088219469208569e-01,2.733890563757527259e-01,-2.861335970684042093e-02,8.588555917687417107e-01,-1.076765653846341042e-01,-6.075073683496343691e-01
-6.135585965688630239e-01,2.958852096521372488e+00,3.833670076790754999e-01,4.670303045893292038e-01,5.088136449644222736e+00,-1.062154629043832399e+00,-1.377489419224010581e-01,-6.967660635417168846e-01,3.673451472398182815e+00,-1.309734760077199134e+00
-1.225808791099876061e+00,-2.357569063557308997e+00,-2.342403836547825025e-01,-4.364650683130998909e-01,-6.273562679232284056e-01,1.985206435697635108e+00,-2.272094533473645317e-01,-2.718644349455807685e+00,1.020987033906004093e+00,1.440866406168564762e+00
2.187430554402757021e+00,-6.504136508524615223e+00,-4.736486318771882670e-02,1.361984694395525386e+00,4.500902496467371172e+00,-2.557894671324199898e+00,4.105757827976493357e-01,-6.217045973292792960e-01,-1.868671373839396466e-01,-1.888079649903084301e+00
1.717738870737699264e+00,-4.154277384667123485e+00,-1.205280454637544379e-01,4.554304461780958602e-02,1.017852886662045320e+00,-1.034648070486986260e+00,-5.928248603579253651e-01,-1.749155086561155592e+00,4.729259370685540698e-01,5.995233715116569106e-01
2.529359854225424087e+00,-2.084239404767742609e+00,1.000696100546001999e+00,1.502996254678324040e-01,1.358365121211924764e+00,-6.714310352421425376e-01,-1.854746800653465533e+00,6.230071396718087420e-03,2.543340928268357892e+00,-5.922819068500404516e-01
4.674633626645719464e-01,-1.006215153807348939e+00,-5.018589318143120703e-01,-1.394791738894947120e-01,-2.512612914963189947e+00,-3.776162928282338349e-01,5.979349521641486032e-01,8.392662224524835013e-01,-2.971664712460025726e+00,5.613257693992954600e-01
2.699096943201460874e+00,-2.143639773645636293e+00,-1.758577472727734514e-01,-6.547625557590039946e-01,-3.721186366144130897e+00,-1.064045227198975319e+00,-8.688782550616609424e-01,5.010772246764767512e-01,-2.269179949693945542e+00,1.584502801085537982e+00
