-1.041324038257029488e-01,1.443980117039564082e+00,2.085333006368643272e+00,1.370856048442054886e+00,-1.551657933716200199e+00,-1.292728147818226869e+00,3.155755955951961012e-02,2.070456338988797995e+00,4.251957575498320985e+00,1.655674589757215598e+00
-1.973760681571787856e+00,-1.015259401239867909e+00,7.660878483755610979e-01,2.785729122654796996e-01,-4.994138732862167251e-01,5.120915663276582874e-01,-7.284839618790780458e-01,3.701336968317807674e-01,8.840483836873606893e-02,-8.179679103942463225e-01
5.649997966926262327e-01,3.109927776982531977e+00,4.412192378182877128e+00,-3.067721927480484001e-01,2.525335311056012166e+00,3.234869884710567245e+00,5.134374502264011930e+00,2.110568368091388258e+00,2.102092054867015669e+00,-3.179888447093776604e-01
-1.481790884246298567e+00,1.583627873009313181e+00,1.085917624925522906e+00,1.031526754044430394e+00,-1.404469484995012563e+00,-7.908486839855646267e-01,-1.382242499583517248e-01,1.718985754476461514e+00,1.248334935671708612e+00,2.003801754115794864e+00
5.320458504941517619e-01,7.326564329859729385e-01,-8.788180260465267013e-02,5.799753925011167377e-01,-6.436519938088763881e-01,-8.738443235559426592e-01,-2.666819324254928181e-01,4.563276612887214312e-01,1.160243795082807061e+00,1.244695842184626366e+00
-2.477160305190309053e+00,-9.212200531353234023e-01,7.454681137411327541e-01,-6.114645242266768532e-01,8.316426965845786778e-01,2.066580158208971785e+00,4.833720556387188783e-01,-1.045980559845130220e-01,-2.363235334250631148e+00,-1.712265466650712442e+00
8.015940917644955865e-01,-6.221603383288145661e-01,3.272639488949663500e-01,-2.757412855238670080e-01,7.905889249772181104e-01,7.117456999006968044e-01,4.816557423476156563e-01,-4.083249491093376982e-01,5.452602179910492897e-01,-1.107545739154387032e+00
-2.898202474364484638e-01,-3.281462011772238174e-01,1.042909389626706762e+00,5.537771315608209788e-01,-2.559565467131620586e+00,-3.131625332730632039e+00,-1.721104356463771357e+00,1.093124066366244707e+00,3.591995960388371767e+00,2.391555281961409984e-01
-1.999509133435288799e+00,8.454990376069901892e-01,1.735020220971417448e-01,1.948383934068421697e+00,-2.673084052067078886e+00,-1.779644938414394195e+00,-2.041223083216325396e+00,1.693699976632309312e+00,1.884107913527167888e+00,2.849179092111035594e+00
6.145039197087990290e-01,1.188734125082896886e+00,2.094621055545782262e+00,-1.417337311034508440e+00,-1.728468101492394382e+00,-3.761743010417016198e+00,6.563220386955528340e-01,1.212161455165442492e+00,2.449056733150521303e+00,-7.732748517771393937e-01
