1.974563117443959015e-01,1.495436576238404314e+00,-2.629932842386254244e+00,-1.466885348236253162e-01,-1.967224480290370892e+00,1.913022661987853201e+00,4.739720574674543552e-01,1.786701784516257496e-01,1.838428732468217808e+00,-3.358465152637509554e+00
3.130149946691750173e+00,-3.208959197900678628e+00,1.030000149189617131e+00,1.047545482058628519e+00,2.807176265922265657e+00,-6.576108041201748078e-01,-7.472839499739666880e-02,-1.652015881497447547e-01,7.553119539646147018e-01,2.448067697434691825e-01
-4.045557182316580347e-01,4.640599384028043062e+00,-4.073937979429069323e+00,7.056443247118361628e-02,-2.126789778616162696e+00,3.147304329343084905e+00,2.042409634849136957e+00,-1.667299979565575629e+00,1.743759547296285795e-01,-4.774982277115578988e+00
-5.688601321775878183e+00,9.991990646587016744e-01,3.494324712174574188e+00,-1.830378059064352136e+00,3.337710920427311434e-01,-8.400181211892194355e+00,1.948713506871411427e+00,3.531872912402646669e+00,-2.735637020134458197e+00,3.250795024957823465e+00
-6.196626266334200883e-01,-1.900207548320110851e-01,-4.323225040470997094e-01,-4.220576969579485915e-01,8.188557905902565937e-01,-1.454452972653006715e-01,-2.460646717580179388e+00,1.247581515229414739e+00,-4.876102049462791577e-01,3.006483316967408559e+00
-1.620610017998085128e+00,4.306785585940081873e+00,-3.238413133698995416e+00,-3.992588193090191306e-01,-8.944840042245100209e-01,2.274191892331471454e+00,-4.214507675266391251e-01,-7.456311638936004016e-01,-1.440393443924409489e+00,-3.121714351868381532e-01
2.063340715505279366e-01,-1.604047559250005861e+00,1.839409261481654401e+00,1.366712227026412874e-01,1.761764982744478569e+00,-4.170480677777340439e+00,2.160699196802973177e+00,1.181397662686582750e+00,2.373465659713613896e-02,-5.554340983279625332e-01
-1.872413806095446942e+00,2.934546687227172601e+00,-1.641327858372177317e+00,-5.174366120397135838e-01,-1.270066653770641762e-01,4.860459341763133656e-01,-6.470692108384683561e-01,-6.782573973665142510e-03,-1.718787632802773802e+00,1.214025198388787308e+00
1.847445653466908810e+00,2.737168612030990711e-01,-6.491606771322285807e-01,8.009251659789762279e-01,-1.532265600600784428e+00,2.178052674986704851e+00,2.617766618409978374e+00,-2.079431518235696164e+00,1.557977468789425446e+00,-4.895154155200585500e+00
3.415779321978998917e-01,-5.746811591288160104e-01,-2.215030450500971249e+00,-3.669236765891402130e-01,2.498559745118738462e+00,-2.706069422898797150e+00,-1.355295406485653498e+00,3.503163877047702268e+00,1.060530962199421001e+00,8.494842177446194631e-01
