-7.907954619896816473e-01,5.898358125300260379e-01,1.003519817821606264e+00,9.551880329696837979e-01,-8.793392011322013202e-01,6.092474600326936995e-01,2.742636171235280917e-01,-2.244272270081638931e-01,9.263987766272813174e-01,-1.637508586927192589e+00
2.608904268489335987e+00,-3.341016616494512537e+00,-1.979878280582600958e-01,-5.562547362484865587e+00,1.818024863278088432e+00,-2.251968270357669777e+00,1.166199840176300961e+00,1.632887058265338531e+00,-4.638625742973919941e+00,3.977902104532010430e+00
-5.635251344461524869e-01,1.302607759672010257e+00,-6.498745051080365709e-01,2.765744485853449230e+00,-2.886555903000501688e-01,1.034059874775827170e+00,7.273572110875428653e-02,-6.086536027868618692e-01,1.400003158422360672e+00,-6.874763705087101329e-01
-2.302076919632282115e-01,-4.757548426391075558e-01,5.691458314275439356e-01,-3.409273701037455861e+00,-1.203899222292142079e+00,-2.563235372366062581e+00,-1.508785523258090011e+00,-6.397684249707860094e-01,3.795975478028092431e-01,-1.958019619308115411e+00
-1.621767836118775508e+00,7.826213024476610935e-02,9.806880168680344179e-01,2.773462461357876663e+00,6.341742839972899226e-01,-2.349549150990235535e-01,-6.151248461692851999e-01,-2.336348975809006134e-01,1.338385335338535098e+00,-7.520588350727244187e-01
4.452770161553147865e-01,-1.923461572507941364e+00,-2.344187104393369303e+00,5.398513013169169206e+00,4.873297048041190571e+00,-1.891018785559270832e+00,1.368740711554042422e+00,3.526710984798826498e-01,-1.846850235283937769e+00,5.425630309196575851e+00
-1.694307939300365939e+00,1.232295886382179795e+00,1.163691680777248605e+00,1.425594359484817053e+00,-1.252863231435957347e+00,5.475767478885730233e-01,-1.123159157161684574e+00,-6.820245208761830380e-01,2.355362445428910156e+00,-2.777571700629688500e+00
1.191820122175242469e+00,3.392178809847137710e+00,-1.787450229167818705e+00,-3.443460565638710502e+00,-4.244463666983478767e+00,2.823594068031630488e+00,-1.082299097138565092e+00,-1.094863169635198696e+00,1.891912180220310491e+00,-3.132122142535614273e+00
-2.642731417157582752e-01,-6.364662261280996658e-01,-8.804978468005128511e-02,6.815197029746751234e-01,1.300869883003553662e+00,-5.184706828183645033e-01,-5.733479249436409519e-01,2.593950840561092819e-01,-2.066200399735697857e-01,1.208901841319281800e+00
-4.321751503872476086e+00,-3.638724808912448427e+00,8.844527280867119146e+00,5.958452403300296130e-01,2.230505516688557899e-01,-3.011442299576323922e+00,1.089604271759819110e+00,1.233208816405227948e+00,-1.686782784115229208e-02,-4.279980747217775772e+00
