2.588207931073463808e+00,1.865089806355162416e+00,1.098156216525376427e+00,-1.282583159661481842e+00,-7.112783519825334189e-01,-4.591559746593372182e-01,3.182714359456012554e-01,6.436465132211061091e-01,6.413077789122951788e-01,-1.077624389656117510e+00
2.223821084041605722e+00,-3.553467728083190558e-01,4.597907005510864842e+00,-3.070936070713897514e+00,1.089951541823926506e+00,-2.242773145497177545e+00,3.895146656312169942e+00,3.178969649743797365e+00,2.835460902794295190e+00,-3.181353588512997099e+00
-3.388004656571513173e+00,-3.898144571442190731e+00,-4.259101849669640671e+00,3.899478762967663492e+00,-3.606313701883297806e+00,3.009729557785099541e+00,-2.367306932058249824e+00,-3.235836724950094556e+00,-1.019000289941447424e+00,6.381009257121174727e+00
1.044315406463098839e+00,-4.424710308451405560e-01,2.687759465943341475e+00,-1.030172660584026900e+00,-1.936622582002387682e+00,-5.638821821620193520e-02,1.096289919626140863e+00,2.251161178265578822e-01,1.486671529384138823e+00,3.820430436588339029e-01
-2.972362861392904509e+00,-3.568454758989444420e-01,-2.340714850093923438e+00,1.984455573930573147e+00,-1.804855196992155575e+00,2.126880808422615399e+00,-3.234077258359228324e+00,-4.793926993747459342e+00,-3.518759377400072719e+00,2.815986326042735133e+00
-9.423866132373933668e-01,-3.827801377647086379e-03,-8.499069524766545980e-01,2.060516238515577747e+00,-2.493238831052088766e+00,1.819251779731396512e+00,-2.222413735667732482e+00,-1.001897607876674590e+00,3.132209173728240925e-01,3.245728828366637675e+00
2.193770877960214527e+00,-7.370139915430297117e-01,2.744078598675044667e+00,-1.820416801243355254e+00,1.845567576441544899e+00,-2.132728315566776889e+00,3.727221587732863828e+00,4.981781474067817683e+00,3.922731346656069817e+00,-2.455383442593170873e+00
1.618615753337549812e+00,-1.287994004723977293e+00,1.121702843424057794e-02,6.632580513288862667e-01,-1.633733491907826130e+00,1.928478726295920764e-01,1.141386035108290731e+00,2.893426582623882748e+00,3.477636255002066079e+00,1.885101288795020258e+00
1.985908465273492074e-02,5.165127481452678637e+00,1.106119965257509108e+00,7.811768137813899227e-01,-9.722442090299771023e-01,1.328492714261857888e+00,-4.275596084193022506e+00,-1.723882862957170747e+00,-1.481518362057001159e+00,2.032660746528611867e-02
-1.732036417928744854e+00,-1.635206726537793864e+00,-1.016269754981035778e+00,6.194782170335019211e-01,-9.767438737082367872e-01,8.100408018001903354e-01,-5.365107353512362787e-01,-2.556596644147976605e+00,-1.677691888538747289e+00,1.471583281616010375e+00
