1.009348491870335263e+00,-2.401099275407942102e+00,-1.756085232622676573e+00,9.032690597322882153e-01,-4.296800227873696976e+00,-4.974368018768531741e+00,2.413520665210146632e+00,6.705341143196925924e-02,-1.882106182688104923e+00,-2.321499626207343514e+00
-1.060418953307652457e-01,1.554368250452264455e+00,-3.969685274095257288e+00,-3.476159513016283675e-01,3.963704199833746888e-01,4.114442038375183963e-01,-5.310588784349519198e-01,4.113866730096208957e-01,-9.662942129922392764e-01,-6.186357818863704588e-02
5.318581200339206339e-01,-3.143191817574868263e-02,2.956708182392211004e+00,-2.147553606101128221e+00,-1.685627160864957563e+00,2.156083335405735824e+00,-1.454125963352673745e+00,2.160298313930790748e+00,-1.004044446589871908e+00,1.947125268962159206e+00
1.272001428106317666e+00,-9.259613055031417073e-01,-2.530675640342475941e+00,6.473528547343377904e-01,5.835657073943640860e-01,-1.418580061221167421e-01,-1.929913746150785370e+00,1.254567123937008644e+00,1.628103677025297680e+00,3.888116639653644291e-01
4.877907703211147861e-01,-1.276578293447687473e+00,7.066700641474129574e-01,6.975271978739695511e-01,-8.671824932950986664e-01,-2.237382050436079461e-01,4.101658136289471762e-02,-1.726162016229393081e-01,4.199295986062951402e-01,5.920612676537811980e-01
4.501409810731755723e-01,-4.264805900450281406e-01,-1.341089629797889149e+00,8.066070012884719587e-01,1.700991940112831946e+00,-6.839915375493231808e-01,-8.897605824264407381e-01,1.967536266587557869e-01,1.889885762169661643e+00,-7.138537354135974233e-01
4.333445233398183771e-01,-4.734788498515706268e-01,-4.362441451479435739e-01,4.431769402609098130e-01,1.942885030421096296e-02,8.066026826267408412e-01,-7.938448509419075982e-01,1.423981850337202038e-01,5.919099105649402448e-01,1.066468361859648439e+00
-1.401971384827881639e+00,-9.200313652471138193e-01,1.866340927884742040e+00,1.758046366415903838e+00,-2.160865269230164643e+00,-3.412503620056642095e+00,4.920083816406171096e+00,-3.700578243387411703e+00,-1.890413009435226943e+00,-2.169053813391284447e+00
-5.022810157143391824e-02,1.689097864143739747e+00,1.108725352960588051e+00,-2.011807052325016887e+00,2.010445891347248715e+00,3.250960478343944082e+00,-2.631676025394015017e+00,1.914432970332706985e+00,6.792271610320781416e-01,1.459411481250460163e+00
-6.764767685868966485e-02,3.872521036112629850e-02,-4.908086985635732868e-01,-1.768345142136285297e-01,-1.145810697105161813e+00,-8.046640292336717515e-01,7.798826889991459232e-01,-5.165609778939437430e-02,-1.116720659183056297e+00,-4.565764411790241839e-01
