-2.140626150457636712e+00,3.587981542347167263e-01,4.757800249323187458e+00,-1.560730703898951521e+00,-1.459291845432456158e+00,9.924545258291070926e-01,-1.654171085747506709e+00,-1.163795299017936546e+00,2.271264190108306824e+00,3.249583235811499549e+00
-1.348995741222126732e+00,1.312068421556353004e-01,4.406848150354963245e+00,-4.033872433314903416e-01,3.570674252302199342e-02,2.615836518537212996e+00,1.187604810904214103e+00,-2.291575357039308258e+00,2.864458813428338857e+00,5.598328936084042695e+00
1.829773293885613272e+00,-2.149299964073281832e-01,-2.580756750374111341e+00,3.122650087034772870e-01,3.060315167922766921e-01,-1.823573235317045738e+00,-2.059329329104877260e-01,1.103431211069007878e+00,-1.540388607501830043e+00,-2.964639215229758928e+00
1.053760958599366138e+00,-4.850678219214238363e-01,3.919453122003062617e-01,-7.676550601830423037e-01,-7.632290816105959941e-01,-2.233781256783664571e+00,5.344429601135319841e-03,-1.230398429836769392e+00,1.652353207629623455e+00,3.418241901402243599e-01
2.571320183547930238e+00,1.137131683592532916e+00,1.873659150199604717e+00,3.492625116724272227e-01,1.817121614786990413e+00,2.401588547963645404e+00,-2.282131558391690351e+00,3.835564722661527259e+00,-4.407196146217415844e+00,-1.394091402763670606e+00
8.486022973263130931e-01,6.771083520648896181e-01,-1.545010937074103863e+00,2.905152114218633841e+00,3.141136598212305397e+00,2.493232468043541150e+00,1.160339085268846882e+00,2.587881632354847028e+00,-3.105373451145028607e+00,-9.454503493361817723e-01
-1.655826075013238752e+00,1.346882252650791978e+00,-1.350854020862990446e+00,4.982359963485578219e-03,7.510783734174228954e-01,6.168544348736796579e+00,-1.745113815168216398e+00,4.226782664525624789e+00,-6.481844888542013017e+00,-2.874290289366765005e+00
-1.390795524530181515e+00,5.570717296395314433e-01,-1.340528437716066890e+00,2.361698392738997843e+00,1.876497772580113743e+00,2.019922460852579427e+00,7.689066819225240934e-01,1.634189254841900585e+00,-1.639069814231387978e+00,-6.226506452528740576e-01
1.160497739422423180e+00,5.478880294523882227e-02,1.469947165334048567e+00,7.547835172664236758e-01,9.173283019987383824e-01,-8.641928163006286079e-01,1.351937944943187864e-01,-6.106177327433601892e-02,8.936721053230458622e-01,1.103356392693247701e+00
-1.830519113446509583e-01,-4.106582428542984720e-01,8.450366560505454538e-01,-1.106954005533007379e+00,-1.111446016181460106e+00,-7.579647877720784299e-01,3.083743635770923586e-01,-1.725597877550236747e+00,1.878576642491432303e+00,1.377118812303607776e+00
