3.014840486411512366e+00,-5.822165381459334377e-01,2.335991266206509209e+00,-3.391196800290300128e+00,-4.088778589884313197e-01,-2.358129209842695584e+00,2.554021891605773753e+00,2.030506330434281637e+00,-1.692561629491033948e+00,-3.311474906976151100e+00
-5.074721021205882421e-01,-1.054172801589736475e+00,-2.576789548338589420e-01,1.166479259632364540e+00,-5.895177118244697700e-01,1.468139482289964715e+00,-1.130820065463102653e+00,-3.544610601163283858e-01,2.188237487312512108e+00,6.082816609138760100e+00
9.465691520997735475e-01,-5.500202274270762359e-01,1.314693528310252990e+00,-1.027234798780027880e+00,-7.114794299692200896e-01,-1.662335117819660368e+00,1.153336988104900929e+00,1.121145723655143644e+00,-1.723782239214604717e+00,-5.734179419268929934e-01
1.057523640997682784e-01,-2.835114705468038121e+00,5.466774424507300223e-01,-2.932170530061567248e+00,1.702624600792114418e+00,-1.550276236503865535e-01,1.664008596843008225e-01,2.667503194402840894e+00,-2.866201301739511376e+00,-9.068601609960224019e-01
2.725442903940110906e+00,5.263968274949009096e-01,9.463615040670019241e-01,-1.497976094940613179e-01,-1.732087302665391570e+00,1.213093703195704531e+00,5.382806615561817054e-01,-9.760441166858040418e-01,5.578683274115094903e+00,5.260793140551861313e+00
-3.051777749040290866e-01,1.521857602146184096e-01,-1.025587032279392519e+00,3.437389685057278266e-01,2.854248771586994415e+00,2.598650084653089665e-01,1.039338920977310454e-01,-7.406853394711826466e-01,3.889642381551447481e-01,-4.382440659072992517e+00
1.923125866215608548e+00,-4.654201115775062347e-01,9.589076984978530671e-01,-2.776939778525392644e+00,3.744513688656596062e-01,-3.316147690259030889e-01,1.132026862278012302e+00,1.274841294998303676e+00,-1.393893314118284099e-01,-2.122174887020932932e+00
4.871278076251134986e-02,2.789182573079674210e+00,-6.217916367220519547e-01,8.100244243863318205e-01,-3.470452627159059111e-01,-3.252420028428558152e-01,3.339604957688276365e-01,-1.561986834901893495e+00,4.813876398167935000e-01,-4.347220199518144312e+00
-1.001293950823761048e+00,1.468715500104516458e+00,-7.841808740429139224e-01,2.168495399601330309e+00,-7.990846689221621224e-01,3.661027217225292230e-01,-6.801703428393802708e-01,-1.568803365786012982e+00,1.015359853258842815e+00,8.168360843813124994e-01
-4.179700404462507457e+00,2.117775055502165160e-01,-1.084131676259776578e+00,3.709141502079356556e+00,-7.437797085393622609e-01,-1.393502720162822506e+00,-1.450288927053484889e+00,-5.150429676425898329e-01,-4.723702077684650114e+00,3.491167359068669263e-01
