2.903164789123780842e+00,7.642512194566394301e-01,2.232207817362723112e+00,2.598513901773615853e+00,-2.754113819370633376e+00,1.235976785883886375e+00,1.542372116464463261e+00,-2.470960301518736912e+00,-5.623619423632936210e-01,2.855839834678188804e+00
-3.261847359211321518e+00,-7.926528028235112489e-01,1.893793040182694121e+00,3.225915106460582216e+00,1.880783664053582216e+00,3.481037377437647518e+00,-2.453717074118684671e+00,-1.040864742610951410e+00,1.323381417302019747e+00,3.886206012079448158e+00
-5.850105309433787149e+00,1.285659133601645854e+00,2.415469033083042838e+00,8.854091618995102442e-01,1.212441219784740065e+00,3.316872573597506868e-01,-1.924543442336247301e+00,-3.768296694533612712e+00,7.300338922708096145e-01,1.777692785701042055e+00
2.411098300132491712e+00,3.813362665550667163e+00,2.182968851188316961e+00,-2.782910701558708677e+00,-3.477869691384244621e+00,3.199757924977358337e-01,3.012149647869404867e-01,-1.728580956720282336e+00,-2.068154503072731298e+00,-1.577963148372874658e+00
-6.223330764407762894e-01,-6.051669255231010291e-01,2.390329213759267157e-01,1.248653785565522867e+00,9.324772187068186557e-01,1.617762443219460611e+00,-1.229665489025520753e+00,8.219706855636563780e-01,7.564185608932383342e-01,1.301348874169892200e+00
-5.123584130790961311e-01,1.249319158635596949e+00,1.776002111636108272e-01,-1.030963009393855545e+00,-5.806966948295603226e-01,-1.329202958947534929e+00,-9.316488565782417297e-02,-4.247660879843216386e-01,1.986115105194779205e-03,-1.092705479811731939e+00
-2.371195801075613119e+00,1.385739394107614153e+00,2.660193640931487469e+00,1.261453063736316160e+00,8.632769764272389956e-01,4.488821821639695564e+00,-3.942818174636861794e+00,5.974393962818984327e-02,8.686202713075619197e-01,2.528264432321801980e+00
-1.728640809351345009e+00,3.840098700502076134e+00,3.030371001244573481e+00,-5.268948841621887702e-01,-1.709823362431656557e+00,5.100738518760629114e-01,-2.015791765169097083e+00,-2.191693593144357077e+00,1.601163988890185463e-01,3.734506687875579489e-01
-1.302939189686685706e-01,-1.138340292816131250e+00,-8.622939363985701045e-01,1.642070512230408674e+00,1.273990899145856504e-01,-2.183448013462874204e+00,1.409304764472639970e+00,-4.620802277884729636e-01,8.951275866715517893e-01,5.743713509199896983e-01
3.804858213282666934e+00,1.563878126164020221e+00,-1.625647487156024057e-02,-1.115201389962149570e+00,-3.263382243653194958e+00,-2.603158620843272431e+00,2.706907507059402196e+00,-9.187442739229392252e-01,-1.163888647487627770e+00,-1.574251576903028749e+00
