-3.180100255323479619e+00,-8.889170987826627846e-01,1.744597310868804430e+00,2.653227235751655311e+00,4.450737738201770100e+00,-3.836608717523719014e-01,-4.622898259657758580e+00,-1.040057694269328259e+00,1.334778140561363902e+00,1.333123339484732384e+00
1.748529084799246069e+00,2.937727773750563820e+00,-1.913700335735648572e+00,-2.947828924616290536e+00,-7.919359589625244444e-01,9.940489964463763428e-01,-1.855100548555899342e+00,1.559535825827929878e-01,8.415436283866637446e-01,1.061008922624233630e+00
1.863574354577948455e-01,2.698550283041123876e+00,9.821537811109901650e-01,1.087236115799739555e-01,2.479618180556406037e-01,-1.017064411325720563e+00,-1.590672415571356968e+00,2.942110216843533133e-01,3.198852290944942389e-01,2.113476791581778258e+00
-5.831861824473153710e+00,-3.210355271608281935e+00,-3.412680899592430706e+00,2.567778528224244017e+00,1.072640964775347205e+00,-1.560047410801109757e+00,-7.540913496910809144e+00,-1.058743497247721210e+00,2.158469746392884581e+00,-1.339265821414167057e+00
-3.666958997518873442e+00,-1.113134342710908387e+00,4.100132207180410937e+00,3.031101258510399798e+00,3.252995226535630557e+00,-3.438238895835844300e+00,-2.493141790999721663e-01,9.316169203292994361e-01,-7.623485048676045261e-01,5.409684444517128377e+00
2.316150723671229539e+00,5.146546977154565994e+00,1.024884977141237608e+00,-4.787179312617220184e+00,1.216742174969536183e-01,-1.128804985916120218e+00,1.007670494150773033e+00,2.307491707995633856e+00,-6.454699103142111927e-01,8.514100873348363407e+00
5.865804936742121001e+00,3.644176973248884899e+00,-2.076206699738156303e+00,-6.701653463644420050e+00,-4.657054614993787034e+00,1.364185712885421786e+00,6.006805837935407233e+00,2.050887614440570772e+00,-1.626693399272693519e+00,2.139379905987040420e+00
-4.827501373491245751e+00,-1.426154585723416357e+00,3.248880494103152383e+00,3.824967726048527972e+00,2.765958482578948718e+00,-4.138029378925001112e+00,-1.858774958921778575e+00,7.707205564427899169e-01,-3.482888177843386224e-01,4.787480271211838279e+00
1.773938218807578626e-01,1.573423975750343873e+00,1.623873449879478015e+00,2.787516093557663499e+00,2.975453206166054146e-02,-3.954417960431730883e-01,-1.434594986256324978e+00,-8.855331182288569414e-01,4.579714476223118447e-01,-2.239079096225530918e+00
-2.769843373720997981e+00,-4.826604359431404534e-01,6.533866066729141497e-01,3.560975992573133464e+00,1.873031226396197901e+00,-8.333033439644331741e-01,-4.583014049031626236e+00,-1.257617529758316310e+00,1.341327822075305320e+00,-1.523376596684286932e+00
