-4.637079298460403898e+00,2.719218884594465369e-01,2.341519220452889793e-01,-1.780441585564854323e+00,-5.079902542741615790e+00,-1.590080706187193105e+00,2.153152658905003403e+00,3.591445813318686398e+00,-2.091869817875166848e-01,4.577756191583963741e+00
-2.825224374990618070e-01,-7.168882643861325121e-01,4.432786247721648420e-02,3.879684072956933738e-01,-8.612756526766615073e-01,-8.229893061176299929e-01,-1.035302211482489465e+00,1.210730364314236196e+00,2.982691460300041508e-01,-3.244677458413407489e-01
3.349323071947148289e+00,-1.893685332713474778e-01,-2.330134047010793186e+00,1.773102558249094018e+00,-3.746578861738178556e+00,-3.001879102293495638e+00,-7.127409569707428005e+00,6.010157573277331855e-02,3.186297021613718972e+00,-2.834143232771348497e+00
-5.646352805618904291e+00,-6.972324302885203329e-01,3.271067329295025417e+00,-1.925263626797303784e+00,7.176333951519481280e-01,7.263084439441677143e-01,7.465456338416134763e+00,-9.132925624542732601e-01,-3.515649062895358501e+00,3.222120587810319847e+00
-4.408943739112560212e-01,1.147802069721754137e+00,-1.331996687119272771e+00,-5.836423345460806100e-01,-3.419324281960714362e+00,-9.704318066319674863e-01,-1.130036737071719699e+00,1.178895851192930611e+00,1.090799926524864905e+00,1.963880561757614496e+00
6.707215362274059345e-01,3.270046943406548223e+00,2.643526286900242939e-01,-4.570530236039210159e+00,7.106659531854369050e-01,9.189173441341093040e-01,5.986708559880021596e+00,-6.663650579492149006e+00,1.920270815162080646e+00,-1.218140297944476425e+00
-2.671061214221407187e+00,1.697077336143479664e+00,1.119444460882726755e+00,-4.090208566512859356e+00,-5.811642564381104270e-01,5.473316803147290077e-01,6.521920346190126949e+00,-1.602354425551519634e+00,4.214139099007631617e-01,1.584399978706716894e+00
-1.147156789598407833e+00,1.585165930283217062e+00,4.759028909351126768e-01,-2.789908603643361573e+00,2.091568410589797811e+00,2.422365175110500868e+00,5.168768262737764907e+00,5.275073450509941697e-01,-1.739538488262155624e-01,1.760385738336315287e+00
9.291826716541325970e-01,2.451440039540414784e+00,-7.730465907540600146e-01,-4.317758308123628375e+00,-2.757386357336743199e+00,-1.460094636465626428e+00,2.446745792554085419e+00,-3.065559327877651175e+00,4.327145970521810270e+00,-2.094730635373956318e+00
-2.085198247172698860e+00,-1.940030524622659291e-01,2.028042988066331744e-03,-1.590704165763269229e-01,-3.907080166544540489e+00,-2.037570497476422382e+00,-4.865721539133349705e-01,5.244916510740850191e-01,3.307465920688808236e-02,1.663847477455187018e+00
