6.663255961159596508e-01,1.429898609900770001e+00,3.872830044906456215e-01,-1.223261319094096633e+00,-4.723268837088110961e-01,8.530849317174408197e-01,-1.164440895916727392e+00,9.813102303594473108e-01,-1.844831807336667850e+00,2.469981089030754529e+00
-1.897258501899093952e-01,-4.938123060226815714e-02,5.034266546665803865e+00,-1.385557746666396861e+00,-1.014931787265223706e+00,-1.687041747066931122e-02,2.370456410994359886e-01,2.807676165428366399e+00,-2.466649733567801484e+00,2.480475713409741712e+00
5.319378968212577163e+00,4.522226089980117436e+00,1.512687696804611459e+00,-3.739193182782729052e-01,-3.650689235496342167e-01,9.226773609446459190e-01,-8.991394463659112546e-01,2.848099793668445123e+00,-3.623965984594250234e+00,-5.670993275305550307e-01
1.384094437100482189e+00,1.908984940383163353e+00,2.176923052400495884e+00,5.008225680843696459e+00,1.490161441795373187e-01,1.656540708445949139e+00,1.057714397895963776e+00,2.439495638779801912e+00,-4.188702391419433013e+00,-2.957295025229742080e+00
-2.423275056953995588e+00,-9.095136894065080080e-01,-7.253466792922652617e-01,-2.590134555674699968e+00,5.753139107091859161e-01,3.820707898050110934e-02,-1.441803526149660231e+00,-5.060899425705159826e-01,2.059810157402908626e+00,7.208509527074666856e-01
5.169179377524207863e-02,4.009644760030299793e-01,-3.611418640748782050e+00,1.540562601610011573e+00,1.815071466409299505e+00,1.336069458922821696e-01,-3.628199092550509763e-01,-1.557016982692676965e+00,2.848596058009916554e+00,-5.478076488035370950e+00
-3.109899503277925081e+00,-2.077516986559737600e+00,-5.480913651021511512e+00,4.465122602718740730e+00,1.760752797494749666e+00,3.760108612434940878e-01,7.386649599576059488e-01,-3.677006562557669334e+00,3.332463579297738399e+00,-4.671592499838243207e+00
-2.429989585974916100e+00,-1.161207862981758154e+00,-1.758713909560508659e+00,2.349978812160066433e+00,1.155908376816358940e+00,5.060986169967652826e-01,1.940916663759973959e-01,-1.109559517553857733e+00,1.471944729763371207e+00,-2.982440073452219842e+00
-2.962094713579986660e+00,-2.527828765389366072e+00,-6.033686066365766543e+00,-3.122711914239202358e+00,1.383740759657273500e+00,-1.300378273248655958e+00,-1.331559615595068635e+00,-4.546292218145353559e+00,6.841200382630884036e+00,-8.289220139692000666e-01
1.913875607014532632e+00,1.272744498866772878e+00,-2.632691106414447813e+00,2.308464808967622517e+00,-1.477665196481163790e-01,5.500919664132619680e-01,3.037849086721162162e-01,-1.067208322588977021e+00,-1.118079806991747027e+00,-2.012427726611493717e-01
