-1.676663601729047715e+00,-1.064483905482562554e+00,5.075989728140181123e-01,-2.879261435599739016e+00,1.273909587542413346e+00,-9.914116301326595382e-01,2.439951596261593358e-01,-2.313367567385407261e-02,9.411811414024098266e-01,1.278097762916765356e+00
-3.039193492581789002e-02,-1.787975393279371605e+00,2.267848234957307252e+00,-1.744491830474512062e+00,-1.364586566811558876e+00,2.049490169612912804e-01,4.132182703727464101e+00,-1.751831639710539790e+00,-3.630051003397280596e+00,1.527535063623757516e-01
-3.763915621791956712e-01,-7.575893176336292445e-01,7.166473676321285513e-01,-2.273680828899546924e+00,-6.877725442255998578e-01,-2.652542476129737814e-01,1.203269125125397743e+00,-1.114121437390389602e+00,-1.206082581024374933e+00,1.817685554434833595e-01
1.164644224495992031e-02,8.033599490538177734e-02,2.178774912306902511e-01,6.876646487725649459e-01,-5.638017446146157408e-01,6.189010308798149618e-01,2.719862928693398407e-01,-2.437669535161867962e-01,-7.415800479614139684e-01,-3.662914877808641223e-01
3.660631256306630110e-01,2.835024414200174814e+00,-3.165776926072393582e+00,1.715865381228945941e+00,2.573491242307453408e+00,-1.189991075313995283e+00,-4.613059695109339664e+00,3.389496982404159198e+00,3.180954744311709437e+00,-4.562720810025056584e-01
-1.225407828664427212e+00,-3.676505446845793834e+00,2.546525608761861292e+00,1.376102004203952234e+00,1.925485561900689424e+00,1.740150355486799194e-01,2.147993491552049328e+00,-6.168273342067119858e-01,4.212898481048862998e+00,3.159196143409523039e+00
-2.258788021326826545e+00,-2.688753121683762348e+00,2.056694069828274962e+00,-9.119799508519531306e-02,1.606211884113324162e+00,3.150930361616761655e-01,1.472831593695589802e+00,-3.851173455918163735e-01,2.387167253425568347e+00,2.319102259147942213e+00
-1.699167352657761310e+00,-2.677827442344956399e+00,1.948649651774595482e+00,-1.375599222483535167e+00,2.219004873135022038e+00,-9.014187036378374929e-01,2.261626995338427815e+00,1.047482522436047614e-01,1.688035058896394158e+00,2.466874219937293944e+00
-1.950589715328101104e+00,-1.232960640229803451e+00,1.288675556995563465e+00,-5.947022335428712170e-01,-9.782085721493442021e-01,1.492461284767534258e+00,3.838460071627581849e-01,-1.621474535308117026e+00,3.377781041462746270e-02,4.359218592717774010e-01
-1.282439657381913900e+00,6.634567497919930945e-01,-1.541931068557767626e+00,-1.591920301078985966e+00,3.572130645633833534e+00,-2.166271190968571680e+00,-2.538924275306075007e+00,2.647077924901434454e+00,3.344120960779374041e+00,1.266882792836614424e+00
