5.930013146632977517e+00,1.601056870631884177e+00,-9.187445411861356881e-01,-1.387668842739878450e+00,2.423684697369597352e+00,-1.246853668791910508e+00,1.848981039073859911e+00,-8.511426206025104468e-01,-7.202569793219503858e+00,1.307153722105296456e+00
1.100990498549227148e+00,4.700506768884268993e+00,-3.349097268441006303e+00,-1.736234274008450429e+00,-2.599516978827641545e+00,8.483520293014942260e-01,3.473992784838454417e-01,-2.568966634603217170e+00,-5.307886658817268177e+00,2.204670196296787399e+00
-2.682207589579277851e+00,1.590722242024088073e+00,-2.751695348606775671e+00,1.025366098055519926e+00,-4.035931697115019770e-03,-4.308235826731502405e-01,-4.711213472221792986e-01,-7.774262038858736901e-01,3.053788195166453612e+00,-2.386474308201645300e+00
6.470969907158486967e-01,1.558248885965387354e+00,-6.959848613551614660e-01,-2.103932204718657051e+00,6.522222728696473737e-02,-1.663316767798182827e+00,6.788544142201263787e-01,-3.354467035599382640e+00,3.141403150029168367e-01,-7.955939257595636693e-01
-4.149376743192245698e+00,-3.209139610089767114e+00,5.525039050150561959e-01,-4.635030425752916017e+00,-1.728944558913182217e+00,1.338267926234027572e+00,-5.775642727278098576e-01,-1.395489673548610199e+00,3.643317673726318873e+00,1.895509477974159251e+00
4.594147458909300319e+00,5.722523441432965541e+00,9.603738872121786452e-01,5.461069925243547729e+00,-1.670165137480803974e+00,-8.300003441131514892e-01,9.894454543256581136e-02,2.415584928647410146e-01,-4.853871847971440445e+00,-7.515655151848827931e-01
-1.603340706347396116e+00,-2.676389436649158959e+00,2.114425691767777948e+00,-2.721023983021449433e-01,7.736753484880314335e-01,-8.006845129608394229e-01,-2.636179224167083390e-01,-4.074138061075329408e-03,4.542313460113788892e+00,-1.388744481905934025e+00
-4.714576976920390905e+00,-3.462157896374618016e+00,-4.118659780577464069e+00,-1.842536000766241688e+00,3.241893485572071576e+00,4.149872926903943049e-01,-2.315487847441975722e-01,1.225395166883622711e+00,4.754671780696784644e+00,-1.845055699645739899e+00
4.248283860462793271e+00,3.217551848471780218e+00,1.227974844527913723e+00,1.733564949424469592e+00,1.256532982556262334e+00,-3.404798342167444591e+00,1.097197450712328992e+00,-2.605649129713665246e+00,-1.005020373448775706e+00,-2.701062579462608859e+00
1.116726472049647034e+00,-3.297163398461195327e-01,8.225648387213592150e-01,5.042357055886881323e-01,1.024840193846050074e+00,-8.428562234310550405e-01,3.045995076407463920e-01,7.356118994448673787e-02,1.366883560416625176e-01,-7.304428871352716124e-01
