-3.138306212925837113e-01,2.301263621248563318e+00,7.244397393789846484e-01,-2.322558076169339181e+00,1.540416681093903228e-01,-2.038212056570839481e-01,1.887194468349982390e+00,3.148324149146423667e-01,1.919155492120672601e+00,-1.138425201949491983e-01
2.082919482848995529e-01,-1.378945270190238714e+00,-4.929703877766330677e+00,3.095756061416869986e+00,1.883152804167060657e+00,2.207641308428319515e+00,-2.690195674247612967e-01,-3.302028275585496275e-01,3.801931665709950003e+00,3.579970818381952746e+00
-1.246587705759993003e+00,3.136451338626776941e+00,1.416143587540251714e+00,5.351532334147937053e-01,5.029116523924115345e-01,-4.452426126482773028e-01,1.228918926986998894e+00,6.256347423212855752e-01,1.211999857208386544e+00,-3.280900952358149603e+00
-3.691456919109148416e+00,4.092823866067428540e+00,5.411299940137858755e+00,-8.947123883758695939e+00,4.436187747465522579e-01,-3.770212969676153936e+00,6.504423632162981583e+00,3.060879069727586721e+00,1.375448655696356770e+00,-2.320065586198230445e+00
1.202683419164852496e-01,-3.849590868797781784e+00,-1.130881652572527596e+00,2.837147582128760170e+00,2.192206648911574352e+00,-1.089437360125863563e+00,-1.753469645864876414e+00,1.784182451542863257e+00,-1.565598312226177624e+00,-5.281966867317285930e-01
5.530061953637961381e-01,1.859573828213343605e+00,3.025985042947737735e+00,-2.628799190057628632e+00,-1.015912218102685838e+00,-1.195642098111687535e+00,4.787278153962674643e-01,1.629155657859589768e-01,-1.322613621942872575e+00,-2.081734997352476579e+00
1.184580983873352089e+00,8.632870800467778993e-01,5.547075144287404447e-01,-1.269483790100760512e+00,8.780361356362028635e-01,-6.371981360417242612e-01,2.987835223484538449e-01,8.284586311138796288e-01,8.738775874819209033e-01,-5.859844781829546267e-01
4.596894227023572199e+00,-2.915609849016308264e+00,-1.720217900408916201e+00,-1.934084559589143437e-01,3.208828829343123967e+00,-9.720238932365610207e-01,-2.164392009229075153e+00,2.058496865986837232e+00,7.888815790673154860e-01,1.373673468719066371e+00
9.972807983643903196e-01,-8.900075613485076698e-01,1.371147835574061946e-01,-4.195255921553091127e+00,1.345214841854529109e+00,-1.300228345755066073e+00,1.510292781651951355e+00,1.603970887504451603e+00,1.203991270880725217e+00,2.108286982327610914e+00
-2.292928869135696157e+00,-1.317366007069586287e+00,6.330612017729063679e-01,2.004168379445740555e+00,1.378232055202119222e+00,-1.425343276641858115e+00,1.716972557990261439e-01,1.730072641325190341e+00,-1.287778387391040003e+00,-2.469195112992124130e+00
