1.531440771822349278e+00,7.223103456371585684e-01,-6.947705787315218151e-01,-1.608549176114965729e+00,2.358795505714559315e+00,2.519637356486016389e-01,-9.283038053023708880e-01,1.271422956990852615e+00,-5.397048269949391575e-01,1.083037374900912120e+00
-4.395054412922212883e+00,-5.283948112453729085e-02,-1.314092997174462762e-01,-1.938607707537642888e+00,-2.025125874197469589e+00,-1.861456545816539743e+00,-2.067703263023719096e+00,1.866363490503495370e+00,2.553453879248071434e+00,-2.418339311462593955e+00
5.328807498296161960e+00,-3.998881070953230754e-02,-1.442068968597473910e+00,3.892093091971008167e+00,2.133796598814073242e+00,4.471695106069427661e-01,7.070847776276830698e-01,-1.520661851197811387e+00,-3.170206802478365837e+00,3.151694838191421155e+00
6.069387766614167568e+00,-1.777373146636323620e+00,-1.013676670561539428e+00,2.025427452031940856e+00,1.709888207090053847e+00,1.641621848404192896e+00,2.270786768723470406e+00,-2.270027143099893507e+00,-3.047054689100484826e+00,3.395326850019081633e+00
3.012318492450041241e+00,1.959465885815343811e-01,-3.088883997721632024e-01,1.783545578730009185e+00,1.428363103349779228e+00,6.189678297547129837e-01,7.330412397011354386e-01,-9.210595776391665712e-01,-1.798955040861236698e+00,1.814382072798529588e+00
1.413400783041625752e+00,-4.745338439052884993e+00,-2.223385271423238940e+00,-2.689616795905370950e+00,-1.596686521715388274e+00,6.681462638886896954e-01,1.075564248924933963e+00,-6.593432652320561083e-01,5.458507803104495348e-01,1.472445053637731760e-01
1.789741941702560180e+00,1.686047263186515988e+00,-3.223399038659415239e-01,-4.830992267763153936e-01,2.874987529510655726e+00,9.372371910077083035e-01,-3.912799164083108905e-01,7.088927335505692540e-01,-1.038247042191376091e+00,1.001879109900279952e+00
1.317641912722910646e+00,8.858892971925356186e-01,1.919943229467107271e+00,9.485380698227232621e-01,7.006896786657007548e-01,9.547809558473153713e-01,1.576767056836543945e+00,-1.147173532118361150e+00,-1.087099783377526219e+00,1.116943253694590910e+00
-1.140536596218679311e+00,3.114023646819110702e+00,4.298794824827989025e+00,1.099297605289186075e+00,4.899966007016928748e-01,1.785434071394172983e+00,2.346790858877578323e+00,-1.431919072081529576e+00,-4.099247076045027804e-01,-4.024665331972562821e-01
-1.703649616507080911e+00,-5.836889302624990172e+00,-3.074300196483057412e+00,-6.528096738856500325e-01,-4.933857350523185303e+00,1.672869137016774199e-01,1.263727279621466026e+00,-1.717782115331052184e+00,1.949831634573091499e+00,-2.609664926220598868e+00
