-9.828005884102993805e-01,2.038196153598941684e+00,1.323685598709218869e+00,1.471610320028719165e+00,-1.375134981099190856e+00,2.157524124692553169e+00,-1.817388658751699415e+00,1.311583700826887355e+00,-2.432593685170453490e+00,-1.045037287633995504e+00
-5.601955270575266432e+00,-2.646271749899158809e+00,-1.234952296887568579e+00,4.039200123572029080e-03,-4.365363695783491593e+00,4.457872370668646056e+00,4.698895233677612637e+00,3.345335620571427526e+00,-8.235393731995874766e-01,-3.041414375781171575e+00
-1.334858223453489146e+00,-1.299490337925912842e+00,-3.940610054980295263e-01,-1.282053555509992115e-01,1.547588097215672809e+00,-8.375859854367911916e-01,2.356012616398475590e+00,-7.018401461895152904e-01,3.128311404260832873e-01,-1.513573927702867652e-02
5.971859701687929345e-01,8.156839941564286711e-01,6.460512226262503654e-01,-4.303603771685938773e-01,9.047002765149434467e-01,-5.075570918372050988e-01,-9.023490187205127633e-01,-1.467939985635056566e+00,5.228245715300428031e-01,-4.331412288624716389e-01
7.873234391279223532e-01,-2.596137913318017909e-01,-5.066557834667859694e-01,-5.437401523511361523e-01,-6.726347252559965462e-01,-4.495556019266808701e-01,-2.571179820089105061e-01,-4.426770715829909109e-01,1.124739152661829555e+00,-2.219624690907801845e-01
8.696579767824097473e-02,1.419118142135190164e+00,1.785064368637401255e+00,-1.281051597948984710e+00,8.099371839108405746e-01,1.776099589274205748e+00,-1.409475446832532564e+00,-4.928294959148631915e-01,-2.265765255361702479e-01,-2.890720091775519918e-01
1.625160178399688293e-01,1.989350385354215212e-01,2.413967949797542201e-01,-6.845952673927336862e-01,-2.674161818979013727e+00,3.216700788244672538e+00,-1.048081217750677974e+00,3.023046145519161954e+00,-8.139064466035915713e-01,6.209180788445082255e-01
7.859002470419041986e-01,-2.244754811242761772e+00,-1.742489321281010417e+00,-1.388761359287389530e+00,-1.919184900719498321e+00,5.285199736951333715e-01,1.306548148892876071e+00,1.931471405071824021e+00,1.502622101262834242e+00,1.362724753484017226e+00
-8.466579163366793059e-01,2.107155712587461149e+00,1.354362832554765417e+00,1.019125487616773240e+00,-1.148025571848594550e+00,1.696833644617803394e+00,-1.848985481417827481e+00,1.870389513053262176e-01,-1.599638815251957169e+00,-1.724586638884370471e+00
-2.052435376737290262e+00,1.582879232705176387e+00,1.749993255500442046e+00,-1.405084962606595544e+00,-4.398935193093285179e+00,6.442998165677572331e+00,-1.576931316492774515e+00,2.670617641072730031e+00,-1.156017826428097139e+00,-2.642511830097224568e+00
