-1.492944453264750893e+00,3.022728809700884867e+00,3.928693005904690061e+00,7.783398277645734060e-03,2.597658498046297115e+00,-1.981161276237150659e+00,-5.807524319469177243e-01,-1.879146004307236106e+00,-2.123964830273637194e-01,2.087174498227979402e+00
-6.469815763979157586e-01,3.962976608382644539e+00,7.217714442131377695e-01,1.041013659333422270e+00,-3.382088504706652898e+00,-2.497825714019541454e+00,4.640545321952058849e-02,-2.020329600024923344e+00,2.711003363433972524e-01,3.916770608521388031e+00
9.447525416713506985e-01,-6.259704988647481205e-03,-2.998790039319729317e+00,-7.874350054292331702e-01,-4.706428066222188455e+00,2.281795846813864159e+00,-9.278487464162489262e-01,1.129380750161230601e-01,7.956216185781408434e-01,-1.693466675847733249e+00
-6.541187168113456185e-02,1.111039977387318745e+00,1.589507064748586718e+00,-5.945027111128756703e-01,4.745103697870187709e+00,-9.864595466963179682e-01,-2.725499247427152771e-01,-1.465056279767825709e+00,6.833606379792652730e-01,4.907839412588734795e-01
-1.219203639093575431e+00,-1.048237348339087438e+00,-1.095130050546601286e+00,1.000108520755518926e+00,-2.810411688969887578e+00,-3.975164378907306700e-02,-1.241012911064846014e+00,1.462669613758051712e+00,-7.036816721522197726e-01,5.953020679780851587e-01
1.902934595063859868e+00,-1.627716634718260114e+00,6.037895466908109299e+00,-3.872742176281018800e-01,8.347327948944451848e+00,-9.303627162734671163e-01,6.423702309916254904e+00,1.812395241843782756e-01,-1.734243287449356519e+00,-1.555005715143024991e+00
-8.814558317660290410e-01,-3.130196496930917061e+00,-2.382252046272899992e+00,-3.600448467046606371e-01,4.267520122134950356e+00,9.017971371557411686e-01,-3.189907117028403682e+00,1.433167471159142226e+00,6.914916826401180661e-01,-1.537702689574077741e+00
-1.667066919460024721e+00,3.664391831102523645e-01,2.699201946166064126e+00,3.342262628234359684e-02,-2.759408506086492796e+00,8.566528882073197737e-01,-7.108877291501158879e-01,8.422360791818606085e-01,-1.573512998218291825e+00,-7.008039753209414080e-01
-8.952949211323021350e-01,4.528091347877650774e-01,2.641294656187231915e+00,-2.464133816853216197e-01,6.298941856502791481e+00,-1.470761664490799037e+00,-5.519163288044789395e-01,-8.965007357282769318e-01,1.080313509834633368e-01,7.145600048322013897e-01
1.121009947784667560e+00,-1.936558144357707789e+00,-4.947162067698624988e+00,-2.909077734991489250e-01,-1.834137357648366162e+00,1.612561956208840908e+00,-1.295142624148070798e+00,8.564199234708760322e-01,1.277092529982565727e+00,-1.343193431479589695e+00
