3.587499154465755069e+00,5.769241238102931213e+00,-4.210068079173565181e+00,3.388359091029296000e-01,-3.058156892549350747e+00,3.845005386852977658e+00,-3.465159233612505219e+00,1.383107627926098981e+00,1.214363742678020372e-02,-4.261497362973886815e+00
5.140165045579545566e-01,1.335107619289066960e+00,-3.812501104426023191e-01,-5.341693604776198701e-01,9.331484201822031199e-01,-4.765429027389962990e-01,1.425679940368784315e+00,-2.098213060009218589e-01,-3.779579969248376137e-01,-4.701145614026493447e-01
1.391185589939827327e-01,7.183528477471380347e-01,-7.065365169639672982e-02,-2.003738528281030273e+00,-1.169927546135408836e+00,1.527837198380661565e-01,-5.000620467506546873e+00,2.129751523250842826e+00,8.848266262892153788e-01,-2.280334143800630375e+00
-3.439696137091706074e+00,-2.948971937694013778e+00,2.054872363566596860e+00,1.730974831806075143e+00,2.006488644029968960e+00,8.631199337714744457e-01,3.217997614533130157e-01,-1.163208817718123456e+00,1.874867600221481051e-02,2.085912937369322595e+00
5.007316029953574610e-01,-1.491638686582428264e-01,-1.603990248576250277e+00,-1.422386880094522521e+00,-1.081398383231858329e+00,2.349273992494555596e+00,-3.633176771840820773e+00,1.122499108958314951e+00,2.972453175861587971e-01,-2.317542497246098954e+00
-5.283947353100418631e+00,-4.189582381085511287e+00,3.725596973217375041e+00,-6.075674671135963822e-02,3.626999217062959691e+00,-3.335914598416069299e-01,-1.421641215930900204e+00,-4.073690851109390554e-01,4.204523189339098854e-01,1.812459273016616468e+00
1.214213604984711203e+00,8.120391715703412228e-01,-6.925407833169862082e-01,-6.360703876919778788e-01,-2.501207773890834041e+00,3.664079082290103151e-01,-3.642044308870851399e+00,1.573400057365988092e+00,7.302128556798380687e-01,-1.437924624529117956e+00
-4.922270049304892092e-01,-2.745698934740958386e+00,6.118569544859334686e-01,-1.196184539177182593e+00,5.954525761297380093e-01,-1.017205929938204134e+00,1.003812574419354009e+00,-2.849193657046555916e-01,-8.303161933511701842e-02,8.969956043230976617e-01
2.452126559382617810e+00,7.745824335790812976e-01,-2.463185480085455570e+00,1.193397090645101688e+00,-3.883745181887788167e+00,2.496493937454206336e+00,-2.174791137294136423e+00,5.664146947296377910e-01,2.784075488376497320e-01,-1.037943505697964897e+00
2.591238987379972158e+00,5.702339180423424025e+00,-1.120171872010643277e+00,1.283290577615043393e+00,1.304689764519067374e+00,-1.902224822740846477e+00,6.294116761911559443e+00,-1.375849753510937745e+00,-1.216767249824915798e+00,1.276892683945757834e-01
