-2.163999204613631822e+00,-8.839464962736064413e-01,-1.746949020771378924e+00,-5.774731482359084511e-01,1.990319974955563898e-01,5.630658046604128941e-01,-4.608377207185274105e-01,-3.241177507501425414e-01,-3.974136622777135752e-01,6.528901350108140544e-02
6.471042151263119990e+00,-1.189164156445652321e-01,5.540346408963401359e+00,5.712796493242722207e-01,-1.861676325692170231e+00,-1.064170072699691438e+00,5.397674396397377450e+00,2.236678249857612322e+00,-7.150536883653276776e-01,3.098327112650697046e+00
1.632705611988568561e-01,2.669120097819144721e+00,-1.304786763955371853e+00,-4.591752121882661797e-01,3.564269909031547279e+00,-2.682616141127142750e+00,-1.767857283973237381e+00,3.862536024126772993e+00,2.844999571524900794e+00,3.123157704791579725e+00
-8.005572214225813443e-01,2.656420883162302182e+00,-1.871989092477357675e+00,2.037525091484609918e-01,3.239855849257638809e+00,-1.427862685568987156e-01,-2.709588686961840853e+00,3.191968863428205072e-01,1.638654244242820246e+00,-1.886216938488666006e+00
4.352321004801408266e-01,-4.988396421078465370e-01,1.497750297768005723e+00,-4.332386925082073459e-01,-1.505968210553552566e+00,6.047447413846431807e-01,7.412842732203762941e-02,-1.199080776986831687e+00,-2.889721350460979221e-01,-1.042608368953062747e+00
-5.738305987840917943e+00,-1.260118532985916140e+00,-4.737890346088605042e+00,8.822921402435903726e-01,-4.311317244988779329e-01,9.340167977874284100e-01,-4.307150190752545349e+00,-3.312441708967784670e+00,-5.370079211523476337e-01,-3.012374674852762002e+00
1.463639594103510744e+00,1.281165997289395841e+00,4.485395339331485487e-01,-1.257808896819943567e-01,1.679016630593695991e+00,-6.809663656264298634e-03,8.690045504578340907e-01,1.204522886749272104e+00,4.279600451293701924e-01,1.687945549741926010e-01
1.742472758089039120e+00,2.390866242385837115e+00,1.136033879106964850e+00,-9.381937372504357553e-01,2.128917039285571633e+00,-1.488584521693644191e+00,-6.652250667475863022e-01,2.523750247144681769e+00,2.217512126570652331e+00,1.466120173311825425e+00
5.174548630048218634e+00,2.093630486943315105e+00,2.681766751859910425e+00,1.033520015885536630e-01,2.210804524868271503e+00,-2.876816256368304625e+00,3.491689619223293573e+00,5.473063627575529999e+00,1.513344258225450822e+00,5.432699151461215514e+00
-1.605042833419012993e+00,3.390315785412827965e-01,-5.948775395541608946e-01,-1.693417221641246417e+00,5.820919922421504689e-01,-9.399642497412664666e-01,-1.952513664196198651e+00,1.108607497608831371e+00,1.567492750393812528e+00,1.428606220961519790e+00
