-6.926125618684125795e-01,-6.712317200914327264e-01,-1.244816404559754286e+00,3.265570068780849211e-01,-6.163590027671773941e-02,8.732537664160130442e-01,2.150425260552628171e+00,7.071921231648299333e+00,-1.721001929380237661e+00,-7.181915899213999754e-01
-6.899988889058586983e-01,-1.302137238746925219e+00,-3.159720768326824136e-01,1.966314424632413793e+00,-1.258874629143981405e+00,1.195727015029458551e+00,-8.544892303268693257e-02,5.911564753976770170e-01,1.677264609795247940e+00,8.314233995887556627e-01
-1.150279319006226819e+00,2.540826011090773218e+00,-9.696735522112075456e-01,3.373931309602557604e+00,-1.735058500964401285e+00,-9.816545722534723017e-01,-1.712679741499298247e+00,2.336500441167085995e+00,4.842151875401238037e+00,1.941536703679616060e+00
1.190590528587422092e+00,8.270100570815898111e-01,6.671470774496730816e-02,-3.248066580076310661e+00,2.170763566101152175e+00,-9.685235724209915187e-01,-1.150817935855899865e+00,-3.617358929357549879e+00,5.505368982749156981e-01,1.505981384190621664e-01
3.415278130426264713e-01,-1.299247367057104530e+00,-4.701167829417647603e-02,-1.007274334185715325e+00,5.500430188733981263e-01,8.002695450834115265e-01,-2.557743116124158167e-01,-2.109751605905969996e+00,6.256886786206413698e-01,3.935584028868521211e-01
-7.679166561770511823e-01,7.117595900393960395e-01,-1.932179699719968946e+00,2.137078395589206092e+00,-2.900155033711626085e-01,-1.363121044406337967e-01,-2.576124699914745797e+00,2.548001001191086523e+00,7.081303060960608242e+00,2.588980021806790432e+00
-1.580470429512029984e+00,1.513114355718934434e-01,-1.386054494136645499e+00,5.703752421853276466e-01,-2.849864390222589527e+00,3.130421111444994242e+00,3.143590854524602296e+00,5.002689879610007218e-01,6.860408561971742536e-01,2.558217441435065354e+00
-1.424651531623324641e-01,5.793768909551839208e+00,3.753268959202953892e-01,-3.078703966738659314e+00,-8.942656195267347785e-01,-1.304250018921546239e+00,3.784550109908840110e+00,-8.653240887290883920e-01,-5.490260883127150215e+00,-2.881244173565619127e-01
-3.085968594615110527e-01,1.737945233912354892e+00,1.853230142900743338e-01,1.493352914104839391e+00,-7.598436643913999422e-01,-1.138241176536833876e+00,-8.988434440258071811e-01,1.626039149949422280e-01,1.171064983577517316e+00,3.128147017221474258e-01
-2.535740868688154404e-01,4.863834899269167344e+00,5.244261905707389149e-01,-3.891504510664758332e-01,-1.267378058759515369e+00,-1.749483383529135683e+00,6.273458464180683425e-01,-2.401976255655011272e+00,-9.038665519344011301e-01,6.798974107097959241e-01
