1.011634698085682293e+00,6.819504676325165438e-01,-1.762925781824373761e+00,5.783875765685549952e-01,-2.091232383290558161e+00,-2.970728789076443332e-01,3.680162429287681558e+00,-1.863436265659092150e+00,-1.672163175721367079e+00,2.638538588783116978e+00
3.467143530308702815e+00,-2.799684607762075395e+00,5.514589747863490210e+00,-2.509177938072468361e+00,-2.400013850776751667e+00,1.327598359935231898e+00,6.227956579004540139e+00,-5.138815240547295993e+00,4.961427297377531964e+00,-1.721369185167956228e+00
2.390195203132531532e+00,9.962551728501165549e-01,2.308732127743712947e+00,-4.724229854352222091e-01,-9.031694396902593125e-01,-1.334245276153441351e+00,3.047660890153534030e-01,-4.123351572016374256e+00,-2.142923951447305964e+00,2.031604041348816114e+00
-7.892875120967711711e-01,-3.916710108151803538e-01,-7.054722565021065428e-01,7.404113812310050280e-01,-2.490637814619228951e+00,-1.342645285085443563e+00,4.996917449720931215e-01,-3.061938972255711544e+00,-6.296197062941876199e-01,-1.124755876692026257e+00
1.277909949190142669e+00,1.323747808701478679e+00,3.696075164113993505e+00,-4.316156143765156328e-01,6.259451010930519033e-01,-2.863051671089224204e+00,-5.491157326726423094e+00,-4.769320288949016273e+00,-3.338787383322198377e+00,2.152091886832299683e-01
-1.157170156238952474e+00,-1.473099322321588467e+00,-7.070636710393204405e-01,-2.690071066775625019e-01,1.912754032679156169e-01,-4.605529255595453009e-02,-8.421594400303807904e-01,-1.317144740893374077e+00,1.003014119497025458e+00,-1.840603379186801059e+00
-8.234976511400355914e-01,-3.968869108818473546e-01,-2.609166918438584837e+00,2.337000131355348453e-01,-9.210229190551733058e-02,-2.114999640723790986e+00,-2.470519677385154989e+00,-5.622991240127804602e+00,-3.400710710772509415e+00,7.998267975987126688e-01
8.247332464616488057e-01,1.089350625098072234e+00,2.896281698172464836e+00,-3.661488744591197553e-01,1.540886655950384432e+00,4.799458416235151126e-01,-1.792453130514105153e+00,3.165413010468760113e+00,6.194492943318521405e-01,-1.218482747672584160e-01
1.324698829257901833e+00,1.157269638485659002e-01,5.752047182163971151e+00,-1.287621563264028213e+00,1.524117700297795919e+00,-1.399180987478762517e-01,-3.274068082214242281e+00,3.386836593497770109e-01,1.638238569051978955e+00,-2.056416151853107444e+00
4.451146522900452651e-01,1.834221873335477149e+00,1.943224412683188129e+00,8.445780295568527940e-01,-1.281849574559759786e+00,-1.518258538723379569e+00,-1.552247760201855398e+00,-1.190877273020171795e-01,-1.757181320444621164e+00,1.515464398357078968e-01
