-1.073495425558460559e+00,1.514212843153666777e+00,-1.730777653133359850e+00,-2.015344963240293108e+00,5.650521049302173818e-03,-7.715257612595576298e-01,-2.292107537067452405e+00,-1.432297037714762133e+00,4.032257913342048639e+00,-2.376612564784456261e+00
4.411260844695286565e+00,-3.550506393628329316e-01,-1.198828767753477686e+00,6.724728076846193670e-01,-1.654131019895863641e-01,-4.178858167899948128e+00,-7.845255281696336125e-01,1.345675495423942047e+00,-1.967637436363178338e+00,4.733364723986047018e+00
1.861631294194551756e-01,1.192075219431083299e+00,-7.773243924942023764e-01,-1.672384673223866081e+00,-7.620739160998726280e-01,9.131914581611380033e-01,1.414952625284170207e+00,-6.072708337964187741e-01,4.615507440417540685e+00,-5.803912012165907131e-01
-1.236841247860639426e+00,-1.421055406861247539e+00,3.833946642730366450e-01,-2.137236169097938898e+00,-9.227665700975963281e-01,3.209645027246265769e+00,1.051427761291924057e+00,1.390108844315980141e+00,4.709699663223270605e+00,-2.778722014679202879e+00
-3.861793712863135775e-01,2.877453971009542033e-01,3.476865478568850198e-01,1.167247012874530032e+00,1.612225649857378096e-01,2.149540237657178721e-01,1.336043240053051084e+00,-7.877565731099546165e-01,-1.399656452648352145e+00,7.116758555958928589e-01
1.313778796434726504e+00,-2.170840883709844071e+00,4.407798342170622941e-01,2.503719075368386893e+00,4.031048393150377107e-02,-1.144487881078926517e+00,1.635681478973725955e+00,1.086814890389898203e+00,-4.003781599906991673e+00,3.202233997122261755e+00
-1.195934875404937175e-01,1.259221176942929787e+00,1.093235109417710210e-01,1.324947411978876666e+00,6.971597169262812033e-01,-1.183619494856628318e+00,-4.892247027322688679e-01,-1.331012458704358581e+00,-2.905867984772332768e+00,8.615294381876678065e-01
2.941414631040787375e-01,6.458477573615993172e+00,-5.035586114919333722e-01,-1.972640546566826192e+00,7.538741426645844124e-01,-1.023972662229904573e+00,-2.556894570364774744e+00,-3.367389166396105082e+00,1.477879201033382106e+00,-1.259475701922523783e+00
2.066944859658090383e+00,-1.634515172707176500e+00,2.530404963119662565e+00,1.889356634149094438e-01,-3.411394964704299593e-01,1.943635937103034950e+00,1.282342850987434835e+00,3.298667538827595891e+00,-2.682540288239608994e+00,1.435777709161229154e+00
-6.543944630991281874e-01,-1.836429729455697268e+00,-1.663567593999179195e+00,2.772634260038155052e+00,5.983120035765832068e-01,-3.354583920962132204e+00,-6.000420976682385721e-01,-1.147905824911472417e+00,-3.164036053548791472e+00,1.846001186674647743e+00
