1.729806089790082879e+00,5.545425491297251153e-01,3.001044234685778633e+00,2.681470238915678816e+00,4.216801845868213827e-01,6.734948809178383788e-01,-7.545718204649646266e-01,-6.055278979375215975e-01,-3.179234932687809767e+00,-1.095805305735052526e+00
2.633778715593607433e+00,-1.792712631384412836e+00,2.251900091000235360e+00,-3.617609604296936343e+00,5.227307160599326430e+00,-2.513240706380324152e+00,-1.918732086169022688e+00,-3.751972246436873215e-01,3.890258560243135544e-01,2.854296801625115787e+00
-2.149751110271083565e+00,2.143176642573294544e+00,-6.614537290376296674e-01,-3.502862349689470634e+00,-1.070732753214388655e+00,3.817021336501341011e+00,5.773626647151161251e+00,4.931862109965870822e+00,-2.780653891843127279e-01,-6.028737062927600476e-01
3.718403329501706045e-01,-8.576721068331740749e-01,-3.071354726183483486e+00,-1.276438501790960967e+00,-1.100737492503656850e-01,-8.140536119160091122e-01,1.193097806216636414e+00,4.043426829435934344e-01,2.532244249910615697e+00,2.276467067139470224e+00
-4.910896430725149031e-01,1.873566169143340732e+00,2.047547337634324505e-01,2.198335789271279150e+00,-3.019802700697987063e+00,2.020359516128073185e+00,-2.072970732879262812e+00,4.006460511547906278e-01,-3.871092720763638972e+00,-3.528085268684449716e+00
8.887346997294273132e-01,-5.295638766053835100e-01,1.193455087038546081e+00,-1.601887522353985516e-01,1.886137671129931359e+00,1.303676198843642664e-01,3.991148310460475024e+00,6.643179792069241474e-01,1.457014335673037619e+00,2.254607252150999219e+00
1.638664837597867852e+00,9.046356191599900232e-01,1.392787569751196664e+00,-1.887902931409417340e+00,9.730368837002347782e-01,8.361842687035572208e-01,-2.658627429104007511e+00,1.489301641902344819e+00,-3.906773359220283570e+00,-1.114138848175578289e+00
-2.334303884774175941e+00,3.131644757449112415e-01,-1.427941340221524635e+00,5.627130103639583769e-01,-1.771988636102092007e+00,8.326518831360111284e-01,3.166963163714052509e+00,3.995235655420340537e-01,2.362433172933942060e+00,-1.526366341985322117e-01
3.751842801959836216e+00,-1.553177716529020369e+00,-1.300326657484600190e+00,-3.559255806694610058e-01,2.305644127727604964e+00,-1.195765054186902487e+00,2.607647165656569843e+00,4.073739405860666851e-01,1.651725595757475240e+00,4.620723560442157485e+00
-2.078090900770221960e+00,-1.238027292426786552e+00,-9.014120814578246987e-01,2.186849777281158203e-01,-1.397226655923083406e-02,-1.835242886608916102e+00,-5.993008657842505832e-02,-2.034027184383083942e+00,3.758725844337965416e+00,5.721285236633600890e-01
