3.023316367827584727e+00,-4.777484285624881144e-01,-1.929460056681266744e+00,1.523701634477152345e+00,-1.076910200788642857e+00,7.495616362295350887e-01,2.971101853844243301e+00,2.288838650303426814e+00,4.065191553418300852e-01,-3.651247601512732643e+00
-1.532589644482790225e+00,-2.026014563143874181e+00,-6.154505113590491572e-01,2.393713659388114312e+00,-2.421576301028427469e+00,5.521174695025403700e-01,3.145340662277882338e+00,2.388093882171606008e+00,1.233124451441428127e+00,-1.509644822322593338e+00
-3.052666028059545233e+00,1.059035310702225230e+00,7.447822173759609532e-01,-4.213323401959478964e+00,1.129590721459650560e+00,-4.043792798956565626e+00,-3.857100128016901941e+00,-1.142363237147649313e+00,-8.395951417743191536e-02,4.755484607157153043e+00
1.315272199411659404e+00,2.974180991181543554e+00,-6.290554593303086806e-02,3.178358541959780403e+00,-5.838060215656587504e-01,4.955356908481057587e+00,-1.962013940601818662e+00,-4.884178493343170890e-01,4.603798461891315252e-01,-1.607482883234266247e+00
-2.501263360072665254e+00,6.406304842127230614e-01,-1.632408100172136223e+00,1.129811273473981803e+00,-3.650007327397531975e-01,-3.895737982135764055e-01,-1.020642274649277814e+00,2.377612068903166787e+00,6.984246076883291465e-01,1.132648377454611444e+00
3.699308385331259608e+00,1.051177503663838886e+00,-1.465989752765065601e+00,-8.110157357997070660e-02,8.348227044252259921e-01,4.077060991642245669e-01,4.006151519542118233e-01,5.484445296637288081e-01,-5.324541224088312763e-01,-2.213342020232365481e+00
2.065395195428073816e+00,-2.218756398003836949e+00,8.775508334195183391e-01,-2.005438819154365504e+00,-3.369411141792002518e+00,-1.985589377841825209e+00,4.061679393166389040e+00,2.284556909679728576e-01,1.405805841496426289e+00,-2.544086768293917888e+00
3.113676287872073067e-01,1.780847433072035024e-01,2.073580302582304080e-01,-3.126656686626422044e+00,-1.346494873455787999e+00,-2.880966088371063716e+00,-1.777272912175143771e-01,2.392675627281892758e-02,8.853337501813293153e-01,5.677975594137426585e-01
-1.152844753156589963e+00,2.281380972437924370e+00,2.695384818987803577e+00,-9.003308115503878550e-01,-1.900077921269920589e+00,1.741430952848934677e+00,-3.143462137110395460e+00,-2.831512445855441484e+00,1.228701958967247210e+00,1.492980763418058299e+00
1.745868250791245524e+00,-3.501474353361138991e+00,1.143469106612590602e+00,-1.708881357258704048e+00,-3.119412879013756079e+00,-2.195277734464285757e+00,5.259411017777614106e+00,1.793366878099228456e-01,1.075353290469673206e+00,-2.660353187833774946e+00
