-1.066433808999825428e-01,-1.497340767642117543e+00,3.968261706820512269e-01,-2.808707844789523067e-01,5.955415389349199007e-01,-9.959275015624161620e-01,-1.188904793975905427e+00,-7.935473355583227972e-01,-1.553223453879024163e+00,-2.494226097666852660e+00
-5.037515218530205230e-01,-3.622768914090443104e+00,-1.371760065724118460e+00,5.569668905687763960e+00,-5.224195674772558196e-01,1.332301805586644905e+00,-3.271923252556916406e+00,-1.153995996897714926e+00,-3.474094772062500613e+00,-2.350278564462056519e+00
4.570231490090446158e+00,6.813087345101490833e+00,-5.558744601636674609e+00,-2.395958855216781203e+00,2.223061350510323830e+00,5.703245654701498246e+00,-1.130610763030932109e+00,4.074270709454484773e+00,2.318080415892682211e+00,-1.115923185873791246e+00
5.343404282029248220e-01,-4.148744650793300681e-01,2.309454219725890045e+00,-1.229142917551382164e+00,1.628989359218430355e+00,-1.849202592571695503e+00,-6.336986466247926941e-01,-2.418108501376087460e+00,-2.621793202761368846e+00,-1.035221844982661787e+00
1.740527994590002070e+00,-6.649868501106329655e-01,1.326292609512513376e+00,-1.884868626515467938e+00,-1.874819918730605606e+00,-2.510691074162965997e+00,4.272889006934208034e+00,2.045880822933793919e+00,6.152275322961410220e-01,4.357043468779825401e-01
2.137935841844677276e-01,-1.750406161801432992e-01,-1.286610151272611358e+00,3.504625523680497068e+00,-2.056563870434734154e-01,2.137644341503805112e+00,-1.417007101829527382e+00,-3.300654830965601416e-01,-1.113613106320072932e+00,7.746116779283294118e-01
2.175269553198922595e-02,-3.099393005349889929e+00,9.593517991242470622e-01,5.954723076301716489e+00,-3.086682370946364884e+00,-1.815801607784124638e-01,1.940367441387173209e+00,-3.175237168933603416e-01,-1.924800065202111554e+00,3.280464017068419835e+00
2.024014805046846721e+00,-3.816958471674573250e+00,-2.834634751626006754e-01,4.927339945079240557e+00,-4.213401471131558829e+00,-7.009162690358925474e-01,3.551879877588827839e+00,2.453407244357482586e+00,-1.692572615854834428e+00,8.487796638645690450e-01
-1.602384183344596424e+00,-2.137094028470161167e+00,-3.907745532114845766e-01,3.298499909522190521e+00,-2.063164269241258175e+00,3.320096821357693129e-01,3.039327398602092445e-01,3.236105304032450003e-01,4.563289950746213242e-01,1.341668026795213020e+00
2.137443406150770109e+00,-2.704632135308857599e-01,-2.823962451011870822e+00,5.149639661277330971e-01,-1.027460685164604426e+00,1.325565325507581882e+00,3.820565344254450713e-01,3.154923845616864231e+00,2.520080033140841835e-01,-2.520192647859089252e+00
