-1.897966202134390157e+00,1.871600018553905898e+00,9.205994834621340495e-01,1.028764085711872722e+00,1.525098768910978952e+00,9.088830556824014639e-01,-3.141080546877673463e+00,4.706363385709209979e+00,4.225930566710364822e+00,2.727849845275705842e+00
-2.874427154680046392e+00,3.375135175826581513e+00,4.079200618783979770e+00,-7.739805226833023077e-01,-1.253316455035121235e+00,-1.308886546178612331e+00,-3.973603933931494581e+00,3.095140150290220937e+00,-1.063345687451596744e+00,2.846115894934837964e+00
-1.503668490543781822e+00,2.143646080231270012e+00,5.686272294669002525e-01,-1.736038147028592382e+00,4.036785053387877964e-01,8.491321984467602169e-02,1.584091474019918566e+00,-3.085305413888139725e-01,-1.625017603213253725e+00,-1.917845372407973592e+00
8.559263471510489829e-01,7.794600903289829186e-02,-7.130365723020636315e-01,-2.377118234057966906e-01,-4.677683910990428018e+00,-1.653252135403575407e+00,4.961825056318823202e-01,-1.666134510235468991e+00,-5.318652744978992430e+00,-2.784382747072350894e-01
-1.107520309792101587e+00,9.427413953587097106e-01,3.172948686370261395e+00,-1.523076049349235683e+00,2.024917392982280795e+00,-1.356110567459689331e-01,-3.006489832886464209e-01,-2.964121931357438858e-02,5.057355260676863473e-01,-2.569129456065711303e-01
1.353798523797530517e+00,-1.318150354151000014e+00,1.639086026526813678e+00,-3.315169754656192014e-01,1.364153781229260565e+00,3.796710451485229010e-01,4.649098905045312424e-01,2.821142325997676864e-02,1.916749244267466956e+00,-7.379505150563292482e-02
-5.721172781122465523e-01,-1.850923126149793818e+00,7.037851852039772593e-01,-4.776754094265257544e-01,4.387635638741562261e+00,2.747420444263838635e-02,3.666871507941510955e-01,-4.014617516884722015e+00,9.222678026014570207e-01,-1.167353517108548511e+00
-1.199855706363518459e+00,2.617193113545655869e+00,-4.952222204390064331e-01,-4.125038235450629309e-01,-2.589044342001917354e+00,-2.552790437684093749e-01,-4.566478249995797878e-02,1.977724790623230477e+00,-2.052384029507458241e+00,1.201419886177886899e-02
3.024023798710382405e-01,-1.075652257194448014e+00,-3.418301192724056414e-01,-1.195737370400566713e+00,3.256662865752557590e+00,7.996473576280817008e-01,2.973351115436438707e+00,-2.999615348736775378e+00,5.818303569875199477e-01,-2.955298877477725128e+00
3.548261760923316910e+00,-1.321027575809097021e+00,-5.663739603296842340e+00,8.504263480412557197e-01,-5.695671332093741768e+00,2.031653643468619430e-01,4.399287941948474945e+00,-1.061906755869416186e+00,-3.862147520249815447e+00,-2.526008186305259695e+00
