-1.512812606910723057e+00,1.169670281633380160e+00,-5.555104479188279765e-01,-9.356154509287977206e-01,-4.790281184367730094e-01,7.044482639366363985e-01,4.179071539207567798e-01,1.180127705079919709e+00,-1.822844097666800778e+00,6.526836806919629197e-01
-6.370745263407537884e-01,2.962101428356977539e+00,-2.560084897586279440e-01,1.767475625119777405e+00,-3.243671791661780768e-01,1.746416487118360505e+00,-2.334613693134527157e+00,1.063770159285042149e+00,3.443971833152072559e+00,3.646300663669591824e+00
1.380637245516458667e-01,1.660641566148166604e+00,2.454147524988809614e+00,1.128336708381880937e+00,5.400466399902930092e-01,1.012014993252638329e+00,-1.735774025219502636e+00,-5.659620387488724091e-01,3.138221249690014703e-01,1.532771332232236938e+00
1.251213285556703469e-01,3.325569138865012597e+00,-2.208613798901240433e+00,-8.055584600703146192e-01,-8.629614396732998571e-01,1.116786273138354657e+00,1.538325138513271795e-01,5.261725385861893978e-01,6.955132132555077451e-01,7.326965900274123866e-01
1.034865972847070159e+00,5.927516057805786609e+00,-2.066657724141877317e+00,5.577493354453936236e-01,-1.897914856861806721e+00,1.981189358228933273e+00,-2.167727153442349231e+00,5.087352850204855947e-01,4.449341728884705027e+00,2.286792414190295997e+00
2.608926076066208743e+00,-2.242618593373424396e+00,7.949226525510848518e-01,3.568775523924857529e-01,4.777535383581659190e-01,-1.619340003340443701e+00,3.049156703466069929e-01,-2.178003173559578176e+00,1.145376153297499977e+00,-2.638323327606367563e+00
-4.037450764157193839e-01,-2.816333754872354600e+00,2.558150559285173209e+00,1.081855715398671647e+00,-3.564929154373125408e-01,-1.067903818031958885e+00,-1.263199712010690368e+00,7.532758898201548370e-02,3.132707546861612791e-01,-4.819356141527216253e-01
-2.316070792496398301e-01,9.944743149570485219e-01,3.276827142974645835e+00,2.029047915656496226e+00,-1.289341744197855411e+00,5.104537290658809345e-01,-3.605997136184378338e+00,3.407224965332261712e-01,2.510908988824816834e+00,1.668459736192462017e+00
1.374046765822590999e+00,-5.139969907538480820e-01,-3.910678901957060027e+00,2.609413263169204841e-02,2.712569187103703872e-01,-5.372949487738132301e-01,1.352729216606538332e+00,-2.056216755924752393e-01,3.045858028877210799e+00,-3.730136055275495299e-01
3.023225946223199179e-01,2.255321618967694786e+00,3.594268254313220251e-02,7.545248979840972758e-01,1.167258150338864819e+00,1.345103772009190291e+00,-5.311463795166883051e-01,-4.328266437473933248e-01,8.217699562941113145e-01,1.988587436982320211e+00
