1.747258794397212878e+00,-1.023067593308063961e+00,-1.313781258627128468e+00,-8.489644435148144819e-01,-5.530030365153446592e-01,-2.983426843838070663e-01,-1.992877968493563134e+00,-2.833116091880282905e+00,-2.477853254881862144e-02,-2.352591451104466103e+00
-1.358597760232189033e+00,-1.180733969416979834e+00,2.893316768349851742e+00,-8.453124559758196099e-01,-2.899087310683653440e-01,-2.008341686679381510e+00,-2.579812354944792219e+00,8.824463810833528543e-02,-3.567346308294110924e-01,8.514490874068842974e-01
-4.708061157632039695e-01,-7.554412698934354076e-01,3.044768752797864408e+00,-7.346598069050114255e-01,1.071209206903605660e+00,-7.210115503372356294e-01,-7.157077897007360079e-01,7.718681791347550281e-01,2.579404406946083639e-01,2.789553288201793269e+00
-4.356503397141339384e+00,-5.567645447106771284e-02,-7.006191686334287683e-01,1.922996444530375992e+00,-2.400983807620932886e+00,1.004476418739137289e+00,4.906352958340773895e+00,-1.077250989373255419e-01,1.656739022330883992e+00,2.297808762143046746e+00
1.443478561744403477e+00,-1.566269123512417094e+00,-1.851863263395771675e+00,5.347464560674559664e-01,-8.052161607140170263e-01,-1.922426359432095833e+00,-1.303310980298683086e+00,-2.149565780710649854e+00,4.404866816629845472e-01,-1.921581098110235031e+00
3.402494393829326391e+00,-2.361702842115555867e-01,7.950885921771528864e-01,-2.675431037713607463e+00,1.110630084939642659e+00,-9.824270890433447478e-01,-6.243008350128377515e+00,-1.285426084530170376e+00,-2.050868637343988166e+00,-3.747400299272906743e+00
-5.258455857140314355e-02,-2.566472387266229838e+00,-1.662308837280991991e+00,1.151824799310518399e+00,-1.870622949651832290e+00,-2.682069346485169259e+00,-4.212120299077394825e-01,-2.902057991835899742e+00,1.289886721319496887e+00,-9.460041727047614479e-01
1.796312397805590114e-02,-1.148450428288324110e+00,-1.407121454209741884e+00,2.544115387606513679e+00,-3.637997305637591383e-01,-2.992264780618581810e+00,1.201918795798719630e+00,8.646773733907953119e-01,9.590266343343507582e-01,5.324835116585968642e-01
6.859049392792789801e-01,-7.167932576668486488e-01,2.408090737815368421e+00,-1.412663299580040555e+00,8.244533790799773998e-01,-1.486160610989085029e+00,-3.441938934894815283e+00,1.290876062916379019e-01,-8.236939306212036627e-01,-1.568614352449304930e-02
-7.438834868799927280e-01,9.976977275386896826e-01,1.437772336510575455e+00,-1.019730932776382160e+00,2.485441453588538296e-01,7.764832764698869072e-01,-1.081214589275446558e+00,1.044595877976142395e+00,-1.036100674732219229e+00,-2.157169697563720845e-01
