9.035159479141179339e-01,4.630670726908117096e+00,1.194223038886166544e+00,3.483718939532860936e+00,-7.654860438314621263e-01,4.093781936077882655e+00,2.891064744781683071e+00,-2.356551519299982633e+00,1.063800114008859321e+00,-8.664236574557558912e-01
3.939487319589183301e+00,2.451338258708171569e+00,2.552033416415653289e+00,-1.401396869325927330e+00,1.636745580940105249e+00,-3.047724741506920410e+00,3.504880108510607162e+00,-1.991284895626535656e+00,-1.892186125060552060e+00,-1.262903157086900929e+00
3.595253325069224459e+00,4.828052208328705852e+00,2.761692886257276047e+00,9.108374180239969808e-01,-1.691928337603085586e+00,3.463678275257759509e+00,1.682708893002314410e+00,-5.607804995832009531e+00,-1.926269932429915677e-01,3.912678742480886207e-01
-2.732472365362457190e+00,-1.057234148110699268e+00,-1.549063625036878111e+00,2.171616627804258570e+00,-7.876282280708409855e-01,-6.800149501725526457e-01,2.226653561362601230e-01,4.295076622184039739e-01,-3.274486467788271238e-01,-4.579768677385359088e-01
-2.567723733342041070e-01,-6.862588225595885882e-01,-3.844113357734416425e+00,-1.583402446918458661e+00,4.553694486318581092e+00,-7.109768836942435222e+00,-2.861488352204784036e-01,5.597656163015114927e+00,6.221904480179198949e-01,-1.517258611530103218e+00
-1.480455379894422219e+00,-1.868852632439627959e+00,1.173908793559049313e+00,5.915976627287292677e-01,-6.551006267046662890e-01,1.312752443457778417e+00,8.902021841118369361e-01,7.003563407999185975e-01,-4.952506253558675575e-01,-2.435902334573168404e-01
-2.652349657683903406e+00,-3.703299567323289576e+00,2.642851172470100374e-01,2.836762871362515370e-01,-9.482722275632535780e-01,-7.993652793186493133e-01,1.466216278719890131e-01,9.189036576266015333e-01,-1.405911185241113248e+00,-1.197763022505100861e-01
1.202234905408130494e+00,-1.416462621285755064e-01,9.794220398982084186e-01,-9.040227823818233199e-01,-1.853547174475179249e+00,-1.341432248748956058e+00,-5.148337612816403785e-01,-4.113810970057024008e+00,-2.067575061030401340e+00,8.748317008105251924e-01
1.722559504881244319e+00,6.916478262042697445e+00,-9.367546027034037159e-01,3.549094488431078886e+00,2.731845707528937073e-01,3.833624304732582644e+00,1.504113465066604372e+00,-1.729876106056849494e+00,2.796239986500329788e+00,-6.595425162928201246e-01
-1.841468218601502338e+00,2.508250403381512283e-01,-2.044138917082997331e+00,2.121491615387670393e+00,5.950756439562477906e-01,-2.215785180199713267e+00,1.094235424144726521e+00,1.125086868167423981e+00,-1.107157528013880954e-01,-1.161647599569833211e+00
