1.273206049635219994e+00,-1.167837959653868163e+00,1.350552675741351072e+00,5.706884616069846095e-01,-3.352374163184339118e+00,2.697144291210930578e-01,5.381767113564654537e+00,-7.785682815751446828e-01,3.933758587134345008e-01,-5.941410835521114819e-01
-9.825120742520966344e-01,1.534143056146252126e+00,-1.616636761183645743e-01,-1.490187494918624012e+00,1.199913899833991771e+00,7.624758350029768872e-01,-1.169791744974586489e+00,-6.117261614901673417e-01,-1.157551295016878479e+00,4.494835162882692692e-01
2.785360337956708232e+00,-4.254075304000938473e+00,1.062422032346738821e+00,2.760633446598848906e+00,-3.357507203393867989e-01,-1.485627538115455337e+00,-3.949881456466102225e+00,1.865315056717217645e+00,1.798367857795464264e+00,-6.779649196132107036e-01
9.750498951365080824e-01,6.511655818940267348e-01,8.736682134788224807e-02,2.132214713700268938e+00,-1.639094126549177854e+00,2.039725039950500474e+00,3.970262668041057985e+00,2.603419731050208963e+00,7.767471172312319094e-01,-2.060785878476894872e+00
-4.458404382973530033e+00,8.091643401797645296e+00,-6.533069266063685987e+00,1.559993416549707801e+00,5.486188048832391750e+00,2.744168028794481184e+00,7.328747998827779497e+00,3.413965961498552026e+00,2.808079432499259731e+00,-4.961086400888885528e+00
2.020328956327212655e+00,-4.306664789925662262e+00,3.598230634431863528e+00,-2.101127312063422181e+00,-4.703626896418659165e+00,-2.270017485611222963e+00,4.379406908402595278e+00,-5.710481238029896822e+00,-5.313209921108402733e-01,1.676769939790162756e+00
9.845877558448937750e-01,-7.060721838938059935e-01,3.006244690056148472e-01,9.752817666470110503e-01,2.395163001790447499e+00,8.206686831217956390e-01,-7.153008928619642326e+00,2.723361388918021486e+00,-2.689749456394515681e-01,-3.556496407705260210e-01
1.465546442037636510e+00,-1.948004938560775390e+00,4.128262513272864531e+00,-4.136727762341182668e+00,-3.577891258527099883e+00,2.884929861240896898e-01,6.123619775058459780e+00,-6.838146000947460834e+00,-1.850082235656174579e+00,4.317287237115772225e-01
-1.596851564489344177e+00,1.661105532516370165e+00,-8.640984465314727192e-01,-7.197649416375635489e-01,-2.209927540608362495e+00,-4.843773223896622460e-01,5.911253701639084923e+00,-1.494192096277275672e+00,-2.178331237440590817e-01,9.937634771133686540e-01
1.562908719229325172e+00,-1.196176499887620093e+00,2.908087821084280877e-01,2.798364451683089893e+00,-1.418633122668873092e+00,5.676398650769451937e-01,-1.024932530592818636e-01,3.169026007360793873e+00,9.715622597653716941e-01,-9.137026170209994191e-01
