1.569782346468242107e+00,-1.719040272832504046e+00,1.003395618866142147e+00,-1.124696455007547113e+00,1.448201656438323548e+00,2.059607442885164730e+00,-2.947122720571504928e+00,9.959827593187038364e-01,6.966120837513744002e-01,-1.593815340649245460e+00
-9.261563889423620743e-01,1.436125290480502192e+00,1.708930213902810913e-01,1.427605240034655332e-01,1.635301558802103150e+00,-9.407921525414458808e-01,1.822709903880995741e+00,2.679387549573140556e-02,3.846845011711584328e-01,-1.961395606127876556e+00
5.021182167367523874e-01,9.164591472336279521e-02,6.308469544433057408e-01,-2.004917810817108403e+00,-3.408068077211690472e+00,-4.444064432975984302e-01,-1.454174389935447842e-01,1.905278451501094816e-01,4.520313033889415522e+00,2.897497783102016111e+00
5.105423754751794441e-01,1.382272367009367564e-01,3.741073249074067936e-02,2.976494195427016098e+00,1.741797930698476993e+00,-2.048385502594359142e+00,2.702474528253042685e+00,-4.131936638510962378e-01,-1.829491126121981948e+00,-1.216760393791060657e-01
1.451951310401988993e+00,-3.007710422321241861e+00,-2.736413367052004109e-01,5.142782596847527143e-01,1.751050610886121017e+00,3.270588692654402330e+00,-4.503281734866977359e+00,4.724013321460449055e-01,-4.196154265598657673e+00,-1.335278791504416640e+00
-1.395240380462376750e+00,-7.360677051509110225e-01,-1.717147868019815338e+00,2.090479302628292402e+00,1.165734972433626782e+00,7.145858357042965681e-01,-6.874581016556132740e-01,-5.623606084489641832e-01,-6.108705857232192393e+00,-1.370062386124779819e+00
-9.739446253176675672e-01,1.520436905037309216e+00,-1.129624064833518737e+00,-2.593427071181110932e+00,-4.178467898896917276e+00,1.462332240942126660e+00,-1.308737560878079575e+00,-9.982668969605588138e-01,1.216865559771252991e+00,3.893029150807763905e+00
-3.231519170917899419e+00,2.817052825992027554e+00,-9.183454837974693863e-01,-3.885350650100219738e+00,-2.054082123015874117e+00,1.174433665576889219e+00,-4.825592056290291532e-01,-2.252291033624802263e-01,2.130207272348267011e+00,-7.593478234697400575e-01
-1.115275375575041084e+00,1.637476848424087583e+00,-1.374881520866231277e+00,-8.830336175455427705e-02,-3.662988573725700636e+00,-7.381352754853439668e-01,1.304436288896912544e+00,-1.406804157557037804e+00,-2.303221263759692716e-01,4.205135588105694211e+00
5.882038514162907239e-02,-1.812433944599495916e+00,-3.640146286498512906e-01,9.250295364587062252e-01,1.227230099268295627e+00,1.044992222593474018e+00,-1.771864677659304776e+00,3.773436687927728128e-01,-3.016631831569516198e+00,-1.669391577148648720e+00
