-2.311474882501333816e+00,3.409237055324475740e+00,8.492183317909064444e-01,1.252273836895934522e+00,6.228718323834984139e-01,-6.125669977114579501e-01,-1.165974353697807109e+00,1.025355301924774531e+00,1.577871130486645734e+00,1.959445417572416970e+00
-1.234194682969961709e+00,2.380425849877240374e+00,-6.261631535807508087e-01,-1.432560692127957114e-01,-8.453210585039233615e-01,-1.116087884761652882e+00,-2.984610907936652846e-01,5.878342071626094789e-01,1.320327380804031392e-01,2.732810297148926537e+00
9.671604170311384197e-01,1.611392810211069948e+00,2.374135136537635304e+00,1.610388463590390340e-01,3.013323102220441196e+00,8.493345498889195433e-01,-8.374073965550596355e-02,2.253435903694889220e+00,4.433168979993027392e-01,-1.900618661751785413e-02
6.179785049449658674e-01,-2.374764711619599566e+00,2.001209587112234622e+00,4.978212017271794188e-01,-1.427687974094432155e+00,7.774521355122462341e-01,-1.683635528983252194e-01,1.190789810680896954e+00,-7.086034365791161749e-01,4.886496551037456393e-01
-3.684509122626010491e+00,-2.911177426387336453e+00,1.242385259398329334e+00,2.106896039091021855e+00,-5.734978203874687708e+00,-3.669333447947916160e-01,-1.502247843361829815e+00,6.537840597859887470e-01,-2.736770757424370273e-02,2.734612467270245428e+00
2.890915692821916849e+00,2.168392978000418303e+00,-9.723320754219847428e-01,-6.504255745110939513e-01,4.851360726006223700e+00,5.615592390874376560e-01,6.827382928639639248e-01,-2.210541430629323845e+00,1.057205838902104400e+00,-3.805982435757181204e+00
1.187654612825614464e+00,-4.486208956914846446e+00,-3.441085723573342303e+00,-5.135747613481652429e+00,2.841123217830908709e-01,5.676899342420035216e-02,3.502356488334012585e+00,2.613492166859598065e+00,-4.516123681179002425e+00,-1.119628045524072357e+00
2.923850686495552686e-01,-3.980331434080615072e-01,3.440327854570709221e+00,4.503665707561439469e+00,4.102261968099206180e-01,1.525829894959795929e+00,-2.473815446497781956e+00,-3.200141533596644550e+00,3.457083405109316221e+00,-3.218169964340428013e+00
3.076140163887698176e+00,-1.199272159633369528e+00,-2.557744494082206721e+00,-1.016793494054461844e+00,4.952497364836317750e+00,1.224914508372281441e+00,1.352318538481178001e+00,-4.235449866504666261e+00,7.365659232717208793e-01,-7.710661232437221457e+00
-1.320541832053722553e+00,6.486368507302621156e-01,-1.920192621499172692e+00,-1.492721793265618491e+00,1.452265888246993653e+00,-4.467048293790438218e-01,8.617026088516471782e-01,8.617963614370821590e-01,-4.694027971327963122e-01,-5.243526259656081656e-01
