-2.011969658494316970e+00,2.383098128877375044e-01,1.272477406164170821e+00,-2.865358705219550384e+00,-1.438013510261245909e+00,-2.326088239727038265e-01,1.706273426658105885e+00,1.852881135917228805e+00,-6.508111555332319886e-01,5.204557539464108373e+00
2.736783569882428768e+00,-2.202841220100928421e+00,-2.552160602802824751e+00,-1.617404541784983329e-01,1.638515498612363563e+00,1.583443207973324496e+00,-5.302099849204398474e+00,6.350218509345556539e-01,-2.503082541804919181e+00,-6.796509656522680132e+00
5.427131874563584368e-02,-4.633488288939386357e-01,-8.771403467906021545e-01,4.435528926306573916e-01,-1.295183868217696155e+00,-3.331482853811532863e+00,1.069180033324052870e+00,-3.742586834066622958e-01,1.543721754770831289e+00,1.547744457523693995e-01
-1.346818399515493425e+00,6.972583585904426062e-01,2.183313990444985198e+00,-1.355393240668478105e+00,-2.120629938966933636e+00,-2.955140210006441670e+00,4.367122261663040739e+00,1.152605106685718805e+00,1.580312044007273098e+00,4.153067622128612690e+00
1.004257657728502978e-01,6.988884156195189767e-01,-4.718620631404949611e-02,3.214174413011682052e+00,-1.987411329715587760e+00,-6.340485206012766994e+00,4.566692857387916860e+00,-2.346958130919113206e+00,4.888046769190636631e+00,2.448686971262521717e-01
-3.395815423685887846e-01,4.575784017854079289e-01,1.221748793518685927e+00,1.227923370625697425e-01,1.258841791980405134e-01,1.977668565222776564e-01,1.273844214685267762e+00,1.275908104660137543e-01,3.660104223945689350e-01,7.544350638466547077e-01
3.598677287059675045e-01,-1.369740129399399597e+00,-9.483272292967400707e-01,-5.288741840521149484e+00,-2.271436356498504949e+00,-6.385621803820543674e-01,-1.714996905359582824e+00,3.648823553213680793e+00,-2.998666876673421910e+00,1.149717595252138569e+00
9.466578613708410694e-01,1.280000418444739774e+00,-8.019230247738242667e-01,1.711143683283057104e+00,-7.803275238391577107e-01,-1.141494550359730242e+00,7.886519099907168817e-01,-1.909620504070539182e+00,1.526981630512784127e+00,-1.143966059282590875e+00
2.578235903145237096e+00,1.973064925378429812e+00,1.406806880717142327e+00,-1.531847528518842205e+00,-4.755928086033323066e-01,2.781354488526474267e+00,-3.980007937518442729e-02,8.611126453737507624e-01,-1.762793058458660855e+00,-2.997541925190096102e+00
9.630125357023443522e-01,8.395782366508196537e-01,9.924190069371516820e-01,-4.062222530066772919e+00,-1.228871931337476076e+00,2.440528893258965049e+00,-6.519119133453764592e-01,2.605629303002994668e+00,-2.978495492789932975e+00,3.734065287907095132e-01
