-7.559157380650221025e-01,8.293930600149903576e-01,1.273142433449085509e+00,1.969341073410611154e+00,-2.786870169938896691e+00,2.511216775041640759e+00,2.292250085229484979e-01,-1.520912347997092517e+00,-1.797997391951112078e+00,-4.300819200166228762e-01
1.300910625218843153e+00,2.713038643372784442e+00,-2.795660559849257432e+00,3.046965082524240032e+00,5.442160779761339162e-01,2.475361691030817823e+00,3.014622098798878103e+00,-2.002194297761765718e+00,3.224002011406600143e+00,1.400718865114144895e+00
-9.934438133505443247e-01,-4.071188754236914065e-01,-3.534843899047337867e+00,5.716394866743270686e-01,2.514404009913596028e+00,-2.049937824679370468e+00,-6.487457626172599134e-01,2.450070679931027229e+00,2.180525578229759009e+00,5.128151414776492834e-01
-1.262711841533198820e+00,-5.307986475553151395e-01,-6.343896254216593311e-01,-3.656636034159131687e-02,-2.051224143723480164e+00,8.105201843136270456e-01,-1.703538047806061773e+00,-3.915966324564187362e-01,-2.012620516673173210e+00,2.971895171025559779e-01
1.709357540310004087e+00,-1.327188315580802302e-01,1.366108683585680827e+00,-1.744868059235561875e+00,-1.686369795336072341e+00,2.333308367363155611e+00,-2.359165092526868124e-01,-2.131072638222550886e+00,-1.250871023383682168e+00,9.115558508873257137e-01
-3.735935887743854877e+00,-2.476286410058025300e+00,2.000543446505963274e+00,2.350237113363457642e+00,-3.208152226474830560e+00,2.675730312676094957e+00,-4.605160801212828225e+00,3.607871963254361880e+00,-4.382052177393955361e+00,-1.531886934443478898e+00
2.054841154859225583e+00,5.394947947368703423e-01,2.260029526489545137e+00,1.101649885822745117e-01,-1.652055243237650961e+00,4.015001424596508883e+00,7.390408132257045848e-01,-1.939633593705052839e+00,-5.604291697995069654e-01,5.685784976528217571e-01
-3.092998477861255591e+00,-6.654813296994903649e-01,1.865717415563551862e+00,-1.113401503485158400e-01,-1.398252586558216715e+00,-3.637194009183277732e+00,-9.890055644126144463e-01,6.201258056949531250e-01,-3.038918919024741871e+00,-2.354757411599788686e+00
-2.860916037488155261e+00,-7.292606897038269587e-01,-2.851914662117454924e+00,1.136624160952492302e+00,-3.363108912861236810e+00,1.760738899822623438e+00,-3.221885692221753139e+00,-9.296914748252488314e-02,-2.856014040550222344e+00,9.059860511010178197e-01
1.220794290289018980e+00,-1.440274790781243652e+00,2.119537418455418099e+00,-3.951838209761137755e+00,9.839673670342548306e-02,-1.490401269874458201e+00,-9.753532688749004809e-01,-3.832207555042240754e-01,-1.390335611159189133e+00,-5.709060573814969675e-02
