2.326953233433494361e+00,-1.107522254475554746e+00,-6.553902445070042271e-01,-8.394905066484906753e-01,1.293772367551959457e+00,-6.151080358333446130e-01,1.727316757291325722e+00,2.466543057478485235e+00,-1.717098446090494557e+00,-1.048854995662000938e-01
4.849370416595900402e+00,1.886516007217345692e+00,-5.731953477317451195e+00,-1.629600990004105743e+00,2.968289211919002746e+00,-1.853516836602030704e+00,1.083089784818782597e+00,4.511978182608721966e+00,-3.498277719728904778e+00,-8.390191995404889802e-01
-1.297198988169172562e+00,-2.440354004633425333e+00,2.807998467896768435e+00,-3.448946187462031965e+00,1.306676893346623958e+00,2.006881069510239257e+00,4.674944227035707556e+00,-5.755213002755793505e-01,2.932132783172019863e+00,-1.540717052245419660e+00
6.869181155351536283e+00,2.617951603840983132e+00,-5.789834443376530304e-01,-9.389930397983071737e-04,3.289579570081786919e+00,-2.002157235158100068e+00,-1.525521924504350535e+00,5.515623130678122266e+00,-4.798490692358092780e+00,1.174647242743821762e-01
3.608035418575467723e+00,-7.020632195323917024e-01,-4.155354138105775696e+00,-2.860892068108373376e+00,2.325698668415514092e+00,-3.334836385529142078e+00,1.065783733642094333e+00,1.353114497841439723e-01,2.674152533000559440e-01,-5.994033958900135683e-01
2.600892506748746058e+00,-7.323638059069037531e-01,1.916621205136204820e+00,-7.995729426720838973e-01,1.655073223435690855e+00,5.493433560832757662e-02,1.421715023091708829e+00,2.747977990270128235e+00,-1.595294633728152833e+00,-1.555317127388207710e-01
-2.370712492299924090e+00,-4.009090547582413677e+00,-1.369175260645517422e+00,1.535316718174815742e+00,-2.821705762014322882e+00,-1.390327024172649306e+00,2.273480259286214944e-01,-2.654850751435996248e+00,7.105676071537965210e-01,1.479848708713151773e+00
2.106896552204194695e+00,-5.488888889047773834e-01,-7.201176573559245342e-02,-2.413061688954588890e-01,1.175291232092262383e+00,3.105399839832826414e-01,1.747402696962664592e+00,3.500335215099762198e+00,-2.558820722747878307e+00,-1.041514876042399645e-01
3.958512583667522566e+00,3.991280810111425215e+00,-2.944017124701091337e+00,1.936674399721431961e+00,1.212093650885137652e+00,-1.038468244929074968e+00,-2.868487135024827328e+00,4.489552246803581781e+00,-4.922121578651601048e+00,4.240543173842564184e-01
-7.124811793624391543e-01,-6.798680714778159162e-01,4.673872953520622486e-01,1.613835610783647678e-01,-7.972798928859728962e-01,-1.206368022650798011e+00,-1.379722791134822435e+00,-2.758685252202393912e+00,1.792222900875503289e+00,4.772546495201687722e-01
