3.309499839054020676e+00,-2.563372461327122043e+00,-9.847425821409759861e-01,1.735502603160870461e+00,9.506082142611167463e-01,-2.732277781316732490e+00,-8.540072664339125597e-01,-1.329552533145010207e+00,-3.420838549365629255e+00,-7.672496797615462327e+00
-2.770896761582894108e+00,-2.620384856931853079e+00,2.460647726607612107e+00,6.277100830127745335e-01,1.206018239706761808e+00,-2.354178479970597260e-01,-8.037382354262292417e-01,-9.275307189939079322e-01,-2.578495619451600440e+00,-1.138268791763853649e+00
-1.699344293583686660e+00,-8.200517006848341284e-01,-8.797685799395927875e-01,-1.354264379970808063e+00,5.732584284643691547e-02,-1.160362369018873574e+00,-1.139447076591274532e+00,2.527868563271422619e+00,6.291725804967901459e-01,1.968337191038842748e+00
4.399799633003267374e+00,-2.064403926583794124e+00,-2.248785905306359467e+00,1.288312505003551101e+00,1.817685374824156430e-01,-1.062601929905022224e+00,4.137446912200829496e-01,-1.429560851945786526e+00,6.513362556662384284e-01,-5.220615636997502307e+00
2.979732807144877871e+00,-3.884559489472130700e+00,-2.102290896710591994e+00,1.359324344276438445e+00,1.342128924428367398e+00,-2.303987595160364776e+00,-5.363584438446922231e-01,-1.471518027462138001e+00,-1.458673234760806237e+00,-7.169801965687454093e+00
-1.895669251084413531e+00,2.022677029485448585e+00,3.034562729991822305e+00,-7.316273503248507115e-01,-1.892143203215021607e+00,1.649583652711849924e+00,1.666818112313757372e-02,1.969214922017089142e+00,1.491035270359386322e+00,6.338247761873510022e+00
-3.770292702902490412e+00,-3.119626539761241268e+00,4.352921831845563361e+00,6.626311977872002545e-01,6.800966379880963864e-01,-3.709709465698686204e-01,-1.446115680726794972e+00,3.788857986297894387e-02,-3.170923942088636593e+00,2.597410109590078120e-01
-1.548222333330154132e+00,1.178351053585824593e+00,-2.904185917480973878e+00,-2.117018052206628642e+00,1.808263970221528905e-01,7.622316207035079172e-02,2.267668848664206385e-02,1.981224365159556022e+00,2.749826544832024489e+00,3.393017684183559535e+00
-2.509589222529421626e+00,-5.700497775566718550e-01,-8.550805236909150842e-02,-9.905068119017816919e-01,5.579596037857967872e-01,-4.550675119173628325e-01,-7.609604718107031429e-01,1.240464991955476437e+00,-2.238888406036006196e-01,1.601851557137503157e+00
1.229022311742996365e+00,5.568381434468208102e-01,-3.295630816084754056e+00,1.190785439655592942e-01,1.681359870753154517e+00,-8.228150682414718808e-01,4.944840159147728675e-01,-1.885316710659426853e+00,-1.250725406776178605e+00,-4.430605256348270515e+00
