5.607870394375604306e+00,1.008173484681522125e-01,3.509584151641929051e-01,3.931755326810494111e+00,2.897639360612301873e-01,8.998555274032102314e-02,1.162894885763148256e+00,1.572392532486461825e+00,-9.420593459533779246e-01,-1.772705892752393653e-02
2.167258705149333053e+00,-4.159517609136108469e-03,-8.340399172597804389e-01,3.946110590026464249e-01,1.034828706360330974e+00,2.491345864897229312e+00,-1.107475533663361711e+00,-1.911228847068621617e+00,-2.954805089196032020e-01,5.761246443417287200e-01
-5.401004152787364454e+00,9.840614381177409387e-01,-2.469676732706280298e+00,4.967531109506692633e-01,9.139946930846721829e-01,7.697428084793753733e-01,-4.129970214896759306e-01,2.607673511730150273e-01,9.933808148603150423e-01,7.820596027685305929e-01
-2.532036301353305596e+00,5.712448908463464425e-01,1.702376569802493300e+00,-1.227235768965672519e-01,-1.611400725948796797e+00,-2.558492229222806724e+00,3.472924999719027017e+00,4.143559193263226526e+00,-2.494803328137856491e-01,-3.803375001603992445e-01
5.470014393298109567e+00,1.455272168788990239e+00,2.219235428239346053e+00,1.353421386692039707e+00,-2.019420389670238514e+00,-1.233538085461998168e+00,1.888542939937744247e+00,8.547438041315492674e-01,-1.524245003647197949e+00,-2.600519522676812745e+00
2.919871354982307210e+00,-1.343192944813423662e+00,1.272658762988975178e+00,9.646900893296382895e-01,-6.896880013034141221e-01,-3.314425008493199876e+00,-6.856150908707945302e-01,5.368270082135838672e-01,1.641362808585561661e-01,-1.000840110542032368e+00
-8.764351776902632452e+00,-4.036457463683976066e+00,3.005317255316062308e+00,-9.995012564353721984e+00,-1.814569103750715895e+00,-5.291345009215375761e+00,-2.462984170911631576e+00,-1.664144886329448569e+00,2.206056466033899710e+00,1.565231870689955812e-02
2.630155872005289108e+00,-1.287248959039222429e+00,-4.882973934789582859e-01,2.225337602073190091e+00,2.109993862000042686e+00,2.965092234711637520e+00,1.226754577574366456e+00,1.561334064202664074e+00,-5.351989612731294921e-01,3.174178266128530712e+00
-2.413582334590935741e+00,5.427573023957530385e-01,-1.631156758349292968e+00,-2.836085663452198036e-01,1.655060618533469530e+00,4.221896337561634738e+00,7.462789044186948217e-01,-1.059507115421138290e-01,-1.254930501186128922e-01,2.376763445493253357e+00
-6.706844869207580828e+00,-1.488022920864251253e+00,7.099405790150533635e-01,-5.942743463413400207e+00,-5.450699838350451243e-01,-1.231601322343131688e+00,-1.305757256106292230e+00,-1.401502896915296503e+00,1.276573946116906333e+00,4.964676826900170092e-01
