5.262708663908908235e-01,-2.016593783102469395e+00,2.147673137715628400e+00,-8.118711618077198988e-01,2.703469662549109920e+00,-5.156034625847873976e-01,-1.065958758259085704e+00,8.096438968455088592e-02,-2.832363993085227349e-01,2.143685306734776308e+00
-9.265965786741219012e-02,-1.415397448451100271e+00,-2.149313595473500982e-01,-1.493206315394732808e+00,3.251735304474174804e-01,4.181344779350190111e-01,-1.668907491661165629e-02,2.307101245661791478e-01,2.109713846026491646e-01,2.734592378495881992e-01
-2.619669622137631437e-01,-8.459861216579549481e-01,5.943647733751352691e-01,-9.595590390317543239e-01,-9.785257460204919155e-01,1.757618877905402721e+00,-1.636240646651530906e+00,-6.278015850423932509e-01,7.870969337422109025e-01,7.012068192978506698e-01
1.265271694646508571e+00,1.565114778560671827e+00,-2.115159443735921574e+00,4.327060570620717139e-01,-6.922345934479687823e-01,-2.460365790208371539e+00,2.860020810509498190e+00,-1.586331878801074402e-01,-6.230918579524415135e-02,-1.520609223955602385e+00
-7.999912022968430625e-01,4.080624067125222965e+00,-2.387266063579153830e+00,2.880517186871387914e+00,-3.325521528202814547e+00,1.141179362311765644e+00,2.991124818158642507e-01,-1.810896389692724651e-01,-7.894808399487973638e-01,-3.232751974431416819e+00
1.858518590711508489e+00,3.651397966836140263e+00,-2.128932382100863774e-01,2.634682259855233522e+00,-2.421965214881887540e+00,1.162511025724264346e+00,-2.607029020066252922e+00,-2.464079837099881320e+00,-1.028334690115843664e+00,-1.012668523955519539e+00
4.347963611595545563e-01,-1.511882993192344760e+00,-1.182553131343655917e+00,-1.762960280743610886e+00,1.313403081718537813e+00,4.207327192670981542e-01,-5.692369474545633246e-02,5.498065251839090450e-01,-1.304769981170626592e+00,-5.636198892406018013e-01
-3.343046140131836763e-01,-2.145535682536836020e-01,-2.150769597916530607e-01,4.915397169203716277e-01,2.244672998589180679e+00,-6.617338995189491202e-01,5.256618285126466450e-01,1.285051437614747938e+00,-1.760563339331060240e+00,-5.317599973016858828e-01
3.065131623691476737e+00,4.056978772730514216e+00,-1.890729415834603966e+00,1.650758159360005362e+00,-4.099415690896092812e+00,-6.792308158872905066e-01,-7.904132956048583181e-02,-3.172983683447670789e+00,4.646204044509117392e-01,-1.590614897412541362e+00
-2.408333221946998837e+00,-2.936110865753093879e+00,-1.117880056788199683e+00,-2.660678257587224760e+00,7.158182289341840088e-01,1.456971459917811185e+00,9.977194517149342579e-01,2.232884435428624581e+00,2.253134416741769952e-01,-5.089641781728267977e-01
