-3.458697451324740935e-01,1.628886712078225552e+00,-1.740437289928249198e+00,1.227292322202076180e+00,3.346611156796628350e+00,2.923730851010674092e-01,-1.059064617499160477e+00,-6.730780277921052379e-01,-6.107711228912511281e-01,-1.660436110897993922e+00
7.462614983449661343e-01,-9.730789235472853127e-01,-2.832913944348245394e-01,5.022123822908423074e-01,3.421031914647135963e+00,1.258547964752457338e+00,-1.284100039644767710e+00,1.240075792051684861e-01,-2.170105452968121851e-01,-6.667515096671878805e-01
2.516516614712479338e+00,-4.302760228704459067e+00,5.940452589975800946e-01,2.637764928848391754e+00,7.983364626391566965e-01,-3.012123708067619421e-01,3.019702410204185394e+00,1.724607114823659471e+00,-1.260354231588616924e+00,-1.919790721547932177e+00
-2.591850327040977064e-01,-1.868943283650819742e+00,2.880443467872173535e-01,-1.346600454037246708e+00,4.148022436855832495e+00,-2.181679499986217130e-01,1.632945274060089602e+00,-1.863115510173022141e-02,-3.353184320695583587e+00,-2.168822407319266343e+00
3.629772575512915100e+00,-2.602632850888709992e+00,-5.405308869276121975e-01,7.386506761401445686e+00,-4.471184756867080168e+00,-1.772884678490556531e+00,4.380769995144461859e+00,2.475479825200108674e+00,1.147412038168863724e+00,-2.040982572182337584e+00
-4.458128878243159399e-01,-3.704317244985232627e+00,-2.488565429136717633e+00,-4.962349006550796027e+00,-2.364326287528799586e+00,-2.010904556236206564e-01,1.633009872939429119e+00,-1.975208174530822536e+00,6.929707351367186963e-01,2.369012476755810503e+00
1.087929548924192691e+00,-1.332106999820475979e+00,-1.440028748374287515e+00,1.829085593536333265e+00,6.754580236888907407e-01,-1.759178397476187927e-01,1.094297070654836057e+00,1.328784393831039246e-01,-6.997364418656709661e-02,-1.177661328215951375e+00
2.750417021436308840e-01,2.044780897591895297e+00,1.111789689109591084e+00,2.233715996808977255e+00,-3.433655584926391668e+00,-3.713649223778313080e-01,-5.503066506918667944e-01,8.737274172250201199e-01,1.783049268237742346e+00,8.443973728753203511e-01
-9.148397557547647274e-01,1.891482393800777873e+00,-1.124474648572950430e+00,1.994680971606015984e-01,1.215502931596993408e+00,-3.842598956357525242e-01,-2.826956394202415068e-01,-7.240741876129793697e-01,-6.248771031204300996e-01,-9.453439477807814573e-01
-4.051205176619464332e+00,9.129713686158718033e+00,1.558711214693534908e+00,-5.707042305120465508e-01,3.240447546769423592e+00,-1.635151215832887361e-01,-4.177889358456294389e+00,-9.421052713578340621e-01,-1.579566111232491687e+00,-1.063605376414414661e+00
