-9.722769632064137690e-01,-4.253162782921699581e+00,2.895834559494966931e-01,-4.614096450106675018e-01,3.283399437807513532e+00,-1.983801736142199568e+00,3.509873701860277695e-01,6.812687009485107748e-01,8.065157210174428215e+00,5.350223875074102686e+00
1.129462573008568338e+00,-8.564177954542392612e+00,-1.583156715471026432e+00,5.822358268439207230e-01,4.056004334188065275e-02,1.451714900095627536e+00,-4.923650325366335512e-01,-8.775352177836017731e+00,5.333001784919795263e+00,-4.329540639194535134e-01
-5.825149720720922408e-01,-3.382930287121963975e+00,-2.225492122668805361e+00,-9.978135954708697852e-01,3.462616524393098971e-01,4.539640524458973259e-01,-4.652467985645909465e-01,-4.919762801616791137e+00,4.728642870630962669e+00,8.429688504342255362e-01
-1.997269314837538223e+00,-1.007040258201667315e+00,-3.683632028925067470e+00,-1.227543094188402684e+00,9.228669294614159080e-01,1.194598749514026892e+00,-2.441839404894503573e+00,-1.980273228976830335e+00,4.461120788176160090e+00,1.075816817656282121e+00
6.574364358862498925e-01,-8.776440932659317795e+00,-3.439985810822032142e-01,1.035983016294012682e+00,3.793696020644041766e+00,-2.994564903249779531e-01,-1.077131449277190622e+00,-2.319729794373090126e+00,8.878186944588195573e+00,5.514252115139676391e+00
-4.701556914703758916e-01,4.688604940884228967e+00,-2.155501476956023676e+00,-3.335633835694057914e-01,-6.896140039869304017e-01,1.769521259232275989e+00,-2.222788279909854392e+00,2.031478207799532143e+00,-4.050447121987049925e+00,-1.065705081050183356e+00
-4.310028366925310550e+00,2.370819907726947839e+00,-3.501582889526922315e+00,-1.489235401769692047e+00,8.788177295691571578e-01,7.967357821832893316e-01,-3.145847193623067195e+00,2.758705025012988532e+00,3.725220584500268384e+00,-2.768896620766435612e-01
6.801964310476944775e-02,-5.954796829401203695e+00,-3.336497766192851877e-01,7.585949399728703947e-03,1.762299561482333354e+00,-5.711345116589262583e-01,1.775374556320761521e-01,-3.391926885574342077e+00,6.537869538501961841e+00,2.746824192634627515e+00
-2.496104354710469764e+00,3.615338804159734742e+00,9.872213253853648895e-01,-1.120225969439541114e+00,-1.238817571062379441e+00,-1.482588586155057619e+00,1.356199201814205946e+00,2.757944960340957152e+00,-5.647849429585434233e-01,-2.612339607276251474e+00
-5.867063463812288049e+00,1.504173825062595227e-01,-5.170744823005876789e+00,-2.045132778335881696e+00,1.526184996716722253e+00,1.128071228460106656e+00,-4.224612660720411306e+00,1.116891146156216319e+00,7.934907637093540522e+00,-2.228416873836357517e-02
