2.659631682355836357e+00,-6.861562224148609612e-01,-2.024346270271063286e+00,-1.152898444748158724e+00,-3.710248455809926904e-01,3.848214287943881207e+00,-3.909923958471481775e+00,5.798612156991491240e+00,5.124578184950258297e+00,-1.163884029133985809e+00
-3.128463637371632355e-01,5.293735431131166846e-01,1.604620090087194750e+00,1.935725201613346935e-01,1.010091393580906161e+00,-5.660191513420715026e+00,3.548645675552025036e+00,-4.867663566667414621e+00,-2.808872289532167610e+00,-1.784832095788624784e+00
-1.555720882999950705e+00,2.429733486280463151e-01,-6.116861370345709759e-01,1.787932863579918319e+00,-3.038810372108135538e-01,4.072684797846740423e+00,-1.349685661012283600e+00,2.588769669303377263e+00,-1.339137225102615014e+00,3.557647410665433441e+00
9.427784919592221424e-01,5.591145055835848865e-01,3.512713489456062543e+00,-3.579615324178666569e+00,-1.815305273418073462e+00,5.267364229811830612e-01,4.471995244593284791e-01,-1.125682526682581841e+00,1.379071468218167729e+00,-2.730870224948630742e+00
7.837729364649856922e-01,-1.352000015444255077e+00,1.209265047907089885e-01,-2.234291642495423336e+00,-1.630618543058286907e+00,4.968899440197181328e+00,-3.378787042241683913e+00,2.562170727434187611e+00,3.203815067653811965e+00,-1.676220313862953060e-01
-7.588137800492229523e-01,3.821703198842496541e+00,-2.631233154300685051e+00,2.109966789747848903e+00,1.081663911948547163e+00,-7.402756343154846874e+00,5.212918464421344211e+00,-1.337590654878431762e+00,-1.899406103885846187e-01,3.137943479311903205e-01
-1.084563091996145090e+00,3.114305197983839424e+00,1.061470449269073413e+00,-2.088927072821245456e+00,-2.593949083830318081e+00,5.726448873645404447e-01,2.035000530414065700e+00,4.016629233877710980e-01,1.965857675537757920e+00,6.413872722142093252e-01
1.793733288680761762e+00,6.169401049367859713e-01,1.428483434885521763e+00,-1.046864802877069289e+00,-4.198587513857929276e-01,2.601264157590066350e+00,-1.503392421015647074e+00,3.494992789059982563e+00,1.483449336038091149e+00,-1.353218054841404117e+00
-2.110935668864685755e-01,1.752082189971899018e+00,-1.468542471017758144e+00,-1.162352733655027226e+00,-2.788559803396402526e+00,7.722163822593063998e+00,-3.160196780980812470e+00,7.254295633393044618e+00,4.711293484847249857e+00,2.913905681136170323e+00
1.058538533257499942e-01,2.924665656676329828e+00,-5.569446958768541345e-01,9.354440247973956346e-01,6.365421635749531903e-01,-4.640487892085856991e+00,3.494495612614077373e+00,-3.708360909128017302e-01,-2.270235351137941948e-01,-6.263494607332176223e-01
