6.727179261353929407e-01,-1.126006259899024142e+00,5.523987880958921570e-01,4.834897542648970870e+00,6.719372276423337453e+00,-5.710360904424991446e-01,-1.974464069596057580e+00,-3.122811910519673884e+00,-1.032725170022220196e+00,4.232029111934697774e+00
-9.503642839086282601e-01,-2.002154729105225517e+00,8.322257736164356823e-01,2.031507463721086371e+00,2.088604676964575191e+00,1.577500043245089634e+00,-1.430899977048829819e-01,2.295619616277604358e+00,1.280719669806161365e+00,8.394070551452966766e-01
2.204688684207208649e+00,4.727568403509094352e+00,-8.772124070926574646e-01,1.047838030069131232e+00,1.595000794397250621e+00,-2.827941686172407820e+00,-6.082130416139952089e+00,-5.759875320762498419e+00,-1.987077646623048796e-02,5.148302456897364543e+00
-2.458189829603397991e-01,-8.467839250081641289e-01,1.515738594729428179e+00,1.909643512803829823e+00,-5.333832284822518366e-01,9.190425032973429387e-01,-1.255598007407825012e+00,8.634100782938263219e-01,7.803950043198312203e-01,1.119110012572572144e+00
8.604901606589854257e-01,3.179518043647645786e+00,-1.735049746192192988e+00,-2.385037659465383708e+00,2.273771696569208967e+00,-3.176959186502655186e+00,-5.516607264937911648e-01,-4.711298873389229591e+00,-9.812360864935929516e-01,9.206225827870032630e-01
9.914471703200526675e-02,1.876299651570926486e+00,-1.833079065351758130e-01,-1.609998248448331726e+00,-1.336633192890023691e+00,-9.066283545454043580e-01,-1.094169349891872089e+00,-8.744997695912115621e-01,7.176852949813778970e-01,2.440805826842891157e-01
1.768884368855636158e+00,-1.085080441513676996e+00,-2.625350180473823514e+00,3.729421202191568252e+00,4.751324935020538653e+00,9.435610086145481690e-01,-9.225366098285717742e-01,-2.501510919625286600e-01,-2.068588911176244771e+00,1.901727490842687329e+00
5.137779863537039055e-02,2.061179856468075666e+00,-1.120884690068668199e+00,-2.383568238754322888e+00,-1.570899993817908291e-01,-1.201123561072760415e+00,-4.210169828707207573e-01,-9.890371319846965603e-01,5.634577528749863395e-01,-1.341056636967430382e-01
-4.074538729254466141e+00,-9.304133852138354754e+00,5.870496467381974171e+00,5.644407382910992865e+00,1.705616029596713101e+00,5.441225025688867234e+00,4.297969657909090024e+00,8.044010881778607569e+00,2.275134510888628725e+00,-1.514130526261247223e+00
-5.376325203041207867e-01,1.229276141716479032e+00,-2.126594361266868294e+00,-5.895373530742674006e+00,-1.969490797438263385e+00,-1.436014654609754970e+00,4.350287942501679161e+00,8.148748780378696488e-03,-8.610456967081842050e-01,-4.590142695627911884e+00
