-3.727500877186401551e-01,1.340855428660019610e+00,6.883645725590612496e-01,2.837978823707887344e+00,9.383893866228629754e-01,1.987242597305723946e+00,-1.461902048154833489e+00,-3.639605016178911523e+00,1.285751104695928904e+00,-1.640484722042941046e+00
-1.691107373869576325e+00,1.246223489365333670e+00,7.799633115974625719e-01,-1.161635421911391131e+00,7.337523189972233739e-01,2.117105525820522360e-01,2.606876201257684045e+00,2.087390872396976127e-01,2.258186516203404715e+00,-4.898146120327055431e-01
1.202642698577920832e+00,9.251767280053343478e-01,-2.505057519939598354e+00,-7.601978062347694021e-01,-5.109257688215985915e+00,-1.321470346829791032e+00,-1.276490722360111629e+00,-6.825977319597566151e+00,4.024352871869469439e+00,2.478311854784372992e-01
-1.851535192897262094e+00,2.267671031779194823e+00,4.281532162507113881e+00,-8.410880625128455135e-01,3.320778953159675417e+00,4.485075631776583194e+00,3.577751599321294940e+00,1.456185223391069261e+00,7.032524698634083915e-01,9.911096714505033267e-01
-3.476387922011753284e-01,9.488282715630700359e-01,9.518465588659081877e-01,1.908014775534547569e+00,2.106205271464939965e+00,1.553337353416342159e+00,-1.647034470369332926e+00,3.217724064807884754e-01,-1.632636559614563776e+00,1.017230423440271120e-01
9.548873533715110939e-01,-2.167390010701725434e+00,7.234973567933780103e-01,9.766297429841879207e-01,1.103975983939324612e+00,5.444670166379022014e-01,-1.027440239531058896e-01,2.075134587747779147e+00,-2.183539406785550696e+00,-7.738270815868637520e-01
-7.456800870311588447e-01,-2.373888708493691713e+00,5.487010202756221755e-01,1.423186117923739002e-01,3.672721737627643090e+00,-1.406637350174018586e+00,1.018472834585048448e+00,7.494834478598921379e+00,-4.035591847787958208e+00,-8.437105765896333320e-01
2.547832832604870923e+00,-8.575384569700049697e-01,-1.572322516226531519e+00,4.684105113612587190e-01,-3.776388477143025835e+00,-1.823087638525748011e-01,-2.566409945302147833e+00,-4.459973347050561365e+00,4.776071438682503723e-01,6.327239723423272455e-01
-1.501964187624933889e+00,-1.668080900231285302e+00,-1.368827255203467042e+00,1.431747574081116692e-01,1.026611394737409810e+00,-3.212218652475572700e+00,1.969190157934991969e+00,2.316696385658163493e+00,1.314275158607846272e+00,-3.501141208200952981e+00
6.212298601338721582e-01,1.545958154528954243e+00,3.750020123174501729e-01,3.465435247099626914e-01,-8.648515166168081747e-02,1.452594831079332405e+00,-2.346028954720955628e+00,-8.102178107492840065e-01,-1.699871173484498454e+00,2.497625939907698100e+00
