-2.198084056203468695e+00,-4.705766490305093974e+00,4.798681962913529109e-01,-2.624347912741331168e+00,1.444475243786664587e+00,-4.480317237376555406e-01,4.738446514671331156e-01,1.539592868506718948e-01,1.198125989524138957e+00,2.955861572209530053e+00
1.807806772799622097e+00,1.549647486937736351e+00,1.499129471100385524e+00,2.232195789447478651e-01,3.348905881001199569e-01,-2.008290912298988651e-01,-1.052027121640189522e+00,-1.125889023197263361e+00,-1.789089539080456204e+00,-1.087821162668173525e+00
-8.823942610171482404e-01,9.626196908989685941e-01,-1.210152166445535693e+00,-6.056418090823616901e-03,3.619450242197403966e-01,-1.582404533716440742e+00,-2.475366206666040902e+00,1.768549057745977926e+00,2.694184390996042233e-01,3.294807431164005873e+00
1.380159635081451119e+00,2.733919702796031803e+00,1.748085476091895574e+00,-3.600898746967033937e-01,1.573362260989570327e+00,-2.450185458862069954e+00,-3.628003037804284237e+00,-1.203396723278085556e+00,-1.422602043561421725e+00,-9.765957612691356093e-01
-2.617619429703014422e+00,-3.514386164733764417e+00,3.538042534897384989e-02,-2.292466854781590513e+00,1.031672853536276246e+00,-9.895926511411801130e-01,-8.560678974840538746e-01,6.368234158067701545e-01,6.271470981692079949e-01,3.244549062215242419e+00
-1.400895627579057834e+00,1.498597442159576687e+00,-8.849379446825863527e-01,1.984484971220668303e-01,-6.792337081515222863e-01,-1.124636887341644798e+00,-2.548938251764139018e+00,1.028436965345430387e+00,-9.281104785513707434e-01,1.040654446006930245e+00
-3.328858889875402127e+00,-3.767231643638435656e+00,-9.474310383263530033e-01,-1.720851171898698073e+00,3.653062139351549442e-01,-2.749832025223146181e-01,1.232505683850394496e+00,5.036313412824499069e-01,2.466852429691066551e+00,7.567113608326814234e-01
2.162862540327943783e+00,-1.592528406795292284e+00,1.599971781720627151e-01,3.930506466903888607e-01,3.530992606416373802e-01,1.903044213590179057e+00,2.955072786613219815e+00,2.623139316444271230e-01,6.923203069256528286e-01,1.883728079779622533e+00
1.266218166386712918e+00,2.022133280628236829e+00,-1.308041316824471556e+00,1.313153146423855722e+00,8.258341791569323576e-02,-3.778518442534638533e-01,-7.333797300210062042e-01,1.653023940424906302e+00,5.717141071705308386e-01,2.507705007340248482e+00
8.048422915569525271e-01,6.441893646243860294e-01,-1.237368950572474313e+00,1.073755871807670514e+00,-9.286923402132156447e-03,3.974741470228629336e-01,1.402832350260493799e+00,8.463520150352900062e-01,1.842719040655776297e+00,2.862955612103397218e-01
