1.505397744783491809e-01,-1.719183531203078541e+00,-1.758057764453309080e-01,-1.186992165784790609e+00,5.943392033379543138e-01,-6.743490059480558019e-01,1.523140702192959939e-01,-2.766586078812959815e-01,3.275639811067315166e-01,-1.151697722884497344e+00
4.886447842834045624e-02,-2.058973940603276542e+00,1.010030114786096833e+00,6.705963013122184790e-01,1.557333365345456855e+00,1.171806220193856607e+00,1.003103935579466199e+00,-5.835142558126182877e-01,5.796707611480311773e-01,-1.224968579691319226e+00
-4.095751808465382116e-01,3.961840358218061686e-01,8.184810354751929085e-01,4.300229367861927443e-01,-2.254495634751895405e+00,5.000355319480789262e+00,5.137619671263555787e-01,1.058063901012406882e+00,4.210483987423320862e+00,1.416638960674838410e+00
1.337525985644093751e+00,-1.871736663575485071e+00,2.621807479693542664e+00,7.017376511099104874e-01,-5.860723855597719245e-01,5.070109477878469162e-02,2.654493061379413099e+00,1.371704200894660941e+00,1.857996580277360810e+00,-3.048451679659638369e+00
-1.698527396920117005e-01,2.057581659644203143e+00,-6.662761813443858205e-01,-3.914359960341881606e-01,-1.905276325183734576e+00,-3.029806854440658670e-01,-8.854401887749426825e-01,8.237222081036054133e-01,1.387787459813885627e-01,1.381762907379272765e+00
-9.653382629603761700e-01,-2.147100202732256324e+00,1.513310990371251608e+00,1.267400399762794949e+00,1.228672333575338671e+00,1.655553333132548266e+00,4.767094076562074234e-02,-2.127730440662868872e-01,9.764124128655237156e-01,-7.001256206780501756e-01
-7.878893560802082696e-01,-2.921951302657673555e+00,-3.600765173975386535e-01,-1.075208119554646125e+00,1.584055631780852513e+00,2.038710772482047240e+00,-3.001574890841484100e-01,-1.162797475048053863e+00,1.548943986933568384e+00,-3.463943342671177983e-01
-3.723304813735789920e-01,1.155308652966986926e+00,2.530995900233918849e-01,1.091939796031774490e+00,7.148504902865701061e-01,-4.990236824593969445e+00,-1.316721344980076758e+00,2.250592364241440768e-01,-4.108699377702925482e+00,-5.439274348306180062e-01
3.371382096425290520e-01,1.596605289181981080e+00,-3.730172448759206727e+00,-3.251066786864100777e+00,1.054932316675146614e-01,-3.650258884811163007e+00,-1.851288709852296765e+00,-1.147857591071027139e+00,-2.776123997340205207e+00,1.248341554701717815e+00
5.163068148351562803e-01,-5.458785825195486829e-01,2.029575577549130039e-01,1.641254133562130568e-01,-2.316294294374581786e-01,5.531024294327520963e+00,1.800494153074130521e+00,-4.253298923011613053e-01,3.546370484461093930e+00,7.708628222131093111e-01
