-6.478652416985994922e-01,3.162371872313637589e+00,2.962160392251239963e-02,1.508979904108951331e+00,-2.500691534760214996e+00,-2.839463683977301312e+00,5.935811112819142643e-01,-1.965348137821518737e-01,-1.649764194537094997e-01,-1.011836521204149547e-01
-7.136266563202242175e+00,-2.274040441841231441e+00,5.225841028212224737e-01,-4.567613705764001608e+00,-2.775508865225265964e+00,-1.246492255523174775e+00,9.247480981151201540e-01,-5.307194839270011677e+00,5.197656763870679875e+00,1.123266689212934821e+00
-1.224928553740900927e+00,-2.411495456310750463e+00,1.814580540619910032e+00,-7.544822488962559248e-01,2.469506743304260565e-01,6.431337779443188074e-01,5.337283028004605884e-02,2.628508274663929334e-01,1.162368435274748313e+00,-9.809415054410512980e-01
2.817165687633359283e+00,1.882276466321562536e+00,1.044135354134392957e+00,1.126502213032434030e+00,-1.292994417887965430e-01,-1.391959655862576861e+00,1.795730980669474786e+00,3.463956426178145698e+00,5.280804847801270796e+00,5.508518719694207810e+00
2.224296621312097155e+00,-9.364017090561868595e-02,1.147135062377304254e-01,-1.899785033789413546e+00,2.986676111031608016e+00,8.473452583908674951e-01,-1.191804126087034454e+00,6.116470568090414117e-01,6.002943709282010154e+00,4.405817857130507775e+00
-8.933074511546564844e-01,-2.607846072710552576e+00,2.551104939444323705e+00,-3.826782515200351231e-02,-5.641628074444029334e-02,5.028949357543378573e-01,6.144955159141283207e-01,1.379115792187639133e+00,1.077849339472555235e+00,-1.067480635823551349e+00
-9.332071849059009327e-01,1.187405516529134619e+00,3.871212683650387953e-01,-1.368233684811231143e-01,-1.522744542054963457e+00,-1.669932856208974581e+00,9.601328316967335796e-01,-2.090988285173220051e-01,2.623563899011538414e+00,1.885679045150230326e+00
-1.553155562881750607e+00,-2.701287834361612017e-01,1.078104442474632219e-01,-2.021005695623608212e+00,-2.433251869324709049e-01,-5.230871129128470409e-01,1.695450083455479207e-01,-1.476590336657580327e+00,4.156940480191069653e+00,2.444267516225133718e+00
1.185666765768484260e-01,1.124744830079635660e+00,2.532909579197377248e+00,1.711114860042484587e+00,-6.571007379913269553e-01,-1.831561876646674580e+00,-7.844783678765556711e-01,1.412223854347132823e+00,3.300905783889690470e-01,-2.332267826269916355e+00
-1.169698995915294581e+00,1.914612588316815467e+00,-5.102202858447100198e-01,9.384651703828067459e-01,-1.116191145633027348e+00,-1.371146420527547649e+00,-1.432207815221249403e+00,-1.784855475098634070e+00,-3.544534526897849425e+00,-3.822348821025924881e+00
