-2.207977628117513691e-01,-1.059896159447737407e+00,2.703421438172756375e+00,-1.482164627854945627e+00,1.327048763314082835e+00,-9.022381714813438799e-03,7.301919921658878154e-01,2.570868391318212320e-01,-1.969518456293464892e+00,1.422438269887440931e+00
3.898948277135039220e+00,1.120707495805694842e+00,-4.766429817298391214e+00,-7.181566093750776369e-01,-2.996242164322641344e+00,-9.152647388844904475e-01,6.713460026825194271e-01,2.156404354716635385e+00,3.122153781238988235e-01,2.007648271925776662e+00
9.261156681914303190e-01,1.022948407600503540e+00,-1.448313595264737019e+00,2.231933865832855801e+00,-3.565344060096568013e-01,-1.512080483465991776e+00,-1.333143354812948544e+00,-5.635680493531930457e-01,-3.608829609842113539e-01,-6.054144978719583348e-01
2.012231654241659839e+00,-4.311764508566270360e-01,-2.761738257974834188e+00,-1.454385299651161922e+00,-2.509387397369144956e+00,1.310613387307232314e+00,1.047091933726062685e+00,1.510329515360425923e+00,2.335868910876023552e+00,2.273811062542919759e-01
7.685518064072535127e-01,-3.993143635350808296e+00,-1.648388570520441077e+00,1.501019585299687709e+00,-8.823553959149199599e-01,4.057189702092846240e+00,3.388560449511017314e+00,1.086824837100748065e+00,-1.030387139873289337e+00,6.321396083289557710e-01
-1.338063143650920939e+00,3.260228606044129340e-01,-3.476140104730846697e-02,-5.763835569350511667e-01,8.020890440078709549e-02,7.709472842661679870e-01,2.794348396385963884e-01,-1.018178057606861364e-01,1.084605924350845685e+00,-4.656116660146147890e-01
-3.184484797633956310e-01,1.337016029970007569e+00,-2.587300205825639132e+00,2.644495237041723179e+00,-7.496332223694943675e-01,-4.065081270333633090e-01,-1.100106741992683768e+00,-7.907220466037720996e-01,1.232758517284352706e+00,-1.650921855631602764e+00
3.018013338620433750e+00,2.220550125311396172e+00,-1.372698915110706297e+00,-8.279841066041541131e-01,-1.032461405616525552e+00,-3.375598304822742257e+00,-1.460507459578998635e+00,8.112611118327422988e-01,-8.310159839773116897e-01,1.596016046741145056e+00
1.609253778099897003e+00,1.264658568274626971e+00,-4.590815995702088870e+00,9.284844106322583945e-01,-2.693144056909823725e+00,1.418658714189649506e-01,-3.005845138235010983e-01,6.399074604792142074e-01,2.697589141202193730e+00,-9.066860060428945101e-01
1.863211735126553359e+00,1.060680656316987935e+00,-1.119756788406721881e+00,-1.717707059010511461e+00,-9.867524063975684490e-01,-1.280600134089308284e+00,4.360718672800106832e-02,1.179018339892195621e+00,-2.171546730902579048e-01,1.632034169729386086e+00
