-2.442057731410719690e+00,3.758737622889538055e-01,-1.562258301515423164e-01,3.091675246090703766e-01,5.360818879577629037e-01,-1.869838069118720192e+00,-9.720935181184643392e-01,1.164529761520458395e+00,1.956402493592489300e+00,-1.397517765087104236e+00
1.878869137313714521e+00,-1.776085407363985791e+00,4.040353144100569116e-01,-3.915307378797127758e+00,-1.633665900816013039e+00,-1.474125620358285538e+00,5.154627701675352114e+00,3.900127361638630941e+00,-1.283346681105859810e+00,-6.446734226318079131e+00
-1.543467289088821692e+00,-2.086696940400211808e+00,7.660051096981730367e-01,-8.462873810719779843e-01,3.573202291655488416e+00,-2.533519045668519265e+00,2.163981677085521582e+00,-4.984851054968350681e+00,-9.058253728428943300e-04,-1.551215036018469107e+00
-4.171067307876493047e+00,-4.854806925867968914e+00,2.791898603491776321e+00,-3.560716851364190916e+00,-9.947293695953395298e-01,-2.894853055417137444e+00,4.220581042586826648e+00,-5.880863594956132340e-02,3.089603502673433644e-01,-4.313767206609473881e+00
4.363432855626747653e+00,2.873534757280288066e+00,-1.611825818834470958e+00,-5.471999005815921802e-01,7.216209057847062791e-01,1.556818160460786471e+00,-1.057265287571089951e+00,2.457704266424789452e+00,-1.739609300943476766e+00,8.739799015847379282e-01
-2.443460616181400091e+00,-8.778013768970039932e-01,1.716815744280357769e-01,6.710248259024510498e-01,3.378544170501517119e+00,-2.578076234759802077e+00,3.071275805770885547e-01,-4.280695956301141081e+00,1.336041521946569777e+00,-8.571139611666650504e-01
2.339007896343119786e+00,3.495235070716919967e+00,-2.094082130956165688e+00,3.696240401476285964e+00,-2.164659698825807332e+00,2.636711777967496229e+00,-3.077477061360116561e+00,2.155786785440535702e+00,9.107979610999937803e-01,2.314284336144629250e+00
1.622633851930621818e+00,7.089977896763883791e+00,-3.637441728776490191e+00,1.042914397850685848e+00,8.656094683461425243e-02,-5.887727232237596198e-01,-5.809476947150903570e+00,9.932190196009456074e+00,2.542779788576973399e+00,-1.057948935267753576e+00
-2.910731280191070081e+00,-4.148608966076429816e+00,2.813896206510017262e+00,-2.022483457049348843e+00,-3.326108827647963118e+00,3.325962394437124159e-01,2.374722738708722414e+00,1.454819275745820872e-01,-5.582387813837654811e-01,-2.992932962212820902e-01
5.771977874566955435e+00,2.972959734252879294e+00,-2.059562471611139145e+00,2.656559684917713771e+00,2.929037337324811308e-01,3.757986727946673877e+00,-1.353931495001377883e+00,-1.886794588575402720e+00,-2.061652522428722101e+00,3.782471851398472751e+00
