-1.142713727650607636e+00,2.738878728451292766e+00,2.193686740359948484e+00,8.697733265452917140e-01,4.688506556082736587e+00,3.056004794030181770e+00,-4.011687856507294647e+00,-2.399868966253380087e+00,1.101415976795438567e+00,2.071787172921848885e+00
-1.102962376302054182e+00,-9.423523614267950155e-01,-5.016419421264894041e+00,-5.536000343066437290e-01,-2.317023461082243330e+00,-1.781407703303945045e+00,3.281098336383768022e+00,9.690529344693449287e-02,3.778582874602709474e+00,-2.502868829481094348e+00
-2.127283734960846218e+00,-4.288127053447255421e-01,1.756844740553771711e+00,2.809664852325644446e+00,3.780821338256439845e-01,-7.617267004191319302e-01,-8.359532143486463340e-01,-1.073189411987438779e+00,1.707929466314204614e+00,-2.435247219406122543e+00
1.656165394313564132e+00,-1.245081062359763013e+00,3.926491164389990240e-01,8.302048150502676638e-01,-6.847951289639089278e-01,-1.239160310524555442e+00,-1.721007474497485257e+00,1.461752998564726791e-01,-4.918906722701389178e+00,5.649221792728525982e-01
6.392992099125718752e+00,1.042666263358888123e+00,-3.906625547746038318e+00,-3.892997648443710101e+00,-4.299117535692809078e+00,-1.380992620527519588e+00,6.482329370578021610e+00,3.154570970128308449e+00,-2.812026699031983323e+00,3.322046322845959132e+00
-2.410400169296322836e+00,-1.292416724678189022e+00,-2.524757389526339768e+00,1.963039257613872435e+00,-5.930315060066373434e-01,-1.714767376530885068e+00,-1.851544184308531737e-01,-1.338678894646643691e+00,2.388421214160656891e+00,-3.181268574935606885e+00
1.043664530809267355e+00,1.442941006945622107e+00,-4.539446174425544989e+00,-1.382183709625206092e+00,-4.758157387988623532e-01,-7.647169147284169077e-02,2.410883135926904064e+00,-3.796016193857943422e-01,2.366685834401710320e+00,7.572217135554186740e-01
-5.493893816810396791e-01,-5.235857030573597415e-01,-3.078101543894645076e+00,1.336527963394293694e+00,-2.343418829261356695e+00,-2.394957000453004969e+00,3.134486979090966852e+00,-2.403178285084835997e-01,2.963212470099488183e+00,-2.764566538089412884e+00
-1.924920880970723003e+00,-1.893577286446553654e+00,-3.469378635040933911e+00,3.273126829562804097e-01,-1.577342070201317892e+00,-1.739660823495557951e+00,9.101184655049154859e-01,-2.759854489490907725e-01,2.063444928842090853e+00,-2.862536464850541140e+00
1.496379158846629087e+00,2.325330821918622171e+00,2.306406873207690111e+00,8.726846910725167827e-01,1.432619228206303941e+00,1.030341810518605961e+00,-2.617255978245953685e-01,-5.615092694745538182e-01,-4.071205469746575489e-01,1.864681526732403727e+00
