-1.256538800682842627e+00,-3.182137466294849837e+00,-1.346510016028331647e+00,-2.967428693800906014e+00,-3.871422975642683451e+00,1.421455424067061379e+00,1.440196775198663570e-01,-2.495063031458983005e+00,-2.582792893808873114e+00,7.272544376208404104e-01
-3.892277240839264518e+00,7.205824262669689728e-02,7.001864608972060422e-01,-1.897474629090462273e+00,2.706090876960601577e+00,-2.112130372466552775e+00,-2.632304718016039047e+00,5.871889974391255596e-01,-3.330654368089688289e-01,2.297847738744020152e+00
-2.521926006880523263e-01,1.276730645536521935e+00,-1.691763491339665526e+00,-8.189261504481150089e-01,-9.637448922219572500e-01,5.518777888742634197e+00,2.447902578173506427e+00,-7.787013209626715282e-01,-1.067341027493258876e+00,-1.645969894516430498e+00
1.366673575871174551e+00,-1.950209913982859478e+00,-1.043805073579619602e+00,-3.019542668067555224e-01,-1.081729017596333664e+00,-5.589058347917053915e+00,-3.408546013646125417e-01,2.032559913077925273e+00,-9.196921263357176191e-01,-9.177722758645333601e-01
-2.681797234596042578e+00,-2.995407859746140211e+00,6.249524947482469894e-01,-7.498771967418238482e-01,8.705130253490492853e-01,-2.126640037464366362e+00,-1.124325015497639635e+00,2.088348948089649326e+00,2.704980312711128931e+00,1.161920960088359323e+00
5.054376633121455270e-02,2.832416783780137948e+00,-5.111316978018143331e-01,5.313821549221530161e-01,1.321841649535345109e+00,3.706974391565459381e+00,1.446257750975919798e+00,1.237541097358026976e-01,-1.806185156269608100e-02,-1.203868335561864678e+00
1.634336517436340008e+00,2.167127981212677135e+00,-8.870326135398612366e-02,1.931209896919350577e-01,-6.510968993946651961e-01,9.950161897316265325e-01,9.821157322555163632e-03,-2.327190687254407031e+00,-2.619736369076118176e+00,-2.979566372740694025e-02
7.179122651892323459e-01,-1.164645908958966025e+00,-1.241794892865416777e+00,-9.870988072490658460e-01,-2.441933780618682270e+00,6.346265218615616543e-01,9.034535695227297047e-01,-9.264126880104538442e-01,-1.681414797470680789e+00,-7.022085197533753931e-01
-3.203951975875941605e-01,-1.473056481366981751e+00,2.755061706258421061e+00,1.822883535243870146e+00,2.656179657273925354e+00,-6.633617433283253817e+00,-3.024976983058407232e+00,2.274616105958649825e+00,3.483330136300512248e+00,2.074174598647998469e+00
-6.340346025108134498e-01,-1.397726839564471080e+00,1.230120714589934217e+00,4.909178011219234028e-01,1.035634650500121934e+00,-3.292492041270307812e+00,-1.529210423729093105e+00,1.203769262837959486e+00,1.807470568112686804e+00,1.154586430143032860e+00
