-4.189404160170070668e+00,-1.614240088466037948e+00,6.318744373838727224e-01,5.652542144194629831e-02,-9.659165351585401460e-01,-4.564778739516951456e-01,-2.468056346942440749e-01,2.313453911034781374e+00,1.090478712129909322e+00,-3.332579155127101345e+00
5.464980508116194180e+00,1.705171568714865804e-01,-2.802859543787214136e+00,-4.262105104329514838e+00,5.530352892667290909e+00,3.080913610049310081e-01,3.292812372387066588e+00,-6.359549645607874169e+00,1.266623091324785788e+00,1.111395053899973506e+00
7.713770161202156750e+00,3.659513706390213894e+00,-3.651258129825480037e+00,-1.440370790868025663e+00,-3.005457166301019445e+00,-4.401079556025413453e-01,2.121987113340823239e+00,-9.007846489278492186e+00,-1.803308138726036125e+00,1.193485841827265137e+00
4.760288516706896900e+00,4.431229269566349660e-01,-2.804880703563479738e+00,-2.375191153915914288e+00,1.842239032716699088e+00,-2.474535498049801774e+00,7.083317665250441486e+00,-8.921807338820608280e+00,-1.077359151026163753e+00,-9.833019130019600151e-01
-1.878573315919903619e+00,-1.869813236205032592e+00,1.086696900197760662e+00,-7.315055528160351317e-01,1.351301783160309800e+00,6.810072898942184372e-01,3.548935586191516722e-01,1.299586521009294948e+00,1.459788271829362660e+00,-7.239118656617364866e-01
2.462570689137509206e+00,-9.660558567199046820e-01,8.946024326751400579e-01,-9.219221177256812227e-01,1.938918831949157928e+00,9.071641240425379893e-01,2.562738131233854855e+00,-2.490344895735551400e+00,3.356303121676119106e-01,2.313685971132152019e+00
-1.370953416046991391e+00,6.265888806669055455e-01,-2.227739218438139213e-02,1.838361596467192660e+00,5.737827101272947594e+00,-2.276803149902675738e+00,-6.514749336655453194e-01,4.668456288948712007e+00,-1.845568693817714934e+00,1.890891182484288002e+00
6.283039512722633502e-01,2.642986964147954865e+00,-1.005036317453685157e+00,1.843058364760458812e+00,1.391474623176561343e+00,-8.401179781718305373e-01,-3.543791908333661755e+00,3.343485558715948880e+00,-1.900369663945928433e+00,2.190326325334018165e+00
1.591612273314814141e+00,4.185605967258766991e-01,-1.335194044923802004e+00,-1.662653485987248381e+00,1.931153630086160478e+00,5.019982106478094730e-01,-4.543010418657729699e-01,-1.203295761705487577e+00,8.177162118206625641e-01,2.151155521161336182e-01
2.434663858410866855e+00,1.589701028603729638e+00,1.968307508697075825e-01,1.340327505280435316e+00,4.426038054533247279e-01,1.331347681345922129e-01,-8.504562663827245350e-01,2.716303525444937472e-01,-1.616185768108808540e+00,3.372605117111282080e+00
