5.710528517177836383e-01,9.572956156196137378e-01,1.315671219768879574e+00,3.266799734951405298e+00,1.425067687974999275e+00,6.719358497511404016e-01,-4.759444937232834016e-01,3.240826132183280972e-01,5.066034160113556339e+00,-2.264238999645660666e+00
-1.851861366029094791e+00,2.033127793647115489e+00,-2.079472647193884249e+00,-2.729261974032230587e+00,-1.523804257388151395e+00,1.657373513642157237e+00,-1.415429332523778561e+00,1.518041371975385134e+00,8.315732251032527111e-01,-4.597146516085133250e+00
5.389603831394165212e-01,-1.844888146842041110e-01,1.295019323542722089e+00,2.149423627544241322e-01,2.155750423216571843e+00,9.895071845489266105e-01,1.246071692286048416e+00,5.178983292754493206e-01,1.712292039805947963e-01,3.522499631802339382e-01
-6.542589964833697702e-02,4.555484438476390396e-01,9.792943711768655746e-01,-2.214556768977315182e-01,2.177620232329297689e+00,5.943296475535154721e-01,8.915516357709222239e-01,1.185365674188675333e+00,4.010307622708599862e-01,8.601324746885348482e-02
2.065338131966587554e+00,-2.940745166267947130e+00,1.904672060637842002e-01,4.182686643697151041e+00,-3.856940452323604163e+00,-2.406266449713117428e+00,-7.357702502318941296e-01,-3.414526150264291182e+00,-3.123843828604839223e-01,3.270071755321194207e+00
4.081399393638051598e-01,-1.505098134437594659e+00,6.629232915598645137e-01,2.835568408235787707e+00,-4.291059108766692276e+00,2.886240463292031877e-01,-1.425567334298600830e-01,2.467185877054818732e+00,1.016716980388320257e+00,-3.460128531961618181e-01
-1.546993686758068920e+00,2.054439995650118256e+00,-1.878476491726392750e+00,-8.040231801359993824e-01,-1.631114916570308493e+00,1.172916661164873607e-02,-2.142545047372383493e+00,5.922592921608492711e-01,2.274509207151567569e+00,-3.618630061220690308e+00
-3.120661631637937639e+00,4.251448706430900337e+00,-1.511072878778161765e+00,-8.232282164924017209e+00,7.469471672616610824e+00,3.022907118182153741e-01,7.591405505483214133e-01,1.154808360067935080e+00,-3.088521029163196818e+00,-6.256572216076269344e-01
1.462702216716742054e+00,-3.335402036469734099e+00,6.241778049532643591e-01,1.400885098661382333e+00,-5.070179580562037991e+00,2.431144289324066232e+00,1.191010727941602454e+00,1.184344798560703405e+00,-2.049217002876203786e+00,-1.907493834391931486e-01
4.918503834479089898e-01,1.023451974555901894e-01,8.490324231112986730e-01,2.487826340723952701e+00,-4.398647889821278439e-02,7.723969396662333509e-02,-3.211587628331465938e-01,3.149459565968511510e-01,2.814598146519903032e+00,-8.463985456700791055e-01
