2.490929377911256015e+00,-2.758944290631966556e+00,-3.561729290525077474e-01,1.596173548558712074e+00,5.574037596994494415e-01,-7.900865410477814210e-01,-1.125657176966176509e+00,2.892618706847032151e-01,8.305729012146116919e-01,9.213603444750784188e-01
5.277605530539044576e-01,2.848475891334981025e+00,-1.318123484287757052e-01,2.253793730450167621e-01,-4.325469281264657240e-01,-6.051089159300775400e-01,3.763007567535900932e-01,6.652272781539448898e-01,-1.072366070259454629e+00,1.145538833305557613e+00
3.535265350939755358e+00,1.301054224785176405e+00,-1.280625659797835603e+00,4.699563254432478909e-01,-2.678574287210987670e+00,-4.112359385702416548e-01,3.373209305848396400e-01,1.595933017423001532e+00,4.867351502945779229e-01,3.067973553333930958e+00
-2.065362553021945047e+00,2.979033204882983732e-01,3.038967914958075056e-01,-2.053636035015884986e-01,1.490575805787577535e+00,-1.354536438411113597e-02,-4.229999455979935319e-01,-8.761860590150466477e-01,1.437836107504008920e+00,1.604893305894584454e+00
-2.393411438309483330e+00,1.216988014462672574e+00,7.338794858784624120e-01,-1.434726415218458562e-01,1.852063092033343183e+00,-1.226963405427366205e-01,-3.480029258957702543e-01,-1.132391706427528399e+00,1.150720034066269992e+00,1.781812867748606699e+00
-4.470049812755663154e+00,-3.241683225139675439e+00,-6.573730059785304336e-01,2.024563582587535215e+00,7.184343433724688310e+00,-2.361667547411509194e+00,-3.263242355905766612e+00,-8.656197941857628475e-01,1.856016549793884307e+00,1.748820875922094675e+00
6.760738433010889281e+00,-2.602379459289331898e+00,-3.476829465916868589e+00,4.569254119741874121e+00,8.858646938645808877e-01,-3.903350003791064449e+00,-2.939933599992813562e+00,3.390641304019169855e+00,1.347132680409245165e+00,6.481874983110663457e+00
3.864873963159479953e+00,-6.567768583620364753e-01,-5.361585690111281277e-01,2.141326849747200889e+00,-4.760750060994736743e-02,-1.544199390791083815e+00,-7.253467788743227507e-01,1.356848375518760808e+00,-1.517196556409435848e+00,1.995838011353099350e-01
-1.377683357360406813e+00,-4.782995653193094832e+00,-1.370211293901107130e-01,1.514387955540174691e+00,4.000775707660587877e+00,-1.007896319202147284e+00,-2.185723574559819138e+00,-7.772540262953940848e-01,1.268155301870261153e+00,-6.638454694577854420e-01
5.416504537446926310e-02,1.072501056297378907e+00,-1.266493973610715584e-01,-2.995141186493991414e-01,-6.447530948791473371e-01,1.087773737481534386e-01,3.417686261623089083e-01,1.942942091877468136e-01,3.804549688932490868e-03,6.165125315477610890e-01
