-1.925999247298517680e+00,-1.534262685467294718e+00,4.578169294957378455e+00,-3.118379906861381112e+00,-6.934367152625725561e-01,-1.329906313681574526e+00,-1.015590399690199597e+00,1.627475231006224154e+00,-3.567238344110216897e+00,2.576095910415256540e+00
3.767005678091997822e+00,-3.263206430779058476e+00,2.921195335633711476e+00,6.751709068510526990e+00,4.348495466059216774e+00,-2.302703817513960693e+00,9.241866243607224085e-01,-1.989165873774420890e+00,4.581717610725783985e+00,1.451258036857453956e-02
2.102477031979372857e+00,1.991939208383894488e+00,4.034839167902807833e-01,1.219576694528747562e-01,1.494843477736985893e+00,-1.902035563204965474e+00,-2.366635943914698614e-01,-2.685274170424818863e+00,1.764014731505431754e+00,2.411046247721778002e+00
3.251846070054238980e-01,-1.169252655102811095e-01,1.875031487856289925e+00,-2.190678622324548019e+00,-5.017450157901145458e-01,-1.965213924329511030e+00,-7.789681973455436781e-01,1.591633044602802638e+00,-2.667983028158389835e+00,1.285676505587338703e+00
2.507693362373532686e+00,1.266731520267281086e+00,-3.702727306554605136e+00,2.418206489101612178e+00,4.655330406408056731e+00,-1.486748081795625787e+00,1.222754709574471521e+00,4.322290278352430293e-01,3.683033893101244072e+00,-5.310546764833666833e-01
4.000658462362917334e+00,-5.529272730428624882e+00,7.707902965097638059e+00,3.615845823872711140e+00,4.774079468976252016e+00,-6.235078654522881791e+00,-4.656742415286594383e-01,1.904859375701820845e+00,-3.499689596368248112e-02,2.224690218972935174e+00
1.046574637206832033e-02,8.607306561813105050e-01,-3.728981227739077919e+00,3.031295490492850186e-01,2.083631419344485369e+00,1.220264842929820848e+00,-2.987515430211211687e-01,-1.641924513168046884e+00,3.699512555411105019e+00,-9.118682566468037098e-01
-4.510661068326507817e+00,-2.255888030447828818e+00,4.251992168385622328e+00,-5.890483625681977031e-01,-2.449809148344615384e+00,3.530137522061951749e+00,-6.313702181424675208e-01,-3.009008537345486900e+00,-9.124977414120440111e-02,1.348132549330764762e+00
-2.355092605748742685e+00,2.721530631570716618e+00,-5.186523032859834181e+00,-3.544585893965944923e+00,6.751673994410979374e-01,2.162740789421948584e+00,-5.223237459136689242e-01,-8.963435984764341058e-02,1.273225948296969889e+00,-3.296810265929235872e-01
-1.057655593541903194e+00,1.150076055927228058e+00,-4.611394950258445036e+00,-2.087014966791103932e-01,-5.914397473386555637e-01,2.261100681963144954e+00,7.438234987528816733e-01,1.540208905391333261e+00,2.906052298180684668e-01,-2.741976891042229969e+00
