-1.828955963544791841e+00,1.816331368104961985e-01,2.970459586346057002e+00,7.393793137526825099e-01,-1.590803994457688608e+00,4.499389744408059943e-01,1.353764408117777984e+00,-8.685735246508294871e-01,3.085101072416600587e+00,2.531295415853399344e+00
1.024600005560878824e+00,2.290866966830531926e+00,-3.116290055628877731e+00,-3.111050365648234117e-01,5.667656583552501459e+00,-2.748218229353121878e+00,9.341008458680678528e-01,-3.351856819134836629e-02,2.508044190708730969e+00,-3.010107280204583624e+00
1.610290213860957387e+00,4.841441428264603442e-01,-1.060778702943130591e+00,2.515585170185584474e+00,-5.307794908160094138e+00,-1.191079701336852370e+00,-1.193782712527945655e+00,-2.119075119361772952e+00,-7.823167185413952840e-01,3.651929777710115621e-01
1.229007916880369561e-01,9.267287165680459290e-04,2.078356003067409752e-01,-1.597202205527247454e+00,3.228233820097397455e+00,-2.180724571121232636e+00,-4.020648895600548722e-01,-5.874667176619957631e-01,1.488376277258109281e+00,1.409814317943693274e+00
9.326756039878121296e-01,2.762693312139707924e-01,-1.371768753052687861e+00,2.022013474230563546e+00,-9.583573446467056334e-01,8.762055284478947881e-01,-7.983091317023657263e-01,-2.858194528397298484e+00,-3.251512395403986511e-01,2.582412047830991431e-01
-2.770404023493691525e+00,-9.421928949449714930e-01,5.413993835327440607e+00,-3.861159670749145345e+00,-1.556094496747468137e+00,-2.561105401015337790e+00,1.211985855253459032e+00,4.140105460093131740e+00,1.789204622390043076e+00,3.366646278161897321e+00
-2.157695417886694944e+00,1.728792894267875135e-01,1.898205742478624058e+00,-2.064925260457949996e+00,9.900553920791732576e-02,6.547307907851258602e-01,7.342069629362729666e-01,1.517411823890090661e+00,-4.339045436197066508e-01,1.342048823029085902e+00
-1.368954696750196875e+00,3.874930649855386822e+00,-2.222756539963083311e-01,-2.745435734596444188e+00,3.659223222665177300e+00,-6.049995581459221228e+00,1.364682314313135914e+00,-1.947032619108222395e-01,4.253381874109808614e+00,1.314823771686258747e+00
-9.739671243498396747e-01,-2.315836584225842376e+00,2.376056784957093271e+00,-8.855672947054429311e-01,1.866245989945662265e+00,2.483937870751121046e+00,2.894299368820593688e-01,1.042503983989415683e+00,2.396177058284830186e-01,1.096585784526938889e+00
-3.420986235008613985e+00,-1.649919772422077935e-01,3.367405954457195705e+00,-3.389848700393474523e+00,3.894294450761608850e+00,1.045175613833266182e+00,2.079686039575010970e+00,2.812176505071268373e+00,1.781093315064406157e+00,1.458673610241903118e+00
