9.360767629625708963e+00,-1.266272821056700026e+00,5.269336066261079976e-01,4.188090366245761920e-01,-1.247102326678779960e+00,-4.715783084904649591e+00,-6.324241579990698803e+00,4.470069418862340882e+00,-1.322255504791984615e+00,2.409229064302029766e+00
4.085679077204448895e+00,1.268758707207184644e+00,-1.598292343549249983e+00,2.188860308088822482e+00,-7.679037317959966913e-01,2.776101685132376762e+00,4.522318892323257122e-01,-5.024288135216905538e+00,1.149291447849776215e+00,-2.085734258629022175e+00
-1.660244977689394608e-01,-4.244375611614785715e-01,3.826870409014439200e+00,1.729428596340706892e-01,-1.702621780933020190e+00,-2.074128649436335792e+00,-1.338231983181110696e+00,5.078048991489323427e+00,-6.926299615487701011e+00,2.812360378341753453e+00
-2.952559290683749005e+00,-1.587679672251520291e+00,-1.525666108376080299e+00,-2.189711454947788738e+00,2.357208751426370874e+00,-1.375547618332433608e-01,-8.260983838170420368e-01,1.399819744850014036e+00,2.730664575125369975e+00,1.077702340581325968e+00
4.758738134618520021e+00,1.810913740613341871e-01,4.113897728697161749e-01,1.513186516529150039e+00,-1.073493654199617398e+00,3.279618095653072385e-01,-1.974904889693245513e+00,-1.322720688265860867e+00,1.441700491707968323e+00,-1.088588379653745886e+00
2.272883849335204598e+00,-1.550505981790296361e-01,-3.922186676009625228e-01,-1.112410736844746464e-02,-1.690497554520091539e+00,-3.007855121002318000e-01,-1.308059854903334651e+00,-1.371538519525735467e+00,5.019572577793657286e-01,1.356189283703973774e-03
3.108888458985332726e-01,2.733087004450021507e+00,-1.971051263055840108e+00,2.253062385458681760e+00,1.004574414500758461e+00,2.207999751126098253e+00,4.666964391354537334e+00,-4.282405098900482265e+00,-8.683343111115586488e-02,-2.830311627852537093e+00
3.779919669305565222e+00,-1.844302023101237920e+00,-9.070241793767926941e-01,-8.256733987589617296e-01,-1.053938448449055210e-01,-9.013796322094481672e-01,-4.446585736806266453e+00,1.877230237658694678e+00,-1.141849226783586468e+00,2.767277838942361790e+00
-6.054266154091618723e+00,9.363308212299775724e-03,2.145027288270228372e+00,-1.708476362298744222e+00,-1.366345168041926961e+00,-1.670898265598104837e+00,2.220535784986517047e+00,2.121287266449071840e+00,-2.304451830678705626e+00,8.421541092895682423e-01
1.130430042245535782e+00,-3.740894058949554291e-01,8.917339184178061373e-01,-7.510952455606028089e-01,-1.090769710504377876e+00,-2.914683337621507775e+00,-1.384576003883622564e+00,1.134120131139326082e+00,3.666531316347923841e+00,-8.912325866584792644e-01
