-2.587209754642615600e+00,-3.359955076869517443e-01,1.734708947068512863e-01,4.106856163992284037e-01,3.195510847392731835e-01,2.814066646600216215e-01,-2.033269336040068431e+00,-1.522788282321505982e+00,-2.617948371119746209e+00,2.298490878819558603e+00
6.549440209717316552e-01,-4.818414093224024697e+00,1.529824108299332242e+00,-5.305135563175245039e-02,2.069758419015732542e-02,1.438156262545728259e+00,1.995003183446056205e+00,1.374032857734800439e-01,-1.455230594671817812e+00,-3.643801416926735204e-01
-1.171167665428295424e+00,4.492949725931952853e-01,2.399360745992380917e+00,-3.526994241630168947e+00,5.731866168975430220e-01,-3.304694254741349924e-01,4.160295442019880774e+00,-1.147278675537999337e+00,1.583068202256567636e+00,1.745915839835078920e+00
-1.084679203013747761e+00,1.911313992609824597e+00,2.051377551410636269e+00,-4.984696805560142607e+00,5.312958567738302884e-01,-2.333015677445940739e+00,4.403079913914731414e+00,-7.086211443796004428e-01,2.946975599778167698e+00,1.244022163956065019e-01
2.137421505417465895e+00,-4.367240795358093841e-01,-2.015173104371637436e+00,2.233103117402621240e+00,-1.899758615561646824e+00,7.122483152603965584e-01,1.358710175126160435e-01,1.470304001973840036e+00,2.437301527281044322e+00,-2.371107731550706976e+00
3.086253299021728402e+00,-1.883144563796486981e+00,-1.112244505573586784e+00,2.053868004278086801e+00,-1.723058030149192899e+00,9.887269280338397692e-01,1.029995240508029264e+00,3.588241514676536958e+00,1.989884873738172688e+00,-3.758440180003649544e+00
-1.460244348553766836e+00,1.174818130198003852e+00,-1.516613367964633419e+00,-4.370193082506937943e-01,-1.466724583712377461e+00,-1.865012212987616991e+00,-7.054585614231863033e-01,-1.508994976531690124e-01,1.558503692137955587e+00,-1.266953639890659566e+00
-2.689917320150393198e+00,9.851197408692268231e-01,-3.125455740055679055e+00,2.444266857380607227e+00,-3.066505533279757056e+00,-8.539222907665660056e-01,-3.403828442924170528e+00,1.382495172685528573e+00,5.944407818875623306e-01,-1.364582165506287970e+00
-6.059596684408761202e-01,1.740201637771990661e+00,8.400491836904592224e-01,-5.814798959331145545e-01,-2.551381210650982556e-02,1.256362938724103540e+00,2.013236233477667003e+00,-7.240550525746090038e-01,1.522954667644127014e+00,2.534819886999697847e+00
-1.954982674836479584e+00,2.973087360278479974e+00,-2.585066990440780366e+00,7.559821277540330620e-01,-2.537237864056974601e+00,-1.789852062804536237e+00,-1.825468531005824513e+00,1.732874507058062896e+00,2.398932131733622519e+00,-1.762928698802068705e+00
