-6.795939685753820125e-01,9.536831660660569643e-01,8.492629354633336458e-01,-7.125252144316508440e-01,1.839048802082459799e+00,-1.765177461511954760e-01,-5.110093823875994090e-01,1.539057260761563128e+00,5.764937250259984935e-01,3.082393764602910480e+00
1.836442664626504850e+00,-3.621196520019557052e+00,3.388610239035888316e+00,-3.583537573569171464e+00,-3.549115526784632824e+00,4.855867360088844897e+00,1.299712208740420307e-03,9.062885099690225488e-01,-1.645463987540762008e-01,-4.883517967248987013e-01
-1.861649807929312006e+00,-3.301608472711011211e-01,-1.661356358413822010e+00,-2.044363759658720525e+00,-2.339638278582659714e-01,1.126846111286301744e+00,1.556564863350837546e+00,-4.241784594874422609e+00,-1.502754924948651150e+00,-4.866629519226266076e+00
-9.499362298282449935e-01,-2.246511109089228242e+00,9.814135349682450160e-01,-2.490907097587579777e+00,3.894720839100503929e-01,1.782495522921650366e+00,-5.063662589457304519e-02,-1.805876117613252507e+00,1.063783306372052317e+00,4.956925390980157498e-01
4.754570440323512059e+00,-4.221633664717156620e+00,3.252722701669432670e+00,-2.001938029388897977e+00,-2.106860463341600376e+00,-1.462140787927907803e+00,-5.762895621875533392e-01,3.032054504753754820e+00,5.112624983700118086e+00,1.433588703335884729e+00
1.035499254484462561e+00,9.034262939895311151e-01,3.600670215597130686e-02,5.617853857111692051e-01,2.426837722044996593e+00,-1.984847074756213026e+00,2.515762674704565272e-01,-1.162384747662531082e+00,4.280454999313866082e+00,-1.887797286152472775e+00
1.249332932306656208e+00,-6.227917868620947983e-01,1.507491572523641521e+00,3.569735920709122268e-01,-7.851666156005436825e-01,2.540408480532408309e+00,-2.131316367066203588e-01,-3.602049262166763244e-01,1.238304982456729819e+00,-1.397042889068563110e+00
9.306425873572908847e-01,2.040626568249042538e+00,2.027777882515396257e+00,4.233393437831004746e+00,9.075687189770189622e-01,1.727393091766896704e+00,-2.200461383855988107e+00,3.918470765353168073e+00,4.525520832161271656e-01,5.270714339703580720e+00
-6.062378220859602429e+00,3.823700090433730825e+00,2.741635460818219183e-01,2.036643273353585304e+00,6.010916521160767800e+00,5.237283811282907209e+00,-1.689307975889692726e+00,-2.564865356955671860e+00,-1.337692074927379293e+00,5.012963931809744977e+00
1.585762130031097783e+00,-6.484495388367222946e-01,1.346485382250921514e+00,-4.328629876070680393e-01,-1.270278999914717266e+00,-6.636734587546906372e-01,-5.925751817518535303e-01,3.596814285581408033e+00,-1.481548440802841760e-01,2.988794247460704767e+00
