2.092653830136186333e+00,7.041905804130275115e-01,7.553591424562442480e-01,1.519114214661684947e+00,1.000035105203298080e+00,-5.083248235625381639e-02,-2.379413666209246436e+00,-1.094501287766338038e+00,2.072347662927748857e+00,-2.264754240724098366e+00
9.707177465295419028e-01,1.484645537026242801e+00,7.522311023888998971e-01,-4.910716139029619454e-01,-9.903282075665150730e-01,8.773401840651083583e-03,3.592819680051665410e-01,-1.920808174216838138e+00,2.392737511545960594e+00,1.151112796152743867e+00
-2.026621575693979160e+00,1.944149854000893241e+00,2.703146077069791708e+00,-9.411285685477749352e-01,-5.843635735330006131e-01,2.106828430078029335e-01,-1.677984705986734992e+00,-1.699178987170747224e+00,4.513027983973103008e-01,3.442377877685421916e-01
2.368509352478199492e+00,2.385458352183325914e+00,3.010336204661443471e+00,5.828782662477224319e-01,-2.560363110496846617e-01,-4.420404792706925656e-01,-2.387732460881502927e+00,2.240322044642028276e-01,6.020832993581795911e+00,-1.496549938478587416e+00
-1.318106533555226001e+00,2.201400796471855603e+00,2.037167212397885230e+00,-1.794858230002230881e+00,1.567439143768415560e-02,-6.005108160740788570e-01,-5.130613557030059724e+00,9.133796480766904757e-01,9.144279540390111150e-01,-2.611113698577245401e+00
-3.966382969454026686e+00,6.054395832717718307e-01,4.471335539230011591e+00,-3.288299345769383764e-01,-1.260832990832869149e-02,4.677572924539208366e-02,-1.179030835886532680e+00,2.511258343541820093e-01,-4.260620655189706341e-01,1.537594446397222425e-01
2.451999705820360198e-01,3.694949162461230507e+00,-4.664330759494430545e+00,9.780458891952646949e-01,5.876165006731880469e-01,3.293892112537865291e+00,-2.880269177247832602e+00,5.062138564473178448e+00,-3.189665940128404653e+00,-2.117694936842910547e+00
1.989081476043031982e-01,-2.357449750145482970e+00,-4.186219154826193112e+00,8.705149712252698846e-01,1.122877887947123288e+00,5.413562256133050976e-01,1.315622422639097566e+00,2.732991726308312774e+00,-4.235761160718146456e+00,-6.757589865870975432e-01
-1.433182366730155310e+00,4.497287035249051268e-01,4.234089211497166438e+00,7.668990811328301183e-01,8.377573261904063262e-01,-4.132778906653077344e-01,-2.661053862133987202e+00,-2.177574189436863872e+00,1.048181881367863832e+00,-1.510206575935598039e+00
3.862245924804452724e+00,2.638013828479622180e+00,-4.287310244869018128e-01,-3.175962667910914305e-02,-4.235142339302354064e-01,-1.816346744622663323e-01,-2.519504725605964168e+00,2.319909313643766513e+00,5.291824788852583339e+00,-1.990518632508818664e+00
