-1.169289281856179308e+00,5.465049319212211820e-02,-5.240760469428691337e-01,-9.808909736383192302e-01,-1.344702183931460127e+00,-9.447472492357709140e-01,-3.765367986724241778e+00,3.357346659298679814e+00,-3.542855601979753910e+00,-1.338803273982218212e+00
3.232941859355483949e+00,-5.089559711395002850e+00,-2.519611392946398354e+00,4.005581261214752331e+00,4.615916323935054244e-01,-6.135880051566766635e-01,-1.773055624537378305e+00,8.130404455415107812e-01,-2.577685405590731005e+00,7.678087634053034627e-01
-8.958677635907756898e-01,-6.082436480013811986e-01,-4.417586941966700764e-01,1.679026526384050921e-01,1.393303801981486956e+00,1.532618963460961492e+00,-1.864590977701274355e+00,-1.057145556763360084e+00,6.420371939251620086e-01,-9.472803418570456824e-01
1.394361016074019410e+00,-1.844197096479680997e+00,-1.824084703149915221e+00,1.086080356912145772e-01,-1.000743653197901262e+00,2.501816622746788621e-01,9.507974621962356210e-02,1.792288609056074122e-01,-1.017046117364167612e+00,-7.001811287645219872e-01
-1.853121399681330272e+00,3.278140539006644705e+00,-3.270194155931678281e-01,-6.692321940175402162e+00,-4.322857201489324730e+00,2.865751286908421847e+00,2.045621525087055304e+00,-2.315508256042135837e-01,1.144320213937319419e+00,-1.116907053814606421e-01
1.995388589220291164e+00,-2.187943436209923931e+00,-3.546047385676504238e+00,-3.113894759478023633e-01,-3.611235527208085383e+00,5.250234131574464058e+00,2.967595467525282693e+00,-2.307824910104689486e+00,4.846258545173043331e-01,3.795587535258521328e+00
4.475523076116011190e+00,-1.392749042702092765e+00,6.501453940933479281e-01,3.218705543774642575e+00,5.875250560400653299e-01,-3.333178500600634031e+00,6.544295510443041586e+00,-1.585826974904095632e+00,1.903043202203248629e+00,1.900690911070848754e+00
-3.891411896445008178e+00,2.098465302071573113e+00,3.929450143875836687e-01,-4.981140695133557728e+00,1.151593372516886982e-01,1.015891283973486159e+00,-4.781035285207192231e+00,1.152762464125439035e+00,-3.340401929267216019e-01,-4.411704284215792526e+00
2.173492761765456915e+00,-1.632431043528733916e+00,2.673707335215544934e+00,2.231469068882955931e+00,2.024296216199638287e+00,-3.775085605539561406e+00,-4.141839094676152411e-01,1.236033473387979420e+00,2.237225911793141453e-01,3.115426387629981253e+00
1.287812497046729510e+00,6.559998607963308803e-01,-9.011297632771892996e-01,3.021908259847552625e+00,-4.945990644550919968e-01,-1.142037320524738886e-01,4.794309340091855276e+00,-1.474267542202235326e+00,3.765282197083540394e-01,4.462183684803587846e-01
