-1.844938730704427154e+00,-7.887719277785127936e-01,-2.120233978258678764e+00,-8.996127650307920165e-01,2.532912859712781017e+00,-2.475586043196932096e+00,1.542634021069452466e+00,1.987639025332424536e+00,-2.279894190349866623e+00,-7.687049950331168446e-01
4.048468249892874127e+00,3.484061693304452145e-01,3.243768016333678506e-01,-2.378663178934594225e+00,-1.418528511947631632e+00,1.422467009526918735e+00,-3.661491324680329562e+00,1.545296479139724455e-01,-3.410049604751896446e+00,1.958244990551664788e+00
-4.472585442257714372e-01,4.165099517044218991e-01,5.409181177416164665e-01,1.582399621134882750e+00,-1.034472773163456427e+00,5.885514898071266821e-01,2.135250222803313225e+00,-1.422783113252230391e+00,1.570893342262873471e+00,-1.209476989210320097e+00
-1.647991821140401880e+00,-3.216238466074449187e-01,2.776994263789275497e+00,2.141031572919124493e+00,-2.772451849893206699e+00,-1.018647174262585553e+00,-1.520180444563993261e+00,5.692957066627595264e-01,3.519425118841152944e+00,-1.849075468628881058e+00
2.262074750135066648e+00,6.359419652263797573e+00,-6.090620961878602024e+00,1.306015080806781192e+00,1.590094905638793188e+00,-1.058280752966410665e+00,4.780615746702194357e+00,-1.563864050207415701e+00,-2.084063466223924355e+00,-2.358043297289945439e+00
2.997707037785650286e+00,3.461111774762731130e+00,-3.559558429953782355e+00,4.546389217616037537e-01,-7.739511499974511821e-01,9.598843106187644469e-01,7.370554099329004183e-01,-9.484703309830494478e-01,7.084578069077851481e-02,-9.045981297526416443e-01
6.393478752014479793e-01,4.807034495831374876e+00,2.984327888214389102e+00,1.948180682107311323e+00,1.089486066957208843e+00,1.042833754549438829e+00,-4.049344011271851507e-01,-3.822364517424965857e+00,1.626944882128166903e+00,2.455837930313301332e+00
2.253071849123195580e+00,-1.216253273141356672e+00,1.606129576051861907e+00,-4.919552157998312025e-01,-6.581441249969920415e-01,5.255112566085982095e+00,5.844994726045970035e-01,-3.682262012365380421e+00,1.489792720424794936e+00,3.016052376134118251e+00
3.547887925308432333e+00,9.045090475350128778e-02,1.703575440843954958e+00,4.001928577723723457e-01,-3.673478223489830441e+00,4.409974144517353700e+00,-6.694119450991732334e-01,-3.026490327018995341e+00,1.628986703742345776e+00,8.828538747734545611e-01
4.675311538641164777e-01,-8.237092428461318949e-01,-8.469353938956745154e-01,-2.165336788581595229e-01,3.739400374920355263e-01,2.327865759888157804e+00,3.572322017849022258e-01,-9.776595683437083739e-01,2.006306398724357454e+00,1.162754372433992378e+00
