1.855328687841506730e+00,1.332927782066463340e+00,1.290946653005239808e+00,1.966428506499728224e+00,-1.690012608964819307e+00,-1.281916895891292096e+00,2.532253084499726636e+00,3.272209101195409531e+00,-1.504755238734786227e-01,3.701732593226674251e+00
-3.821988651546613713e+00,3.034819813737786642e+00,-2.082495554694487438e+00,-1.614049772380879710e-01,1.144754489496990990e+00,-2.197520799228176724e-01,-1.508638138879380142e+00,-1.476860589171089311e+00,3.169446870904371050e-01,-4.173171628218613982e+00
-1.376068149211572500e+00,3.372682526202028241e-01,-2.703490469920357242e+00,2.861125395337076771e+00,1.712745707240294513e+00,-4.333541057164578270e-01,-1.012303011354217519e+00,-7.504356129912204132e-01,-1.359482663506341726e+00,2.221599558223315896e+00
-3.397344476387436085e+00,2.663199605569525730e+00,4.904298995273899675e-01,2.448288848290005149e+00,-7.070849339231700670e-01,-4.745366103687395309e+00,-1.002707727401025872e+00,-1.373087316610822395e+00,-1.563262021450442241e+00,-3.098325773221725754e+00
1.038782795146880877e+00,8.842913262957622367e-01,2.633578368421012783e+00,1.833332698937615968e+00,4.554244158395887587e-01,-3.065147153358413146e+00,-4.789692246416249466e-02,1.190995228065873324e+00,-1.288212507342668123e-01,3.354088153144444195e+00
-1.179663488392749482e+00,4.438378089979980734e-01,-2.956904239462783135e+00,1.344261904104978367e+00,1.706068218930941738e+00,7.865963599835372466e-02,-1.890013887517388635e+00,-1.978570040889563675e+00,-1.000410150169928070e+00,-1.166859922145318418e+00
-6.114797668296287014e+00,1.536194152351013642e-01,-1.954178738938743276e+00,7.927599988346509807e-01,1.401734696594392870e+00,-1.152432996600607273e+00,-2.213229637882602852e+00,-3.283454732581627233e+00,-1.170887909988803210e+00,-2.819128171649893932e+00
-2.442869804188188443e+00,4.283585250919490939e+00,-4.361940707993949284e-01,8.866784342024969234e-01,-2.609253161903125395e+00,-1.981923802541605939e+00,1.571212916128342574e+00,1.164762734758956864e+00,-2.196738594193837213e-01,-4.205886901989927651e+00
-2.380506570405419797e+00,-2.342740303000524715e+00,-3.933776746880096042e-01,-3.960317439261287764e-01,-1.344220810943633104e+00,3.869409148182436087e-01,4.871326443140920337e-01,-1.263826505727374094e+00,-1.021418733409515278e+00,-1.179936593752580976e+00
-9.841350106095511086e-01,-1.677190782173718642e+00,9.183089636362845587e-01,1.322182977649850821e+00,-1.277490928602258990e-01,-2.511032447216240637e+00,-1.045505428174505314e+00,-1.809581635642672826e+00,-1.607882577987335582e+00,-1.445989215001769294e-02
