-1.894695147502146071e+00,-5.277456338444824979e+00,-4.513303680916142646e+00,7.192260340330298707e-01,3.625946540675437646e+00,-1.501238601498245284e+00,2.438313885557863436e+00,-1.862452775086229639e+00,-9.609793988753627669e-01,3.485171246598112837e+00
2.281902763061647299e-01,7.229677837238680516e-01,1.101647767773056064e+00,-1.336463175279847260e-01,1.245043447464997621e+00,2.855576451127499915e+00,1.652967331047153543e+00,6.495034848807333283e+00,2.606964231114576869e-01,4.117360834384592216e+00
-4.462741668180347787e+00,-4.429907321361013395e+00,-3.189999562748057294e+00,4.330901262793243944e+00,-2.163802260352369888e-01,1.535300254319571511e+00,1.920345774000956629e-01,3.509912394547395564e+00,8.915656216830665226e-01,-4.029282396730591298e-01
-2.083363782702711831e+00,-4.403660565959288675e-01,1.866116696072127823e+00,-2.032888187565568550e-01,-3.614713731367556471e-01,1.862490494528493690e+00,9.934856529018942783e-01,-1.697889723812058493e+00,-3.086142583453353350e+00,1.678746845777652652e+00
5.153331456040845637e+00,5.607228427901813639e-01,-2.891125207383163254e+00,-2.802619886143158379e+00,-6.565545664398969805e+00,-1.249606433714484544e+00,7.998475079190291437e-01,9.040898251655399065e+00,-4.381178125711015170e+00,1.158846372243470091e+00
3.507921788788455064e+00,2.087766586176342365e+00,1.195174145477753802e+00,-4.065010249908665330e+00,-2.525100730152793460e+00,-1.566054055699332093e+00,4.810300022638416828e-01,-2.331720781514964536e+00,-4.367646910728392839e+00,7.350897490425515324e-01
1.039712371208378228e+00,6.479006364867225809e-01,1.117481587365912521e+00,-8.777104410689056113e-01,-2.832065273940208794e+00,5.692649941630124610e-01,1.245290040651957808e+00,2.790066930598404937e+00,-2.256697656696844412e+00,1.967791547706103206e+00
-2.028907587852666339e+00,-1.776722882636595280e+00,-1.966089581768589722e-01,5.184264255030813784e-01,-8.730975423846284444e-01,4.774205729770725215e-01,6.873328209660781729e-01,-1.760846542161119466e+00,-2.482329270905442975e+00,5.496212718307755818e-01
-4.423470370949472041e+00,3.251992385949491471e-01,1.782441734340948436e+00,4.005301496584154464e+00,3.463711763847429737e+00,1.096103395282137960e+00,-3.158774065884145443e+00,-5.516796313428482534e+00,5.865518964850817696e+00,-5.349183881394634632e+00
9.230598087004309171e-01,-4.275849327719313808e-01,-1.292880569641942756e+00,2.046355258049231407e-01,-3.537624044734329232e+00,-3.961573711597071723e-01,-1.653799676540029795e-03,3.617056756977352627e+00,-1.224439755632952487e+00,-5.494409486558843314e-01
