-1.023633676914441004e+01,2.594878288994707738e+00,-2.409561601476727155e+00,8.935955458926216899e-01,3.626239908872483930e-01,-6.411362483029593662e+00,5.226252961967615684e-01,-8.967635268450027120e-01,-9.182614384181031042e+00,-3.434231663674825352e+00
-6.259563730565261830e-01,9.365371311946485422e-01,3.291810708324919843e-01,-6.486726265354675336e-01,-8.240930202498296664e-01,1.473182848455337535e+00,1.646735629449647798e+00,2.440706643500141659e+00,-9.340539454676004549e-01,7.565937795781935149e-01
-9.843342739313566403e-01,3.968187427043005089e-01,7.637056857611447536e-02,1.487706460658950458e-01,-2.780862301071112541e-01,2.638239225789966169e-01,3.623709314023556005e-01,7.183526516249206795e-01,-7.697822411236265872e-01,-2.348955790876675401e-02
5.752160180483737228e+00,-5.868041645141212070e-01,2.675900072558633713e+00,-2.118644612447226461e+00,-1.620247134004161982e+00,4.746033849301128704e+00,1.196474358657931628e-02,2.944561671941653191e+00,7.909801616797223822e+00,3.359647669073109189e+00
1.633209890075483228e+00,-1.257207778424535460e+00,2.304868054818780099e+00,1.348682896950675669e+00,-1.308944010566636784e+00,4.111188085454574370e+00,-2.995296543884485629e+00,1.887450899684819161e+00,4.512831346721998038e+00,1.597367770196603601e-02
-3.482409534687347819e+00,9.631891792474411851e-01,-1.214625112513147531e+00,2.460687067813055462e-01,4.866737340781046584e-01,-2.665557245004332998e+00,6.105750358804128419e-01,-9.059239699045104066e-01,-3.733479191062007541e+00,-1.151980023207960224e+00
-6.098302813370677367e-01,4.196449183611824507e-01,-7.552805781248893569e-01,1.123554751744031188e+00,-1.495838814218002077e-01,-7.544750248425552419e-01,3.953198918040208731e+00,1.715712476321283653e+00,-4.481728620594185308e+00,1.097144200244502876e+00
1.220596042023184946e+00,-8.697698647674992900e-01,-2.965168369514111557e+00,1.280898276858765339e+00,2.469698841349028395e+00,-1.872010144576229607e+00,2.314520589316024779e+00,-2.979228593796936941e+00,-6.441746245838652740e+00,-1.393592127123775670e+00
-1.223206516209239592e+00,5.713939248184162212e-01,-2.895503743846281619e-01,3.180470718419639020e+00,8.594260583591961655e-01,1.981788806299788819e+00,3.453256589540564025e+00,-7.512889762772387847e-01,-3.163453817108250021e+00,1.599052048648814672e+00
-8.835203394878666572e+00,2.591894754993941508e+00,-7.993854960809253507e-01,2.660531619034363082e-01,6.112324729628858533e-01,-6.586058423234168124e+00,-1.288134071694135407e+00,-4.003992835807019368e+00,-1.533789473780981405e+00,-1.142775375100105961e+00
