-3.035327511211643348e+00,9.116218193865743835e-01,1.903492992032186804e+00,2.594157228597601783e+00,-2.457198410685428325e+00,-9.292670262871440823e-01,8.452104947178677996e-01,9.609690843745137823e-01,2.086803575921187370e+00,-1.246330426940304381e+00
-1.913026245372303924e+00,1.167042395396800991e+00,-1.635551481488843439e+00,3.210752641587040657e+00,7.026965815313797048e-01,-8.256921520703817130e-01,9.606204538922543668e-01,-2.374971495458805926e+00,-2.104935402998060479e-01,3.229866587775243048e-02
1.120936998126807138e+00,1.873607407673418157e+00,-4.123277404599189899e-01,1.788111300307816176e+00,7.107855234409165668e+00,-1.305636557944430010e+00,1.451078596217643679e-01,-5.020288553490749983e+00,-1.422214627924537345e+00,3.655879986584205099e+00
2.272845450492071429e+00,-2.855386967881493598e-01,-4.437362886957082253e+00,-3.914651513392697790e+00,6.672109941164372948e+00,4.767143780266563269e+00,-1.311635829361677663e+00,-1.735133966685412643e+00,8.790504888606499589e-01,7.088962702591281584e-01
2.295017721449564174e+00,3.533528453182522844e-01,-4.108104373611722870e+00,-5.818943461134895578e-01,4.249185939458469008e+00,3.120092277766496558e+00,-2.297383378241851126e+00,-5.527816132526281123e+00,-2.631625221005375881e+00,-1.390174978387674676e+00
4.272592240515116213e-01,6.439279964913038334e-01,-4.371430115979671349e+00,-4.600795638731093540e+00,6.367781617078086320e+00,8.204870781355827702e+00,-1.935772949339212845e+00,-1.694573341558641699e+00,4.208628230955006266e+00,-3.195265673488552505e+00
4.342298126398155267e-01,-1.513650652265036367e+00,1.415639729168380878e+00,3.464798537848727378e+00,-3.237645969974514593e+00,-3.151556311267010635e+00,-1.842158376747734083e+00,-1.754381093538248670e-02,-3.652372665259252305e+00,1.810623577537616269e+00
-1.308147800210381906e+00,1.531849679456956714e+00,-1.348185405316994157e+00,1.179225062687826453e+00,2.070298155504668891e+00,2.429448456984262705e+00,-7.222861236632917015e-01,-3.189669948250981157e+00,1.217091809136322311e+00,-2.497965795506259301e+00
-2.552408073088320961e+00,-1.156975747887015071e+00,2.752085899284292481e+00,2.563481550914317619e+00,-4.835800633590563891e+00,-3.738691192197535429e+00,1.454473929914732011e+00,5.057719639112130849e+00,1.132808107590389746e+00,2.415939616991241934e+00
3.041542322983366908e+00,-6.431591307039967731e-01,1.283669013461458785e+00,-1.204694785222153675e+00,1.691264992389269528e+00,1.392648904870475990e+00,-3.586953494702720846e+00,-2.196257128372157474e+00,-2.264842472931487105e+00,-3.368959508277734605e-01
