4.330818367322877838e-01,4.380281798419579431e+00,1.834428671822863954e+00,-1.287376771063001857e-01,1.119909847827011751e+00,-5.120825161147468663e+00,2.342699038464984618e+00,4.531533613446339648e-01,2.620959715733831352e+00,1.258868041085386302e+00
-7.416324741438756751e-01,3.764678696809593550e+00,1.023164535263066277e+00,-2.535836628222642108e+00,6.542783741568742872e-01,-4.796491779989780824e+00,4.302453238291501947e+00,1.312121600389231979e+00,3.125046177015806226e+00,4.474640114992329831e-01
1.591140994428471844e-01,3.383804305983551863e+00,6.618867987515987039e+00,-3.787382036580837497e+00,3.341902739114863241e+00,3.438443660232178178e+00,-6.259294211089345694e+00,-3.706871264996014048e+00,-7.046332642067839602e-01,-1.459056899667362295e+00
6.855225485382197448e+00,7.779126047479343775e+00,9.128674294095828756e-01,7.740699021132733115e+00,1.570380994960200560e+00,4.675770850188082584e+00,-2.397994598257194021e-01,-3.170078340235084724e+00,6.177317700624313623e+00,-6.764949546849654549e-01
8.722857356370221638e-01,-2.101171619638233512e+00,-4.122110176605977006e-01,2.068533075402485544e+00,2.751445450809099635e-01,1.916861810415403600e+00,-2.204912736999635303e+00,-2.089342924261561318e+00,3.007127647285879890e-01,-3.980475582569512061e-01
2.869289764031815793e+00,2.614723688505441235e+00,4.065660393983844045e+00,4.486896524959412602e+00,2.622795874383991421e+00,5.329226433857605194e+00,-6.539672090283612960e+00,-3.218241832751734588e+00,-1.207587057340747450e+00,1.550854725686319491e-01
-9.336648137342468123e-01,-3.510689903542974832e+00,-1.522843790201690473e+00,2.298871061651506509e-01,-7.731250726465113132e-01,2.194940750927475204e+00,-7.297845911126460416e-01,3.434175375814637055e-01,-1.886947196110085878e+00,-3.341905860218779001e-01
-7.917915411386816649e-01,-1.056016319848913865e+00,1.294495251791157875e-01,-3.189444642660394624e+00,-5.347401125833249891e-01,1.453528580371108436e+00,-1.182595582389161626e+00,-3.509830191781926900e-01,-1.177621836750152085e+00,-1.194772542491588929e+00
3.536520665262254393e-01,-2.835028330319589340e+00,-2.790774976738486846e+00,9.935501699321671154e+00,5.252930350687176064e-01,2.570502275151661298e+00,2.300696146191591129e+00,2.435936557667959690e+00,-6.732496180405266317e-01,2.561647698466481771e+00
-1.687985479845418135e+00,3.131956151937878463e+00,5.255234470011989956e+00,6.741863476371189323e-01,4.122192263735903417e+00,2.278177558380106493e+00,-6.607457339534001939e-01,6.858548483842324961e-01,-5.529807082904755200e-01,9.962168553126867776e-01
