-1.834983948429074863e+00,-1.642669560151569508e+00,-2.726833126372338323e-01,-1.027792047401115516e+00,-1.895381948057796029e+00,-3.261191788644393075e+00,2.433400776886593064e+00,-3.413057246637217990e+00,-3.055329116249829280e+00,1.623047662899356203e-01
1.371804479621858253e+00,1.472616700455796068e-01,1.424844786201226787e+00,3.497237882354996774e+00,1.635758697378826954e+00,2.068624681893838524e+00,-2.036468243163583658e+00,-1.714952466262839037e+00,2.172924322918870832e+00,-2.341434119545309223e+00
-1.262059541906598081e+00,7.394994454283126094e-03,4.347363182235559204e-02,2.907353123727180466e-01,3.521604033859134564e+00,-9.442012963456973829e-01,-3.810819802032713532e+00,-4.873133207809967615e+00,-5.209062594423772286e-01,1.191771959758391786e+00
-2.158874891961697073e-01,8.384127559720669920e-01,-3.052980066172089391e+00,3.426032943340409642e-01,9.457380509183993533e-02,3.396926151921674020e+00,-1.513451219695387984e+00,4.989585875691693317e+00,1.654529670565485500e+00,2.772508288409337940e+00
-1.133291768975011271e+00,1.391896146221803798e+00,-6.908438821220265202e-01,2.412196441674776537e+00,2.085362470311517835e-01,4.474014481472947224e+00,1.494280041131771153e+00,4.292044643713492036e+00,3.891460840842532742e-01,-1.195779704427294199e+00
2.435683219956178647e+00,-1.831793021166868041e+00,1.347410929115745448e+00,-6.601732833338560535e-01,4.305252760141959345e-01,-4.057744274713587451e+00,-1.505785598544101822e-01,-2.271070772075676647e+00,-1.109676370397624234e+00,1.110768345927253264e+00
-6.770373157580990009e-01,-4.182601184542745765e-01,1.276273421398517627e+00,1.720052850614074424e+00,2.911444918555970762e+00,-8.915963173039116452e-01,-1.582023456329873790e-01,-2.743377019287325247e+00,-2.277937097572792613e+00,-2.107893286972088720e-01
-1.733146135716843450e-01,8.284328871058102006e-01,-6.792078158656710274e-01,-3.609663370515570957e+00,-6.372973258548649822e-01,-1.030753357965199513e+00,-2.024222754477622566e-01,1.762865754147460828e+00,1.689447071156861824e-01,1.636839928450896320e+00
1.482834816899294694e-01,-3.948645941906618884e-01,-4.930302071433870226e-02,-2.270348336527906463e-01,-3.504507994871733256e+00,1.238155902300068917e-01,3.106302680969144969e+00,1.610421045689547803e+00,1.555838635475076115e-01,-1.618111992858603410e+00
-2.633739286643450139e+00,1.948293795368839509e+00,2.089909993759168749e+00,3.920678716545805464e+00,4.480819728642915223e+00,3.629856491713905786e+00,-5.881556438772937989e-01,-2.252348731636896861e+00,-9.403103521939363274e-01,-3.496874626709600253e+00
