-1.285514615960158924e+00,-7.906964816587510603e-01,6.171356360457960072e-02,-3.091967308375197510e-01,-1.957150639247291934e+00,9.351986756585415339e-01,2.260089715256519582e+00,2.474166522396615608e+00,1.709618079580682348e+00,-2.011279357736862838e+00
-4.347240220927744758e+00,8.386701996672376591e-01,-2.049951229810459630e+00,-1.413185803863834800e-01,1.367188749286551985e-01,2.410598692104393148e+00,-2.882259419373596754e-01,2.538286416724668371e+00,4.536255545978662873e+00,-1.923851006770500360e+00
-1.313934921694734470e+00,2.124394809684341912e+00,-1.348971985769646942e+00,9.892939689561511818e-01,-3.426975457263390812e+00,2.563748082876739609e+00,-2.096769002901609280e+00,-9.859302058272679803e-01,2.083083201275761631e+00,-5.973158307901785813e-01
-8.619881882657544070e-01,-6.594387241609802608e-01,3.499690346434020660e-01,1.506747411660463776e+00,2.007301411135816060e+00,-5.158761275760462839e-01,-6.897543688084882829e-01,-1.362242047784930354e-01,-1.550632348055665632e+00,3.315859600928904527e+00
4.729578183344131936e+00,-3.778343237983682323e-01,2.720872109270660921e+00,-3.244513078489714264e+00,8.212017046816166843e-01,-3.029040297090760170e+00,1.937435541940478956e+00,1.048942646487479591e+00,3.324716238324162410e-01,-1.992266566364854219e+00
2.035171148965644772e+00,1.671517554156325636e+00,5.662984139090267988e-01,-3.023276404180468724e+00,7.758425680908930255e-01,-1.546353019970616804e+00,-1.410258944718019380e+00,1.403055123574684870e+00,4.346814666354576140e+00,-8.341406451150784607e-02
2.426968262150230426e+00,3.894802628255254473e-01,1.428767905185062359e+00,-2.620542875450088793e+00,4.123105609319922316e+00,-2.561841106292793047e+00,-1.909276723652271190e-01,7.217831396780054476e-01,1.145522957271820630e+00,-5.817516735023262608e-01
2.270335662341115501e+00,1.495801219505868085e+00,6.168174096018794739e-01,-7.255229597694753396e-01,-1.054618754724745644e+00,-8.016447183398349718e-01,-1.999664908414787279e+00,-9.315009412125424548e-01,1.090898102417731552e+00,1.582214095343335014e+00
-3.946212484496663730e+00,3.678588310303030906e-01,-2.102036948753787993e+00,1.699800701656990931e+00,-1.597991367363685189e+00,3.384188058215774841e+00,2.435856471529439515e-01,-9.941289637534473853e-03,6.670590000308888046e-01,-2.716500017753940011e+00
1.270248844184965087e+00,8.925235592508051763e-01,1.065765600386628931e-01,-2.363557600312386153e+00,-4.295005734737117331e-01,-1.287593237693692161e-01,6.282621429407293512e-01,7.197275561134943711e-01,2.388178648382620395e+00,-3.714903806791335583e+00
