3.393817214024992812e-01,5.394234862699075483e-01,-2.411041631585860046e+00,1.283948864279007118e+00,3.104428535357767416e+00,-9.170879356435284180e-01,-3.528222524032826324e-01,-5.148510844693567901e-01,4.500515576130310197e-02,-8.043720982534228181e-01
2.864619646883270754e+00,-3.303110818015533301e-01,5.238865352647713303e-02,6.373724132549658805e-02,-2.334053138948951389e+00,1.044433653888144908e+00,1.462042989945140370e-01,-1.025361984330195542e+00,-3.290340361917527989e+00,-2.448338770633402550e+00
-1.158880095338338467e+00,1.124502667483412655e+00,-2.415422314321472808e+00,2.101685669094404130e+00,1.881703847656827300e+00,6.889838538453296746e-01,-1.886868257247056757e+00,1.473357234500298485e-01,6.688726515442085241e-02,-3.255441571286566416e-01
-8.444771559972801267e-01,2.487772792610814243e-01,4.084951717224766798e-01,-8.123449454167750439e-01,1.631511768423360875e+00,-1.129745093455779115e+00,2.150836233648526274e+00,4.200653054577631051e-01,-5.604948157454379132e-01,-1.111953016896548796e+00
7.150608489831988379e+00,-1.986760681884925051e+00,-2.358970158602225808e+00,2.594242127942495979e-01,5.088163702661365750e-01,-2.808177612495782682e+00,-2.292233562872959762e+00,-3.702502430040115033e+00,1.493992279677057722e+00,1.711115686792064716e+00
-2.861738844851568597e+00,9.577353344073433195e-02,2.979834933191406687e+00,-2.831282217398899625e+00,-1.457115198076321727e+00,-2.051311225408702033e+00,2.518397685695380694e+00,1.779340741303157891e+00,5.259750636057293205e-01,1.148040906025858954e+00
-1.495310959908794368e+00,-6.459510216395026871e-01,2.748727599855838033e+00,-1.798347350192459171e+00,-1.087936309466426499e+00,1.961513670345357285e-01,2.194659715781782872e+00,1.099226835918267087e+00,1.028344735807965371e+00,8.410748580803467656e-01
6.337022008772338566e+00,-1.158772702274801336e+00,-4.279145373167732025e+00,2.630860900770563671e+00,8.008339627723776166e-01,6.130525420564619798e-01,-6.726064111054108619e-01,-2.493196746536111341e+00,-1.982672608874418874e+00,-2.866494407309303494e+00
1.876174889746724306e+00,-6.853841050464821727e-01,-7.882106848519605524e-01,1.269176608456885402e+00,-7.801549501444957624e-01,2.368548934834048936e+00,1.332801565170632641e-01,-4.109411581478236708e-01,-9.159157437194991314e-01,-1.483429621325926595e+00
5.175456660738612769e+00,-1.968928261383876555e+00,-2.489281597800899526e+00,8.480472235512925838e-01,5.693323710928575032e-01,-1.422844242550447058e+00,-8.523502182046462927e-01,-2.073841937488581699e+00,2.056353443390488422e+00,1.290519819674389890e+00
