-1.075267545069209740e+00,-1.619945793548010382e+00,3.024771245527479557e+00,-1.213278002940008926e-02,2.260711745022211172e+00,-2.848198826557081897e+00,-1.132738891153303173e+00,-2.822773514670925632e+00,1.312431777066454863e+00,-9.556400493948673525e-01
2.590959351945254063e+00,1.307800331517019465e+00,-3.484786243988216903e+00,-2.282118044802835755e+00,-3.117526167671182402e-01,3.738514707342399657e+00,2.519360808737424406e+00,4.939078724402250486e+00,-1.711640626694033607e+00,4.226922555295971051e+00
3.814656194232489694e-01,-2.343709715285303030e+00,1.735277040291878015e+00,-2.359275299332769915e+00,4.556855268995632091e-01,-3.177162544240825337e+00,-9.140485348873624849e-01,-1.093427101588810624e+00,1.147030295235044184e-01,-3.931063851445312007e+00
4.724204697506870776e-01,5.648451377975771681e-01,-2.098186497525868610e+00,-8.294661109376528785e-01,-1.972016604231434211e+00,1.279542061601200320e+00,1.573783391677570753e+00,4.353394630040109625e+00,-7.711720899124294148e-03,7.460062013278634385e-01
5.774769960158335769e-01,-2.143167514384984873e+00,5.047247395480546350e-01,-2.654555559983992730e+00,6.079295556561619129e-01,-1.086709893307560737e+00,-1.716584013372559614e+00,1.138352474100868816e+00,1.644598173422583187e+00,-5.912878560495620217e-01
2.325441373013054314e+00,4.093559057169911419e+00,-4.198143495647926215e+00,1.565975980379850085e+00,-2.938050178295533055e+00,4.258482817608747695e+00,4.648049725382110253e+00,2.178661755685955548e+00,-5.086392112760694140e+00,3.149740644221055597e+00
9.530703283837740347e-01,3.086594997245272864e+00,-4.567066413245517431e+00,1.195173649043820063e+00,-1.903509361490040241e+00,5.978919709160565255e+00,1.036805709200521841e+00,4.281041300581373221e+00,-5.210201308179297497e-01,5.200178227268020592e+00
1.683753611153762764e+00,1.585578379026015394e+00,-4.119443338744766869e+00,-1.717849832171524094e-01,-3.564027055491234552e+00,3.857575777448990273e+00,-4.804773798136105500e-01,2.714478336737505604e+00,-1.251163822874736153e+00,4.783542509024237832e-01
1.931462604423200613e+00,-9.219199722425150401e-02,-1.240686015360139116e+00,-7.167168375953870685e-01,-1.120130426201706220e+00,1.342145549055283604e+00,-5.384361045445272831e-01,1.131159184547562813e+00,-8.882772195406207771e-02,4.531277649022093179e+00
-2.593735676124312217e+00,-1.499159500705469217e+00,2.422157782741741094e+00,4.162105721476359044e-01,3.451745175864658677e+00,-8.152880445764199013e-01,-3.723198361530832834e+00,-2.389255926233571525e+00,3.823591744760413746e+00,-1.660834820345451712e+00
