-2.899496732657454334e+00,-2.008924801923100301e+00,5.512676514726070343e-01,-1.774710856622850663e+00,1.287175824664787971e+00,-2.597923651521593769e+00,-1.918406841436983035e+00,7.707145257553564832e-01,-3.729239836728806545e-01,-2.750611198862703333e+00
1.982418426804571254e+00,3.820321711783881913e+00,-5.439025765644879273e-01,7.986325671313398988e-01,-2.491311446037677846e-01,-6.289615138927334703e-01,-1.668801110521606068e+00,9.369237507185825820e-01,1.851091356799661636e+00,1.515074464292967882e+00
1.717236606442733571e+00,-2.034963672206424157e+00,-1.411138196200675043e+00,1.129670147668349278e+00,-2.313104139396085390e+00,1.092521911967001325e+00,2.818247689297050051e+00,-2.892883537890768242e+00,-1.397851754725198736e+00,1.387466187839907716e+00
2.779156233696182365e+00,-2.250233231376805865e+00,-3.396662287041376072e+00,1.346464952481895683e+00,-1.456224042580775535e+00,1.601023077683907836e+00,-1.276982106918001403e+00,-4.000030838104351005e+00,9.682077367556813918e-01,1.336637557177545510e+00
-9.624630524035550083e-01,-9.458737316984106025e-01,-2.587789176597812713e+00,-6.293324935397873743e-01,1.630301485480339929e+00,-2.994604913441582195e+00,-5.315718193436558714e+00,-9.097045211916821028e-01,2.204092462281787235e+00,-1.358168645310744660e+00
-4.188013621801562891e+00,7.422803403110155296e-01,4.937660713054334849e+00,-2.645792921548328902e+00,3.344392902105704390e+00,1.842298077419030733e+00,6.337767643783085436e-01,5.449726851954860507e+00,-5.528292387718950485e-01,-3.079971775745503848e+00
-1.379737498616845359e+00,-4.817931537037096312e+00,1.600657157953628840e+00,3.449468863549800979e+00,1.930400607537158475e+00,2.495331416575622685e-01,-1.987713356817089716e+00,-5.874215417133133776e+00,-2.631710470744880848e+00,8.517958992698196896e-01
-2.623881585630323809e-01,-5.853461650154896390e+00,1.934743315574396494e+00,1.742020840822829708e+00,-1.963668467170298193e+00,4.124791629998075138e+00,7.171841149086887413e+00,-4.177614150749482391e+00,-5.212643365057425093e+00,1.033811990766176026e+00
1.563287148847980701e+00,4.659250019539533660e-01,2.787250817202958419e+00,-1.352025931786695612e+00,-4.671207939275075383e+00,1.271885962606818410e+00,6.714073515036471207e+00,2.013834786303683178e+00,-3.136964967740566212e+00,-2.575163801606819014e-01
-7.324603474200491737e-02,-8.650396197878087889e+00,1.055864943309569925e+00,1.925447329153877618e+00,-1.054496605364128259e+00,6.019423553728365128e+00,4.308010468064670029e+00,-6.263854718208855310e+00,-4.380185167467468332e+00,3.206417812069697892e-01
