3.201088551594816423e+00,2.539615268731380215e+00,-1.148115461258285119e+00,3.906835532090436658e+00,-1.111956271395938556e+00,2.995197664275576210e-01,7.851012591288919484e-01,-5.002415646974696983e+00,-2.440027449325073428e-01,2.435304736885199439e+00
2.536498473347542415e+00,-9.832647212580372109e-01,-1.832717962155818281e+00,-1.947865679148937379e-01,-1.031365099320282752e-01,2.745202575047807070e+00,-5.543102219917594997e-01,-2.591682126507283801e+00,1.081786420202646148e+00,9.743405030822529511e-01
1.170701116010925746e+00,-3.412668372340894152e+00,-1.787506151970627677e+00,-1.788534968170990780e+00,-2.554261457260949442e+00,2.176891526294075341e+00,-8.441908984718614617e-01,-2.581300411942985651e+00,1.058772598548896937e+00,-6.076615706214344437e-01
-6.479097057938498772e-01,4.474413386786065816e-01,1.465521126735292556e+00,-1.326559894698807085e+00,1.216532486954818193e+00,-1.087891202844391891e+00,1.651717096300258536e+00,3.036228953282294807e+00,-1.901702264587380897e+00,-9.121458009302447767e-01
-1.256934508837457498e+00,-2.187971468357160720e+00,-1.138403218458493793e+00,-1.346120733925824320e+00,2.850550851195781554e+00,2.850875836044409528e+00,3.335098793036950227e-03,-2.995858940362662093e+00,5.536743432243250496e+00,4.207851183260454819e-01
1.118014150361669845e+00,3.780598695612987559e+00,2.155033047489622433e+00,2.598874330692122925e+00,4.750926914169292914e+00,-1.206129360160335118e+00,4.425041387803205772e+00,2.261884187634335408e+00,-4.565545117133328334e-01,3.173281980489509602e-01
-3.086481606029480851e-01,-7.973800677866214048e-01,-1.934332102861120450e-01,-8.483429364559420538e-01,-6.183020041429571734e+00,-2.246923424995253438e+00,-1.369070929014623683e+00,-1.253561518294182608e+00,-4.352370179915127757e+00,-3.993629630034171152e-01
9.445273116066793540e-01,-2.449380733364492357e+00,-1.678641778327607303e+00,-3.166619861410302494e-01,-3.143704240081814927e+00,1.310440687427999240e+00,-2.820618314951009786e+00,-6.465643760003126905e-01,5.534239958256828018e-01,-6.742894105215163636e-01
-1.330553963867252554e-01,1.880248933149857749e+00,2.697565150547484247e+00,1.524753146103125623e+00,3.504510349075233844e+00,-1.930201901989844648e+00,3.802957411775645280e+00,5.088855782337961209e+00,-5.506769351680154134e-01,-1.835102417313652312e+00
-1.165004070279266113e+00,6.852094638836485618e-01,4.944910035385385316e-01,-8.545765361512086544e-02,-1.777651375643940046e+00,-1.758149952773492508e+00,1.925713998693840967e-01,-1.253967918399845116e+00,-1.685078441299890928e+00,3.998990033571592773e-01
