-1.133093938540561840e+00,8.923393572001083740e-01,5.999680176116650721e+00,2.242393678073283103e-01,3.427971743489660827e+00,-2.095320334796177963e+00,-3.995871401883208218e+00,2.552590519955989290e+00,-1.546908201069580269e+00,4.290551156112154096e+00
3.245003853711965203e+00,-4.376315452646793447e-01,4.400416286517376818e-01,5.834813219717521759e-01,2.031037074760500438e+00,-1.162770109686264153e+00,1.388603636055203872e+00,8.926317494345005210e-01,-4.843023722870112735e+00,-1.104073973616000792e+00
-9.995803319594905867e-01,2.918465132867625211e+00,2.799447943027030927e+00,-1.385150486175846352e+00,-8.726781153867216867e-01,-2.635019155939916313e+00,-5.313940694130671716e+00,9.313793811891936114e-01,4.549523251489565601e-01,2.191246221989309628e+00
8.899068677821302398e-01,3.847274638379615919e+00,-2.854242214202873829e+00,4.483894305914732925e-01,-2.811616056437143740e+00,-1.136675158950150699e+00,1.783269851981564180e+00,-2.940167389719828162e+00,2.248058734307726514e+00,-1.243316706054231613e+00
-3.642625854315313383e+00,7.980706680869426028e-01,3.776377975016526722e+00,-1.782217883983237550e-01,-2.720171605522904157e-01,-6.366265371433473597e+00,-3.665017461729429105e+00,3.335444481071523803e+00,-3.489948378579888821e+00,-1.583900731543047113e+00
-5.188413933805116507e+00,1.694226865209551347e+00,4.168983676078054756e+00,4.072075612953350056e-03,2.985869058929399578e-01,-5.944014230545040078e+00,1.014527053252957556e+00,-1.139911872040283436e+00,7.132265412786710224e-01,-3.175431255915988960e+00
1.874963727540156722e+00,3.037549203930011377e+00,-4.692663186338366099e-01,3.308241202928287272e+00,8.236137471568204527e-01,-6.179521539760947313e+00,5.112571862164839942e+00,-9.007195289716070363e-02,-5.767377508880871417e+00,-3.937076354590513194e+00
-4.106395188297994991e+00,6.253655430817901817e-02,8.284913089640463246e-01,2.423934082652384969e+00,1.776838179263902751e+00,1.066469183905198292e+00,7.081251274104508830e+00,-4.187450349019654183e+00,5.912725053190711400e+00,-4.113449732314720664e-01
-3.603904224262516331e-02,-1.119376077610673814e+00,1.792782810226074552e+00,-8.876864525066091582e-01,7.912470026223202002e-02,-9.881815823494425333e-01,-6.109277433640039945e+00,4.727171124643619216e+00,-3.516165943764204993e+00,2.191324403030344481e+00
5.327613546558886831e-02,1.813560247021869021e+00,5.474709933809245310e-01,4.613890333131804411e+00,2.857399008972142607e+00,-3.760443770413405495e+00,7.740905407308487973e+00,-1.189197137860571907e+00,-2.648266602112710366e+00,-2.067652293052725021e+00
