6.528595783573336142e+00,3.027121787354154492e+00,-1.576225621228419360e+00,4.278425351744234106e+00,4.434727910343625457e-01,-2.674553370943775654e+00,-3.546354236712976782e+00,-5.675835199313617352e+00,5.046091240367004405e-01,-6.007151613148353775e-03
4.993779295982279542e+00,6.975887926605434108e-01,1.367979772072182021e-01,5.452596228320095051e+00,2.043490562896767671e+00,-1.495243494498796899e+00,1.096275055233413065e+00,1.150722235749155331e+01,-1.359554135181741952e+00,1.822040892419553471e+00
-1.387732984638858635e+00,1.014480141667943425e+00,3.662044684783658965e+00,-7.297430723633963057e-01,7.870896660397569411e-02,9.692362318247540465e-01,3.147322443338138154e+00,-2.064592773087401412e+00,-9.214043896187988913e-01,2.030316510972121957e+00
-3.688343796314001111e+00,-5.794300400298985076e-01,-1.455345325847391624e+00,-9.600548127428851775e-01,1.489260368386098321e-01,-8.338696944704331315e-01,-1.203128452435886730e+00,1.270400194523442661e+00,1.706576615064371971e+00,-3.172219025006695059e-01
-1.576331609489944663e+00,-5.436772291529466949e-01,1.124572618363510301e+00,2.203227157179520113e+00,6.501120255430308248e-01,-1.897755093541775739e+00,-2.334975874295037279e+00,3.622158933033183814e+00,1.348298428249235847e+00,-1.425304706484794126e+00
7.187515336326741888e+00,2.019980670730388450e+00,8.288077783155717304e-02,2.621251502481726892e+00,-2.357565979724854932e-01,3.048669717379237643e-01,-1.025835138810860636e+00,-2.581196306077425007e+00,-2.428864341276283145e+00,-4.470021048433530098e-01
2.710536509820991480e+00,2.144576014007724130e+00,1.690342469384888302e+00,2.141729602661826437e+00,1.220900128681087882e+00,-6.009233107337035307e-01,3.614497073611178557e+00,-3.304709659523552556e-02,-6.214171197077746900e-01,4.109562946577095310e+00
-3.232929888330762225e+00,-1.514308976530412132e-01,-2.593554923934495271e+00,-1.917749965205058471e+00,4.118424206992860603e-01,-4.292463160068051842e-01,1.435020159821374319e+00,1.333823383319907019e-01,1.775489131023747058e+00,2.218279463953795272e+00
5.400846783656944261e+00,6.708009735563866816e-01,1.241381020066197660e+00,4.064451832782116192e+00,6.092479881475652004e-01,-9.574944533528878532e-01,-9.665672106498652827e-01,2.492568947535308777e+00,-1.182952508282766102e+00,-5.889705723278633176e-01
-4.280549508292901706e+00,7.135333455461638774e-01,2.078158511089823468e-01,-1.170469931187304136e+00,1.846635100212590530e-01,-8.776122939235788678e-01,-1.362265670486026981e-01,-2.395538577868943086e+00,1.733436449622038911e+00,1.018314716838504275e+00
