-1.400093508370889417e+00,-1.031737350608883164e+00,-2.490796892027616338e-02,-3.853317275750721471e+00,-8.004640942291769701e-01,-5.921795449164489744e-01,3.871905143995388876e+00,2.024751953429306361e+00,2.828926653212679998e+00,-2.318528799633158499e+00
-3.623059415191598465e+00,-1.365904820201170988e+00,3.290667883543087591e+00,-3.519521897430617940e+00,1.625730913015510870e+00,-2.680838360787041186e+00,7.263044403927703563e+00,-2.626346636674615986e+00,-2.815908627283679744e-01,-2.269876082605966072e+00
2.428262192686168941e+00,2.531429737228301668e+00,5.752167355782701330e-01,-2.482639121183350672e-01,5.233632480412653276e-01,-9.090878156034041258e-01,-9.601105113209991160e-01,1.542526833207216175e+00,-1.128802451872563006e+00,-2.717476659213212908e+00
-1.884850228693263130e+00,-1.822652784812416771e+00,1.880522666402411947e+00,-3.420349439790113522e+00,-8.145594804526767874e-01,-2.336678105842196818e+00,4.292405414010249665e+00,-7.273209493397025938e-02,2.057043762470624149e+00,-2.662837337897391965e+00
-3.497122044127701779e-01,-1.031513900164485964e+00,-1.055323270087378695e+00,3.145987760905639696e-01,-3.679592325894467386e-01,-3.710660921018111846e-01,-1.007253341187334561e+00,1.157228490009958755e+00,1.442729714328142343e+00,4.419715483525091249e-01
2.021314715783153915e+00,2.786806617154894639e+00,4.530387712831379643e-01,-6.559173835571932010e-01,5.196928538132280506e-01,7.796457143705400883e-01,-1.031102841569165873e+00,8.796069001941185794e-01,-1.673910828887541280e+00,-1.842205207785596599e+00
-2.662356702144351051e+00,-3.338221289361607891e+00,-1.498629071810435143e+00,-2.550030026058198729e-01,-3.025040089660917531e+00,5.236585301914930213e+00,-2.743391030347936521e+00,-2.303576667436825431e+00,1.695426238241495298e+00,5.364638202701781822e+00
-4.149234667061890924e+00,-4.875258480601944555e+00,-2.127419700414254766e+00,-4.481712932815570261e-01,-2.401981747524691180e+00,3.519169989325863224e+00,-1.700343122047125233e+00,-1.325215597874740858e+00,3.305185067927474130e+00,5.247871952401012230e+00
3.975082023617237947e+00,3.584630744468477292e+00,-1.014238230517522155e+00,4.142429810711012461e-02,-3.857636654426079281e-01,1.200014652583064834e+00,-2.582577248389373192e+00,3.109551913965568737e+00,-7.558317797310460939e-01,-2.136747882310002566e+00
-2.438767321811559530e+00,-2.920182609520761918e+00,-2.100835789889948124e+00,-2.410529274445010195e-01,-1.142934544670993313e+00,1.690425042563016289e+00,4.931842208957452067e-01,2.994353366973691033e-01,2.744457609888435901e+00,2.971636778168354809e+00
