-2.131869135393515080e+00,2.902332191809441131e+00,1.692838094183626962e+00,-2.404689706946255168e+00,1.447500235554612047e+00,-1.500801429150160793e+00,-9.448434423800631254e-01,-1.173565694949504801e+00,9.961924713933186792e-01,-3.983508822997193999e+00
1.609627375536382965e-01,2.533244858918307418e+00,-4.531576529892179295e+00,1.363747613242442203e+00,8.497349320419668173e-01,-1.789628542406737077e+00,-2.734746966658003764e-01,-2.892526667690001330e-01,4.676364225776136752e-01,-8.052006148836496902e-01
1.260516439936874900e+00,-4.611080520123336246e-01,-2.069031381287915750e+00,1.293340959962958836e+00,-4.168187175828598434e+00,2.679097046634113966e+00,-9.272977645562637816e-01,-2.529931195558352996e+00,-1.128691785290714789e+00,3.717500843763872354e+00
-1.705624333308631169e+00,2.200993872273050656e+00,1.029655792091770161e+00,-8.482044587517343359e-01,4.808681351531197024e+00,-1.349126756592157195e+00,1.555382051317121817e-01,1.614749783055718035e+00,1.462903415091136194e+00,-4.845193454094153473e+00
-1.182338960355918678e+00,4.021063290412112856e+00,-4.169313543527163546e+00,-7.324572416207366654e-01,-2.253466093791023361e+00,-1.560394333463542171e+00,1.810827143773363401e+00,-4.155269326066536095e+00,2.297692280518880636e+00,-1.712899476281454003e+00
-1.146700142865909378e+00,4.898413758712767407e-01,3.211269551437105907e+00,-2.971460807919346081e+00,-1.768484058383893581e-02,-2.010531781573229537e+00,5.752580431897706958e-01,-5.632485021100027689e-01,6.124961166678646318e-01,-2.108202128714293355e+00
1.313277789779225158e+00,1.181764469686052088e+00,-1.914019867186493862e+00,2.299503040168001888e+00,-9.026696359014639848e-01,6.096132346680795067e+00,-1.974106510503300438e+00,-1.925035502040303825e+00,-1.019934242833693050e+00,1.488987928358156188e+00
-3.187515818650820343e+00,-5.851507028555456458e+00,8.159523963461992935e+00,-3.373123478631182337e+00,3.136728389263582883e+00,-7.305798885647608820e+00,1.826768270224138124e+00,5.927633001375709476e+00,7.516907504894008163e-01,-1.600549789793746180e+00
-3.005255892840697829e+00,-1.085432209246320889e+00,1.398409429294157347e+00,-2.068984992275402668e+00,-1.908659295410164658e+00,-5.142111334868044281e+00,3.875793733201297608e-01,-4.324822537233281583e-01,1.071833972018356063e+00,-2.194623398599710451e-01
-2.211898368052135133e+00,5.492990692809762709e-02,9.461277412950980237e-01,-1.822420717215571528e+00,-1.892979649242695794e+00,-2.505803512756167084e+00,8.663661573582799313e-01,-1.575435980005098768e+00,1.286148469337763389e+00,-6.557737623179454856e-01
