-1.331707992105125582e+00,1.919207159460376566e-01,7.031809605465871860e-02,-8.102676940923587701e-01,1.074138220418947354e+00,-1.001446791141381853e-02,-3.689065256571544271e-01,9.124824627445005110e-01,-2.617477456643660272e+00,-1.789939817561714275e-01
3.835884388808074252e+00,-4.316812924513653726e+00,2.520957724503435138e+00,3.349204809786395121e+00,-1.566079188557133017e+00,8.838624234384049316e-01,2.160348173762979496e+00,-3.733134730015546854e+00,5.173583252273585842e+00,-4.969200228941930142e-01
-2.814058243861024877e+00,-3.685882707781011014e+00,7.990737627534839627e-01,4.248838169348108096e+00,3.367648985311387566e+00,-9.216867612835362156e-01,3.353346343948927721e+00,-2.878866725983213026e+00,-3.459455515845684115e+00,-2.287488568518908139e+00
3.247266966948054723e+00,-3.015789646456723094e+00,5.702971980474861313e-01,1.752026967584997985e+00,-2.186801364484983190e-02,1.306723193686922357e+00,-2.138947584249537126e+00,-1.289536390633140739e+00,6.816432576218971029e+00,-1.956773991230413401e+00
-5.814487625597783982e-01,6.132953567797432282e-01,-8.798313958822296943e-01,-1.376273570271411506e+00,1.391745658398935714e-01,8.758032561842610253e-01,1.459220244054048932e+00,1.778264784614480787e+00,-2.077662383153366488e+00,1.614406603893025816e+00
1.975449897126726029e+00,2.314452088639482152e+00,1.957053801358825673e+00,-2.951248868505119916e+00,-4.686948449997295540e+00,-6.240207417593746086e-01,5.758219597342819629e-01,-5.871524326143756634e-01,-2.926793234009588129e-01,3.416525858140398775e+00
-6.712473042258226386e+00,1.689243028947835068e+00,-4.569957876654338058e+00,-8.243294364704480959e-01,3.066751730829088807e+00,-2.945310117923625626e+00,-1.569162400412020375e+00,-4.557174079681062251e-01,-2.925820974913521333e+00,-1.058022826654442028e+00
7.956678621643746840e-01,-1.923289489448153367e+00,5.564673619046278663e-02,1.416549730449957467e-01,1.083525466219243061e+00,1.573457484748518098e+00,-1.312243719914640838e-02,8.105258898146301405e-01,8.677229212080208587e-01,-3.955312600274280554e-01
-1.104177777717660014e+00,-1.127306268217799889e+00,-5.264835854683722616e-01,-7.138255135318034572e-01,6.385844722917091154e-01,7.696865686490343972e-01,2.287627961446789371e+00,4.945073388710111706e-01,-2.297127857712190746e+00,1.380297043645374533e+00
-1.333707479446519795e-01,-1.973341746387565765e-01,-1.412732582229618394e+00,5.651141344865088234e-01,-7.908270050487182790e-01,-9.539752797139382512e-01,-3.571917967200060051e-01,-1.873457573933963394e+00,3.371078163891731538e+00,-1.695038199553433600e-02
