-9.309490514142956252e-01,-4.014062177730860270e+00,1.885005818764276642e+00,-5.275470394991533807e-01,1.927309693639303712e+00,3.416398317989301159e+00,2.419797954170739285e+00,4.112915148502756857e+00,-1.584201271268902422e-01,-1.621506569310613155e-01
-2.093442439753022910e+00,-2.807242899004668946e+00,1.986800704183863786e+00,-1.529036369170218568e-01,3.130390943938677228e+00,3.620757287871819496e+00,8.747426566281331084e-01,-3.283211100649696679e-01,1.616432536981230905e+00,1.466420220282993903e+00
1.392709638097960889e+00,-1.314316931979689462e+00,-1.086061992700217305e+00,1.529591656070772965e+00,-3.359085363733879781e+00,5.000582883522357136e+00,-4.506712237458756043e+00,5.144567841987949031e+00,6.982774055528658819e-01,-2.665730300001492470e+00
7.035659444500948823e+00,1.841767096093094969e+00,-1.060836770047947214e-01,2.371930964192639379e+00,-1.570349548817442376e+00,2.314753736185997529e-02,-2.499857804236210068e+00,-1.623133302501375885e+00,-1.546912103326226973e+00,2.358960615740846922e+00
3.362788614920716235e+00,2.793655323367398857e+00,-1.214130814641639355e-01,1.960721575190047750e+00,-3.121843704173299816e+00,-2.459882070502946438e-01,-4.170219560349173626e+00,-1.724662920459099080e-01,7.005869980183591084e-01,8.388036331384260968e-01
-2.435370283146180537e+00,-2.081946527088033072e+00,-2.667107283686855901e+00,-2.685945022356692302e+00,5.532099627533735298e-01,-3.998865162467971635e-01,2.841179844781978936e+00,3.481548166704751424e+00,-2.097312955400974399e+00,-3.291464593986353382e+00
-3.931097291362303903e+00,-8.909900294788904995e-01,4.259531679366622470e+00,5.815923003032936744e-01,4.095738535875709907e+00,1.486249299410854707e+00,1.079859590434875338e+00,-4.997757515534596351e+00,3.757429294914280238e+00,3.591303094973958832e+00
-5.183245773690011937e+00,-5.800780129605143109e-01,4.590377146370133055e+00,5.540953469088867600e-02,9.009092958971319787e-01,1.509972833448386398e+00,-4.314023384915290360e-01,1.957821801061881750e+00,4.737412747159181592e+00,1.713293523042870081e+00
-7.843881747588444808e-01,2.567833299584025841e-01,1.791244991043903889e+00,7.256446334676623922e-01,-4.162032171504285172e-01,-9.939814763837767631e-01,8.655919996747653000e-01,-3.258907165785487337e-01,6.406856919692890395e-01,-5.863090238304721757e-02
-6.745808096594845260e+00,-6.524396360809944007e+00,3.544322460470303859e+00,-5.225846457127193423e-01,4.106904531065932673e+00,8.026314043251993269e+00,1.396651539307710133e+00,3.329036423881328144e+00,3.728594766977564756e+00,-5.497435843170400682e-01
