7.147552373268882819e-01,-7.063689331942762939e-01,-9.328299062958140819e-01,-8.562270527421032007e-01,2.921628921568367954e+00,-1.056539488680598105e+00,-2.868833617022484184e+00,-8.933710166160564459e-01,-1.651614017676200419e+00,-1.739495946518054392e+00
-1.685946494387817074e+00,2.562770048412591262e+00,-2.729066658179397087e-01,-2.237201909287891977e-01,-1.739921792244779830e+00,2.401451619185427155e+00,3.730231668146387625e-01,8.982785513245569731e-02,1.527797064877409516e+00,1.841962048997127788e+00
-5.328698010274849572e+00,-4.708836240945211138e+00,5.775886527294722406e-01,-2.043181249502970864e+00,-4.006636549776391831e+00,3.795524150924462631e-02,1.635438351246994326e+00,-6.509606536197128923e-01,-4.615368407287545161e+00,-2.646471196035792506e+00
1.339296336310562996e+00,2.481406478899652157e+00,-5.439002794978492483e-01,1.389535922740569251e+00,-4.026854353452899993e-01,6.762348936753159734e-01,3.451458074330311376e+00,2.281596911024470042e+00,3.867296332817407922e+00,3.488352356676374111e+00
-2.634670290976589335e+00,-1.601400757340194492e+00,1.360119797679872011e+00,7.836077101096465825e-01,-4.843339944366513272e+00,3.979323272930423427e-01,1.317251428558878112e+00,-3.161051755377257688e+00,-2.536571620283492923e+00,-1.447815052918772327e+00
-2.514376710525863867e+00,-1.685902335754806192e+00,-2.222223961819845162e+00,-1.690901308906185507e+00,1.167133839448907917e+00,-2.930999273568016261e-01,-1.547395085277538884e+00,-1.186099006554681257e+00,-3.307750431590849249e+00,-2.167246770792157218e+00
-2.244254978104265330e+00,2.049106078788071272e+00,3.379068286914543862e-02,-2.968478452383068955e+00,-1.128947346738585766e-01,1.545946080232642794e+00,-2.704132688360222581e+00,-2.168929281696669875e+00,-7.997279684111575637e-01,1.025153650536443140e+00
-3.263062929982006644e+00,-3.741236201677809348e+00,-1.778783910566929194e+00,-1.578015090286494226e-01,-8.760382649205868955e-01,-3.864856152602678119e-01,-1.509754511792133769e-01,-8.771076918211824225e-01,-4.314496298724057155e+00,-3.891320503831456001e+00
2.211792704418406252e+00,3.180490578506325328e+00,1.726566568680957259e+00,9.754306397057145306e-01,3.108211767912956169e-01,9.750678594198055604e-01,-3.996736312701993477e+00,-2.966297675485093599e+00,1.098943748289826328e+00,9.181851222251920241e-02
3.817655367284397805e+00,2.287020958079593491e+00,3.246132566628214811e+00,2.479539736587215604e+00,-1.399529405082451827e+00,6.983158222598254139e-02,9.988871038216703413e-01,2.203265191937785472e-01,3.784673619784579390e+00,2.253655278677448415e+00
