-6.976079349794894746e+00,-4.091024203676554727e+00,-8.420074892347414464e-01,3.526283561419040868e+00,-3.027035211251202895e+00,3.102361175875015586e+00,1.113936933539901170e-01,-3.437657033425877806e+00,2.535815558459504793e+00,-2.881782608555644387e+00
-1.546584791447620733e+00,-7.427175141172344119e-01,3.234801554005946045e+00,-2.954116174094362890e+00,-1.479040563315540568e+00,-9.339830190159230661e-01,8.508642133284181064e-01,-7.938822630645161471e-01,-6.168947408823936829e-02,1.207598111405737251e+00
-3.494528829907676215e+00,3.961870679259639871e+00,1.998361318430162736e+00,-4.280723777664861562e-01,8.900592234042067341e-01,4.221440228997322408e-01,-3.283823410957050104e+00,2.959200498871610741e+00,-1.468745594319734060e+00,-8.585902573381121172e-01
1.957726211476164213e+00,-1.958994348465358470e+00,-6.434216716325632524e-01,1.878922617147276819e+00,2.614612476935260221e-01,1.935038972965003934e+00,6.299477806374720323e-01,-1.457227820328139911e+00,1.994536049491435703e+00,1.855755724257898587e+00
8.786845601822768081e-02,5.197571055938349005e+00,1.631616290795189661e+00,-2.296229240632129187e+00,8.356754736417738583e-01,-8.586915837978703614e-01,-1.922536772687972739e+00,3.459174372282340926e+00,-2.360620506199502255e+00,2.434379351327216334e-01
6.638386323533108424e+00,-6.726074755904802860e-01,8.300927390554958540e-01,-1.190657848715359179e+00,3.070966610157286336e+00,-4.068442652920460367e-01,6.196484376049488096e-01,1.002830096165410856e+00,-6.919293787835220089e-01,5.957065254121788556e+00
4.796809568721971395e+00,2.661303518791037215e-01,-1.184742623003445794e-01,-7.739623042020905563e-01,3.654643011918931261e+00,-2.145936638071746838e+00,-4.385136975041981078e-01,1.832341404937923413e+00,-1.336876950210296844e+00,2.289054698004891808e+00
-1.971313645134956216e+00,1.838575242490718020e+00,-3.327008536945268879e+00,1.217010049686409356e+00,-7.315024277497379934e+00,3.767742522059564614e+00,3.252803782887357276e+00,-3.229569790862311773e+00,2.377393740154441382e+00,-3.816064743356833766e+00
1.378271513449747587e+01,-7.732443744828569887e-01,-1.401504580532990207e+00,4.755633291997731771e-01,5.136835798986634227e-01,2.051114021711694768e+00,4.215325305820940116e+00,-2.670097563021566867e+00,4.803633971760741694e+00,6.364627566946177595e+00
4.915728162105211574e+00,1.085157401523980880e+00,-5.164569335580647014e+00,4.164550274876324565e+00,-1.904605828409505985e+00,4.750913530953249975e+00,1.928005634552152348e+00,-1.594231687044960211e+00,2.655856841254050416e+00,5.795830657177357681e-01
