-1.825444316796344113e-01,-2.349385094932837426e+00,4.692699862944547107e-01,-1.289406990382589768e+00,9.534374485700738422e-01,1.677728565342939682e+00,-3.469892856048412355e+00,1.919326678088556504e+00,1.919045458454557540e+00,5.894536711899172943e+00
4.112636214859374251e-01,1.085919235894340806e+00,-1.401242638320783218e-01,-1.037636244933050511e+00,-2.078531560852776128e+00,6.319004112670232320e-01,-5.572180808039539635e-01,6.399937303990432813e-01,6.120253425204301712e-01,9.724227094326011178e-01
-1.656187314479337758e+00,8.201420940365768131e-02,1.489818044138755404e+00,1.989392866873017418e+00,1.309312097671966102e+00,4.681896067724785060e-01,2.227851195542845275e+00,-9.130927216993818540e-02,-2.321049260591415031e+00,-2.010342870855331032e+00
8.189276250656171152e-01,1.306954759075159289e-01,-9.709542397414248072e-01,-2.324616896320647275e+00,-2.433365298284730915e+00,4.869568954160242713e-01,-5.559682077960596824e-02,3.891377287485320857e-01,1.023077586943726747e+00,4.774295139638403129e-01
-1.136343557228703061e+00,-5.426909934160610849e-01,1.077900766309512814e+00,-2.195664442164804164e-01,-1.641332024446576998e+00,9.018350115093738406e-01,2.537990214492701568e+00,1.109724754751090892e+00,-1.112933348372967757e+00,1.509630157557591446e+00
-1.129356424133227232e+00,1.218772727409611401e+00,1.207171733407410130e+00,-5.848463795660784337e-01,-2.883102571301917827e+00,1.859401842305191455e+00,2.268398822068200538e+00,1.229779438456509721e+00,-1.341690860883538727e+00,6.733548067553372408e-03
1.472456173015915359e+00,-6.381637482961057373e+00,-4.593353812363570654e+00,2.822671606652490950e-01,1.235908473934484109e+00,-3.971961121867648714e+00,-1.453733091452510173e+00,2.877779270898139341e+00,-2.242062469830377491e+00,-2.523634110754928273e+00
2.066767776075957297e+00,-6.221720846897819124e-01,-2.964124239541707340e+00,-3.693476955693850705e+00,-3.224653029648997027e+00,3.751026514162600911e-01,-3.035944898864526564e+00,1.753085137306372499e+00,1.607647850683346702e+00,-8.251549249964702792e-02
-2.444094627455503377e-01,1.800589866992991228e-01,-1.609262203284131665e-01,-1.183423783360759152e-01,8.293596459105656571e-01,2.244303876875605730e-01,1.159543987623698147e+00,-1.136792994272327828e+00,-6.755403457621517171e-01,-3.434740316325877618e+00
-3.498428684253412912e-01,5.008639964444400183e-01,-1.009338468629741026e-01,3.666830243417693147e+00,-3.257515615697300415e+00,-3.720640951545704844e+00,4.468103496029232957e+00,1.819143368964393659e+00,-3.901601817001666195e+00,-2.818881134084050832e-01
