-4.530949249593958505e+00,-5.870569749953686411e+00,-4.209519462384390565e+00,2.532091737951272847e+00,-7.601574741287343562e-01,-2.224356253943010842e+00,-5.317001395214610016e-01,4.601503802054032199e+00,5.895244114128344926e+00,1.914723185505895764e-01
-2.236323599477311408e+00,1.425151207637401565e-02,-4.381916184241699264e-01,-1.468381558673940379e+00,1.699681077264056039e+00,-1.205043701400192013e+00,2.972300635661689228e+00,-1.319615406072900621e+00,5.137826844744163068e+00,-1.262618719450113725e+00
1.024281175186767312e+00,1.040566926327691100e+00,9.681156235702894630e-01,-1.636745971559534496e-01,1.360381452345210962e-01,-1.226936662236723707e+00,2.152940656542585707e+00,-1.333961842395959829e-01,-1.925261846418434342e+00,-1.282640185260236931e+00
2.972359957533852182e-01,1.363064089232290055e+00,1.423919933500751522e+00,4.228979561565813228e-01,1.167004461067557619e+00,8.847694458838931686e-01,3.359169379271186862e-01,-5.003596707990571879e-01,6.386638045449085643e-01,3.915743816136817157e-02
1.273805900233861754e+00,5.964752479410628805e-01,9.220702265822665611e-01,1.174993386853252053e+00,-4.467673350410308886e-02,1.188031775402668799e+00,-7.745422530839354280e-01,-6.817028553512791689e-01,-5.609348784059964288e-01,-8.926318903090264545e-01
1.979907660356330146e+00,2.060656095249914443e+00,-3.520950192486173580e-01,-1.072985391399005950e+00,-1.243152717741781155e+00,-9.949344025298468841e-01,2.139298265518714270e+00,-3.586466780725513281e+00,-3.005800145277886415e+00,-1.859363026242909056e+00
7.867914735065938414e-01,4.236598876173626849e+00,8.222113668575802281e-01,9.069234842138347297e-01,1.326628075987985378e+00,-4.338320642136206939e-01,4.722456713339482803e+00,-5.132317498841604930e+00,1.603918080921854283e+00,-2.521267216446207104e+00
8.168558157285323862e-01,1.129503553076827371e+00,5.784794076349679404e-02,-1.533281697962106671e+00,-6.059468021619308642e-01,2.228491225163886369e-01,-6.354337545695952771e-01,-7.423919462309834794e-01,-2.890670291367666511e+00,1.576764876201351973e+00
-1.538505245231818641e+00,-4.003287357911227140e+00,1.715790604804220132e-01,-4.030219676828609709e-01,6.380218624834086416e-01,6.605009365472972460e-01,-2.419916680740615167e+00,3.274913450161661022e+00,3.999294489549408471e+00,-9.544187294503893026e-01
6.243322469734035041e-01,3.761955377724373051e-01,8.460312296911087770e-01,1.394128098989167341e+00,6.171950786020463653e-01,3.132597448847472821e-01,1.185477378188129371e+00,-1.245029864462670499e+00,1.896373197723539850e+00,-2.795389090293460388e+00
