-2.975460680358912313e+00,4.693016418258050493e+00,1.165667596654028415e+00,2.421656508920937867e+00,-3.377167227561304941e+00,-5.185216330792515649e+00,2.310447593006002887e+00,1.989463486121177294e+00,-4.282762525706346857e+00,2.641359355191840841e+00
7.894707783838551540e-01,2.395242666353332162e+00,4.858947816204954862e+00,-1.703211299568446746e+00,5.797862703882198376e-01,-2.771878901653145988e+00,5.673990230709131943e-02,2.755470944508772391e+00,-1.083727921765167274e-01,3.302234155213139122e+00
5.302695881664060140e-01,-3.686832280886002122e-01,1.558278321684318124e+00,-2.127096977123305865e-01,8.458648141836653256e-01,1.695321873263802459e+00,-8.999495741740515253e-01,7.979604104335361603e-01,2.126029779202484704e+00,-1.057614942774101952e+00
2.252839292988410291e-01,-6.328062143474683099e-01,5.109741075389271359e+00,-5.702978415508398458e-01,1.578578321295643461e+00,-1.776683289525509413e-01,1.290607693910111875e-01,4.380937467799095764e+00,2.051746612930034797e+00,5.457760305532092238e-01
9.162484853133529006e-01,-6.016836867336035510e+00,-2.252994115090177552e+00,-1.474642049977629377e+00,2.041988307228946642e+00,4.217895187485098951e+00,-3.873655916818547595e+00,-1.215810863566683775e+00,2.620395834742875518e+00,-2.258471311747650478e+00
5.362483058375988598e-01,5.010922267924116102e-01,-4.440457483196539101e+00,-5.729321115037819823e-01,-8.160031012321223853e-01,-3.579806453848524139e+00,4.154291112976004285e+00,-2.540535089535310043e+00,-4.351205720869906202e+00,2.544141976196965693e+00
1.688082422275513361e-01,8.862077825814757004e-01,3.242935705189483819e+00,-5.230895887966936497e-01,5.671933267861485328e-01,7.070816019964161203e-01,-2.417247191580208288e+00,6.827615181482363793e-01,1.518415224831855870e+00,1.454429861306930777e-02
-1.305074050921653184e+00,-1.853123314319558013e+00,3.522541450768710281e+00,1.251715364052655932e+00,9.121075231120747695e-01,2.498784832100019671e+00,-2.375774293731520714e+00,2.589929139586069073e+00,2.750426056885341364e+00,-2.493528191968108043e+00
-1.882694672623678178e+00,-3.875685497976566030e+00,1.117120367581460938e+00,7.311402767271256709e-01,4.009522116904779554e-01,4.715174757188389520e-01,-1.883842065327794524e+00,2.854127382642502653e+00,3.152430169544040983e-01,-6.938394705520268824e-01
-9.811745590257454630e-01,5.133323860961640506e+00,-3.894248511938782187e+00,1.428570536174328165e+00,-3.465056024593925255e+00,-3.537695202473495559e+00,2.596727922768851560e+00,-3.258356663544799137e+00,-4.481644093384917760e+00,1.816082802173115462e+00
