-7.126730236502955007e-01,1.819570738875456950e+00,1.160523359758202488e+01,-2.557507057970165754e+00,5.139775682926748246e+00,-2.003654084387034295e+00,3.041973805563627842e+00,-2.535387119150438462e+00,2.326395844194729001e+00,2.194051774597408633e-01
7.505453899722638877e-02,1.106766766013843828e+00,-5.969279899755671748e-01,3.593852414421189412e+00,6.277756951952878639e-02,6.598591176518210366e-01,-2.422903963741725786e+00,1.240979150340623338e+00,-8.642173316557639762e-01,2.923623880230157290e-01
6.610680085661324590e-01,6.391092289481793420e-01,2.823430235936409627e+00,-8.365235411382633268e-01,-1.923123905044578308e+00,1.715720038014315385e+00,1.158438623409877355e+00,-1.319472538159380259e-01,-8.229889387558539937e-01,2.609979488681629434e+00
-2.783026232758460949e+00,-2.068196797520917229e+00,-2.821165811064589413e+00,3.026264896176747765e+00,5.382354258289039350e+00,2.817620241873854514e+00,3.244720911276309794e-01,-7.639258660370786824e-01,1.484752302720327100e+00,2.127716933520722442e+00
9.842491273926387563e-02,1.631728487662736482e+00,7.816522640235337160e-01,1.192660009829057843e+00,1.984724236117110685e+00,-1.980702759417437342e+00,-5.749470619891832168e-01,9.739834011859002660e-02,3.142410750691008170e-01,-2.467331517613299496e+00
-1.643651919564144803e+00,-1.197307062918946174e+00,8.337316642253467247e-02,8.683271707631878833e-01,3.272520943910943725e+00,1.961059506238869821e+00,9.447256444451145319e-01,-9.180894457318208302e-01,1.036061141822025133e+00,2.238499613135942479e+00
6.808895280097358726e-02,3.289356542989221310e-01,2.400800182633425983e+00,-1.985729844269567002e+00,1.080009363582692838e+00,-1.007311596006443155e+00,6.807266310024533418e-01,-9.500170727422926342e-01,6.104045180732130538e-01,5.935789960501425266e-01
-1.820783251996537011e+00,-2.732675642399519766e+00,3.842823594424321865e+00,-4.260541498428455087e-01,1.048743702359389296e+00,2.051160675539875911e+00,2.997139079169682141e+00,-9.058831565156391097e-01,1.655767294249703481e+00,3.674090133695606664e-02
-1.972239205561224562e+00,4.640175136397390876e-01,2.500830226920416344e+00,1.699282332475044566e+00,6.768220191302239286e+00,1.771146973590708829e+00,-3.986055304376601160e-02,-1.641375565213482490e+00,1.371945983617339548e+00,4.711827882802596790e+00
-4.462339885692752084e-01,8.726906220573347195e-01,7.801786493888975826e+00,1.848242663128760066e+00,1.363530778013378297e+00,-1.801977316797278572e-01,-1.540050519159791520e+00,1.496561273453649310e-01,5.670983996287419782e-01,8.659606803372488226e-01
