3.389103832219606982e+00,-5.386286865524481549e+00,6.147497879502402895e+00,2.414742184709400163e+00,-2.010827241516934372e+00,1.895066273490697117e+00,-3.004381912179791003e-01,-4.431636028189814169e+00,-3.222487047015724748e+00,-9.263633148419390118e-01
-1.685594245931480550e+00,1.429275552931630777e+00,-4.762435950655228289e-01,-3.710529980414174034e+00,8.864854776924030455e-01,-1.495347785848549771e+00,6.605465478833560944e-02,1.309530501384499113e+00,1.344770687183942104e-01,-5.109271535102574147e-01
-1.355249348902231477e+00,2.152969999926970246e+00,-2.656800520881834604e+00,-2.779991572259677746e+00,-8.434716619439691643e-01,-1.805491013967174707e+00,-6.023526278402789869e-01,1.177010201522560084e+00,4.831116139939067855e-02,1.108770424842349556e+00
8.169388874901760689e-01,7.149488769079639372e-01,7.787406681004671594e-01,-1.226744315429986854e+00,-4.746191648298397681e+00,7.541816593720712669e-02,-3.165240719785363144e+00,-2.094362665951662095e+00,6.201080578003836941e-01,7.239389495506896033e-01
8.967739262199113659e-01,-1.911601654802833616e+00,2.251963935628409352e-02,-1.573763012006854645e-01,5.161336352191622012e+00,-1.430698857328559281e+00,2.400933768092997411e+00,2.829134251937923228e+00,-1.711809218094188179e+00,8.640336162834333367e-01
-1.337627573970381345e+00,8.931204241645892550e-01,-4.249186975595248938e+00,2.252822468777468945e-01,-6.784823427576566202e-01,-1.319326546550752877e+00,1.424786662643570345e+00,3.231171168456348219e-01,-2.161439505938559158e+00,1.617020347101724820e+00
-1.446493016084972605e-01,2.194393395868453389e+00,-9.781536433600448444e-01,5.894035806306523462e-01,9.539293736786018663e-01,2.186898591472993925e+00,-7.944304150093973726e-01,7.000752500181327553e-01,1.903571571410377805e+00,-5.633031357614782797e-01
-5.223564976909245594e+00,1.869882824370985297e+00,-3.371855444942455371e+00,1.205853518736506924e+00,2.651408839011760998e-02,-8.590931195739275328e-01,3.674016689187874274e+00,-7.969745797574229185e-03,8.536570421112980034e-01,-2.434391263176722386e+00
-3.644872642541129859e-01,-1.418214743445610937e+00,2.837828692571610301e+00,2.013228580714854221e+00,2.641197395849132601e+00,2.273833414441237100e+00,1.868221180382624969e+00,-6.711696506397107909e-01,3.992040224133429072e-01,-2.950287875497757284e+00
-1.568248277646409894e-01,5.421012016553644619e-02,-4.315433238572248809e-01,2.678365811349837089e-01,-9.850631858120975082e-01,-2.995205180560976954e-01,-1.167170735666902964e-01,-3.703101337626290013e-01,-1.887883543101623318e-02,2.718895619921040674e-01
