3.206626195121566325e-01,1.024019696222888687e-01,-3.538779863437458761e+00,4.919201290464775833e-01,8.082341764815807739e-02,2.848606642894436214e-01,9.160412344291636311e-01,-2.692901918337641920e+00,1.109245026216423069e+00,-1.954544225556805292e+00
7.519166543875260844e-01,5.010905349163665257e+00,1.498069759125753908e+00,-5.638242312128015632e-01,-2.165480876502219765e+00,-3.915473587265610789e+00,1.570996201988007490e+00,-1.493165119951074482e+00,-1.617793483576597025e+00,2.639200753078314587e+00
2.388385401172020028e+00,-1.551494624927795218e+00,-3.469909836450738361e+00,1.659118214738875441e+00,2.148153654772039900e+00,-9.568932035319767382e-02,-1.354005746692602541e+00,-1.904944244776745066e+00,-6.864934568487315314e-01,-1.271028256886131969e+00
1.914814684875551620e+00,-2.714743569623098818e+00,-2.320636311212449066e+00,8.584948957880319531e-01,1.357013773169895687e+00,5.165046008156827240e-01,-1.239039568999872776e+00,-2.932078352421098044e-01,2.847322787757791129e-01,-6.604308560585124832e-01
-1.622515478955779189e+00,9.419824127954676829e-01,2.560539344362463776e+00,-1.741601110097525940e+00,1.360024748971070174e+00,-1.675935068081655099e-01,-2.777781617154674310e-01,1.028484971620736987e-01,-1.269899315520297556e+00,3.713382045688478517e+00
7.617489771499662554e-01,3.678491803571105390e+00,8.610219235997055784e-03,-1.110068837076065185e+00,9.407395344409413829e-01,-2.247480833907529174e+00,1.815460150391682514e+00,-3.300807175671359506e+00,-1.095798859894472121e+00,2.669485810735411579e+00
-6.514558116375198660e-01,-2.489976187788435436e+00,2.567546031897410153e+00,-6.167397578705657857e-01,2.349225663923579788e+00,3.002113463421171691e+00,-7.518233758375610608e-03,2.487635210264414809e+00,8.957606001465465706e-01,-7.278745235132891844e-01
2.635791554343781123e-02,5.721824622958072704e-01,1.060479099797828395e+00,-1.445875071947938517e-01,9.247541929318914278e-01,3.333368512838317810e-01,5.406717441665491730e-01,5.695699850603701264e-02,-2.018750093770300402e-01,-1.338317193050219678e-01
-7.413605862980845451e-01,4.329491450949599640e-01,2.476710631156034736e+00,-1.922385075606595217e-01,-6.371964746451689310e-01,-1.827468265386396062e-01,-4.489099172431040286e-01,1.880451530728521448e+00,-7.062079688809717037e-01,7.778134357950110545e-01
2.373388861801021044e+00,-1.229397797650005231e+00,-2.528520323470402786e+00,1.582045725765185429e+00,-7.838882599128853546e-01,-6.320781807847240807e-02,2.216741614633685187e-01,-2.222415155014398347e-01,1.144966516354376740e+00,-3.019691464764608479e+00
