1.171122698948283247e+00,4.386484797813821612e-01,1.140365494042490990e+00,1.016833154915431636e-01,1.364300223150908042e+00,-2.090946546334592482e-01,-1.715845281267652123e+00,-1.988612678476587847e-01,7.599074651025737870e-01,1.594149517898188595e+00
-2.625978982939128237e+00,-2.027124532567451176e+00,1.133083754510354479e+00,1.693981004825318992e+00,-2.741670730102383047e+00,6.803051939438070628e-01,1.988924786450431581e+00,-1.022593214088824309e+00,5.958897983866419112e-01,-4.345680503216513557e+00
2.378103905249327799e+00,2.595892178671143746e+00,7.797381732853572167e-01,-4.918639357959789793e-01,1.514330508273822984e+00,1.230790171299593450e+00,-4.671137462467384260e+00,1.184205191279607439e+00,2.761139308132823267e+00,4.866416265832788635e-01
1.687095647261725340e+00,6.483035582275527453e+00,1.670344825576280057e+00,-6.218859713958012625e-01,3.175513464865114432e+00,-1.641982055779223515e+00,-4.920460234388462695e+00,5.771495473517023189e-01,2.472295833232058815e+00,3.902280480080273506e+00
-6.172168875652624953e-01,-6.961275048855530834e-01,-8.481663722731379806e+00,-4.558498159111944226e+00,-1.975603198095206459e+00,4.244000594242375968e+00,5.588595019350163007e+00,3.172049849162172031e+00,-1.682013924074368338e+00,-2.617239004751145348e+00
5.997726843667757990e+00,5.182930837682137692e+00,-6.098418819642428268e+00,2.303319198960250003e-01,-1.115665828555985756e-01,-6.951113196505973590e-01,-7.112364496884122644e+00,4.991254867128483319e+00,-6.926036510034632165e+00,1.023239570997364289e+00
-1.383047383386186269e+00,1.027157631707577012e+00,3.279004913656891063e-01,1.069142823704460010e+00,-2.655039455405271198e+00,-1.008269595074205438e-01,-1.139978457928349842e+00,6.728793007485011080e-01,4.540455539498066129e-01,-4.079522140865117663e+00
-3.207682195663371649e-01,1.303414838902670070e-01,2.205585187530079594e+00,1.599829954654696573e+00,1.537595874003304663e+00,-4.793665408299718322e+00,6.647043231114808659e-01,-1.970304567775425175e+00,-3.436220489151127655e+00,4.718088820634660507e+00
1.047839155894213947e+00,2.335757365029213162e+00,-4.896728975245376425e+00,-4.261564276317792999e-01,-3.094301968944423109e+00,-1.689662790831438777e+00,-1.853877182548461455e+00,3.620714334684599134e+00,-5.473200669189495216e+00,-2.271597788567856657e+00
-1.125920010082391620e+00,-2.194923709686000812e+00,2.073044086286437437e+00,-3.705562404374003194e-01,-2.287347823384352274e+00,1.741457159062425930e+00,-1.309977158012608722e+00,4.250918782913156169e-01,4.243379650699091066e+00,-4.819513500353275859e+00
