7.319603184023303344e-01,-4.112378301304414840e+00,1.482857088964531611e+00,1.897946738151709001e+00,-3.313904993454127368e+00,2.911582274652258828e+00,3.689347457770761007e+00,1.603304358284773024e+00,2.037791866022695686e+00,2.844352352622052660e+00
2.731025012701326915e+00,3.406733587298020893e-01,1.802386040790035837e+00,3.542874914369549821e-01,-1.463900837938576727e+00,-2.513654324059147349e+00,1.318069851745195642e+00,7.223668296907910236e-01,-1.010675365989868846e+00,7.811288619894913854e-01
-1.066829435389893277e+00,-1.868135755998359793e+00,-2.092984495213519480e+00,2.407048025815606840e-01,1.425273740288071911e-01,-8.927104009386803429e-02,-8.474745821683915548e-02,-1.702701966499076125e-01,-2.059352667607968534e+00,-4.261445640335000951e-01
-2.520227756838120392e+00,-2.091543971834235460e-01,-5.619729968713542689e-01,-2.369491590607660236e-01,1.666568103089833386e+00,2.453693970138886460e+00,-2.286760514859203841e+00,1.011526919538101366e+00,-3.777504290767506046e-01,5.382271182620029792e-01
-4.128416924855063286e+00,-2.633143553554192717e+00,-1.374430456016419111e+00,1.735031266892229640e+00,2.903795934362382702e+00,3.882139803936948130e+00,-2.126822766495500616e+00,-1.736585446977415015e-01,-2.948121068424967461e+00,-3.452414818257469875e-01
-5.685876986631208663e-01,1.662221496284277844e+00,1.529086613554796248e+00,-1.788246007025340312e+00,-9.783755159445975402e-02,1.724752282149393912e+00,-6.822571051579559009e-01,7.925147059606288957e-01,5.762869978479102429e+00,1.454675154259504666e+00
-1.039391947345145395e+00,6.299239841158583708e+00,-4.386052917567666021e-01,-2.098827026195416501e+00,2.718342459891758267e+00,1.112528434354469464e+00,-1.956295890714421226e+00,-3.803470004683501493e+00,5.480345148192705906e+00,-3.847660175706402175e+00
6.309083949885557763e-01,-4.435964778568826539e+00,-6.275861530725947990e-01,2.275902662701022816e+00,-1.292222316842688068e+00,-1.064876504940373447e+00,2.277337466633136298e+00,5.976465214070825205e-02,-4.100077138941784050e+00,4.938904594209247989e-01
2.068517617550615473e+00,1.610919032604087198e+00,2.468425571099469029e-01,-1.740173901145187552e+00,-1.405100894277160783e+00,-2.926247364429201969e+00,9.635034265559178079e-01,-3.848886206949158062e-01,2.610917375194387269e+00,-6.891404365975624391e-02
-2.376366842399891599e+00,-2.557805461796349267e+00,-1.889667146104403894e+00,1.704043375818658390e+00,5.320825010087230078e-01,3.492168536573122761e+00,3.670867462057523789e-01,-7.087675104510914315e-01,-1.393410393988408158e+00,-7.155352066752342921e-01
