1.209712805836028693e+00,-1.905020139314268501e+00,5.103061473466593556e-01,-3.498324520173765606e+00,-1.432360445048294295e+00,4.281299453227049301e-01,-3.149972090969530569e+00,3.706322107963404555e+00,5.637621138630937168e-01,8.359245857705052130e-01
-1.109088642283218906e+00,-3.120388227196793651e-01,8.663557319295589476e-01,-8.878774552728887492e-01,1.314918049411683665e+00,1.537058020088819088e+00,6.555602255928638655e-02,-1.791222414454443301e+00,1.383190758637197648e+00,-1.101966167736197821e+00
-9.567503458582509168e-01,1.566424247625068378e-01,-5.995840682639985708e-02,-2.963997583791772694e+00,-6.766218517014515044e-01,-6.840004343713644852e-01,6.404980902484425087e-02,1.580215260809126665e+00,1.415150357235686940e+00,1.707940115517666557e-01
1.543249885191300130e+00,2.607323768839626688e+00,-3.283959743140239529e-01,1.444526386931074713e+00,-3.318820912373085186e+00,-8.832886990500327107e-01,-3.713872726939402291e+00,-3.338972336511730532e+00,-7.304873650290768516e-01,-1.099537673911888280e+00
4.591707612583497133e-01,-6.144868917633287353e+00,-3.599159541651949290e+00,8.621541154277116092e+00,-2.165516960825194737e+00,3.171767738801610781e-01,2.894575432647588542e+00,-2.063194633247658061e-01,-1.205868232998523748e-01,-4.915762882482223262e+00
-1.063719780138506987e+00,2.577719192184870778e-01,6.267229279310830847e-01,-8.694445525603490266e-01,1.429051858005965014e+00,6.837548494648385544e-01,1.160775849612025290e+00,-7.508939588060752346e-01,3.603022006486416573e-01,6.152192170414606809e-02
4.435551134881075441e+00,-6.597177337500080840e-01,-4.491341845511771513e-01,9.769531840445004889e+00,-3.522320269679358073e+00,2.074540424074501122e+00,-2.539486111934132317e+00,-6.324653082466582532e+00,-8.795751702994724752e+00,-1.444930676049474005e+00
7.045408148100670287e-01,-1.312089337766613184e+00,-6.433710937781845773e-01,9.821992259656487922e-01,-2.500026183371542920e+00,2.320658232291890888e-01,-9.386245122436813748e-01,-2.147462291259666922e-01,-1.353132597123466452e+00,-1.120204876395245908e+00
3.137812058131006498e-01,-1.269695553898129603e+00,2.780817710330941994e-02,1.015870453409826180e+00,4.078896722137477782e-01,8.511738803586228475e-01,-3.690826504119901763e-01,-2.311400254359507467e-01,3.486712378411310209e-01,-7.345866215078643569e-01
1.359956263626204809e+00,1.280845652311389582e+00,9.097726750439061316e-01,-8.065626946858706070e-01,-1.625471767502131071e+00,3.413319795054119421e-01,-1.538062736678180720e+00,-5.697633946457404397e-01,-4.179597738073626445e+00,1.778780015729013009e+00
