-2.800088536963254437e+00,-2.407645602056651679e+00,-2.907078983007323814e+00,-3.208759327889408208e+00,2.789415784169591905e+00,1.048662289203337483e+00,-3.991302478638813156e+00,6.615193586523268054e-01,4.246994229795236109e+00,6.501650706742309049e-01
2.914645501522790561e+00,2.443619590436937994e+00,3.200060049939415396e+00,2.294346519766734538e-01,-1.350285652393578839e-01,1.832132707014509643e-01,8.977942183282161537e-01,-7.364039116392010476e-01,-2.637381961313726375e+00,9.337605090322508294e-01
-2.475114826900583598e+00,4.611702642216928716e+00,-2.751035197416159317e+00,1.087430702146560124e+00,-1.075379297522373934e+00,-4.392586833739534846e+00,8.132491702031583447e-01,-4.702969258363726701e-01,-3.759599546050774954e+00,-4.217767968925533850e+00
-3.427504106219087632e+00,1.686920546133389598e+00,-1.489852431252452813e+00,5.687120261209102079e-01,1.070200349880975205e-01,-2.382141497556081067e+00,1.171424796252065414e+00,-1.278233584875128281e+00,1.162148845696908905e+00,-3.546792393296080093e+00
4.476983603561453529e-01,-1.900317864896855724e+00,-4.532076736308110476e-01,9.691516964399810030e-01,-1.732002657698984427e+00,7.501327764094140038e-01,1.044298060723069410e+00,1.259141777545210061e+00,3.559508525969369286e-01,-4.085988469253821198e-01
5.980797134940221582e+00,3.147974781967050717e+00,2.269173302981535301e+00,2.606129364605043741e-01,9.438421524857973921e-01,2.082784500162648378e+00,1.797126240133981145e+00,1.414189894204410436e+00,-3.535827543589439070e+00,1.623839006933862850e+00
-1.158778106540529242e-02,-6.138395103791426166e+00,2.111416961074140008e+00,1.050083406467475999e+00,-3.238664010370820634e+00,3.250495045061027710e+00,2.627899190542534846e+00,1.189589181319628874e+00,5.643405670158474940e+00,-1.197123102426624675e+00
-3.290422242628926686e+00,3.993738493977935455e+00,-1.398205169705125206e+00,-1.520718883160858015e+00,2.982225230745982447e+00,-3.653425483716722599e+00,-3.063595500919602532e+00,-2.868380431499907512e+00,-1.808490456611251407e+00,1.655079768004604768e-01
-1.407590514946944538e+00,-1.026997775277756153e+00,-2.419330065229330362e+00,1.375012753255168765e-02,-9.830918167971044452e-01,-2.240441769713786835e-01,5.267534393613618887e-02,1.449964639490251894e+00,9.848730977346494830e-01,-2.067080544890565807e+00
-1.051743173908067375e+00,-1.455928788786895911e+00,-2.045366977163542099e+00,-1.411302060536776759e+00,6.202088806863244042e-01,-2.220613494287438927e-01,-3.411246406523181118e+00,5.821358532222487003e-01,-3.970582980448066346e-01,1.931992103424505558e+00
