-2.736100391123384323e+00,-2.168533937453644533e+00,2.557685604129489310e+00,1.890493382235594044e-01,-2.017774266125430260e-01,1.131707854807230795e+00,9.652787657437491564e-01,7.181867010624860548e-01,1.268829906905588611e+00,3.447447876102530451e+00
-1.342044253498704487e+00,7.762329526947291392e-01,-1.312945217052924773e+00,-1.126341510497481213e+00,-4.765723545179968018e-02,-3.426592108819200184e-03,-1.310630680615204428e-02,4.519795584172902281e+00,2.575983853410864999e+00,1.949818050524952495e+00
-3.008923847443915722e+00,-2.255848892447277265e+00,1.009799772835263232e+00,-2.029764307827335745e+00,8.377073876567145971e-01,4.535576399345375709e-01,2.351621210624466496e+00,-4.031334155636860372e-01,-2.039832495446819216e+00,2.630049446971018501e+00
9.556229845229633479e-01,1.017710986350670366e+00,1.258070173019513405e+00,2.982496785962006847e+00,1.595586218123172806e-01,2.053255473028781364e-01,-7.995095591821033132e-01,5.159166837845617914e-01,2.152639291500370256e+00,-1.352393638521474761e+00
-2.058134623267311447e+00,3.016081240264448571e+00,7.473915284686967198e-01,5.111772918699841739e-01,5.515949276754095187e+00,-1.362265606084228420e+00,7.178821181000613727e+00,-2.138537815545961118e-01,-6.857630529732307245e+00,-3.331655544607675434e+00
-2.559175102807577651e-01,1.853919430569237470e+00,-3.358008946466367606e-01,-1.531051978388870749e+00,-1.123369774672140498e+00,-8.170921957742549591e-02,1.518233774732891783e+00,5.359096381505210616e-01,-1.563545000436397769e+00,1.839447854344635092e+00
1.449936964504572844e-02,-1.079716823144728277e+00,3.826282007189253931e-01,2.106180179362683536e+00,9.761208954182535313e-01,-1.515701464350164063e+00,-1.400864226568609539e+00,5.091795421476167149e+00,4.489167379210075914e+00,-1.547379099212403963e-01
-7.790338654964134024e-01,1.344121101408574770e+00,-2.486732969619852296e-01,2.729593797168125002e-01,1.310266437929072270e+00,6.607882094677381968e-01,1.241217970581206087e+00,8.349965372658477158e-02,-5.876306111781168795e-01,-9.456726217110105193e-01
-1.290521851478168891e+00,-8.366028940820345872e-01,7.421305068722331422e-01,1.160433820933820082e+00,1.282204082032803560e+00,1.467192623907821458e+00,-1.475873467023895713e-01,-5.988033004641817314e-01,1.243071029804084349e+00,-6.798116174482814467e-01
-2.581034689101180390e+00,-6.248670523114355779e-01,-2.755021118122120249e+00,-8.558173630283593125e-01,3.533670257499574419e+00,2.268831482477934536e+00,-4.911067537455234278e-01,7.407349708225773322e-01,1.727825898215592071e+00,-2.520554235136865717e+00
