-1.122527520542662138e+00,2.506837387561025032e+00,1.100132222869545373e+00,3.046174767041707754e-01,2.435312609577963805e+00,3.949681164628706664e-01,7.004228601510456009e-01,8.691183597840306252e-01,-2.316528279819763725e+00,-2.060860110870808282e-01
5.085293649224325030e+00,-2.142803647559723856e+00,-2.833924957332271788e+00,1.976407526543792148e+00,-3.958928763450434207e+00,-1.011507434256774918e+00,-3.287105382731665415e+00,9.632439942872317307e-02,5.983245365092064727e-01,8.166910013397485901e-01
-1.969504042450256343e+00,1.329147352071715638e+00,1.609651064395863695e+00,1.043540244373626580e+00,1.402262833760897554e+00,-8.650255401625880913e-02,4.866825087627008606e-01,-7.975669066948122277e-01,2.270192862425289282e-01,1.158815317247972598e-01
1.863380174762596431e+00,-5.249979533247381980e-01,-1.405415727819800731e+00,-4.146664632908996784e-01,-9.376146758974361894e-01,2.883380270954839508e-01,-7.018565068366555693e-01,4.537156736609505581e-01,-8.591294754474749773e-01,-6.638127471717272798e-02
-2.952655356879190784e-01,1.185734479674725561e+00,-6.292336603872662470e-01,-1.457673940454950134e+00,1.598175828993285030e+00,1.270807823631396882e+00,8.872561819000969185e-01,6.499211433095184454e-01,-2.309300634751955350e+00,-3.239681696139540823e-01
1.084073822513574314e-01,-2.075458894699177215e+00,5.871951109570949789e-03,9.542731908190643653e-01,-2.802412574210470186e+00,3.602350061291923478e-01,-4.477320859635488537e-01,-2.372873534474585266e+00,3.700718453886532533e+00,-8.365400169719764412e-01
2.907596582544196728e+00,7.233986616420109428e-01,-3.249771126645383923e+00,-4.348667076256200748e-01,1.059256964482562235e-01,1.560562814022043554e+00,-7.054460331654223149e-01,1.146146065090452471e+00,-3.035930471982216883e+00,2.175589815070726185e-01
9.437237773601251378e-01,-1.289611253275608549e+00,-3.884150119036329230e-01,1.318636484333789216e+00,-2.102572580509551425e+00,-9.106308581238470312e-02,-6.660239937112533148e-01,-7.479225537799880641e-01,2.380353260349698186e+00,-3.728042111261417046e-01
2.609115476801278977e+00,7.446030994285965932e-01,-3.025429561915976340e+00,-8.206065778835980318e-01,6.423460963074800745e-02,1.791678823396864795e+00,-1.467560832602498255e+00,-9.748500840934047895e-01,-3.917493523416600176e+00,5.364216816139976141e-01
-5.759792409697739313e-02,1.295210207555959725e+00,-4.736949476127103043e-01,-1.231084041750847069e+00,1.941155242022285510e+00,3.246730325574032072e-01,7.322646846036799939e-01,1.785682335566936896e+00,-2.564665136421942382e+00,2.666167860950685031e-01
