-2.533908324424058556e+00,-4.551090380817790049e+00,-1.476763938303102819e+00,4.481440858138597605e+00,6.353724892260215640e+00,2.038855383328170845e+00,1.750965529118515107e+00,5.735693302189319720e-01,2.343081544208707623e+00,-1.034586662336406615e+00
1.420243764758076122e+00,1.272171895714303780e+00,2.482119208989859604e+00,4.001911028401974879e-01,2.500283006502253880e+00,-1.877863456851022184e+00,3.571425569294559565e+00,1.131107005591814429e+00,-1.266284510031509658e+00,-5.696156953861105654e-01
-1.639101604679707114e+00,-5.547291001464805582e+00,5.329926207140332828e+00,-2.683069085851216506e+00,-1.649231695185237045e-01,-2.677012769975230189e+00,-3.969639250824593457e+00,2.532415334095624360e+00,2.246026360837585223e+00,-5.044028070828999510e+00
-8.216423820788311128e-01,-2.238938291912229150e-02,2.274188457122457763e+00,5.608811887964758602e-01,-2.221688358990855372e-01,-1.626169174194836087e+00,-7.057721038290758475e-01,1.845642753262138003e+00,1.416389934210692481e+00,-2.728594353734185241e+00
-7.542415804507008881e-01,-2.383948486535045763e+00,-3.243689887973528307e+00,2.679761778397637073e+00,6.382400440915513284e-01,1.911698693862885712e+00,-5.669369221539336534e-01,-3.853404999816486542e-01,2.201244266511578118e+00,-9.530925677434290977e-01
-1.392839468009984927e+00,8.922394958207812143e-01,3.350685536348693150e-01,-1.133680007791658007e+00,-4.964571838933013126e+00,-2.406610471727855805e-01,-2.842246439202977815e+00,1.085218584271501419e+00,1.713265266041696711e+00,-1.486476030536930226e+00
7.678217890531187362e-02,-1.150305109532671288e+00,-3.753659634274987500e+00,1.030751672116451800e+00,-5.325759818749623342e+00,8.340094150077954627e-01,-5.554603173200324484e+00,-6.531191951102559567e-01,3.411569579578289435e+00,-2.922968555116493672e+00
-6.048408650267150577e+00,-2.037535624175692561e-01,1.517483133023229458e+00,-1.701421384658911684e+00,1.873276061240054968e+00,2.527390014580852995e+00,-2.179988702650399901e+00,-3.958328649094490226e-01,-7.658499371153449919e-01,4.597516835822966996e+00
2.941481750771062664e+00,9.218940083781544947e-01,-2.592538793431837796e-01,6.649549995112455925e-01,2.520192553864722407e-01,-8.383639613140910773e-01,4.468693509185983181e+00,5.748167857376217382e-01,-8.226408193192307206e-01,-6.791455292305743630e-01
-1.544741255607012143e+00,4.772717939330228809e+00,2.984361039415220684e+00,-1.801136164100263226e+00,-2.030745589854654476e+00,-1.175678179747682961e+00,1.678553058780440921e-02,9.995521175756740817e-01,-1.445842415438757023e+00,1.713346170792914958e+00
