-2.227148542922829932e+00,-2.520394905649969708e+00,4.187739248385842772e-01,2.194429531364979091e+00,1.846600971345480513e+00,-1.184818407422077557e+00,1.359672793871842256e+00,5.869878742489045148e-02,-2.831291039597348735e+00,-1.442974231156942455e+00
-3.204418344262835117e+00,-2.128345944339077089e+00,-1.038284647892317780e+00,2.034046441899232338e+00,2.908869424382461988e-01,-1.505979721512683334e+00,3.108632288016740741e+00,5.272805270263818400e-01,-1.703263415442781981e-01,-2.612332498008758108e+00
-1.252083703184214247e+00,-2.544207939614515426e-02,1.668465805134405011e+00,-1.819586260985468718e+00,9.674141850643231066e+00,4.221110172414405781e+00,2.377129246437989618e+00,1.884013636002629166e+00,-2.735721335569917034e+00,1.064491627257954320e+00
-1.523627375272803341e+00,-8.881614047692029112e-01,1.186131367586241936e+00,1.534866699402905876e+00,-3.810690065709938068e+00,-4.844261141908609680e+00,-9.670611221811514432e-03,-3.684307257652977285e-01,-1.058952253043106806e+00,-1.174673786030404399e+00
-1.659358375257911966e+00,-2.491116845310876737e-01,1.193070928099508460e-01,-7.991380327812264150e-02,-5.624322606684393655e+00,-4.859799477085048558e+00,1.115786105482894142e+00,3.278475619222400717e-01,-2.797209846149688151e+00,1.416302441213280472e-01
-4.462049144318929628e+00,-3.594693992846314412e+00,-4.207891767848649933e-01,-2.320377605177290081e-01,2.811638806574209948e+00,1.431595596590854447e+00,5.490340081089221336e+00,1.863104705353248736e-01,-6.038349680953800439e-03,-1.045195574436204922e+00
-2.951046377833394185e+00,-3.514722497340486140e-01,3.648217589170742237e+00,-2.843904345972183112e+00,3.599111124461739752e+00,-5.618810838462545698e-01,3.197876564266042276e+00,9.581892809047335424e-01,-9.512362687230552227e-01,1.199964816029603920e+00
-2.823256552705943889e+00,-7.622243957803521708e-01,4.356439588991061207e+00,-1.682158542845893168e+00,-1.937537848517223660e+00,-4.950322396459223562e+00,1.557254678796132552e+00,1.220329274026137056e-02,-2.519281461920777954e+00,1.165274445189978358e+00
-5.896522547328392427e+00,-3.596646891281158442e+00,-2.029535529875517774e+00,2.612834623336628415e+00,1.568806455898906549e+00,-2.274378208766730580e+00,6.267344498145261511e+00,1.924745807515614970e+00,-4.342592405863567429e+00,-3.242243902170094394e+00
2.779197518505299058e+00,-5.040420752047245490e-01,-5.238454100502091038e+00,1.799604727912215152e+00,-4.454276832783182982e+00,2.811845821024218761e+00,-1.854451418436326993e+00,-1.537522121586690993e+00,2.442753868162642839e+00,-5.844145085469840684e-01
