3.747026277341817924e+00,1.867144630793598603e+00,-3.131739018788285644e+00,-3.194995061956046323e-01,6.698443904784990854e-01,-1.475925894293327767e+00,7.861429198524294559e-02,-2.937240148548935448e+00,4.036560138387920382e+00,-6.733240192412845992e+00
3.377989265931213847e+00,-9.273360683183543562e-01,2.582760014057334352e+00,-3.953680666870735827e+00,-7.658115087236616603e-01,-1.082439631013498715e+00,-3.008023171578583010e+00,-2.609062476883455606e+00,-4.720883290139405553e+00,-4.848117402949656984e+00
-1.126990902140614370e+00,-3.727476268835057560e+00,7.212136091429291462e-02,-7.502977302004908644e+00,1.037836332571317577e+00,5.446264388869962225e+00,-3.205475049905199825e+00,3.918519437170252750e+00,-5.029420796009179462e+00,2.933188358032244203e+00
1.615840386471175005e+00,-1.037617717988055910e+00,-2.199388934278470931e+00,-2.058487846020736090e+00,9.406390730219355012e-01,6.979243393052844135e-01,-1.228546412600473037e+00,-5.345729950834949840e-01,7.370249280683794924e-01,-9.972298352074364658e-01
-9.590527960367219995e-01,-3.682244679064439197e-01,1.530528132497433802e+00,8.892505610285594830e-01,-6.929979732353361843e-01,7.941212102074182155e-01,-4.827707914940884137e-01,1.979308280537672937e+00,-1.460677309961669446e+00,2.166298780624076770e+00
-5.683507532818617314e+00,-2.464523218453471998e+00,2.593727704737547324e+00,-2.005047628608495724e+00,9.899369179360656412e-01,2.920089050562515443e+00,2.821595149587583506e+00,9.309241803518328862e-01,1.192113159054722649e-01,2.437970454558944233e+00
-1.765078917442944872e+00,-3.083845565263408695e+00,4.583369810769567287e+00,-1.654927783851291301e-01,-3.239190930832407389e-01,-1.085860144287159601e+00,3.969304463800700788e-01,-2.756464174912249820e+00,-2.193948778286251677e+00,3.764137146218430319e-01
7.828524380814589900e-01,-5.808112097228150805e-01,-2.670723805960331099e+00,-2.993196730094365154e+00,8.223821599777925151e-01,2.352595292778882019e+00,-1.754786932801055244e+00,2.247204032469186430e+00,-8.232270283179194958e-01,1.373796215405429288e+00
1.434615760231945369e+00,-4.291681378868779650e-01,2.648018809590499512e+00,1.183596086679312709e+00,-1.147549622618625476e+00,-3.442771831468646848e+00,-1.033136449955895264e+00,-3.023469383002117095e+00,-3.304579380221895235e+00,9.343459643881273091e-02
3.195373347859892021e+00,-4.476746918537087616e+00,6.963032117503519247e-01,-4.375011114821924174e+00,2.737589195886767912e-02,1.112598454342733190e+00,-5.564591641346468442e+00,1.164985728095771500e-01,-5.681571703018500230e+00,1.645985412597573250e+00
