3.409046117338432769e+00,3.223806319184203240e+00,3.999332071606151118e+00,4.778793500276365958e-01,-1.848225593665324906e+00,-4.374226199941188414e-02,-1.998421008765300488e+00,-1.693339765699285682e+00,-1.920693362943303589e-02,-1.241845959417266831e+00
2.486303291112285929e-01,-1.216633010662432124e+00,4.954841225634896595e+00,-2.513780785016635377e+00,-4.117031392110154009e+00,1.703404391270058715e+00,-2.148082996176927217e+00,-1.049275904000322335e+00,6.346315922022027323e+00,-4.444883476178641546e-01
1.585597199433991911e+00,-1.820171332930226260e+00,1.459042237342724979e+00,-3.227349707134263834e+00,-5.878830171622823286e+00,-7.246794747479644583e-01,-1.544072003294811424e+00,9.192816308030438144e-01,1.898376042750624881e+00,3.990899083609992903e+00
-8.801506762089389424e-01,-3.779646248927226448e+00,1.925246812058649892e+00,-3.303977514602061571e+00,-3.874811200712197312e+00,9.767950425882382381e-01,-1.551231377807192224e+00,1.540927633939892738e+00,5.585795124441619741e+00,1.624391396225377315e+00
2.147567656094849564e+00,-3.718995802214257296e+00,2.020878301562027524e+00,-2.911778829662228230e+00,-2.770817700008574302e+00,-3.284612553178753114e+00,2.223648091468023669e+00,5.261869605203723932e-01,2.523219159161798064e+00,2.725066017447005606e+00
3.228875397791585167e-01,-1.260438423317113421e-01,9.054952447263165949e-01,4.746456528633829011e-03,6.145483612120358069e-03,1.148403393402381178e+00,-1.894442458290987341e+00,2.277336848631240362e-01,1.532572850482716076e+00,-1.549787363212582481e+00
6.881620764684133473e-03,-1.687850812686601198e+00,-4.156314497432510358e+00,6.578131926080382774e-01,2.187340699122941157e+00,1.064912951719836576e+00,-1.986658526354702969e+00,-5.644764110993932826e-01,-1.287337100724829320e+00,-2.091958207923936719e+00
1.675094819505819954e+00,-1.369784031951940539e+00,2.487263225449308557e+00,-1.876173091502958190e+00,-2.972645682824611058e+00,2.549139595202170594e-01,-1.656137003503178828e+00,-1.345701609010429456e+00,3.252736003776699913e+00,-1.828112790232356566e-01
2.212683503536295948e+00,3.185788630671205102e+00,4.191095078879855329e+00,7.203534509286609877e-01,-1.199698346422176209e+00,1.578811292973484548e+00,-2.828188681075010980e+00,-2.425993508161008005e+00,1.491529332951377684e+00,-2.875908502051578441e+00
-1.284218874805552302e+00,7.695324115966654943e-02,2.032522664619152319e+00,4.882429216240237180e-01,2.083731456243058222e+00,-1.486012033238394148e+00,4.187445854204220552e+00,-9.372776109355208940e-02,1.063769349738014958e+00,-2.439454351567685031e-01
