4.207766172795770920e+00,3.565872928977030565e+00,-7.019186898429038424e-01,1.201699497613297307e+00,3.989102170850167273e-01,-6.439934881560184010e+00,1.020002464673778642e+00,2.726548459054434215e-02,-3.211321941001847868e+00,-2.265287840389618168e-01
-2.465524833241117264e+00,5.267077966896043240e-01,5.113442750959841243e-01,-6.813986879760436821e+00,3.027039460297072715e+00,2.999834793192670546e+00,4.683862466232359800e+00,-5.317093145399277576e-01,1.297256289867514401e+00,-6.920333512659126995e-01
-9.664152561233465555e-01,3.476517165007264043e-01,-2.239618824465261948e+00,-5.689036239928759731e-01,8.285533968666604077e-01,-4.859084331596347006e+00,-1.453833689320664257e+00,2.000044211131171701e-02,-6.533635350608862913e-01,-3.019662485087971415e+00
-9.074547986750716166e-01,-9.366725931644110936e-01,4.396016034332613565e+00,-2.479985055595436805e+00,3.653788564280893603e+00,5.479656676867988629e+00,2.619539257388706410e+00,-3.157090095680009423e+00,6.154074394431700012e-01,2.593352167211313564e+00
-6.471348492312064549e-01,1.095296913591719878e+00,1.529594151045238881e+00,-3.054454896972597755e+00,4.985170668669040239e+00,-2.938581968442800729e+00,1.680457585924785224e+00,-3.497818654925996196e+00,-1.664369495975805524e+00,-1.682404701033894279e+00
-2.374490688670126470e+00,5.035242766372333145e-01,-2.624697367133352444e+00,-1.227200504151755744e+00,7.642977748024509799e-01,-4.984780538272556960e+00,-1.875430667711484256e+00,-1.065899263389049167e+00,-4.995384449705717600e+00,-4.610563735693434140e+00
3.645978159870068680e+00,1.076923125573824302e+00,2.264490949143240783e+00,-5.609738426962023183e-01,3.865894024034743914e+00,-1.801507951635678229e+00,1.718787717798163417e+00,-4.485900475424983158e-01,2.791439272523149828e+00,4.115408273834031405e+00
-1.278418627712646582e+00,-5.951211923569621476e-03,-4.013748076151795185e-01,-4.547636109209728161e+00,2.520303051776895842e+00,5.884223302773137210e-01,2.461562138154737234e+00,6.897739716971766910e-01,3.340655363748144424e+00,5.200286599949893729e-02
-2.389394569882439257e+00,-1.123624334312536721e+00,4.823163619154828829e+00,-5.133498288946737098e+00,2.873521022741155395e+00,9.835747209229797505e+00,6.111117793066826565e+00,-2.315376061886225578e+00,6.070997094180720310e+00,1.766013575489183030e+00
1.201685870293667469e+00,3.015118314825576684e-02,1.413083663122260969e-02,-2.492848064075673165e+00,6.666949437458262739e-01,2.538561761141253204e+00,1.897032784609672174e+00,2.438562891675943867e+00,1.816701112431806209e+00,4.114001230871923376e+00
