-1.823315180017447856e+00,1.980153563052506671e+00,-1.442280192779852976e+00,-3.006616566489309861e+00,-3.415099492183318874e-01,-2.267212916017504742e-01,-4.190626797756216604e+00,-2.175210433396733478e+00,8.125130431978280776e-03,3.048187549031537547e+00
5.393683075532198501e-01,-2.485729611892944835e+00,4.519677219409296676e+00,3.134147025349558469e+00,-1.599033196117770395e+00,9.333997844644998931e-01,6.764282623574936482e-01,4.963430154682520801e+00,3.087344857998519654e-01,-1.272456769126705245e+00
-4.022764249644961154e+00,3.648253296103445287e+00,1.289896242551122008e+00,-2.291115119585028559e+00,-3.168891387014449168e-01,1.948972525019089241e+00,3.103054200241473493e-01,1.864904306967571035e+00,1.496452598908200482e+00,1.040452221708848823e-01
1.083579525715367309e+00,-4.534270606845322682e+00,4.404598182850762988e+00,2.539412277704679255e+00,2.015197852084087971e-01,-4.720218777364905693e-01,6.150310911263562552e+00,4.423559642753700061e+00,-1.132266925258844648e+00,-1.463731014213220938e+00
1.918414284658173097e+00,-5.760505126274797938e+00,6.055114650631874262e+00,4.581535425108299364e+00,-1.825632649797686469e+00,-1.957593930336935184e+00,6.380645501592601576e+00,3.986894276074586241e+00,-2.584350067450670307e-01,-1.988168027777590163e+00
5.977660751265722716e+00,-5.161459683899797035e+00,3.251342239792862632e+00,2.582150047430118445e+00,-7.066557691864767676e-01,-9.663988382342785233e-01,2.897655575860689670e+00,3.958461402127884110e+00,-1.041649061177824409e+00,-2.360022856142744097e+00
2.985379480885486547e+00,5.807725866309777496e-01,-7.872867936698171309e-01,-1.481875578052736175e+00,-5.169918594056815975e-01,-3.219551628410430855e-01,-1.269118845625668790e+00,-3.219251039512451285e-01,3.721944105463489416e-01,-6.879975298871664480e-01
2.008948030070560886e+00,1.275637342431303445e+00,-8.372308787478319303e+00,-4.647898705194565494e+00,6.025639541045196168e+00,9.516445728049404140e-01,-1.272682907004692332e+00,-4.290453942223082962e+00,-3.472415825588690552e+00,1.557288849272796316e+00
9.286093868582967481e-01,2.518113137810536362e+00,-2.821025526992317012e+00,-2.687939385388196101e+00,1.668731646286931491e+00,1.704077923249487370e+00,-1.631571674865846200e+00,-1.667658212896730996e-01,-1.717422315536178412e-01,-4.614155959418813069e-01
-1.878474635961343342e+00,2.475396056197472383e+00,5.864193136180256616e+00,3.389618837580906652e-01,-4.900310219975315462e+00,4.506878713631822242e-01,-1.457018106663413026e-01,3.744326877575154366e+00,3.925763628732741761e+00,-1.603467463874902021e+00
