8.167479807357811428e-01,-1.516281026227860540e+00,-4.699550522530603347e-01,4.140054455292959124e-01,-1.169143367154289903e+00,2.778113879618750115e+00,3.246870819287659415e+00,-3.459509371504863040e+00,3.621170630819157132e+00,-3.232241842281539657e-01
-3.812438370372474572e-01,2.149935303927840824e+00,1.867004579639814921e-01,-4.304512125745958429e-01,8.993067930523637732e-03,-9.065681883744041158e-01,-1.055550805602737841e+00,1.445613513729485655e+00,-1.285065428541534160e+00,-1.166168447492502258e+00
1.859441796096434452e+00,-1.023739397889741554e+00,1.117364222906529481e+00,-2.621431923238548567e-01,5.041384735582174592e+00,4.498032656479501235e+00,1.662989626959856970e+00,-3.067431497817881159e+00,-6.212787239507767900e+00,-1.517615597768928515e+00
1.693413803207717838e-01,1.042851683312823408e+00,-1.964675888611266963e-02,6.703089411347928905e-01,2.842892831858340741e-01,-1.920567948767993860e-01,-8.440730714226241105e-01,9.128689922844779314e-01,-6.150299522064827107e-01,-1.747158642008190821e+00
7.138230631935735815e-01,-6.581533850647661055e+00,-1.266474972694531687e+00,-3.675583435690413792e-01,1.409090909710402073e+00,4.497587679670001504e-01,-2.268108298364552022e-01,-8.323793771896493832e-01,-3.182137537572318653e+00,6.031168907705921622e-01
-3.283350363327637578e-02,-4.674048142030691189e-01,-8.434192453698483583e-01,3.678560824277217201e-01,9.184819225199328807e-01,-6.017019969869542573e-01,-6.330303262708076861e-01,-1.586002534674907927e-01,-2.469892779304930119e+00,-1.130845466427570001e+00
-4.595003952729642682e-01,-1.713893658080762439e+00,-1.699339907945481620e+00,4.904874537462525552e+00,3.130932917504972934e+00,-2.296516931631023439e+00,-4.660909047277213002e-01,-3.457419077538504304e+00,-1.187225705601228087e+00,3.612402837060613603e+00
6.826532211099330949e-01,-6.278270230808814745e+00,-1.339014778938221850e+00,1.606148768076551825e+00,-5.108734518666175894e-01,3.873906236542921100e-01,6.697235210789957982e-01,-1.582254160622841521e+00,2.468823241843006056e+00,1.743925812988752044e+00
-1.645878715988065233e+00,2.839755505993522000e+00,8.829426782052555156e-01,-5.001324192445754102e-01,8.320058176556461849e-01,-3.558411693633761974e+00,-2.401040646962921521e+00,2.316296420642879550e+00,-1.948868691943605569e+00,3.638955755433641581e+00
-7.540611244751558306e-01,-2.190918626333657304e+00,-2.315943481450167596e+00,3.188439572136901212e+00,-1.601620025911166589e+00,-2.549776343860795436e+00,1.054690952040382990e-01,-1.774705157658292176e+00,3.918239818209979131e+00,1.943480478508496923e+00
