4.329080191592359128e+00,3.539447331939872488e+00,-3.777231035532643499e+00,-1.129773320591710206e+00,1.463798494532531302e+00,-3.177624232800560389e+00,-3.453979826727334501e+00,2.669919630682390910e+00,4.539452130580290956e-01,-5.081789627188759262e+00
-1.058414990582804194e+00,-9.869357442196381447e-01,-1.197956363886696129e+00,1.208370195495829691e+00,8.421003475693034090e-01,-2.543758051628412176e+00,2.405236929764658527e+00,3.351991121367721593e+00,2.709292038549055981e+00,-3.153695070353106367e+00
-4.008631884858943062e-02,-6.634201586462798450e-02,-1.729433749193185710e+00,1.335973970988128201e+00,6.136940194969286999e-02,1.056338103879571055e-01,-1.124544148968815493e+00,4.436030755571057860e+00,1.829771007877339040e+00,-4.216341011883863565e+00
-1.452342496042630771e+00,-1.119887964182209705e+00,9.384315227543973403e-01,5.968959883582661829e-01,1.104021245116211247e-01,-2.966643847174278981e-01,1.506984022355153940e-01,1.995602788070156342e+00,2.053010916713696510e+00,-3.365016471326561787e-01
-8.016986038424289696e-01,1.196088276611633194e+00,-4.760060456375760918e-01,8.123612950914200770e-01,-3.599585164091700484e+00,-2.021234779328152875e+00,-3.302042770554772577e+00,2.423859895695640532e+00,2.290700519252609979e+00,-1.843144846141231974e-01
-5.755222738161940299e-01,8.255328797831210652e-01,7.185976941072588220e-01,-1.903909768934205271e+00,-1.133670504358188502e+00,-3.499665126234247081e-01,-5.309768785527398727e+00,-3.509941188348975061e-02,2.989198308893525891e-02,7.516448748340538444e-01
1.948532787016663104e+00,5.679147763412424332e-01,8.623090018286073688e-01,1.649464284458754371e+00,5.024311469603965907e-01,3.611977297592463110e+00,-2.707845415755092855e+00,3.880125887909415816e+00,1.733366464441106869e+00,-1.351355363576494328e+00
3.904537816620980983e+00,2.933240199355773292e+00,-4.463210542061983865e+00,-7.284774371788095948e+00,6.326002672487228473e+00,-4.435312076482166965e+00,-4.997268497323277714e+00,-2.955940384446960056e+00,-4.591448954356848411e+00,-5.692473266803412812e+00
-3.759321103971771549e+00,-2.180527427842461119e+00,2.344546492552822325e+00,3.644299777426657450e+00,-4.578568787835502363e+00,4.412494699151004340e+00,-7.684146721280292747e-01,2.836508501014652683e+00,2.054032339645441851e+00,2.028507991881315586e+00
7.410946745626330046e-01,-1.302645104733423931e-01,1.235408513816323439e-01,1.217356139056630648e-01,1.175846526755141674e+00,1.067263237868737447e+00,4.684935406273458280e-01,2.170107973252433098e-01,-2.279082194008652529e-01,-4.471577102061408682e-01
