-8.136091092910844313e-01,8.544065025219995668e-01,-3.342336627914561653e+00,1.545215840600852486e+00,-2.659176684731515472e+00,5.085949111564836755e+00,-4.640192828886434029e+00,6.556049140857521662e-01,-2.023027085598072983e+00,1.423162807367528648e+00
-2.001917094081886173e-01,-7.099805556975098408e-01,-1.628767042107625906e+00,-8.270344519287389229e-01,-2.191280110589924668e+00,4.459021842671808122e-01,-2.362699665349545786e+00,9.775375672282798911e-01,-3.667561870066378127e+00,-5.214190564772266390e-01
4.850119167389860486e+00,1.546395917270485976e+00,-2.013900919120194644e+00,-2.007141841096109491e+00,-4.542531908567949195e+00,2.773210762471027380e+00,-3.446338033620176766e+00,2.482362290891434231e+00,7.250102600792949215e-01,-1.037840210012870745e+00
-3.816535761780050606e+00,1.222839162165241023e+00,-4.010719494474647817e+00,2.297217743041819915e+00,1.595359584453784452e+00,-1.004541615849124492e+00,-1.820575891579279570e+00,-3.416891943619367211e+00,1.580127436860527368e+00,7.147679909119369901e-01
-1.613410108790074959e+00,-3.196259541428658313e+00,1.250894750749618201e+00,-3.907251828341210320e+00,6.974041326199900137e-01,-6.320934218540124938e+00,2.587541684561745825e+00,8.641826833630360527e-01,1.792247093527177537e-01,2.953021173345260042e+00
-2.789692522111994144e+00,7.111693171313329120e-01,-3.312644495406091849e+00,8.547178400410172516e-01,8.589327104948095704e-01,1.145190314453697011e+00,-1.744865512967533006e+00,-9.875971999681197877e-01,2.995233228818357851e+00,4.121859583123135273e+00
-1.064026686056446236e+00,8.122877521529531242e-01,-2.011846590306112237e+00,2.307031994760795346e+00,-1.176284478927839938e+00,3.897341707140822731e+00,-3.055877262668147853e+00,-2.996069107762118766e-01,-3.116795508459115016e+00,-8.424745949239832443e-01
-1.840359735175502442e-01,1.171116482751009436e+00,-3.130110609219695306e+00,-1.823496824108961911e-01,1.787372082603480572e-01,-7.897815463711639339e-01,-1.577148236605673715e+00,-9.253520029829883642e-01,-3.280106228517338240e-01,-1.721939285429248123e+00
2.245071223488648737e+00,-3.218773174774618995e-01,1.160781738713292599e+00,-2.360295043282145677e+00,-5.892363246713981928e-01,-3.608651619694511314e+00,1.539291072075620548e+00,3.198312850012935971e-01,2.201205865041768295e+00,-8.208524812831208273e-01
9.008396286763934446e-01,6.283370894685177399e-01,2.532928404419489077e+00,2.874112658176033452e+00,-8.413881833220944184e-01,6.163938043417370949e+00,-3.395899926412251357e-01,9.540262746686120066e-01,1.249053468504844749e-01,1.161952908679029672e+00
