2.545592683808045376e+00,9.324501368161436377e-01,2.852597538082054296e+00,-1.639248615388391617e+00,-2.845079427347218637e+00,9.416304668283932422e-01,1.156962510535984645e+00,2.022575526807611990e+00,-3.680683229532283995e+00,2.612874269898252333e+00
-3.748188012463985697e+00,-1.693679806345199879e+00,1.129059205318044157e+00,-1.400391245484388314e+00,-9.142667204155453531e-01,1.118947636516856692e+00,-7.848882003810081498e-02,-2.045538595663120018e-01,-6.353754696219766629e-01,1.474657425509287911e+00
-7.693207766553790128e-01,9.617777422769721030e-01,1.214466157479499930e+00,-4.663111412193920557e+00,-2.749821605334760388e+00,-1.330563738688803239e-02,-9.208827874442271355e-02,2.108328466175574345e+00,-4.524323035294488093e+00,2.643336072832059180e+00
-7.342091063648352289e+00,-3.753129033934859971e-01,-1.761205596740460733e+00,-4.510997206908668455e-01,-1.361448997161229135e+00,1.964093556619735947e+00,-4.349673466412374623e+00,-3.865885311284984471e-01,1.465724215050407953e+00,-1.404416884299227286e+00
4.261415125438291263e+00,3.687404291945569623e-01,6.044103330893566550e+00,-1.157900712012173816e+00,2.499281502975081448e+00,8.658796417716523308e-01,-8.667995096269277555e-01,-7.033077686051226740e-01,1.995202111340413254e+00,-9.234701172991033324e-01
-3.578239620548250954e+00,1.132036982571624772e+00,7.700596882593876424e-01,1.787464323687865342e+00,1.142864626085838831e+00,2.521918394386559292e+00,-2.598023306001423727e+00,5.089651734289841745e-01,1.679581972584268668e+00,-1.194708447488480596e+00
1.854138348475231624e+00,-2.524905719662179138e+00,6.684484892060914563e-01,1.029644613645819495e+00,-2.966406428387212024e+00,5.345168482463042575e-02,3.796997356407622704e+00,-2.191294188971601165e-01,-1.982666109005348565e+00,2.882417587449161100e+00
-4.062545464710939358e-01,1.260620545330146225e+00,3.432108490448018134e+00,-4.938282346311012816e+00,7.442186654548241798e-01,3.281309558832486428e-01,-3.086870622133560449e+00,4.290769426341634607e-01,-3.567116165524883975e-01,-4.822894329637014144e-01
1.471411482439557661e+00,6.818765633332818377e-01,-2.677236977540896401e+00,2.358488351402322769e-01,-4.881991946472568622e-01,-1.387678754282093418e+00,-1.565221743109200370e+00,-7.203723524887482021e-01,1.260358237302758200e+00,-2.207083790728360917e+00
4.381683772747413386e+00,8.665138580525485468e-01,1.628430535641338883e+00,-5.898955842314766995e-01,-9.076407684802670905e-01,-2.673812246171148876e-01,-7.492689135975452164e-01,-5.241782207180302466e-02,2.017526065522908529e-01,-8.427443383927764042e-01
