-7.211329756173200600e+00,3.475748106823979722e+00,6.825997280270287959e+00,6.118490422788881666e+00,-1.962073993591038068e+00,-4.879348265319499056e+00,-2.790180177083692037e+00,1.588325059029005448e+00,-9.315647545716161659e-02,-2.290324101398448331e+00
-3.044605113497996562e+00,7.283744700106881353e+00,4.574871522974215843e+00,5.477439520086408109e+00,-1.951204156142745338e+00,-2.986060484549991845e+00,-2.209410771580455624e+00,1.401785152464588791e+00,-1.015843602813691238e+00,1.088900216598651216e+00
-9.928020435270501487e-02,5.445694367141842296e-01,-5.387914628229765412e+00,-3.454212718513239189e+00,2.239321639860001767e+00,-5.700245367647621686e-01,4.787906040990095868e-01,2.659332520017386070e+00,-8.427845816648096289e-01,-2.702867405243444821e-01
-3.292099065669929381e+00,5.381876690913322214e+00,5.497278533935524791e+00,5.861698945002705941e+00,-9.376627525576214373e-01,-2.612616099215596677e+00,-2.392136035575866515e+00,1.336655449881649860e+00,-1.791763803287731160e-01,6.002826030206131341e-02
-6.626131047147464592e+00,-6.827450979121554298e+00,3.941858283637619476e+00,1.344187380010808619e+00,1.657923588774503409e+00,-2.752616725870898673e+00,-3.913974987820406093e-01,-4.568528820175976057e-01,-1.861198556993888920e+00,4.702736198231212417e-02
-3.145565089992312102e-01,-3.193688119372092071e+00,-4.666168250932745565e+00,-2.987074746827988569e+00,1.458407998204088729e+00,-7.086757619434517208e-01,5.882968973559421499e-01,1.081551325652115203e+00,-3.107587583248254237e+00,2.707877579777594246e+00
-1.998167647891943011e+00,9.063933720551654361e+00,1.160294621355859146e+00,1.592278000784899561e+00,-8.846040600948776866e-01,-1.959216810181210411e+00,-5.585918347588986199e-01,1.884744977545229627e+00,1.594968248462080296e-01,-4.300599516629095564e-01
1.723788482111940246e+00,-7.882037248064814428e+00,-3.853085920853185353e-01,-3.578976192228387809e+00,7.248736374818511852e-01,2.944185106246864247e+00,2.219757894665931985e+00,-3.285867235482343052e+00,1.815930561463719783e+00,-1.669142611567039136e+00
3.681458359517673085e+00,9.363342257203762786e-01,-3.877126850761218879e+00,-4.922066284734810004e+00,1.313188576264345375e+00,3.104722219518464055e+00,2.574047007098247963e+00,-9.125802051393956393e-01,1.746641801520314452e+00,-7.576253922068765245e-01
2.006745415239442054e-01,2.747977558613175386e+00,-1.192832980409210819e+00,3.427608596308722722e-01,-2.678942028056131575e-01,-7.026564159905167584e-01,-5.002903192981970060e-01,1.229820324753430505e+00,-7.814770806878087450e-01,8.222480733521048135e-01
