1.959685086250903652e+00,-5.299667771104994429e+00,-2.945273198109031210e+00,-3.817448501375640735e+00,1.114796456201859298e+00,1.117289554855738665e+00,1.954611806290901699e+00,-1.222042693490098531e+00,4.602408467645887624e-01,-1.715015717945693519e+00
-1.136412514782737304e+00,-2.395879391585894247e+00,-3.073820220741485532e+00,-7.293938916496596647e+00,-6.137977587409316094e+00,2.580516845127553527e+00,1.315404004990822884e+00,9.127369821947542983e-01,5.619639581805393469e-01,9.883969090537501057e-01
4.203389612797068242e-01,1.370565697761069179e+00,3.602899276768906645e-01,2.747947036823511713e+00,3.862712425766765101e+00,-8.416763132063194153e-01,4.994186378585490499e-03,-8.594417690585527403e-01,-1.161221400683266403e+00,6.913592763591505652e-02
2.215427926982958873e+00,-2.776327933746106424e+00,6.167064395454183723e-01,-7.449625105695810434e-02,2.457112854869074603e-01,1.822157814596824910e+00,-1.647213015631857624e+00,5.196821622286411646e-01,2.680254928869506781e+00,-4.990464696877595085e-01
1.561634230221030872e+00,-1.412623003264007915e+00,2.885323408904049702e-01,5.447156734822007351e-01,-6.860306339764296046e-01,1.600259766268098849e+00,-2.460921603527590928e+00,-5.297212543147769015e-01,2.552727897600909568e+00,-1.009385606732339513e-01
2.041308841496564802e-02,-7.169923263347097731e-01,-2.365603008553285758e+00,-1.778570723670436671e+00,1.323805379385058378e+00,1.967457983703862379e+00,-1.272440871028753362e+00,1.352085280097558906e+00,4.441922427771150539e-01,1.356486019643159624e+00
3.350335166021904953e-01,-2.376378788408357590e+00,-1.363288355419210784e+00,-2.448831023843152099e+00,-2.130243500115385213e-01,1.342030120890289613e+00,-4.475008301398011867e-01,1.908125139931762249e+00,1.150321614000247461e+00,4.406476247914996314e-02
-6.359273442017152611e-01,-1.830324061232069477e+00,2.820927051755250936e+00,1.078745112070072620e+00,-1.274585732041978225e+00,-1.817388276837780925e+00,-1.817156335434938264e+00,5.586173686757143209e+00,2.653193658175245329e+00,-1.849279074844225379e+00
-7.471322111589970838e-01,1.613542693317374432e+00,1.053462592527041330e+00,3.100796090551587003e+00,1.589414753534922564e+00,-7.856338835849505653e-01,-3.182056455607721546e+00,2.519555178135608475e+00,1.119563203872605772e+00,3.729370928935024643e-01
-6.895031251437852005e-01,1.940227173296383167e+00,-1.340530430847581389e+00,2.315216974615744938e+00,3.516193415360967522e-01,1.054660261508979735e+00,-5.528265929033345571e+00,4.768717233386708387e-01,2.116982845307449956e+00,1.543595758553748976e+00
