2.130872494993449884e+00,-1.782695166687631616e+00,2.941129290490946069e+00,-1.716280672072774349e+00,-3.211310493205322469e+00,-2.215049285123620759e+00,3.591030804247626218e+00,2.886546747192875184e+00,-2.418304352028129323e+00,-3.395286087514758355e-01
-1.411095467454104302e+00,3.123091217066432446e+00,1.488682393000104742e+00,-2.544053526746390848e+00,-7.468285591902774634e-01,-7.921981895564380594e-01,2.403679494687904761e-01,-1.723044267460255075e+00,-1.252992857079384237e+00,-4.195899126399354473e-01
-3.671273444929931795e+00,1.045384230035788242e+01,-1.806818407985895769e+00,-4.182784321659170246e+00,-6.703660271130118531e-03,-2.748422987670329221e-01,-2.102638932274549788e+00,-4.775635359105480759e+00,-1.852036249297341008e+00,7.654587376420478595e-01
4.294329120495256724e+00,-3.468754105263495147e-01,-4.109453555587436746e-01,8.984561346884200050e-01,-2.491755090227833147e+00,-1.084054464538133811e+00,1.804174793737613469e-01,5.449299232482684996e-01,-2.562662355423922733e+00,1.823706231800201305e+00
-2.905569444007953805e+00,1.093725760804496128e+00,2.732854774972916623e+00,-2.675791553871124773e+00,-1.279557470398557939e-01,-2.090603271787181860e+00,3.556893695254867538e+00,3.992856753350872978e-01,2.933288787159679778e+00,-2.842685745570078915e+00
-3.058757940119165575e+00,-8.149227894642605552e-01,3.556300323353748460e+00,-1.323118246433145906e+00,-2.513507147141889941e+00,-3.276224558106739515e+00,6.448533015972824245e+00,1.642900134606829488e+00,3.903374827567479555e-01,8.690296337816538763e-02
-3.155860930507270901e+00,-2.865623561388746854e+00,2.762248838981550048e+00,6.637697992249153023e-02,-1.079191742046788360e-01,-5.909174458778534422e-01,3.009115521173905350e+00,9.256735858130322736e-01,6.367903371261534051e-01,-2.578037720340612959e-01
-2.714707465653656726e+00,-4.436675730801158402e+00,4.046151102600166638e+00,8.688018177526702912e-01,-2.240694231491591637e+00,-2.522857244481305106e+00,6.325379312848497193e+00,2.078169277081939992e+00,1.132606384437423452e-01,1.037409846743941433e+00
-1.324101224711510483e+00,5.034460680006673350e+00,-2.511833808011743052e+00,-5.019176742596533902e-01,-2.506259998697619729e-01,-6.381381483753323369e-02,-1.010026285240549715e+00,-2.101337286569104457e+00,-1.123037806266431904e+00,1.996625487187639880e+00
-4.217477826055651136e+00,1.278368863314738091e+00,1.779039532598358786e+00,-2.557466650896877081e+00,-1.383427921776504199e+00,-1.002463045885443549e+00,3.518999840630350207e+00,1.460854304283337513e+00,-2.064687169911287867e+00,5.585942691300168628e-01
