-1.185481863619307075e-01,1.334659519335640532e+00,-9.860022502042796733e-01,7.144407256581768451e-01,-1.123973396523109791e+00,-1.743313829515628299e+00,-3.942162906334514272e+00,6.279813303757068033e-01,-1.722658016346375054e-01,-2.408937247916412616e+00
6.484073110709941412e-01,4.320629367310591107e-01,9.913989927964413917e-01,1.256108938139631759e+00,2.692853755731952070e+00,-9.495012247591383403e-01,2.019355919701387503e+00,8.934789971373333639e-01,-5.015329030824756673e-01,-1.086314966722227299e-01
-3.027089869974592951e-01,1.596837674400675589e+00,-1.040166946227767952e-01,1.409745707787271929e+00,2.008811079522615728e+00,-4.091985348508052067e-01,9.258005675298013326e-01,-6.245036081626377245e-01,4.812316413471767751e-01,-1.980116910744406766e+00
-4.896922878501275278e-01,2.448913053604703904e+00,-1.793914903552397355e+00,-2.646274907043770330e+00,-5.222525292407002029e-01,2.831394797106264516e+00,-2.523717420506352838e+00,-5.240647073900866815e+00,-1.097887547061065172e+00,-3.272738009263101433e-01
-2.702449247862593329e-01,-9.253355791338566672e-01,6.887761874093794034e-01,2.662202507723073208e-01,1.403444660004776967e+00,1.798267076674210652e-01,7.914687626616017102e-01,4.890678722023072744e+00,1.597705018130313182e+00,2.042768003001510291e+00
-4.933343035358269013e+00,1.535366100338900308e+00,9.787125379885813770e-02,3.684642585372752244e+00,3.407056600881003927e+00,-1.264768004406426227e+00,-1.546848805094055646e+00,3.379149801588491986e+00,8.374385523847535095e-01,-1.468469600056318880e+00
5.367667256756525340e-03,2.157436038306145054e+00,-1.236865574576881954e+00,-2.439392314308602039e+00,9.005913672208607501e-01,3.010249653918877222e+00,-9.659615640155717609e-01,-3.020711153515338587e+00,-1.737562829771958639e-01,6.038313409879478844e-01
1.478982121725831989e-01,5.082194175370011724e-01,-1.324578980505500603e+00,-1.975042439519752113e+00,-1.692040768284172270e+00,2.067245907999799570e+00,-1.288714134063441374e+00,-1.165361969423329036e+00,1.305968343257056574e+00,1.109214418092985821e-01
1.983882628682329452e+00,5.038255845442660696e-01,2.861796178196812090e-01,3.157780492430436459e-01,1.262432506075980898e+00,-6.502806687434437016e-01,1.135479267824366589e+00,1.653664613542146888e+00,8.062293872639334502e-01,-5.283681636357651090e-01
1.267166351388411494e+00,1.193666950309415720e+00,-8.303237466544051149e-01,-1.097401475421390105e+00,-7.058388589704830407e-01,1.097271974228462676e+00,6.442187244777215493e-01,-4.452638288963011171e+00,-2.673190778364445408e-01,-1.523807899429981294e+00
