1.089659167442640797e+00,1.664001631779350010e+00,2.307661660273960854e-03,8.937136704127517373e-01,-1.981473418144340748e+00,4.146639293902115497e+00,7.110232291948543892e-01,7.860548218035762202e-01,6.257900826946903194e+00,-1.138163089403506356e-01
-1.918638032255327808e+00,-9.351348800388865623e-01,1.382701163143447598e+00,2.267690462217372804e+00,1.564211977472376391e+00,1.330535536338370184e+00,1.345667005388615722e+00,7.568825247230800968e-02,6.118383167079936014e-01,3.689721856907126618e-01
1.988884131950892753e+00,-1.170394716093723586e+00,6.168691758262793146e-01,-1.445579152002224532e+00,1.128966583741777496e+00,-2.712555179254638738e+00,-1.690292798170636823e+00,1.174432709053987001e+00,-9.323129031827229740e-01,-2.829067702273342921e-01
-2.290201728497964329e+00,2.376248507175206526e-01,4.702795667023183523e-01,1.957108579494807987e+00,-1.399723363214855354e+00,3.982673351439507403e+00,-3.898109500465510857e-01,1.194759063133303600e+00,5.025409408738717332e+00,-9.711253845348795100e-01
2.555932373913506694e+00,1.038301028783426894e+00,-1.944920378388027338e+00,-1.996094924905040369e+00,1.667438374560837211e+00,-6.482384394593010413e-01,-4.186628264731935722e+00,2.364416408958880389e+00,-1.701353965478859198e+00,-6.502639043527802087e+00
-1.059983143157839702e+00,-7.531165859174679955e-01,5.747895692188655925e-01,8.696526517071224704e-01,2.288253216804806423e-01,-3.151763770803938658e-01,2.043835882371684676e+00,-1.190444727030976368e+00,-1.000321092293335878e+00,2.409098690528888920e+00
-1.694888023537738819e+00,-1.854428501191469555e-02,-7.250935654794579133e-01,4.589641523191474448e-01,2.254049952343276098e-01,1.026205052696125719e+00,-1.530216618977163323e+00,8.166365482841776435e-01,-3.419333992599212779e-01,-2.698820034445709393e+00
-2.962076438152104974e+00,1.588463256608453555e+00,-2.568399683446808898e-02,7.487043261922859960e-01,-2.928854840365887391e+00,6.270175143642440219e-01,3.234434838550442226e+00,-3.777848468991662489e+00,-7.891845855056629500e-01,4.485478283084108675e+00
-1.647629256979616708e+00,4.029356139860054004e-02,7.360481738884315783e-01,2.562974592152045261e+00,-3.060046071377537924e-01,4.227992125372819210e+00,9.818869156868379466e-01,9.634715144527746800e-01,4.714134415158309110e+00,-4.930352141720514836e-01
-9.439274184955801644e-03,5.781746646421860314e-01,1.423095742313622125e+00,2.096786688946090660e+00,1.943244384585743667e+00,1.904627738286476468e+00,2.079406308657218094e+00,-2.833879007131296923e-01,1.274680327365576904e+00,8.177201009262830000e-02
