1.832243493592636829e+00,1.875402338969176519e+00,1.290953570537325401e+00,-7.968555361171901774e-01,1.665220093637844956e+00,-9.249212665009324263e-01,1.687403128966411314e+00,3.299133620190248251e-01,-1.526419784996410289e+00,-2.181910086880167299e+00
-2.207001659801832716e+00,-3.662722711797027575e+00,1.902096367348232731e+00,-1.384010447098301899e+00,-2.732667773969838620e+00,-6.354301804239296247e-01,3.112094611632820751e-01,-1.960625171469635664e+00,-7.567910662023575874e-01,1.664260735319955664e-01
3.849294247093619337e+00,3.714620106471429928e+00,-1.552678410718127122e-01,-2.370401024730055095e+00,1.615611388498342293e+00,-2.737835473890160021e+00,2.446852099006679992e+00,-6.619291849929301863e-01,-2.413258724498002383e+00,-5.359109638861968783e+00
2.229249953148313868e+00,6.101375841920654297e-01,7.246905869838627945e-01,5.445843683263770219e-01,1.385491352071243298e+00,6.763581422238773566e-01,7.342885319412034706e-01,1.496464763980413615e+00,-1.968288899529086811e+00,-1.793176749727824149e+00
-7.898362555413893649e-01,-5.412048902753784141e+00,3.984827288732596173e+00,-2.812775056303130072e-01,-4.962363541565061098e+00,2.179081730401079664e+00,2.071167182755344172e+00,-3.117622109651075668e+00,-6.086356291223180115e+00,9.180473017978151296e-01
1.523705542553946524e+00,3.602178041219008975e+00,-7.596901675277564214e-01,-7.976504584576782353e-01,2.108412321938879952e+00,1.828381784858623682e+00,1.082413467616070157e+00,-9.829420684177986312e-01,-2.014390275733248803e+00,1.197987545483457872e+00
1.797738739390868146e+00,1.997580841439083876e+00,-7.191081160500009117e-01,-1.162725549500624789e+00,-2.666291356869252560e+00,1.142511526322111504e+00,2.403814980987582395e+00,-4.406273107808792666e+00,-4.814721373347217614e+00,6.547730526391866146e-01
2.825120953156504022e+00,2.490789852295282714e+00,-2.727903428931326424e-01,-1.734879000305732943e-01,-2.698472239279927076e-01,-3.024296137087914893e+00,1.715289712235009034e+00,-1.483956865177857576e-01,-7.577067668937436107e-01,-3.958236090121988848e+00
-1.822051647806864239e+00,-4.392475800097445315e+00,6.498532761052938644e-01,8.091706141341661884e-02,-3.283330134682289625e+00,-3.343028850696394549e-01,-8.533338640843273204e-01,-7.207850068599762627e-01,9.882461398692567178e-02,-6.237811802370418768e-02
4.964800031669420188e-01,3.383207929818946802e+00,-1.764130555545224466e+00,7.954755268704123417e-01,-4.102033459502110624e+00,8.486969723120034725e-01,2.084019036661615143e+00,-5.163420358124510834e+00,-2.477413016170835647e+00,3.862233424005112603e+00
