-5.472427711797918093e-01,3.605252804286493418e-01,-3.375898177571049708e+00,4.350366975462993224e+00,-1.434930344217179465e+00,-1.296481074535525746e+00,3.195768198077668210e+00,-1.264299003282145506e+00,6.063817360131300571e-01,1.143099639233344123e+00
-1.492030613026361641e+00,8.805377505521524428e-01,-1.972373355724356569e+00,-1.920645224156816060e-03,-3.002287762019202777e+00,-6.126512314888743482e-01,8.046363073868105162e-03,-1.650363853143840265e-01,7.060974406401094861e-01,-9.988231074434699153e-01
-8.967643952811860109e-01,-6.148392446774590958e-01,-3.522482417512350583e+00,3.250233327446768961e+00,-6.438901902306539693e-01,-9.395253524987546845e-01,3.283362267386166877e+00,3.130469647679762879e+00,-1.260417562471904396e-01,-3.177062451308702684e+00
1.749691921880833112e+00,-7.238213225858414201e-01,9.936345782920366076e-01,-2.223186322501229661e-01,1.709716896412066367e+00,1.409281220429277504e+00,-4.233307186219868734e-02,-6.890574622034761898e-01,-2.733492027429710980e+00,8.496013388814591671e-01
-2.661739263418733348e+00,8.030624031102130411e-01,-3.629522707628974665e+00,-8.819005079873175612e-01,-3.564415801073937740e+00,-4.249306134912670396e-01,6.637153081274270727e-01,2.024516011804931015e+00,-2.332624163507758919e+00,-5.024596646807989231e+00
-1.227498214305661417e+00,1.667186230875044028e+00,-2.484424605941390585e+00,-4.457963735479432699e-01,-1.451721809272856323e+00,3.187245316251308691e-01,-9.239537438230484290e-02,-5.175805241117565486e-02,-1.242918056691467932e+00,-1.944238249707779254e+00
4.787870689603268559e+00,-5.397673522227576015e+00,5.397237493098169914e+00,-1.200764674257543518e+00,8.505666624157769418e-01,2.307047531141514174e+00,-9.973997433582978411e-01,1.025781303535483469e+00,-2.093960512356346726e+00,2.574352939027895637e+00
1.041634452671588384e+00,-1.482081125810020605e+00,1.939338180737934403e+00,-4.051904135213816538e+00,-3.714091015531867379e-01,2.177460636197814825e+00,-2.142446785451565638e+00,1.419288099005455495e+00,-4.436606601204555744e+00,-2.428832606209630374e+00
-2.442616010667047810e+00,4.435292309250693066e+00,-2.954057931506756329e+00,-1.541325922634595003e+00,-9.771363044693446298e-01,1.517838643539625165e-01,-1.715224352128520646e+00,-1.020582784213259764e+00,1.084322882082649153e+00,-1.731661721957260092e+00
-6.097758145323594059e-01,-8.051851340565023829e-01,2.903056801832811118e+00,-1.812308079671149708e+00,-7.867361802796699610e-01,-1.175332588441811543e+00,-1.487610055714080781e+00,-8.131921498299738982e-01,2.004117660685560853e+00,1.497227020845172785e+00
