-2.045957175935351646e+00,9.939759453839679404e-01,-5.143934831028843746e+00,-2.186569688477406181e+00,5.228952396472238640e+00,3.044854222643084141e-01,3.000791936040771102e+00,-1.004337221382902490e+00,3.790007712300489384e+00,-9.050628172264196802e-01
1.501711112548715921e-01,-9.799118595572702262e-01,-2.707612532520870641e+00,1.137235662360593702e+00,2.428467255308981443e+00,-6.016551883549137170e-01,1.532783601686920738e+00,4.515376318360929120e-01,1.047850627171792448e+00,1.970143687220985873e+00
2.692971641236320934e+00,-9.163129447550336648e-01,2.108245206530871219e+00,-7.395651604437479820e-01,-8.974599916900899421e-02,-9.317036348934998324e-01,-2.962859795865219859e+00,4.980008971056208988e-01,8.659091852952629509e-01,-2.502423514246376879e-01
-4.227240083359601996e+00,-2.942356486988772613e+00,-2.312783805539401438e+00,-8.098670994344874252e-01,7.376630939004066856e-02,2.677868918653480979e+00,1.733926114991117817e+00,-8.658382835018705315e-01,-4.759520743980224372e-02,-1.984481538137013557e+00
5.448822182165127259e+00,2.430612856225144558e+00,-7.188466817289421718e-01,6.140728699681724523e-01,3.945251421567498973e+00,-5.112117495971912895e+00,-1.772832386951956218e+00,6.138691815998247314e-01,1.112959336582803882e+00,1.915746756713219145e+00
-2.465186362394497621e+00,-2.392973378694430053e+00,-4.504909879775579995e+00,1.620494742224811713e+00,2.001869246739108821e+00,-2.605333545737987144e+00,1.129395967696230407e+00,-1.542578899987658403e+00,-4.653279464058326376e+00,-2.409718590963558338e+00
-3.935497687181582993e+00,6.747877518888630854e-01,-4.542184778272551071e+00,4.317688277237815009e-01,2.087273545983411971e+00,2.461440499708550167e+00,3.788491837872225876e+00,6.003949934138890637e-02,2.435138817188461147e+00,9.183838574303874180e-01
3.736045144892418346e+00,2.780108686825775610e+00,3.912653608415181061e+00,-3.033613409417939555e-01,-1.556608832699209577e+00,-2.566613033991572923e+00,-1.580494286329467757e+00,-1.644747462819798334e-01,-1.827711241439498702e+00,3.076120874869227029e-01
-2.009543265819299096e-01,2.290776236121554010e+00,-4.345521074306793352e+00,-3.163429111641922198e-01,4.759726372138709749e+00,1.118614984664646900e-01,2.915847849109431511e+00,4.968705804635232814e-01,4.801905612121641909e+00,2.369692329836956990e+00
-3.359645464464021902e+00,-1.969364660681174772e+00,-2.013446219445778951e+00,1.064553531214134541e+00,-8.785258955146070248e-01,-1.009830850678117287e+00,1.475570640083137874e+00,-1.860083529774587019e+00,-5.782775228808469059e+00,-2.952492597564873922e+00
