-1.479062811372148678e+00,1.733755690869991817e+00,2.968510793776497070e-01,6.435244900153608505e+00,6.014666262050393897e+00,2.798099883799539445e+00,-2.091425397550475129e-01,7.655654142028345266e-01,4.164438823308594384e-01,1.577204900857219760e+00
-2.135411731383607126e-01,9.092536142058189885e-02,2.074692171056938150e+00,3.829049694975874107e+00,4.541622987293127522e+00,3.490303360832140434e-01,-2.198273992857932679e+00,1.398605017356048696e+00,-9.914110624264350635e-01,1.277417576797892140e+00
-3.337700448210767945e+00,4.529270560672738810e+00,1.128881399888566062e+00,7.011653582309518740e+00,1.186005164024365932e+01,4.498892521001855549e+00,-1.176236037861635220e+00,3.212571831217476692e+00,-2.955705399813520984e+00,-1.707528181700212755e-01
-1.668740761266215067e+00,1.170683772044109228e+00,-1.063784642648389456e+00,8.856864615993508494e+00,3.227742023164853258e+00,6.407579530209777108e-01,9.342292903978290930e-01,-4.526265942174780704e-03,3.860749131764887321e-01,1.442378716403206029e+00
4.330846873784727435e+00,-1.659734499367991445e+00,1.748942173265428890e+00,1.346284189599713521e+00,-1.125361413731225335e+00,4.704184415062432123e+00,-5.782146631625353361e-01,-1.341306993988430896e-01,2.328580461944011137e+00,9.287700035048996883e-01
1.098346111228307498e+00,-2.921916160653224459e+00,6.372924000377339082e-01,-5.057367191000048834e+00,-4.092873097341923838e+00,-2.906438422210993355e+00,-1.119806172147973067e+00,-1.232391287889544662e+00,1.150257518535678702e+00,1.350095266573617225e+00
-1.539359565119445827e+00,2.355704288959218129e+00,4.099950374068864534e+00,1.048094126376058366e+00,1.057838740772268871e+01,1.551871757988796841e+00,-3.839987612704661935e+00,2.845482227335195624e+00,-1.324556527003558415e+00,9.450160787062651391e-01
-1.463277726519731647e+00,-1.604779269247960771e+00,-3.510999871609736367e+00,-5.746606080919410608e+00,-6.285737493701345713e+00,-1.736813166788895524e+00,1.673816294375074953e+00,-9.191303258019620781e-01,-2.860440878434376444e+00,-1.203603552272525468e+00
-1.074038678795272705e+00,1.538561222925197480e+00,4.609491636504973733e-01,4.571189731796011735e+00,3.638341802429330585e+00,-3.353768133142754904e-01,1.134001664695567096e-01,-3.005076513510691535e-02,1.616144293047231395e+00,9.413284243479873581e-01
9.492264272654499235e-01,4.817338622271824522e-01,-1.678793441296369870e+00,-3.535150583178991113e+00,-4.937194908341687949e+00,-4.333359109967963585e-01,1.875364715132981308e+00,1.900479757731163288e-01,-2.278661105242613338e+00,-3.865113585383411987e+00
