-1.479872057764544113e+00,-2.841488835951282876e+00,-9.983551970528015129e-01,1.392432748416571275e+00,-2.396410358274676966e+00,3.564252957471153671e+00,-8.246579211725024727e-01,5.411128993265799991e+00,6.439874495908572971e-01,6.881389249218727855e-02
4.929611404332686853e+00,2.487085525600111202e-01,-2.840311415404675355e+00,7.395777123216487059e-01,7.100686655234172973e-01,1.397424765715335582e+00,-9.789455034861040517e+00,-5.831366806932702929e-02,-1.172888916425466332e+00,-1.874374880078906624e+00
8.098344341516547917e-01,1.356655484307784043e+00,-1.202305718152987479e+00,-7.054912788603652229e-01,4.109405841131493764e-01,-1.367972330767502243e+00,-9.130588839192772532e-01,-1.032935512974627601e+00,1.006689457153162603e+00,-1.538394801896921127e+00
-2.584180239336980378e+00,3.918546871548045374e-01,4.981794672054272510e+00,5.800949725137315438e-01,3.384419445443914043e+00,-2.867337516649170581e+00,1.544010239762185988e+00,-2.464472325357391913e+00,-2.331149190226489143e+00,-1.131881854038319979e+00
2.674812709839659575e-01,-2.394554232352519296e-01,-7.839780318552292959e-01,-1.383795213727402773e+00,-7.795077039366608007e-01,4.584439809905134777e-01,3.169419138119039525e-01,-1.216889145702582109e+00,5.883977979810870451e-01,2.614355910142081019e+00
1.796892609842069666e+00,-2.789213680828118713e-01,3.723483225413243280e-01,2.353541531353715299e-01,1.891124085069205929e+00,-5.916562522100717869e-01,-3.261105884653033637e+00,-1.037741565076776507e+00,7.557549436839035017e-01,-1.834606439366321284e+00
1.350304828964566717e+00,-1.924272938869580285e+00,-1.523039597589262328e+00,1.329633237680574398e+00,-2.113686675457699060e+00,4.070762023741903768e+00,-3.799390590686012814e+00,3.073380142342626797e+00,-2.085716463979066848e+00,2.143039088540533932e+00
2.057206061810167075e+00,-5.377372098822627566e-02,-5.107428529438298170e+00,-1.799551088107620211e+00,-3.226329630044068697e+00,2.416883214768452248e+00,-3.405925625748358776e+00,9.278909296824136010e-01,1.505658634409396512e+00,2.497977701921161753e+00
-4.284348731291053980e+00,-2.039361393032843139e+00,2.264190686954905107e+00,1.413957511407907264e-01,-1.983147504576052711e+00,1.615737222188584177e+00,6.768929598275203574e+00,2.092676225053943018e+00,-4.926121529960021395e-01,3.810352609324939799e+00
-7.988673009450167339e-02,-1.109072282018097599e-02,9.917642567060809267e-01,9.572280666173851316e-01,3.808022853795505203e-01,2.084742742386646586e-01,-2.753115930298266623e-01,3.019643724422937936e-01,-1.696435466766772704e+00,-1.805024046729276077e-01
