-3.722118723783686134e-01,-1.737012366935336338e+00,1.494295463588691808e+00,2.691399955492347562e+00,-9.454290260008485491e-02,3.330793742142058367e+00,4.195238248337286313e-01,3.977099012050193672e-01,-2.233784604418902031e+00,1.038558115978814422e+00
-1.029210183445195437e+00,2.170604729764418761e-01,-8.254914231939627367e-01,-8.695091195917328264e+00,1.791901544264200341e+00,-2.758057973448900135e+00,-5.658872210142988912e-01,-4.126279218181656550e-01,1.289592622763960028e+00,-3.708362362032163739e-02
1.280087996698420216e+00,-1.897316611022100474e+00,-7.709456136125096837e-01,5.729792807675427646e+00,7.706622525564786885e-01,9.636145850006418989e-01,-1.437719126180394102e+00,-1.854118818948835568e-01,-1.153401568266396726e+00,-2.316653244117310162e-01
3.139604040269745600e-01,4.106970598886509061e-01,-7.455905982304815438e-02,-4.365833220011090532e+00,-1.729885007341819825e-01,-1.691473077210172260e+00,3.191039992795054459e-01,-1.868884547122549922e+00,-2.200804993745125171e-01,-1.293601597600632980e+00
2.024847840589138137e+00,-5.574835218601019715e-01,4.263216577781932526e-01,-2.425063401946615516e-01,1.239634930833137527e-01,-6.502352010149559103e-01,2.378829651781869114e-01,-2.262832469956347126e+00,-2.049742270194949256e+00,-1.627181001514660608e+00
5.546415308544238032e-01,1.493464476929332596e-01,2.500406365989332969e+00,1.193962702815479116e+00,6.233971581927525429e-01,1.089760046647834990e+00,2.151709129389960840e+00,-6.448035050484468567e-01,-3.837479352994013659e+00,1.701951564969047759e+00
-9.593179910684682676e-01,-9.875288466838021417e-01,-2.444839015194746779e+00,6.156456265746189649e-01,-3.166208927059529499e-01,-8.107972985019514800e-01,-2.135568482012645930e+00,-5.330789325707292470e-01,1.967962343388500512e+00,-9.652917749662284219e-01
3.002131351074051047e-01,-8.873286451133228780e-01,-4.761253885328680546e+00,-2.072095254229472605e+00,9.173282485890981164e-01,-5.154139443694768730e+00,-3.618742784150670744e+00,-3.170703375202439389e+00,2.455740474516716620e+00,-2.847358743521448243e+00
-3.144348583609243519e+00,-5.293684907662796757e-01,-5.805062146990866978e+00,-7.329884249990092915e-02,-4.590658807678101638e+00,-3.635934157378081899e+00,-3.271973115310722324e+00,-5.988460803500304408e+00,3.619183441647151334e+00,-4.363883960652819916e+00
2.711459564267132194e+00,2.130569029106356982e-01,4.493009804426227882e-01,3.859826876782264105e+00,1.758849925714475848e+00,-3.096023990443479146e-02,-1.544987449963524107e-01,1.928665871190921699e+00,-3.109059203679842565e-01,3.300806424954340623e-01
