-1.466268812383406894e+00,-2.450764794358044341e-01,-1.070635337829915157e+00,-2.469252930973327764e+00,1.938979591674642844e+00,4.860678071434321623e+00,-5.287486723958876311e+00,2.771837660989900698e+00,-3.688606216676146854e+00,-1.456905583357476663e+00
-1.201914990095512392e+00,-1.608431044121117592e+00,-3.693644513392551620e-01,-1.926315411993060334e+00,3.186397682635474737e+00,-5.701987566324004941e-01,3.290485438892903347e-01,2.346146089431309534e+00,-2.754951967235486965e+00,-7.258623828901384911e-01
4.363131581322038932e-01,-2.871794409560234129e+00,7.095672693985269897e-01,-1.953421936648079171e+00,1.387744335833067222e+00,-2.562125796092225904e+00,1.657898370103433772e+00,2.402423535820064071e+00,-3.295747366967607395e+00,4.857571174834504069e-01
3.678260523272141036e+00,-3.818610755658896405e+00,3.029740155340579388e+00,6.559861439041591025e-01,-1.608318200081507721e+00,-5.757285882826921330e+00,4.232644975575583501e+00,-4.015703017656272467e-01,1.504639628344340285e-01,3.238370511697975740e+00
-2.762783087769064228e+00,5.478647681852180096e-01,-5.389434802029033911e-01,-1.686964330924148658e+00,-3.670680268190273043e+00,1.982738739985599574e+00,-4.978662274223474959e+00,2.949224049338181608e+00,-2.655416302927219085e+00,-1.037401485306563842e+00
-1.718640817031013901e+00,2.327080792539512277e+00,-4.988377478020153966e-01,1.335547375828429972e+00,-3.051311179222131464e+00,-3.094288258608881570e-01,-2.163330024096126458e-01,-1.164926652538853080e+00,2.462193290892339181e+00,-4.942779701030519113e-01
-3.312504260448033033e+00,4.400917244577007281e+00,-1.938555978860578399e+00,1.121482100063507126e+00,-2.152043630506347061e+00,-5.230754681160399988e-01,2.515859558335387103e+00,-2.294054135173432041e+00,3.456089921988887870e+00,-1.805489739130212712e+00
-2.684815184840876334e+00,2.319721327003095190e+00,-1.153188501226259044e+00,-6.966897483637137789e-01,-4.333894041011519538e-01,5.752219271767657904e-01,1.521058072054265908e+00,-1.131937877260675407e+00,1.312285911043700182e+00,-1.156170182903683452e+00
-3.280588975954163988e+00,5.275704727883979928e+00,-2.703420460034374084e+00,2.559865799362940120e+00,8.108992727412319690e-01,2.069172074775523562e+00,2.298322091293489577e-01,-2.902049469689356176e+00,4.812470666131799746e+00,-2.580896288719822351e+00
6.516044246131256656e+00,-3.982179882836018425e+00,1.694067935662932234e+00,-1.724842626574889293e+00,3.540775446693080752e+00,2.334929720790511531e+00,9.218085398015747611e-02,4.105272151609919845e-02,-3.719981449757419512e+00,2.241871479118938471e+00
