1.254649995593120071e-01,-1.136173586549110048e+00,2.969845112215659388e-01,1.601555125697494919e+00,1.122614231913777294e+00,5.427369901614915726e-01,8.012360933759631321e-01,2.442665471840134828e+00,8.408617985295229191e-01,2.486558806668315302e+00
1.618866385817139042e+00,1.016958078606389426e+00,-3.194367370130208883e+00,-9.059115594391619064e-01,6.967633125863803567e-01,2.951144610149695424e+00,1.312886508074133429e+00,-2.531345309270456756e+00,1.047498311574153407e+00,3.896385128427598321e+00
2.139174481919225101e+00,2.308420464377466175e+00,-3.256928697890987823e-01,3.738488047620403876e+00,2.947689286506073980e+00,5.159031055527885101e-01,-2.626693604925868009e+00,-1.829275280276613236e+00,-1.127264297480118138e+00,3.535846933590343077e-01
3.229707423958024126e+00,-1.152973010280452959e+00,6.297540234418453231e+00,7.614841940303873624e-02,3.511359395650508475e+00,-1.716755254831445088e+00,-1.259394591459620294e+00,-2.632911158725340650e-01,-1.625821060247076177e+00,-1.281611190193969518e+00
1.164954917843428861e+00,-1.008913947464968430e+00,-2.469308773436897919e+00,2.068621134525707728e+00,8.605783429444830990e-01,2.052804796326443970e+00,-1.486057794275350119e+00,-5.224388931638347389e-01,3.385897977483393717e+00,2.819930783224090742e+00
-3.697332227196866938e+00,-4.744734173604778782e-01,-1.567824926900594162e+00,-3.601355782533988137e+00,-3.104750586251429301e+00,-1.814914830766629184e+00,-7.618811167306429599e-01,-3.082128084151983596e-02,1.907338117696062652e+00,-2.625175971602629055e+00
1.059246601627239937e+00,3.752251419675011856e+00,-2.236033864631401524e+00,-7.210271622359923915e-01,2.577437908526515997e+00,4.563413813326024776e-02,-3.456539457272247429e+00,-5.148425053253834704e+00,3.897387142399495047e-02,1.742482907445575685e-02
4.754739800765588886e-01,-2.317606802929409238e+00,2.879656821318089310e+00,3.929925089884998002e+00,-9.169983147477929197e-01,-3.089007076927478557e-01,9.033339038699670365e-01,3.907159070410691548e+00,-1.303816500108802678e+00,-1.430239318005779525e+00
-1.334313301758349501e+00,-1.361969564922121068e+00,1.973736624147656826e+00,2.277991533938160673e-01,-2.428907155926466555e+00,-1.491170801287378556e+00,6.190953098597925530e-01,2.121632583110774295e+00,-1.183848108686510026e+00,-3.326914746096740316e+00
-5.967291385105948781e-02,2.255055743822955705e+00,-3.500334907133340057e+00,-1.824131210835645778e+00,5.043874040167881656e-01,1.000914636999072904e+00,-1.159155037327256554e+00,-3.603156590882780730e+00,1.198372802894951183e+00,1.289529944825779761e+00
