1.066187248940475341e+00,-9.722217646839130811e-01,1.057770822445933900e+00,-7.493110713492650010e-01,5.202592183726487685e-01,2.208914047128808900e+00,1.459054046954184836e+00,-1.156285597919824548e+00,6.080146599795173135e-01,7.364486753499772664e-01
-3.928980616374795787e+00,1.585996299861948344e+00,1.925561147806623685e+00,3.578041088136339365e+00,-3.332775598282031293e+00,5.149458859765421170e-01,-1.216835816434410855e+00,1.675205291218362369e+00,1.672431343326795439e+00,-3.977048876361148455e+00
3.255717182589685343e+00,1.745756058548844081e-01,2.758176621924318672e-01,-4.437275569738216241e+00,2.212291271455374186e+00,5.477425989184312449e+00,3.601759392868661092e+00,-4.667474853159494508e+00,1.481527261166752485e+00,3.444035848775443220e+00
5.445319382570497524e+00,-7.133573235561789794e+00,3.931004371108062667e+00,-3.117544877918140278e-01,2.216570680311366282e+00,-9.353884749668368581e-01,8.644381813112271828e-01,2.135048566676466031e+00,-3.700179164334631121e+00,5.303590623896199396e+00
-1.740558711877892906e+00,4.683664082262759543e+00,1.411851649129334696e+00,-1.332591327931141878e-01,-2.924079671624868482e+00,-2.714019923021544045e+00,-2.888520974665039986e+00,-1.659076672350126458e+00,3.140383965476610584e+00,4.178192002638264846e+00
-1.128007456204800807e+00,3.380415082904368873e-01,-1.433156604001085688e+00,5.316571635697445730e-01,-3.647951891936353219e-02,-1.954974471922930057e-01,-7.951907390365281492e-02,-7.346415160983178760e-02,5.819873673143682868e-01,-2.363082235101758855e+00
-4.311115285787958662e-01,2.581336707066253844e+00,7.836941604411437057e-01,-6.408082231259872863e-01,-8.868522357574937232e-01,-3.137077950403108328e+00,-1.283968583470066704e+00,-1.798646237653145130e+00,2.381479168727213214e+00,4.929591774915297542e+00
4.939811988475876880e+00,8.841794203048554124e-01,-1.892227915969430407e+00,-4.679139903582775872e+00,1.003486067509023805e+00,1.989720092897780401e-01,-3.041575379600036211e+00,1.108223988719342135e+00,-5.848874912285838334e+00,3.690047558560610508e+00
6.427945578375832802e+00,-6.503035612290195999e+00,3.268840018174441919e+00,-1.680649286135046161e+00,3.417517823686395673e+00,2.021068122478350659e+00,2.296908551729219372e+00,3.659844527122741553e+00,-7.494245282255136864e+00,4.490981127140862839e+00
3.568026965851206711e+00,-2.574279639878123582e+00,-4.457673699066882378e+00,-3.742311567195579336e+00,4.222168782495671735e+00,2.618647018866432918e-01,1.899758880542801398e+00,-3.161149487798079694e+00,-1.099175711879388784e-01,4.810983855665242892e-01
