-3.524893327006205279e+00,3.797698409014731435e-01,2.458445542973608511e+00,-2.739660095745699575e+00,-1.715770455282559892e+00,-1.172191912396981367e-01,3.534024875547299160e-01,3.483701508490462673e-01,-7.748803725860694547e-01,1.705843060651403897e+00
-2.592360725488881412e-01,2.429882425623409503e+00,-2.947297271864826484e+00,2.582969709779028733e+00,-3.986829287631139529e-01,-3.297598370756968933e+00,-6.623577074605178083e-01,-2.722100170501255967e+00,4.163715440110010491e+00,-3.300029744469060056e+00
-6.782773592703761345e-01,8.699515742610567370e-01,1.022365852502274519e+00,-5.457077861557786846e+00,-2.009001381565978850e+00,1.737425593553230785e+00,-3.740767244236501643e+00,1.633587279789676661e+00,1.260735442293961617e+00,-2.537633239998164481e+00
3.118149594956145076e+00,1.693188076172049250e+00,-2.449241173948570438e+00,7.533801460237745662e-01,1.840686836650216041e+00,1.888351986560618201e+00,4.832026312765227427e-01,-2.653385527278311784e+00,-2.440738725454109304e+00,4.241868907031919989e+00
-1.030598671726701099e+01,-2.206338040166047065e+00,3.913700990928517531e-01,-1.849813155846962154e+00,-1.581575901637338299e+00,-6.625619493125207704e-01,-5.326668062365296663e+00,-9.333156870588577014e-02,-2.708067090439201241e-01,6.236037655758891463e-01
3.787037528585576407e+00,1.178781901158560824e-01,-4.052214054363758033e-01,8.530369783494219371e-01,2.264478117591435691e+00,4.946488592395860806e+00,-9.337234573565711404e-01,1.324957972085772484e+00,-5.017446071824687159e-01,3.131472251501016268e-01
3.159471077055351795e+00,-1.729445845129127524e-01,-3.046067424470348950e+00,-5.139982237647870100e+00,1.321467521335496942e+00,1.750727900980581175e+00,-4.962407132168085155e+00,1.874358255419887875e+00,-1.456455498734786413e+00,1.572163481919645056e+00
-1.932765219674005275e+00,-5.169726840940126744e-02,4.472799982380798234e+00,-3.691638296681664322e+00,-1.820957251949061773e+00,1.716766199314233354e+00,2.881851167007676295e+00,4.838698088049899759e+00,1.156073942548188072e+00,-4.938416754154415500e-01
3.835340829956964015e+00,2.934192363800333325e+00,-9.199107154351717774e-01,4.170695366814353156e-02,4.186238586106298953e-01,2.344809051688028223e+00,1.769166470732000729e+00,8.975603541766621341e-01,2.992486361068998679e+00,-2.122614632083518860e+00
1.979518885675977335e+00,4.714584501628925617e-01,-1.750875236527134060e+00,-4.049457497997577260e-01,5.867551933430819044e-01,-2.709114886499922825e+00,-1.852727138000574758e+00,-2.938704536874515050e+00,-2.087056778045023542e+00,6.522176155368291095e-01
