-8.455688005364631055e-01,1.686449709876390646e+00,-1.771669947579327387e+00,-3.097451548201321181e+00,-1.094231214800690211e+01,2.474564055929130646e+00,-1.246765226178102592e+00,5.345693820859271916e+00,1.670842821832073888e+00,-8.875472271912743238e+00
5.099367006676845948e-01,-2.837326774543547536e+00,-1.006277989301192388e+00,2.315629629925538779e+00,-4.258348795164593525e+00,1.284700816667099454e+00,4.251105860478303633e-01,2.762323633449978999e+00,2.699373320060887149e+00,4.574210489478507946e-01
-4.163820877217213057e-01,2.853648830913371182e+00,-3.359736818896892352e-01,1.205051408166743609e+00,2.572855519036826522e+00,3.800558946472189614e+00,-1.600906308039989900e-01,-1.320031011316754377e+00,2.416601254713762525e+00,5.624492940637534355e-01
-2.163847375974177201e+00,9.796685354662548750e-01,6.314641150271916636e+00,-1.974596268228878904e+00,1.117595179887324264e+00,1.748059257448622006e-01,-1.177241807950838437e+00,-4.704391801569356879e+00,3.166593282411910959e+00,9.194988502537508879e+00
-1.061081549404638169e+00,-9.042522137876282118e-01,1.118447972639203591e+00,1.077167720685132002e+00,1.349670482102970359e-01,3.340102852087901031e+00,4.034610120106624898e+00,2.828963622960739902e-02,8.429908555961014294e-01,2.429723805817646021e+00
-9.180908344879035177e-01,8.515961214146557934e-01,1.677703992133043442e+00,-2.581127732116401230e+00,2.518732589256784671e-01,-1.038954635073693566e+00,-1.738523106806220131e+00,-1.794306913298476580e+00,6.597144057199535450e-01,2.316976020959395033e+00
2.568972290132812475e+00,7.514168822991987184e+00,-6.973690019925036232e-01,-1.305455163218590675e-01,-1.278468620132064970e-01,4.856808695981227331e+00,-1.626578950635887866e+00,-6.856437640623287422e-01,2.254530620102621064e-01,2.320077237556594785e+00
-1.800732455513359476e+00,2.526314343150302566e+00,-4.056667920412991180e+00,5.520054087494327133e-01,-2.561003696342581293e+00,4.950795074785469652e+00,1.608823317285762666e+00,3.674212675782713156e+00,1.762121248649908933e+00,4.521420627671168369e+00
-8.473211448918499533e-01,7.606562446830736235e+00,1.850778496695712150e+00,-6.372687987391452147e+00,3.263125376435982439e+00,2.864174975647883592e+00,8.948426168143338577e-01,-4.100558629470656413e+00,-3.604115937440898421e+00,1.838120159626478678e+00
2.531913649674217393e+00,5.011858123936783649e+00,-1.679435703485158138e+00,-7.407200540588593229e-01,-3.031570899665664953e+00,3.811766637036667404e+00,-1.619062856795453031e+00,6.523992244399572371e-01,-3.367170520788938942e-02,-8.672659138398736145e-01
