1.822664380699594355e+00,-4.412046452671413571e-03,1.680158199406637687e+00,5.409883398967235690e-01,-3.573229409168523052e+00,1.557042152656836542e+00,1.659001204550964115e+00,-2.740840779664626137e+00,2.650634709214704454e+00,-1.270285629880251843e+00
-1.031560002058436787e+00,2.604947867670730055e+00,-2.874068283879351871e-01,4.759623998188829752e+00,-2.192557275340226042e+00,-3.996100870540776118e+00,4.170318296574573314e-01,4.787172020697400221e+00,2.800815705406354272e+00,1.140942965622206318e+00
7.165997844250299176e-01,-1.370990129648762101e+00,-1.339605228332271913e+00,-1.908368807066022743e+00,5.115927178427011057e+00,-8.866895229305358228e-01,-4.327571553446826869e+00,9.368181746362816975e-01,5.751548322704245209e-01,1.556585785367875951e+00
2.100147468458453570e+00,-1.217961040723456456e+00,-1.662851145636572436e+00,-5.268116609035466968e-01,4.670796743646353555e+00,-1.721814458531449654e+00,-5.447813984912635021e+00,1.525546713770399299e+00,1.611113648164644641e+00,3.686036619522480018e-02
6.360041218872527491e-01,1.797516433416997295e+00,1.140325167566079045e+00,1.237180483723605118e+00,2.761281545022013173e+00,-4.690614106517458914e-01,-1.400788714221539832e+00,2.625715176936144424e+00,2.642393356684428873e+00,-9.197869516604332274e-01
-4.169035802504216792e-01,1.257919466000553266e+00,6.229662108389507624e-01,-2.503403687854246495e-01,-3.204656741243791629e+00,7.929772224459865626e-01,5.113933209749682796e+00,-1.927296775874326906e+00,-3.345242567366762954e-01,1.803657350098597734e+00
-2.141169506721936955e+00,3.919795345852327362e+00,9.588755802729868050e-01,-2.572817412403777482e+00,2.587160472963959901e+00,5.240547825397546156e+00,-7.926290981785653056e-01,5.564319767944867934e+00,3.920561080645768026e+00,1.035275684372163996e+00
-3.901248261526543804e+00,1.709861776080842999e+00,-2.281910711533224667e+00,-2.897960667785953182e-01,2.387735351519319593e+00,2.433645146045247121e-01,1.722026262040565303e+00,3.109138596560110379e+00,-2.240193744147144006e+00,-2.152536818569371346e-01
8.814239934498541151e-02,1.509854088486999091e+00,4.368190355690918736e+00,7.288206778931797247e-01,3.565129331182780525e+00,9.607898173477531500e-01,7.156384269645474916e-01,2.889920798006328173e+00,3.390109810578361138e+00,-6.735945412936350518e-01
2.660177931507260451e-01,2.141874858841700036e+00,9.191692924474974269e-02,3.890611355291083484e+00,-4.124606326317453053e+00,-1.818252536240122730e+00,-3.073694336375407121e-01,3.551133980073419405e+00,3.573073837424435517e+00,-4.644408954295968506e-02
