-1.069804421790478133e-01,-3.096408323412891406e+00,-5.678935153227729238e+00,-2.600550714123039953e+00,2.380712658799681858e+00,-1.430379425715563313e+00,5.866095593798935859e+00,-8.292777776916274490e+00,-1.458665328411883566e+00,1.283330982796779152e+00
-3.725028624916641107e+00,1.704654499907595433e+00,-3.447094781402710861e-01,1.868884620970706845e+00,4.895043473275691781e+00,1.374859861927093085e+00,-4.031359849486220587e-02,-2.751543634941481020e+00,-1.437207330257244120e+00,3.392142426372875275e-02
2.874182074780832430e+00,-2.532448332180935680e+00,1.226019625897734944e+00,-9.162355293585472404e-02,1.339230237526851885e+00,5.734148525758339332e+00,-4.009050365752540479e+00,3.368859334140817285e+00,6.715213488623289706e+00,1.004275162741284699e+00
3.873230804803151628e+00,-5.114532965276554766e-01,2.099431499451620553e+00,-4.373323692647212546e+00,1.906948398267399591e+00,8.583068428406840367e-01,-1.137248162055406020e+00,2.179083015742951712e+00,4.540065811524823580e+00,-1.404373879033970374e+00
-1.652068572059838925e+00,1.012046503849105328e+00,-1.449676211919175506e+00,9.554573125888119467e-01,-4.950395876344865775e-01,7.723282401393621877e-01,7.983734066949691455e-01,-1.131032908458917463e+00,-4.212587436026310250e+00,1.840003784061015057e+00
6.943824270771910001e-01,4.181907952607327950e+00,2.467765828605864797e+00,2.293774345129490355e-01,-3.510331217177587337e+00,1.979035618210748471e+00,4.625707832449790224e+00,2.336653644712411548e+00,1.639696804066554270e+00,-4.719478345341364900e+00
-2.854515400651595591e+00,2.483530950592269360e+00,5.412605086289558054e-01,-6.176700290360420675e-01,-5.657732937759047537e-02,-8.062078258498707184e-01,-1.211695759041280906e+00,-2.327356179465115138e-01,-2.377743921773744606e+00,4.182688828265303194e+00
-1.308355128221931674e+00,8.014054021207777101e-01,3.925392883780960407e+00,4.432046053729574275e+00,-7.493834337355235853e+00,-1.041559446907764253e+00,-4.072713026620680132e+00,8.315807445523416774e+00,-1.780122864589813947e+00,1.002692774843618739e+00
5.239019236248729783e+00,-2.238762790595056007e+00,1.938667571034238257e+00,-3.966753778542749131e+00,-2.417688288027378674e-01,-7.604389984178823447e-02,-9.720120497484442401e-01,2.422552921920412050e+00,5.170712584738622830e+00,-2.232044513585519585e+00
-9.421268069809216605e-01,7.289013072224618250e-01,1.070836528398565690e+00,3.334115750616975848e+00,-2.687459785265925660e+00,-1.824256310519635882e+00,-5.948617006583092781e+00,2.845778975093677055e+00,-2.599916082988560362e+00,2.286899292593633781e+00
