1.538605307033257930e+00,-2.369086144940274696e+00,2.646472501626820240e+00,2.046625162812528043e+00,6.760474499340084265e+00,2.430838403198948949e+00,2.214837374850450846e+00,2.517493399867493764e+00,2.144630578766320017e+00,2.525600913708371920e+00
1.355281011197525975e+00,-1.788484651430887196e-01,-8.695880068769804572e-01,2.882284756346242260e-01,-2.289351419479755956e-01,1.835531985686055911e+00,-1.427597605258529523e+00,2.214210706741072787e+00,-6.202605169247074057e-01,-7.563415152623952364e-01
-2.657870550029449941e+00,6.144439586769732564e+00,6.578571726339606407e+00,2.449342297255818313e+00,1.750319023939082230e+00,-5.653018055520004026e+00,1.181639120930259246e+01,-1.701293877633209384e+00,5.285816443660865893e+00,-1.610071999246587282e+00
-4.457424469391511046e+00,5.061678368066357514e+00,5.698213334247837381e+00,-3.016084053421165256e-01,-6.620174854821199162e-01,-2.350862666362773634e+00,2.829621252467394932e+00,-3.957906396822123085e+00,-1.210070781766448667e+00,9.971180036474063257e-01
3.622670747929092272e+00,-5.524804047873728585e+00,-3.310518894188443362e+00,3.996532152754139755e-01,1.451026455080819177e+00,2.505372542652118728e+00,8.372910970925693253e-01,1.565414357738148521e+00,4.515358650697344878e+00,-2.870124133936006849e+00
-2.667973151539475563e+00,-2.651681679191443486e+00,5.302295253111258155e+00,1.835916131686827213e-01,-4.641508128242159970e-01,1.935169386972140915e+00,6.096621397415339594e+00,-2.160642823787117806e+00,3.057110121134340108e+00,1.751756685982439388e+00
8.491762062094289076e-01,2.144360512986941969e-01,5.861607256900218665e-01,-8.454285383300189638e-01,-8.711014780340080588e-01,2.667518684692848030e+00,5.135108521287756744e-01,1.814413987978827636e-01,8.717160387891672579e-01,-3.141216937478800375e+00
-2.381769687296547477e+00,3.234465420855630491e+00,6.146246005438070981e+00,1.670503515785236592e+00,2.010947171441628267e-01,2.623852401724168448e+00,3.816105092040501301e+00,2.186921776477820156e+00,4.896201246762814652e-01,1.488166340573477964e+00
1.213545222582684380e+00,-3.768758681341827232e-01,-3.861142428130284188e+00,-1.834243726124148988e-01,-4.857966328048970439e+00,-2.756456543692581640e+00,-3.597211488115527711e+00,2.161760618003698287e-01,-4.139421110829736072e+00,-1.593466390301099933e+00
-3.524924262617638249e+00,3.155963168558686416e+00,1.644946553684906387e+00,-3.717759162993435229e+00,-5.114317241371678868e+00,-2.524087964553700658e+00,2.603464797666250607e-01,-6.503848847016650225e+00,-2.512610318357280548e+00,-2.173376063051945195e+00
