-4.329401675333784283e+00,2.164791605183862266e+00,1.887789491957835297e+00,-1.417342382243114596e+00,-2.455391328010525509e-01,-1.863396977420748168e+00,4.009746370056054943e+00,3.607654293355081698e+00,7.338118378164610434e+00,-2.818785334652519126e+00
-9.294602701365242137e-01,-1.214987846179226727e+00,2.493383400268010863e+00,1.431214514496096823e+00,-1.865038095348594771e+00,-4.010878316924729958e+00,1.304689063569755669e+00,5.612189025819432908e-01,7.313395260770050754e+00,-1.451327761735811572e+00
3.932908340775513323e-01,1.403038007968613110e+00,-5.901452558408563753e+00,2.958200343112103337e+00,2.598694116317772362e+00,-3.110737736832323019e+00,-1.701140508388739203e+00,-4.026352736605790739e+00,-1.701843446605701970e+00,4.181926578375447789e+00
5.444345062175168337e+00,-2.423919798044057661e+00,-2.048118621351714630e+00,-2.453102358645309788e+00,-7.293949798569797360e-02,5.758965717507856796e-01,-3.803394715602388954e-01,-9.700555429628435755e-01,-9.421694936658360220e+00,-2.569370809404654565e+00
4.139312163599933592e-01,-2.769693132784478262e+00,2.193854993794300157e+00,4.255270742294864128e+00,-4.105339566465328716e+00,-1.908575011931386456e+00,3.536449536389979720e+00,-1.121089838195842292e+00,4.276728879168688380e+00,-6.335361306535677306e-01
1.092200339841465251e+00,4.551764769402582012e+00,-6.353741148997213095e+00,5.174634151574604601e+00,2.107493772210379479e+00,4.491849878489039938e+00,2.553766122684806295e+00,3.938598875634014562e-01,-3.668819607837856989e+00,2.204472455825863708e+00
4.765870598579445172e+00,1.564695379499795536e+00,-1.316071832620554938e+00,-7.041783259167995468e-03,-3.349103585539719763e+00,3.373074786951292037e+00,5.745698395543269221e+00,2.908905540508383236e+00,-3.489277333483547405e+00,-5.086815013807262531e+00
3.985739075158398315e+00,1.187630010034717687e+00,1.473149516618504462e+00,4.347490725163559055e+00,-5.030578060212822500e+00,2.863446019503821827e+00,2.613183046152819156e+00,-1.268740363856915465e+00,2.703942751495118202e+00,-3.147018890358084242e-01
1.253123560683647941e+00,4.028236921349391153e+00,-2.266906637660631496e+00,-2.088256431970068938e+00,-1.628812046438855132e+00,3.616130188875175122e+00,-1.871306744899714269e+00,-3.480702491428584011e+00,-1.104284238381656458e+00,1.549956993827134921e+00
-3.288977691872189690e-01,-2.792815576015099222e+00,6.985533045274422426e-01,-8.201637006341763736e-02,1.487262135769821914e+00,-4.146109593096407586e+00,-7.935967082331875089e-01,3.781523266494697388e-01,7.375204280818117297e-01,-7.701822181612345553e-01
