-3.266632445973206345e+00,-5.451543387860681378e+00,5.318228634832482982e+00,-1.927473220215110417e-01,-2.257421270939386826e+00,4.742121559176929679e+00,1.209027228291174705e+00,8.062914393182584183e-01,2.545608886513936575e+00,3.873353394758209056e+00
1.595268643073511905e+00,-3.251230148232754913e-01,-6.323279630838790411e+00,2.531223734842159789e+00,-6.377491425760824839e+00,-2.480085907882094709e+00,1.080764623764062016e+00,3.725240758308947520e-01,2.008410457310527419e-01,3.561113735266222324e+00
-5.799811020198867295e-01,4.750666287495192153e-01,-1.592837528929269775e+00,-5.398286193708641711e+00,3.005185082361341298e+00,3.155080699609380535e+00,-2.263616220700319204e+00,-4.443923121049822011e-01,2.273850962746199134e+00,-2.075159652825063983e+00
-1.236339568336603856e+00,-2.884776029481830761e+00,2.440816474313503015e+00,-2.572962866281588656e+00,4.312423685232717574e+00,2.611945248183585200e+00,-2.639078622747947911e+00,6.739900911725490218e+00,-2.231003133833385221e-01,4.230575386567039242e-01
3.343024567770466055e-02,-9.927459176303918831e-01,-1.008883129652175858e+00,3.093816138274343430e-01,-4.871986185127487268e+00,7.263010722301606048e-01,2.533606829225939716e+00,-1.811430567740236031e+00,2.325565010672968835e+00,2.135835436275570487e+00
-2.129824858243584806e+00,4.355490817672704296e+00,-4.090770114293659887e+00,-3.286552449283191013e+00,3.513925370342226184e+00,4.024987386795888078e+00,5.582012355165905104e-01,1.045223213141812213e+00,-2.625455291475384811e+00,-8.845399556241667627e-01
4.853446071051547683e+00,6.685750469656708272e-01,-1.999618061537556502e+00,-4.550833155258026785e+00,3.240000971487101200e+00,-1.756364932334378626e+00,-5.230022026023166681e+00,4.532214714018622637e+00,-3.378347019427592191e+00,-1.238275897726832886e+00
-1.059814085662768440e-01,1.474767371448394870e+00,2.984453670364886513e+00,1.714324080198866396e+00,-2.234250659806386263e+00,3.513523567705611139e+00,1.220418603969798621e+00,-1.961240965040046635e+00,2.215195647382576905e+00,2.375811900914496511e-01
4.974843494182668913e+00,1.384675064105800768e+00,-3.452133922910249009e+00,2.945916093896272514e+00,-4.647516532954569790e+00,-2.519598287060479613e+00,-2.002504749520523930e+00,2.998214659349096145e+00,1.054246211716550086e+00,1.284370247954702116e+00
-3.528970147774520560e-01,-2.316956381233977513e+00,-1.606053141269124351e+00,-1.876288161558237411e+00,-1.231314988223919382e+00,2.372476796726011194e+00,-1.984305209807538661e+00,1.818106791930499622e+00,1.393725257368923831e+00,2.232533271544022480e+00
