-3.542750557351455942e+00,1.520840481906778008e+00,-2.093958922356433661e+00,1.016707172840176199e+00,3.986069914454402618e-01,-1.571591026516304890e+00,-2.950814614149172233e+00,2.736722706749900702e+00,3.311851233969379749e+00,4.357176745056822731e-01
-9.441838596913980641e-01,5.245213208703466634e+00,1.589661254315054284e-01,-8.726905068434378521e-01,2.234408788794047140e+00,-5.546676766972441719e+00,3.351411346969136673e+00,1.246121319120537807e+00,2.428446593228714145e-01,-1.864119082801509064e+00
2.314401362544826313e+00,3.095694659529993675e+00,-5.318058740274889118e+00,7.288882680370659450e+00,-1.105841757046435614e+00,-5.729467863333811195e+00,-1.408857601989218777e-01,6.161032407079698459e+00,-2.786406884723774180e+00,4.947416140850518396e+00
4.008452673191112980e-01,3.693258627409808259e+00,-7.589715366641717198e-01,-8.686995078981937235e-01,-5.004446485824437296e+00,3.512186597278252886e+00,-6.382443841090768011e-01,-1.381895817460798037e+00,1.042744895272859296e+00,-4.012172989945298696e+00
-4.148247490496745016e+00,3.219190924243290119e+00,-3.175792677446326984e+00,-1.770244293395601076e+00,5.188425137308204649e-01,1.210664369594589562e+00,-1.223705845365635342e-01,2.605920511836865017e-01,6.076547768208425682e-01,-4.606052786130003796e+00
1.587046896317617639e+00,-1.085256684521243464e+00,1.576174560191938023e-01,-4.071689640322957993e-01,4.167534688394875175e+00,1.203344490336927919e+00,-4.670285695177238683e-01,2.223528984428964961e+00,-3.827423668063088869e+00,4.039813295381288860e+00
2.381431743007226487e+00,-1.097037971337419121e-01,-1.976450141833951957e+00,1.302245460993424864e+00,3.035280013250314379e+00,1.372643432491786664e+00,2.185858528113953092e+00,1.268469887758703729e+00,-4.986205566945974610e+00,3.848252438592099978e+00
-1.383171217153772448e+00,1.948483082091224894e+00,5.837791078844305481e-01,-3.374812600802836293e+00,-8.133127590719383404e-01,4.780304706962062333e+00,-3.100803654097919818e-02,1.778820923065337067e-01,-6.017416856866500297e+00,-3.502203132010392572e+00
-1.851789466331570821e+00,-3.384005669626092949e+00,3.326544188578292260e+00,3.780372916217950685e+00,-5.615126020735485390e+00,-1.478076060745449993e+01,3.680851157389862238e-01,1.470659102448534261e+00,1.270980290917681721e+00,-3.817366276752210741e+00
1.447292668672369054e+00,1.503882468348868962e+00,-1.602106981608192982e+00,3.373920886872676217e+00,-2.998731346098915673e-01,-1.550300527412956209e+00,2.690437812041677645e+00,-2.720817809554874955e+00,6.453118956896745750e+00,1.480016938764254997e+00
