-3.386054850513922965e+00,-1.686265380507546041e+00,-2.818956089132706566e+00,-1.295453325958562774e+00,1.124283440320843264e+00,1.258485365292305813e+00,2.376702714784975079e+00,3.779928786092392468e+00,-2.492054260247464015e+00,-1.720983323585637770e+00
-4.139316032681911395e+00,-4.247815495262584840e+00,-2.817495253779642272e+00,2.727336233923630449e+00,-5.251179588660740416e-01,-2.888927575274691684e+00,-1.394918656233093301e+00,9.493413566764480338e-01,-3.272964953796845822e-01,1.773171774541551227e-01
8.403517812430029821e+00,5.519205668628893058e+00,4.041497844046906707e+00,6.559397771397731169e+00,-3.713233408032610150e+00,-4.699937813349818860e+00,-1.801416057613364430e+00,-4.929065661642147766e+00,7.147284661182490062e+00,5.579967170661554121e+00
-6.658386893492123981e+00,-1.160100858508975641e+01,1.308341577253207266e-01,-1.799674714317702318e+00,1.849183444317768821e+00,-4.644154394802071373e+00,-1.880640572121078602e+00,-3.259237418474006720e+00,6.041495419996535388e-01,-3.835965923234168073e+00
-5.938142269139588869e+00,-1.205734356402841279e+01,-1.006302265110823768e+00,2.076282878991075886e+00,4.673229423671012128e+00,-3.054514255894310804e+00,-5.879318090774971139e+00,-3.857146269238503233e+00,-7.614232839898216199e-01,-1.764894562012442991e+00
-7.707019922681968005e-01,1.641362653091640089e+00,2.595147871809562190e-01,-1.212301227531629860e-01,-3.283530513899427739e+00,-5.792922734669045948e-01,2.516863413263272342e+00,3.747341771852476633e+00,1.433852009839892583e+00,-2.147058079386224172e+00
1.050405021401683847e-01,1.649003713808745886e+00,-9.824672704857376204e-02,1.461868721150198169e+00,-4.554312796296283494e+00,-1.355951019405685187e+00,2.324128795437920392e+00,6.054067079129826778e-01,2.127347998918645455e+00,-1.875748571608243598e+00
3.487350160882308536e+00,4.456734042164058884e+00,5.793171894734894245e+00,-2.425162248850184721e+00,-1.581426744408984897e+00,1.974441128747841168e+00,1.870019366770578229e+00,-5.282888390415775959e+00,3.691798570023045567e+00,-7.060555844694418326e-01
6.774875721191416567e+00,6.351157998048686082e+00,2.305126127666618174e+00,-8.661148410504186934e-01,1.233253088247607598e+00,5.729742420421334081e+00,-5.489285213325008073e-01,-2.383283043304034177e+00,5.929081316026446613e-01,1.849251340340704264e+00
-5.232098893446279320e+00,-3.263455225623086431e+00,-6.091501765871465857e+00,-2.510581822517560902e+00,6.738657452983906060e-01,3.349914994440653881e+00,-1.434230767955494201e+00,3.248062845023124368e+00,-5.069332689608994968e+00,-8.872740376291761155e-01
