-1.484160469508468028e+00,-2.297520787555331623e+00,3.871584512642111342e+00,8.123540169242197351e+00,2.719891074020607480e+00,5.980454267814043767e-01,-6.138215555602465123e+00,-5.671019206363602655e-03,-4.384888703638129215e+00,-5.428684484688061751e+00
-5.696924647460392954e-01,-3.671918996483480413e+00,-2.702939598641997954e+00,3.888954821435666620e+00,-4.093342261942810367e+00,2.841429185731854989e+00,-1.126953744016366876e+01,5.574354922295778891e+00,-4.020910295746446650e+00,-1.538285895121841662e+00
3.782233645688370061e+00,3.396033042483617592e+00,8.145598604841794099e+00,-2.952691842675168044e+00,-5.592919276628236069e+00,1.843610516114255082e+00,8.027373231461730541e+00,6.590668680936954127e-01,2.420820581687468831e+00,8.128740012002465543e-01
-3.445285743828083280e+00,-2.516805591817071974e+00,-4.537805200174518383e+00,-3.493119411764442628e+00,-8.771364748360964692e-01,-3.345378102516561869e-01,-2.679916881500897130e+00,4.951893429881764952e+00,3.090728036290955938e+00,-1.541846376133725771e+00
3.962902418858606612e+00,5.730350695831548435e+00,-2.613838560428472846e+00,-2.113112104701001748e+00,-6.262363976705665358e+00,3.222986685382429606e+00,-1.434431340951767497e+00,1.580916556221957148e+00,1.504731218832874085e+00,3.675230977865614257e+00
-2.838865579698827690e-01,-4.578675669941758425e-02,-1.075455271004024826e+00,1.648490512481414649e+00,8.305515882838252484e-01,-7.910384878568450795e-02,-1.521306187779698282e+00,3.139289007403842646e-01,-2.357823950811373415e+00,-1.972060237261057392e+00
4.180314335692147942e+00,1.311326717831582389e+00,7.695848837026677103e+00,2.467704984702441706e+00,-6.000208679836603665e+00,2.849863074966827003e+00,2.677356766512565933e+00,-5.680475699586796656e-01,-1.870173730607527229e+00,5.276686852659617344e+00
-1.495923831051770847e+00,-1.192851504689949327e-01,2.894994440975282135e+00,-2.275486552828249742e+00,-7.171512442470254101e+00,-1.621192614559558987e+00,4.765715743515841929e+00,3.945001792836320131e+00,-4.268663857610169310e-01,1.266228385407691670e+00
-1.234557996987081241e+00,-2.677444541930896538e+00,6.212102539557872838e+00,9.782551857100282078e+00,1.928455795010717844e-01,1.194798720683412530e+00,-3.967165781607203900e+00,1.107859980983948667e+00,-7.242896874608349300e+00,-3.266171938783464235e+00
3.469932108627590828e-01,-4.366920873843863626e-01,-4.273238056730168211e+00,-9.651323487196205031e-01,4.878678968706084973e+00,-8.171255144946202309e-01,5.479069937547931257e-01,-4.658157016654683957e+00,1.015995333958285007e+00,5.359503228466846458e+00
