7.808842516291438773e-01,-1.426438404474638988e+00,-2.559162905121882492e+00,-8.052941970022974516e+00,2.764742373953532173e+00,-2.224776363329145301e+00,-1.044332888671228643e+00,-1.627975937985373545e+00,2.933420183488543831e+00,-1.750476987215541902e+00
4.999866599476115780e+00,7.242356191642540963e+00,6.990271022991886296e-01,-4.865496558465197019e+00,4.501502531756331749e-01,1.692747380223557530e+00,-5.102336848628741706e+00,1.899278542280530502e+00,-4.235843242616193827e+00,1.233724704322401777e+00
-3.770963824381659002e+00,1.362428554498329100e-02,8.397072584652008898e-01,2.106414738067608816e+00,-1.440051149903494920e+00,3.313650723797828324e+00,-8.725247075416584508e-01,-1.562562725898946292e+00,-5.084925272037434496e+00,4.522714631033413646e+00
-3.908785881118538974e+00,-1.880039095947847239e+00,4.832025693081866136e-01,-7.130548530922437012e-01,-6.570829162935503120e-01,4.744752366020545953e-01,7.373162241555880625e-01,2.012226196199422557e+00,1.730755234740910309e+00,3.246322567303745021e+00
2.592386600319590007e-01,7.055637277360564674e-01,1.703185723250582040e+00,-8.594945657184767107e-01,3.005010300858390604e+00,-9.731436672923369224e-01,-9.704632064371532252e-01,-9.829374285886411933e-01,-5.111960261372017200e+00,2.647583760317310242e-01
-5.586579692097386918e+00,-1.449102918630222225e+00,2.584247705916628002e-01,-5.092769221992901052e+00,1.366915519204253693e-01,7.835607620519290384e-01,-6.302075073971069585e-01,9.610809755160137913e-01,-3.227607778872331856e+00,5.410075193179192610e+00
-2.408653230113209087e+00,-1.761846410850155698e+00,1.837742545457401178e-01,1.301906629008372285e+00,-1.586507691725627556e+00,-1.100506089415227207e+00,2.467300350355427163e+00,1.799160936316139603e+00,1.034079340658384805e+00,-4.908569916663470534e-01
2.779555445449509943e+00,1.891084262678174088e+00,-2.040488162079156176e+00,2.935590124235397447e+00,-1.742940925318319678e+00,3.205958963839460107e+00,-3.808108898964172706e+00,-1.020696079781767240e+00,-2.852485931213315506e+00,9.533501658696541536e-01
1.152741219315709803e-01,2.155320840595352228e-01,-1.167751278733353049e+00,-6.432668811243491547e-01,-6.213137630887420881e-01,-1.307228515258887835e+00,4.307694206280571203e-01,2.556698563132687951e+00,1.999512972381149112e+00,-3.019154023309154500e+00
-2.278616179605526426e+00,6.600498202101640066e-01,-3.424832915992486182e-01,5.093486133284709227e-01,-6.497465558511377193e-01,2.109164847586048719e+00,-1.213178113533443403e+00,-2.250715754894966558e+00,-4.569692434680212578e+00,9.004722966279474772e-01
