2.338003830753163648e+00,8.256256539101883840e-01,5.763704333246391087e-01,-1.488885989677690036e+00,3.100613964394441702e+00,1.826665669716859286e-02,1.509254602946513146e-01,7.410604853446568496e-01,-9.135480257188501874e-01,-5.767506681322004169e+00
-7.198613223077527934e-01,-4.077348209589038319e+00,2.809727385903874719e+00,2.391383540790625428e+00,-6.377959955704877171e-01,-3.155244123952518076e-01,-2.099555084210228628e+00,-4.726250527614463959e-01,-1.203154540083538171e+00,-6.749491405014524936e+00
-1.431333077940367238e+00,-9.832019282028238438e-02,2.609825991002568735e+00,-1.170747876069980986e+00,1.675481842126075538e+00,-4.710687070096350126e+00,2.361295596245853723e+00,3.961045680368089905e-01,2.145384720053972460e-01,-1.573848242711356704e+00
-2.126726199415097884e+00,-1.235407425048565822e+00,-6.219678604651394105e-01,-2.797558444620957374e+00,1.168627206567179666e+00,-2.581954562782163620e+00,-3.410138795189793792e-01,5.473708736526891272e+00,-1.304138353363126335e+00,4.550824055186663664e+00
7.665678171202809921e-01,-1.313835071831315204e+00,7.936912120833838902e-01,8.425145823173788573e-01,6.996648356758165821e-02,-4.221142789678571816e+00,3.667691498073158751e+00,-1.704654346520380281e+00,3.927136579484857282e-01,-1.760805207020434526e+00
-2.041457777886708680e+00,9.150539849166560158e-01,-1.139647045143217463e+00,6.344912012216226138e-01,-4.194363963852134169e+00,-3.059128697423318499e+00,-4.595736792011652083e-01,-1.807891126323055930e+00,3.511999825955298693e+00,4.329535581955038737e+00
5.750843586845690025e-02,-8.564335637469935314e-01,-3.569289113758051357e+00,1.151434862564648887e+00,-8.120751777868568055e+00,-8.157619674136887156e+00,-5.963246495594346719e+00,-6.684712026174879362e+00,3.089377653601385276e+00,4.105894872619490599e+00
8.207748406777418682e-01,2.645337290880348302e+00,5.699873901900564394e-02,-2.795556458627875163e+00,3.670449446637511937e+00,1.701154176585943645e-02,2.735842313484134980e+00,2.632225246244399575e+00,-2.665818157042220693e-01,-1.449075464682223480e-01
2.589938325087368653e+00,1.578104321183800396e+00,-3.242101300552901466e-01,-2.791912642829991853e+00,4.697392127106629012e+00,2.281667841965349108e+00,-5.534655517009381409e-01,1.298785232703133508e+00,-6.461773522613862841e-01,-3.680500640027366988e+00
8.299255202789381780e-01,-4.952726091162873434e-01,5.090278485229206673e+00,1.196374686110424079e+00,9.089488501986586755e+00,2.561923136001568402e+00,-2.515590952085070331e+00,8.994371088621989641e-01,-4.483051948439364054e+00,-8.184843016721284670e+00
