6.416395551608564674e+00,2.472310328036211757e+00,-3.635270040849303275e+00,-3.712201366803368430e+00,2.887629231110470318e+00,-2.660744673833862484e-01,1.693325808376963393e-01,1.815567849757920404e+00,1.334738810598176562e+00,1.759445457046461492e+00
-4.000045069651474439e-01,3.966906406759772796e+00,-6.093666148515547221e+00,1.298662600376773835e+00,-2.817646516348898178e+00,8.547427510408712736e-01,1.046545527626124183e+00,3.063709005475978131e+00,3.939431176417603986e+00,-2.168917163476170806e+00
3.973062623864127563e+00,-4.433868693940917538e+00,-4.215393778831050930e+00,2.341436449860681002e+00,-1.049995805281029249e+01,2.926181975788305856e+00,-3.008462574655542898e+00,-1.735650067833085952e+00,-3.050114244073820480e+00,-4.386191112754060484e+00
2.259406029899020840e+00,-6.038299764155318883e+00,4.319485924483402961e+00,7.821656412624042876e-01,-2.404465550093599635e+00,3.182231619372939857e+00,-1.020177011039870463e+00,-3.070013466700158400e+00,-2.150056392928433979e+00,-1.849913646686573154e-01
-2.565831840329708236e+00,2.197321757217030491e+00,1.992134837709275796e+00,-6.365118463551028505e+00,-2.023048163273669431e+00,-1.261992800031628725e+00,1.867388055991817952e-01,-9.897888469764677399e-01,1.124328747530457751e+00,-8.288373357125181640e-01
-6.134531920327623844e+00,2.107859071285018260e+00,1.872628074799965736e+00,-4.457932640059214080e+00,-6.799064373587103693e-01,-4.374315951984778295e+00,-3.005835332638635560e+00,-1.465490101557366254e+00,-2.231262841852964751e+00,-1.619703179164157403e+00
3.821301212385146862e+00,3.311986151999870565e+00,-6.435844156717776876e+00,1.828435371905450912e+00,-2.731756032957478819e+00,2.415105076003543516e+00,1.692661921077486253e+00,2.873180974670799248e+00,3.926317400918744038e+00,6.843476820211892298e-01
6.466120839872809833e-01,1.543165018568667113e-01,1.287182912390769207e+00,1.056370019428607199e+00,-5.715662771096169381e-01,2.651850882645767626e+00,2.829730926707861638e+00,1.591724724308537786e-01,3.875223693386580237e+00,2.352858771538114180e+00
7.217773229694247616e-01,2.328872891724431682e+00,-1.464973242397098030e+00,-1.776747867304524275e+00,4.896999979615722864e+00,-2.565484710217527109e+00,-2.130856722007918869e+00,1.174854432128872972e+00,-1.067246801457651273e+00,4.281849125607877227e-01
1.887236766967211876e-01,-1.384747437608205178e+00,4.043850218300893751e+00,-1.209609014760046675e+00,3.991772725907654973e+00,-8.241712353758214871e-01,3.252305039332964665e+00,-6.641729982423263401e-01,1.589356626370238557e+00,2.590182086574329468e+00
