3.624894941047377639e+00,-2.167783108572315598e+00,-2.431957184842973518e+00,-3.598815097755859949e+00,1.601499452763714748e+00,-1.470418358874992171e+00,-2.296137540079236317e+00,2.247344861818133310e+00,-5.467784226034606565e-01,-3.941379030730770006e-01
-2.596478091807158162e+00,9.167714056126872180e-01,7.083727194114988190e-01,2.209803410795609047e+00,-1.563933960049770144e+00,-2.170655186187918417e+00,4.136042382701635711e-01,2.366666808827988078e+00,-2.894934417753258327e+00,-3.700313162693849467e+00
3.574143546894311130e-01,-1.500320695986427921e+00,-1.362033668673369613e+00,6.885718215126238384e+00,-6.039502566022982855e-01,-5.430275000230432525e+00,2.780525812118534557e+00,-4.769088438825626497e+00,-1.841900587306473769e+00,8.868847625771277166e+00
-1.266583801440681167e+00,-1.179357135257008027e+00,2.217814020321464241e+00,2.509902125079141122e+00,-8.821385164077206742e-01,-4.321789782922653700e+00,1.233838667908417674e+00,1.243695071410442221e+00,-2.542996824959923519e+00,-6.017997360760181991e+00
-1.790183509382828886e+00,-6.074437615180390271e-01,2.752152113125595267e+00,-2.168384585957910282e+00,-2.208501953525773054e+00,-2.480626835292654597e+00,3.891945682709303522e+00,-3.568482298630299976e-01,-1.774854642673444616e+00,-5.171318569795876563e+00
-2.154826188796361564e+00,3.927918636859366597e+00,1.714356758280665693e-01,4.482926170392462772e+00,-7.839940925380655123e-01,-4.452393945576780809e-01,-2.031562631734432856e+00,3.537416289526327251e+00,-2.336506691703325256e+00,-3.293450527853811760e+00
-3.431195836525981147e+00,4.149117136826850682e+00,-8.843345832453537447e-01,5.424791838001469912e+00,-1.926209452068624595e+00,-3.198047107247590670e+00,-2.068279251868307078e+00,3.296533805565656117e+00,-3.601449934450891011e+00,7.020385902268542644e+00
-1.908578321921429399e+00,3.492333109957275195e+00,9.141920910159850866e-01,5.475612240725385327e+00,3.372542622619499886e-01,4.857164229375924513e+00,-2.714054756883866659e+00,2.715437295488119851e+00,3.089337245464204962e+00,4.617496549984409171e+00
-1.045413415599095508e+00,2.213440406193941890e+00,6.715742613455307763e-01,3.948319168388201739e+00,-2.475702386741656547e+00,-2.557184840309437046e+00,2.857183428725257102e+00,1.807590583732823664e+00,-2.020148526589971905e+00,1.868682216013220154e+00
-1.809241932062578329e+00,1.661984224403760257e-01,-1.762503571153182513e-01,8.707383121108867030e-01,-7.644473722256689419e-02,-3.328073898271055597e-02,-1.231153137429412903e+00,-1.368421743488681841e+00,-1.334743770957825593e+00,1.789652159927980435e+00
