-4.870629994973973975e-02,-1.944573714200944714e+00,-1.544800443099486387e+00,-2.251352884247140196e+00,7.684103645204172217e-01,-2.139275951457515923e+00,2.359683142688991708e+00,-3.549161716742236017e+00,3.044945390020219467e+00,1.143139517039987840e+00
4.753545847319859519e+00,7.464816139907735071e-01,1.761316671925574062e-01,1.026159325519985011e+00,-6.820830932604176056e+00,1.674132045220920073e+00,-1.993558253918179535e-01,4.534044326449605755e+00,5.805748351742748170e+00,-4.325760348802450750e+00
-3.232743385967253857e+00,-1.110761599743697037e-01,-1.586214124615275667e+00,2.635010547949677040e+00,8.997313909191781978e-01,2.168614122283754941e+00,-8.620395074622080323e-01,2.551035226134599654e+00,-5.778205968081228328e+00,1.671593601532040063e+00
4.980715654702121409e-01,-3.634162307484218868e+00,-2.481294674894425345e+00,2.760018673955994206e+00,1.907395774137667921e+00,4.440466288139891304e+00,1.534967110809927204e+00,3.507755326769172122e+00,-1.655998363191813816e+00,2.037746980497198712e-01
3.434676499427846252e+00,4.240709576623227228e+00,8.228152035509002094e-01,2.138521675254770216e+00,-3.876348293434556780e+00,-1.788326803953733224e+00,-2.484860666411497498e-01,3.002305561407601520e+00,4.686847011213964187e+00,-5.257736866162543876e+00
1.784307672951652268e+00,-2.714332081576781963e+00,-3.673462122341197400e+00,1.076106856051413319e+00,-1.543526507133659020e-01,5.839637953332088571e+00,-2.124507687121589272e-01,3.162107684356038728e+00,3.482863704395523730e+00,-2.296383756393757025e+00
3.258190100647090137e+00,2.140013816533204327e+00,-5.754481738347313247e+00,4.040242827542137150e+00,7.563052215486467666e-01,-2.218118458887530231e+00,1.960624500394165137e+00,6.054535293544420771e-01,2.342966514082757801e+00,-1.089858468951826254e+00
5.703675721819516653e+00,3.891550258960965181e+00,-7.456068541965443774e-01,4.079971846105869382e+00,-3.390805991036701883e+00,-3.171160463799738150e+00,-1.678520453784227540e+00,2.377771615088284829e+00,-3.611100494121881610e+00,7.540099976046540364e-01
4.248918740838814934e+00,-8.322123168449191422e-02,-3.435993260396501547e+00,3.199774870623881551e+00,-1.775386140582966288e+00,6.635836250192489238e+00,-7.802952823726876375e-01,4.816990213439908963e+00,2.570480771125928321e+00,-2.935466181673625496e-01
-1.505983659877857095e+00,-3.242127743683339780e+00,2.945310896480669349e+00,-3.425680052727738900e+00,2.072369580938119960e+00,-3.058063076281053672e+00,8.417946042149927477e-01,-2.657967907296830301e+00,-2.485166634590989521e+00,1.666791407231819067e-01
