-3.908375215871083275e-01,-7.714519937128218041e-01,-5.027908089920679835e+00,-3.562692042907344980e+00,-1.138822880408498106e+00,-1.127661290938577032e+00,-1.292131100029046520e+00,2.064586708198595799e-01,-2.942175169634949405e+00,-6.553170408479322973e-01
6.784855140896480563e+00,-2.316111891446630988e+00,-6.636965874049396974e-02,1.742580588566775557e+00,-1.795243838981552154e+00,-3.370474420923361691e-01,1.786465410650621477e+00,3.495323381851477507e+00,-2.122914468842222568e+00,3.682596627168528425e+00
7.377239151998830735e+00,-3.953765244282926972e+00,7.899201398524093864e-01,-2.985208265622611101e+00,-1.691991337449880062e+00,-8.053448068263593385e-01,-1.526504231571798709e+00,9.201246302887906570e-01,2.669416595248979895e+00,-3.747850543639813736e+00
-3.129006224652018275e+00,2.134067774713984900e+00,4.072736516862380363e+00,3.425486505956095051e+00,2.178543743494072871e+00,3.870762961368038990e+00,1.686415396770626351e+00,-3.391465614430387188e+00,-1.263683360484974427e+00,2.440556944383993898e-01
-7.889854876074712031e+00,2.103995884890902168e+00,-4.951837860109245426e+00,4.364825926654514188e-01,-1.020441399191516219e+00,-1.431925530294588800e+00,9.768263817188782561e-01,-1.558410590548482411e-01,-3.513273289508350494e+00,6.436438592429587935e+00
1.095636498085784716e+01,-3.135980604521615422e+00,6.733305873437552824e-01,1.472977657448094613e+00,-3.813868765178964004e+00,-1.047583816252450339e-01,1.508917117301508570e+00,4.352513019159490071e+00,-3.982584092090070360e+00,2.853569579043154114e+00
-8.554828407251452660e+00,-5.783473575132591638e-01,-3.630753446886552993e+00,-7.563681105278601269e-01,3.554183440394033777e+00,5.099680104330532870e-01,4.257525113143345585e-01,-2.016572901674411611e+00,2.515394004785460602e-01,4.841019027411038067e+00
1.382511460779018098e+00,1.690414932896370903e+00,-1.296018149927576690e+00,4.174869411994835411e-01,-1.242877303062202232e+00,1.472129299608809339e+00,-1.072260137485180120e+00,8.926903535749440843e-01,-7.466779870574730360e+00,1.984346700180282808e+00
-3.720500688016129320e+00,1.679999412229286948e+00,-3.449416691081268471e+00,2.013338954493539001e-01,3.025013452864938390e+00,-7.812794960544733325e-02,2.275934021975515087e+00,-1.199817739832981900e+00,-4.261478178898899571e+00,2.376928923817608119e+00
2.682560184329319419e+00,-6.345571100884557225e-01,-8.420569013973373540e-01,4.667442319531838746e-01,2.508478190942712516e+00,2.556567913444768303e-02,-1.493086735141225807e+00,4.375615906184014747e+00,1.601292114550236345e+00,-6.173872614124583658e-01
