-5.266684454799348991e+00,-3.711669527577186045e+00,-1.442103024958674151e+00,-2.327657812066922904e+00,-7.595914868210175364e+00,3.278406937184212833e+00,7.948621094329055836e-02,-2.090787184918530883e+00,2.138919763394804552e-01,3.188861901675512200e+00
-1.347198078878423022e+00,-1.318955173189501950e+00,3.090795709083554055e+00,-3.772486085569733416e-01,9.305377275318664487e-02,2.352175364537722135e+00,-1.074061685660973930e+00,-3.305376472799259169e+00,-2.383929389795478304e+00,5.513373816428998708e+00
-6.127240997626007823e-01,1.017892430000711945e+00,1.649157461991655804e+00,-1.596878021677681669e+00,-9.582645298623121421e-02,1.152567679754202823e+00,1.272180103201557000e-01,-4.562658543042225068e-01,3.179579206185878526e+00,1.935524646038175645e+00
1.094282369891588003e+00,-9.063284856072911788e-01,1.248393205425160302e+00,8.735378737240835634e-02,3.248068246671509396e+00,1.676115973589921426e-01,-1.737134660721650459e+00,-1.162749966895817000e+00,-2.588077113430970577e+00,1.059022139084371483e+00
2.989377841513320422e-01,-7.391843260481509859e-01,3.901676466357840933e+00,-1.482729638857782861e+00,2.270263269661910943e+00,-1.376938104984317235e+00,3.423146358198748018e+00,4.290188421212976166e+00,-1.218191975318955622e+00,1.785224899380032149e+00
-4.501100072798816853e+00,-5.705291802474429907e+00,1.951199247352866317e+00,-3.237418042921247352e+00,-3.794010220937000799e+00,-2.404643775011403584e+00,-9.631012757304705518e-01,-6.626019210018227135e+00,-5.305425602666792528e+00,1.506965633523650538e+00
-2.339760083400986623e+00,3.668771291481126351e+00,-4.974079284184772243e-03,-2.297592852893172999e-01,2.660705339437436923e+00,-5.712915933583384565e+00,-1.362071893259629407e+00,-3.779837889381057359e+00,-2.372069874608354834e+00,-7.371930768043091220e+00
-3.386687767765307999e+00,1.907205061666085166e+00,1.668438761986815955e+00,-1.061416987430212178e+00,-1.864470696187401577e+00,-6.335932708385372258e-01,1.337463791080348186e+00,-5.170420037757304854e+00,1.350746894505977513e+00,2.558984774438825660e+00
-3.406242327792281532e+00,-2.852440540426166127e+00,1.866864938779000171e+00,-2.296681404578994279e+00,-1.140034545094819468e-01,8.413704014046775592e-01,1.135457479315885365e+00,5.433768504454843384e-01,-1.586914676482644060e+00,4.182237804234659961e+00
3.720706972946099089e+00,-6.871135882895480496e-01,2.512402651768884443e+00,6.165307516484174188e-01,6.532748588464758477e+00,1.662641893106465929e+00,5.824607005567227214e-01,6.555686938424730492e+00,-1.904272220999672749e+00,2.592002663607793078e+00
