-7.727800201221082244e-01,1.472929148301379776e+00,7.753523411404823484e-01,-2.111566326844715569e+00,-4.918883544687918663e-01,2.676352384054884848e+00,-5.123976830032346719e+00,-5.320586345456871369e-01,-2.458480118716059870e+00,-3.666756106033782214e-01
-1.066073437868423346e+00,-1.656727548450967147e+00,1.564062973039000326e+00,-1.733460076056671850e+00,7.014692576859323792e-01,5.489851292068725908e-01,-2.134150902691820839e+00,-3.164803331160096489e-01,3.220542809045435356e-02,1.187701473735621294e+00
4.614176399221618041e+00,2.140672450440403995e+00,4.063164657995985252e+00,7.740982724735251397e-01,6.313376547092882873e+00,-1.661120831628823069e+00,2.974646750703491715e+00,3.548780203955184565e+00,1.025737123037714049e+01,-3.932047334356596924e+00
7.722087255021329311e-01,-4.736169928760867315e-02,3.686969136705237737e+00,-2.202238537949682495e+00,-1.470913287666800739e+00,5.370114305904747365e-01,-4.993823263116734523e+00,-6.113645254315405037e-02,-4.429226134698967421e+00,3.245147704789506093e-01
-4.537517671284954979e+00,5.116525603604748618e+00,-7.475902586688587093e+00,-2.172273004874942348e+00,-1.794031831402881805e+00,2.437592229271372091e+00,8.725149177865491046e-01,-5.947977535699877194e+00,1.241850644657348957e+00,-1.961022962080490206e+00
2.046374760590045305e+00,2.311562401220602414e+00,1.403677883687738381e+00,2.408809508417275869e-01,-2.030326579137927967e-01,1.816831398011138354e+00,-1.167066969220434958e+00,1.730606695580157783e+00,-1.990293128403967771e+00,1.187603983013288400e-02
1.056804047573356886e+00,1.738314663760904821e+00,-5.202190073440865481e-01,3.409596587684901703e+00,6.706340980292175846e-01,-3.499178205660361668e-02,1.775181110285573682e+00,2.064425336070430106e+00,-1.034392870704729184e+00,-1.096451674526519149e+00
-5.205585652772086735e-01,5.174463575760831352e-02,-1.025805399334742019e+00,-6.999691437571352592e-01,-3.752527017171785051e-01,4.669853578753931922e-01,-4.892551709334001520e-01,-6.938132353454837808e-01,4.133875869440770123e-01,-2.765117420973903228e-01
1.227088524813851000e+00,5.595059655661985820e-01,-3.090348632920015270e-01,-9.443559508854030282e-01,2.446004113672940683e+00,1.350263242898042559e+00,1.040985542740223035e+00,-6.781413126807245284e-02,4.002820293237720151e+00,-1.949978674729710149e-01
2.135397531228976131e+00,-1.354402287023013018e+00,-7.225920245020581723e-01,1.998343873453042985e+00,3.450518589012147030e-01,-5.628624043311398761e-01,2.561849818377525345e+00,1.285325864440983734e+00,-2.784574728873362437e-01,-2.181083928696199714e-01
