2.124080799895852856e+00,-2.229895253935985533e+00,-2.979446323890855286e+00,2.390356249139674372e+00,-1.190185311434478033e+00,2.612968635210810131e+00,-2.790668705078419576e-01,-3.273140631686854540e+00,4.657756830809578474e-01,-1.239840104823561662e+00
1.367056229680060353e+00,-2.906297727477096693e+00,-3.884082057966234292e+00,4.291301068095401128e+00,3.596417222700684313e+00,-2.108020669059035956e+00,2.333561841039929474e-01,1.995115359949653167e+00,-5.867721485438514017e-01,-1.234165880523411696e+00
2.499559767121588005e-01,1.286915174027772224e+00,1.961472221464985788e+00,-1.533090062711522261e+00,-1.928926997766081453e+00,9.615704904383604035e-01,2.617546142700696521e+00,7.800369003053291284e-01,8.826551201063466134e-01,4.542772431011766976e+00
-7.252071264732082412e+00,-1.893683654802143845e+00,3.584845911068915481e+00,6.071803407509319683e-01,-3.386803694022348488e+00,6.359803123571047934e+00,5.837220824971938171e-01,2.448007889140065563e-01,2.230982271269893680e+00,1.685693703142695288e+00
-4.670757329685709669e-02,-4.679785610130955398e+00,-5.680661495575042075e+00,2.321540855309760065e+00,-2.592236290610361316e+00,-6.691170359705479243e+00,-4.338035623188642553e+00,3.940867677406290071e+00,-6.002844283424805027e+00,4.527617533868504296e+00
6.152351271142455502e+00,-2.697141004217427085e-01,-7.670302271860772736e-01,1.425865725972535580e+00,6.613697386159804736e+00,6.148995035903542794e-01,4.938424255003454055e-02,1.056147363810333140e+00,5.462392662200842075e+00,-1.960021178311160073e+00
8.191780938614163787e+00,2.258570597377056899e+00,-2.922674762527451175e+00,-8.543281875030767081e-01,-5.044362589542209646e-02,-5.132004351123488739e+00,-5.660998522361214702e-01,-1.220486661013665097e+00,-1.243663442831097976e+00,7.493636195973281122e-01
2.310534413063660697e+00,2.535708167509719946e+00,5.331835722957983137e+00,-7.882501239468557852e-01,-1.969558709389601425e+00,7.006642140034696764e-01,5.287123146896741233e+00,-2.308310225456624121e+00,2.169640202857063382e+00,4.060484258501425359e+00
1.853229169850691527e+00,4.567046445688684453e-01,-1.863475410812747146e+00,-2.413536655339143522e+00,5.103004451387215923e+00,2.826288795925512076e+00,-1.203086472583843713e+00,2.512292583208043606e+00,1.215718268458107154e+00,1.147818786041740591e+00
1.862798882431266900e+00,-1.034650811348630128e+00,-2.455431024504562298e+00,-6.097615951965147385e-01,3.388222516391151906e+00,1.507707527041226570e+00,-2.123833315999601901e+00,2.558232639505977790e+00,1.186747674887447479e+00,1.267823634026973512e+00
