-8.268139467971545864e-01,-1.282624146060659109e+00,-2.185520537579197509e+00,-2.175647506732625580e-01,-1.776687726504445619e+00,-5.932453542942190516e+00,2.229164395670812038e+00,1.709404978953454224e+00,1.507822088259614945e+00,2.458979451303194619e+00
3.413567122242845198e+00,1.729377500091234809e+00,4.909165435383513909e+00,-2.659034656068264280e-01,-6.408000884492476068e+00,-1.255508722339255367e+00,2.125980134205295968e+00,-1.101906015282811291e+00,1.777714010467845718e-01,1.666446604994879177e+00
-2.334296115763094814e+00,1.312391939616148751e+00,2.753813122499769506e+00,9.373162362981503071e-01,4.826547963155292997e+00,2.087741199219011801e+00,-5.684963576166707000e+00,-1.233997305609492168e+00,-6.551064360524901931e-01,1.763733083150541114e+00
-6.911130363750105365e-01,-1.421927381533049761e+00,1.429220749060988727e+00,-3.787379704728577323e+00,-4.707445018463245034e+00,1.227645310773563203e+00,5.727055169099419807e-01,5.856217499943336957e-01,1.918289816235211998e+00,1.640171180761151315e-01
2.833530144745714185e+00,-2.334825756176270861e+00,-1.625034515665467527e+00,-1.908085349324128988e+00,2.022123054471893333e+00,2.509300943489591429e+00,3.942477849520138466e-01,2.965090420710494890e+00,9.804587150556065556e-01,-2.515119236808575076e-01
1.579022268995148970e+00,-1.366343207593383680e+00,-2.410836259124428782e+00,-4.587983956612998182e-01,2.535325270887043292e-01,5.041759493542171677e-01,2.228403112019093246e+00,-9.479218245227345463e-01,2.587679637273438082e+00,2.325730808451455633e+00
-4.623378672792353150e+00,-5.733039248965559054e-01,5.222993732343095274e-01,-9.014693284148260766e-01,2.639739229950003541e+00,-1.565242642031818177e+00,-4.629304397571341489e+00,2.938630611415228078e+00,-1.947402507764652846e+00,-1.960360287404729895e+00
-7.143052758963483129e+00,8.642305789027890373e-02,-1.300045718644201154e+00,3.481958804406238284e-01,6.506915522722829526e-02,-3.164236491484280211e+00,-2.834289139352295983e+00,1.861560166841055075e+00,-1.435125012066550854e+00,-1.270345082391339586e+00
-4.668749417517084055e-01,-2.104192763489418194e+00,-3.657473354635766949e+00,-1.723084985558036797e+00,-1.968828627270235998e+00,-5.687750085751924090e+00,6.992540765964891492e+00,-2.138278414389788995e-01,4.795507013182872313e+00,2.895505780853705247e+00
-7.818565379272415239e-01,-4.131166459636915533e+00,-3.268841522209913641e+00,-8.672903808315314267e-01,1.506344324120745704e+00,-2.991540930724949199e+00,-4.984631380471747919e-01,2.026870752339014814e+00,2.867267041941432559e+00,4.285891551462299276e+00
