3.003381263463166917e+00,-1.058141864317395653e+00,5.446690438549676994e-02,-1.392704358171595214e+00,7.934450567921630393e-01,1.676169846019821552e+00,3.657190882666877529e-01,-7.154121437166507391e-01,-3.173502439379599860e+00,9.806382366439349019e-01
-3.646890436751226150e-01,8.008355357094700810e-01,1.114859001747509515e+00,2.457353079982553368e+00,-1.491693463704967249e+00,-7.426019199604190213e-01,2.898635358316683508e-01,8.541541678634231860e-02,1.429621525353709455e+00,-2.098370958466159841e+00
2.879644259831898867e-01,3.022582267070012652e+00,1.144918714720918329e+00,2.737604963961231874e+00,-8.967830024923101329e-01,7.053599251412790982e-01,4.846532996582156194e+00,3.921295229787116754e-01,2.322761397249836435e+00,2.773072470557568003e+00
8.016495793841000861e-01,3.106653510980263100e+00,1.545534652384438212e+00,2.519195279523128050e+00,2.467886583695141134e+00,-7.164216298472244615e-01,5.201568620967682993e-02,-3.929481107911100057e+00,4.574195558590599120e+00,-2.719514177764606355e+00
-1.820732623327564470e+00,3.992825295468285685e+00,-2.566526102854422398e+00,-1.069634371780369797e+00,5.328092093250552885e+00,4.431051487641799014e+00,-1.477444421000702501e+00,-4.936138808464137995e+00,4.315675706589307659e+00,9.657014349576774626e-01
-2.005084866441237068e+00,1.348185026356646388e+00,6.438159851970486347e-01,-1.481180138053929785e+00,2.410903233507050825e+00,-2.554825425706649611e+00,-1.062264606892086460e+00,-2.054303765298327589e-01,3.485279665618276734e+00,2.855479385459223640e-01
2.627913885818587758e+00,1.008488822867823131e+01,-2.339859354884736398e+00,2.413909273327132343e+00,-2.386584056102517337e+00,8.786620106871845692e+00,1.952408659405785452e+00,-3.731978548405739726e+00,7.090815450956364785e-01,-3.619853985680152042e-01
1.843129834207115403e+00,3.391057766678546415e+00,-2.301783467446148368e+00,-2.464987295912251408e+00,-6.426148072408341960e+00,2.272829432744253086e+00,8.706714124275809041e+00,3.611845732531246966e+00,-1.189972422144594866e+00,7.290089015494582547e+00
-1.254711988125833066e+00,7.604412222130280119e-01,3.109077890303017622e+00,1.099554153419136648e+00,1.769516360946101097e+00,-9.214054353428380306e-01,-9.622221632096085164e-01,-9.914778335522671515e-01,5.402111879147687645e+00,-3.651708626113699285e+00
2.120862454971784716e-01,2.993235592561435787e+00,2.747755157983116980e+00,1.511323180009019440e+00,-2.037917980610453039e+00,2.685939502741794271e-01,7.742117107735762893e+00,7.873953042523752499e-01,6.443996893914900603e+00,2.292689389838197478e+00
