5.769506757270111308e+00,2.716001282769253677e+00,-9.029930552290288404e-03,4.727890341526104767e-01,2.691627962794172380e+00,-2.757872155579123019e-01,-2.372318800588945731e+00,1.778998762100632458e+00,-3.168355871966288539e+00,2.794938275055733001e+00
2.653659003922127724e+00,2.826215165737559154e+00,1.730063992836052833e-01,-1.074419558844663003e+00,-8.185607521220318594e-02,1.672137123771741063e+00,-8.548028838045679478e+00,3.731573422284188979e+00,1.455065537769670847e+00,-1.146286460196939361e+00
1.033391393044067907e+00,4.701230340835067523e+00,8.085614833726550987e-02,4.165646164421271891e+00,-3.525103544526069665e+00,1.020249748962683611e+00,2.872111953339304247e+00,-2.625307655064169410e+00,-3.255597960952167025e+00,-3.771610406135768034e+00
-1.051759906129262845e+00,-3.518677694579137594e-01,-8.133069143984081872e-01,2.204108680215766558e+00,-2.780717394811523580e+00,-2.538240353417050787e+00,-4.318948975212305363e+00,-1.477206923549253093e+00,1.625337763911165023e+00,-6.415325830115033767e+00
2.174613136395405988e+00,-3.511138049004421724e+00,4.002369318885328653e+00,2.167215088168922554e-01,5.616413934941381747e+00,-2.864845389472451043e+00,-1.536701258583500040e+00,1.305938386704130982e+00,-1.377626312450797919e+00,2.920240898532753260e+00
9.257289581879640794e-02,-8.276712372462622369e-01,3.341242411101497112e-01,-1.389750873774683537e+00,2.085148102663796355e+00,-1.146571282665491243e+00,3.784809348472193857e+00,4.591565775085285850e+00,-2.331099872933102279e+00,1.337539856389510229e+00
-5.317760498025807969e+00,-1.293105619485136026e+00,3.629807138715300141e+00,8.577129844464428388e-01,1.248062730577347068e+00,-1.963262071492423821e+00,-1.439284141621600677e-01,-4.196145760893181809e+00,2.163385115828381888e+00,-3.303070615702489388e+00
-1.765245205011868102e+00,4.648120676619917901e+00,-5.312227753187066526e+00,2.048323384808878433e+00,-5.417142980818523412e+00,-1.032344632022956343e+00,1.008431991941223238e+00,-3.009613597474066093e+00,5.127818783536897129e-01,-5.739112985644709397e+00
3.648634708598647691e+00,-4.128061004069374818e+00,1.554173021142798650e+00,-7.627568244008061882e+00,1.875535662633211142e+00,1.419559037995166806e+00,-8.905714663313711199e+00,2.430023153194428076e+00,3.768660146658500132e+00,6.205786276571666704e+00
-1.747125306058494587e-02,-7.625846859185829718e-01,2.859367383951572528e+00,3.445143137646573095e+00,4.268826337410729366e+00,-2.492725742746184192e+00,2.140026211849953008e-01,-1.002246329897303223e+00,-1.061124358981923255e+00,5.128928159665604447e-01
