-7.263636308100697159e-01,-1.134635029283238117e+00,-1.761305042045746561e+00,1.605290918013900114e+00,-2.327008786377370075e+00,9.675889242049902084e-01,-1.286816349977720098e+00,-2.909086959078464041e-01,4.805017340679379467e-01,-1.952306086452975376e-01
1.395330536590890791e+00,6.842339297803068376e-02,-2.068932726844954217e+00,4.071175624532758164e+00,-4.524794971864059434e+00,6.082188533899010707e+00,-5.142532244467661329e+00,1.517427350169682887e+00,5.574289189553370827e-01,1.363320016978991855e+00
-3.517478582962201727e+00,3.226336410744523042e-01,1.215939779520814001e+00,-1.391183564188086308e+00,-2.758310779104339083e+00,-2.414535286606759090e+00,2.182311492264466413e+00,-1.744352931027837172e+00,-5.837677180196265692e-01,2.827307213281439413e+00
-2.940250290197302441e+00,-2.788957439173993080e+00,-5.124846696021396752e+00,1.049895118429925889e+00,-8.330851660832805372e-01,-3.250208429058614623e+00,8.148516092310365000e-02,1.116062879444651212e+00,1.865364585286253707e+00,-2.034737809818487175e+00
-1.171462412170714895e+00,-2.785283364112943527e+00,-2.059641379195598532e+00,2.721291142431364829e+00,-1.616832575985261977e+00,5.139332644161278552e-01,-4.273276112004252836e-01,1.340865277772675279e+00,1.753702306737786598e+00,-2.780457203621677920e+00
-4.816432359788247464e-01,-2.536507311259679209e+00,-1.987128802703364006e-02,3.706487756817577583e+00,1.636613008977126249e+00,1.014043335735310025e+00,-1.333513584915025474e+00,-3.392633944754865460e+00,3.031712033460139732e+00,-1.479206719634510447e+00
-2.486271149575027373e+00,-1.591839363383295014e-01,4.173820516873298914e-01,3.381365184134799140e-02,-2.137528521455303032e+00,-5.486614583423636837e-01,-1.390804982296961478e+00,-1.590827275935959850e+00,7.696664380237678849e-01,8.386289076191806302e-01
-1.347218457964870497e+00,1.942905889447364143e-01,-1.566991414692680884e+00,9.042307794050474801e-02,3.099624751771562492e-01,-2.639917096935798124e+00,8.718016052062718124e-01,2.925103865901256039e+00,-8.141401813127904230e-01,-9.537325726458045771e-01
-1.613887359315679504e+00,-4.519588764883244458e-01,-1.234228314841513630e+00,1.919096529773318682e+00,-6.079928400103522534e+00,2.019395481262934666e+00,-4.495555287810489631e+00,-2.806542016209045975e+00,2.427271065561838359e+00,-9.729402672870143265e-01
-2.773942612143740494e+00,-1.981114388164276763e-01,-4.569854740621045686e+00,1.658198606411167120e+00,1.781175158388754953e+00,-5.717148153730383875e+00,2.429547984157398588e+00,2.083275962633810874e+00,2.225238426017580373e+00,-1.042058466768047420e-01
