1.594639392772118081e+00,2.882184648915156799e+00,-3.954138581095659077e+00,-2.385295282304591868e+00,-1.398074675963750790e+00,4.907776441213838048e+00,1.065903635168665486e+00,-2.674409309883598596e+00,-1.802418621123108355e+00,3.419495320924707205e+00
3.441536753989686281e-01,-8.593127495530510362e-01,-3.830430694662626534e-01,-1.717166787631352776e+00,5.098550345802249639e-01,-1.016606391421404743e+00,-4.061595052600580069e-01,1.625180075396416068e+00,2.865881822888991515e+00,6.657204482842737914e-01
-2.399810980660058490e+00,-6.308690803013563553e-01,1.320110482688315434e+00,1.094713847709737564e+00,1.463035845031859683e+00,5.379633918782897872e-01,-7.827569012812364557e-02,-5.253378527582547308e-01,-3.770535988416652273e+00,1.345398921720798446e-01
-2.821506635503021165e+00,4.394569895945629190e-01,4.136002580421425989e+00,3.701668940164085431e+00,3.982607823134624248e+00,1.914733206231258755e+00,-8.675455232675342021e-01,4.821443568813388758e+00,-1.685858792636479420e+00,5.062125432760056221e+00
-1.393075116144686376e+00,2.752889821379308710e+00,2.645508934601164430e+00,-8.398274102410104192e+00,-4.570318562965784703e-02,-2.178447662417918096e+00,1.441936372075949491e+00,-8.230924337095242294e-01,-1.737653126257510339e+00,7.808854014081111350e-01
-9.248013910591131870e-01,1.806799914516830086e+00,-1.078368059709236659e+00,-8.207568828315293885e+00,1.214106636003430717e+00,-9.882308973283659981e-01,2.647596872125322687e+00,1.226596197818772271e+00,-9.007558773640421679e-01,-9.108141023475999631e-01
-2.344004024039166190e+00,-4.004937257312027654e+00,2.866148722432392493e+00,9.003085866163603734e-01,2.594065261510486664e+00,4.535815751025595866e+00,4.946154489376762275e-01,-1.274902944322552356e+00,-5.900782303601250778e-01,6.076708880808225910e-01
-5.433518590218692212e-01,-4.370859569998211569e+00,-5.966481520983628606e-01,5.854929433033262409e-01,9.043260158616857058e-01,1.698786366771392817e-02,-2.214124163543537804e+00,-9.910038416267537287e-02,6.708460526705451343e+00,1.086181688263882616e+00
8.782193779100208042e-01,5.244508002801353541e-01,-2.279560132080595380e+00,-1.818775342981084231e+00,-6.534102474401776162e-02,-4.420637793930463078e-01,-2.359566959867783198e-01,2.213639550855920568e+00,-7.613787004386370905e-01,3.081888424012962258e+00
6.349303486556301390e-01,-2.286758051194571539e+00,1.139067047497716256e+00,2.650863775515432952e+00,1.043677724624783865e-01,1.208675423365566548e+00,-2.803462484553359557e-01,1.954951580270360534e+00,7.679006453839750668e-01,2.304901765642579203e+00
