-1.076804186169347366e+00,1.735253969412837938e+00,5.869658689828711751e+00,2.144280057715324705e+00,1.629988690107678107e+00,1.297370727095163101e+00,1.908777121895338436e+00,-1.443784525361497373e+00,-3.513888990715158478e+00,-4.684943686089011461e-01
-1.001529281121889658e+00,7.254004323672744725e-01,2.366518382686534583e+00,1.710545543579037597e-01,-6.793248454294955607e-01,-3.597393523371711921e-01,1.710367905804628386e-01,-2.791718033287775014e-01,-5.507892770658773252e-01,-1.447881449305440826e+00
-5.512226365956198748e-01,2.149549237638827548e-01,3.559239512066906030e+00,3.929978313023041014e+00,1.946614923051674495e+00,-3.710071451703259360e+00,7.216609230330033320e-01,-1.887725580463904818e+00,4.850593562311821816e-01,6.103183108268599000e+00
-1.775578630059826191e+00,4.472135312722440581e-01,-3.364819314274280160e+00,-1.811655701725779943e+00,-1.679305377020223311e+00,-1.220822146125151830e+00,-7.455827359842643887e-01,1.499181632460407920e+00,2.075735856225033427e+00,-6.544814833807685028e-01
-2.529958979523848850e+00,2.350263459315616643e+00,3.617729279213259819e+00,2.526110845914359415e-01,-1.538689702818736960e+00,-2.709444069787888765e+00,-6.025437229058678429e-02,-1.230681520567187714e+00,-9.811959454484078247e-01,-3.555939615884646798e+00
5.000992287246251777e+00,-2.541023677788835755e+00,-1.367054260717105674e+00,4.762273802635919734e-02,-1.628118689799841645e+00,-1.383094357486165160e+00,-4.013666443830776198e-01,-5.971829960165133677e+00,2.516037241520649559e+00,8.814195756196452347e-01
7.385146167683396712e+00,-4.939261404816888579e+00,1.114178604032411458e-02,2.869129170429525200e+00,1.936866680904004934e+00,-2.893376745284709894e+00,8.796303989338295493e-01,-4.531433810868850998e+00,2.313281371586674240e+00,-2.989291831501533103e+00
-1.881175631483451793e+00,7.683162859034757819e-01,6.906202365859991588e+00,-1.218455940345594790e+00,-3.007426647939448472e+00,2.435798216490650869e+00,3.866627584655106808e+00,8.740593330945549688e-01,-2.105832939706294926e+00,1.171773614709010092e+00
7.278326747136397712e-01,-2.335524082811072100e-01,-7.796790176536576578e-01,-4.225471630516426935e-01,5.337845553084070715e-01,1.418029551575293423e+00,2.674346400531847912e-01,7.588258848400962764e-01,-9.044603117182944407e-01,1.022243231737159475e+00
-5.715247623202008853e+00,1.661618330258991305e+00,-2.641861724490186525e+00,-9.654895889407586473e-01,1.741518885678704054e+00,2.293889271313515721e+00,-1.260296601487467694e+00,5.304528787576240134e+00,9.346543323673054404e-01,-4.065396571504933831e+00
