-1.014934849515495507e+01,4.465463015366913702e+00,-3.500312822253043521e+00,-3.845080572729888235e+00,1.343269400977987749e+00,5.515517742293148729e+00,1.154235229097625215e+00,2.097809100608638844e-01,2.193187044246526440e+00,4.952802532050971429e+00
-8.916840424600569470e-01,-8.797549622743954245e-01,-6.144531340671926856e+00,8.079832523846439685e-01,5.014732124684203596e-01,-2.273037393665739980e+00,-3.791223143732683099e+00,-4.025670446576662620e+00,1.250189334667030083e-01,2.078493210640297129e+00
3.314725779714773335e+00,-4.203940082211831353e+00,-7.161998296904209527e-01,9.743567300454216706e-01,-3.670276604413738930e+00,-3.462813194298249631e+00,-5.753065937870864843e-01,2.347984988496269132e+00,-1.451753447307612799e+00,-1.939227390978043086e+00
4.633325068990263862e-01,-9.070773203180290123e-01,-1.707488594653227665e+00,1.833371160649058806e+00,2.879565703455646108e+00,-1.808477825579619114e-01,-6.711221662188456838e-01,-1.536115381155723991e+00,4.500939982628364699e-01,1.195654226012521582e+00
-7.770875104109220111e+00,4.665976937495508459e-01,-1.364982149156266811e+00,-2.771068986804877676e-01,3.382529306018115633e+00,-5.832600902440809865e-01,3.237593434594988384e+00,-1.888306290443525493e+00,-3.643570543032353726e+00,-2.640643326970516291e+00
-1.496886051599313872e+00,4.152894536314237772e-01,5.681462118181760168e+00,3.475839389649081568e+00,5.432110973766986817e+00,5.471245995174063736e+00,3.393834897463801958e+00,1.641893590901749356e+00,7.138879227269512295e-01,1.896285557839213487e+00
-1.993774577127709779e+00,-1.875066906945923373e+00,-3.554097076477146233e-01,-7.591661797558165725e-01,-6.269110704647464782e-01,8.067099344346544409e-01,9.454953095521547723e-01,6.018988728175295178e-01,-1.430405668408395670e+00,4.580205468829144921e-01
-5.068406713189308022e+00,5.198824407751114762e+00,1.882803732957492482e+00,-3.341670879493277457e+00,1.096600295093117516e+00,5.053014142811012022e+00,2.304642516727784862e+00,2.573471937837294110e+00,-6.140881374133601023e-01,-5.536013879948331606e-01
-4.247566840102089958e-01,4.704568321031425526e+00,-2.672593456969964532e+00,-7.616883112883843232e-01,-6.020309795007591447e+00,-3.091070988281869880e+00,-5.364291749174003421e+00,-1.903070220177259575e+00,5.048010021390209046e-01,-1.397681826553648810e+00
-6.397684603380395796e-01,-4.268888682424493375e+00,2.026796092466764065e+00,6.834957110484349840e-01,6.778494597817037004e+00,6.748403049842686130e-01,4.720392522811863500e+00,-8.808237085067693872e-01,-2.086141883435327582e+00,1.727250200510715428e-01
