-3.062132547871159183e+00,-8.080081122264515248e-02,1.947583028030224872e+00,-3.809483399225829237e-01,1.178318368801656302e+00,8.805036232362311033e-01,-2.169954242885257401e+00,2.978368671809552559e+00,8.837831941639731625e-02,9.971657768677760769e-01
-3.025675228085058954e+00,-2.452403978217994940e+00,4.303447383548320460e+00,-1.313635846039246546e+00,3.801952867283293180e+00,9.223460345916287828e-01,-1.823616623442432472e+00,-1.355660716643261710e+00,6.171416388621456806e-01,-1.491410281904400392e+00
1.101150999966653554e+00,3.355821896596943965e+00,-4.257290707361388038e-01,5.057951262028432815e+00,3.462930840825662604e-01,-6.264843254198321887e+00,1.830663597363658246e+00,1.678794521689552344e+00,1.086957873258034279e+00,4.412656423270266082e+00
4.015198679908371204e+00,-5.618660609690805385e-01,-3.243081053526624569e+00,1.163744595908521529e+00,-8.689484460183433123e-01,-1.815866920480102120e+00,3.565686115757698893e+00,-2.778294109965140812e+00,1.397431114635776739e+00,-1.089441859294163262e+00
-6.828912680230541099e+00,8.923554184423204694e-01,1.509091580581425118e+00,-2.663919656154241533e+00,3.790658721164462897e+00,-1.641076843433988186e+00,-3.150053898615669645e+00,7.275014087009799901e+00,-1.749725786636108005e+00,3.583811622594925250e+00
-3.394193658228889632e+00,-2.089581342168339573e-01,-1.167437979243132196e+00,3.709943213748987390e+00,-4.013874540110997202e+00,1.573876052554592953e+00,7.693017659226348837e-01,-3.604873652952556462e+00,3.346367965956090984e+00,-2.931913529002021512e+00
4.833786517205631128e+00,-3.273577654646353530e+00,1.607419862070729399e+00,-1.131170461673752570e+01,1.225263682079602789e+00,-1.907119593412630598e+00,3.388367142683130773e-01,-2.070086451554082885e+00,-6.075424688221757741e+00,1.272001228442903420e+00
-9.657453683621354257e-01,-1.115227553186619147e+00,9.798108676915316950e-01,-1.203185424839421813e+00,2.366487038755445749e+00,-8.988989762576693465e-02,-4.767574238187176627e-01,-8.504551410745331275e-01,3.277237066196119208e+00,-4.820944913673139154e-02
-1.056432124302356224e+00,4.099556722701528599e+00,-3.151043835692738604e+00,4.573911573424886967e+00,2.013435264241185685e+00,-7.022382173972828490e+00,1.854621788280163663e+00,7.896224880952895653e+00,-1.394841694763572448e+00,5.686551327829527658e+00
-6.249589866637350610e+00,2.509990572209228610e+00,6.696932800804733521e-01,1.168045241501552090e+00,8.842256728494962692e-01,-1.044654766999235873e+00,-3.503575467322487480e+00,8.628956228527910000e+00,-2.096773162549927516e+00,4.101946475833304184e+00
