2.907432796922096774e+00,3.038386929408343207e+00,6.067118771509933062e+00,3.807024685333488256e-01,2.149119483604074787e+00,-2.855663374915872854e+00,-9.696176518202232586e+00,5.546676423518980270e-01,-1.407635947988835845e+00,-1.726081311851968003e+00
-4.514427850679489929e+00,-4.098945495920278681e+00,-5.079930736991753903e+00,6.410563387018206605e-01,-2.704945767227576070e+00,2.367939826202139830e+00,8.066711735701368013e+00,-3.305316332909095323e+00,-1.122333855216999243e+00,1.028877331276020629e-01
1.017875469237205621e+00,-2.374641843660699525e+00,-6.204477429493360674e+00,4.168823701143375970e+00,-2.873764371955930486e+00,4.470017302710988183e+00,3.882012139681037866e+00,4.499240447501636098e+00,-2.262560135189418453e+00,-1.615136902596239876e+00
1.106999298326483361e+00,-1.344243512994983236e+00,-6.964385197017504414e-02,6.165459545136144914e-01,4.553016352253307086e-02,1.344234337077699903e+00,2.228720669155367595e+00,2.428486519650681963e+00,-3.288392078096977200e-01,3.027998617635715650e+00
-3.334894101171734349e+00,-3.538486695993536379e+00,-5.288550682539331582e+00,-3.011188694686493861e+00,-2.339607036729153045e+00,-1.559772917015144200e+00,7.608534809452485170e+00,-5.631009607006390638e+00,2.547106943621464836e+00,1.341809167585273022e+00
-7.416462419609320955e-02,1.441223343525868117e+00,3.353405412575761524e+00,-1.629585818471429581e+00,1.614691652854508108e+00,-1.751674847218072317e+00,-3.807145568094639998e+00,-3.842124143860173646e+00,2.637464274711955881e+00,-2.531093850752413221e+00
-6.642068451442394439e-01,5.350952776460383475e+00,-1.650781212561494682e+00,1.420951302590343968e+00,1.333478084297061272e+00,2.052432764687044386e+00,-1.677780560757126782e+00,5.555268309356260481e+00,-1.824700808220315107e+00,-4.269959606542786723e+00
3.375029756255188418e-01,-1.933637488903338753e+00,4.362862348622298825e+00,-2.609400502723830062e+00,2.357858267889934467e+00,-1.697966272672525978e+00,2.999811916738519962e-02,-1.608210912085212163e+00,2.945756898707230231e-01,4.422762966743735369e+00
8.000508050591337295e+00,-1.457687185449418443e+00,1.175647679807786172e+00,1.184107614062611891e+00,-6.785369776204412950e-01,-7.492380458920697706e+00,-5.424788504602188866e+00,2.161080196299180578e+00,-5.733685747496586327e-01,1.692977682950892238e+00
2.190742145429989574e+00,-3.654775151005192235e+00,-4.916446908338508059e+00,5.815426498496186092e+00,-2.056639148943169459e+00,5.078188869586288234e+00,7.523660173647193083e+00,3.168835768397761044e+00,-1.943426488110512329e-01,1.393318612166029924e+00
