3.520667563757971519e-01,4.703702367016860286e+00,-7.057612940699840021e-01,5.318769792335061197e+00,-3.711046405333309206e+00,-2.658259768396097122e+00,-2.988358017629962227e+00,5.903563989091892061e+00,4.021646942393273805e-01,6.529364738194639584e-01
-3.788784691576607688e+00,-2.852428355151205963e+00,-3.511182653047186797e+00,-2.170704124718090544e-01,6.306990722685447137e-01,-1.944690290748709804e+00,-5.011128077774388068e+00,-2.656467043915407000e-01,6.042417673594394856e+00,1.843760165271772333e+00
6.983047827618811543e-02,-9.891773521325056828e-01,-1.700193471941678247e+00,1.894781306690939138e-01,3.872990825799997872e-01,-8.107923084003011427e-01,-2.048072648446761068e+00,7.286180485325363110e-01,5.485901283473264556e-01,-2.623489361905569694e+00
2.285204020802485747e+00,-1.223871556007116550e-02,-7.905833729119562392e-01,-6.668807862970762557e-01,-1.925359418820631108e+00,-1.958268398051662418e+00,-4.723472389760997814e+00,-7.670225668448181544e+00,-2.372376216202700228e+00,-7.621224273572316577e+00
-6.673487019943287191e-01,6.592302609638678312e-01,-1.607223049824447081e+00,2.957235709350726882e+00,-2.946411594186743255e+00,-1.789801226800107559e+00,-3.477202667490861376e+00,3.151430518049092577e-01,8.930755004260928498e-01,-1.849077749195158660e+00
2.135518582533309395e+00,-2.352549167629709725e-01,2.500896560693908643e+00,-1.173685880482871813e+00,1.360944493773905695e+00,4.396234773604629914e-02,1.058208351410089287e+00,-1.753824772184935821e+00,-1.620040027998945309e+00,-3.623843089094466841e+00
1.619712633622985287e-01,5.438468101549779332e-01,2.567371486014194751e-02,2.701897963577925221e+00,-6.357417258768522927e-01,-3.178646395543644143e+00,-8.478996984109326007e+00,1.650521934654585410e+00,3.170011968917594292e+00,2.275217481795802410e+00
4.862109712891574453e+00,-5.779024578935733347e-02,7.378558239144124009e-01,-3.963545836669601030e+00,5.523684449093201332e-01,5.838097913533973893e-01,1.497540955818127184e+00,-4.391538982409341152e+00,-5.705195124644797389e+00,-8.241214544775024464e+00
-3.471187954835010636e+00,1.010382981550471904e+00,-3.334991109293459655e+00,1.499475948530726521e+00,1.153283137871912167e+00,-2.562418754220531447e+00,-4.473507975706185746e+00,-1.537555560366698826e+00,4.685173660927857142e+00,1.482633792865434286e+00
-1.538586595477736685e-01,2.486138449175968823e+00,1.774317031414727186e+00,-1.940636210705039222e+00,4.797434511840484639e+00,1.789581545873996316e+00,3.344670494689128581e+00,1.177367571194971006e-02,-5.022443390905442229e-01,7.156427599039354881e+00
