-1.582442127234078011e-01,-2.440607945456196859e-01,4.934825838059192504e-01,3.799804927249467834e+00,6.918298462436115459e-01,-7.397379105173869096e-01,-1.778612842343599842e+00,2.505084929682201089e+00,1.875758483113213915e+00,4.973494174607111518e+00
-6.627586354139776426e-02,1.173581820933754072e+00,2.454851483155600089e-01,-1.210243256918141164e+00,-1.035443826130412887e-01,-9.053885927878380091e-01,2.261050174021410175e+00,-2.064527455642935383e+00,-4.377429492616224493e+00,-1.965180019302067427e+00
4.418479832186865686e-01,2.117273580742823569e+00,2.175675772411209130e-01,1.492666976231821208e+00,1.699630322471458399e+00,6.693978489057692549e-01,-3.355319318567253628e-01,-3.404087327208177860e-01,-1.302368321172642451e+00,2.790327657571036291e+00
-1.739811837884655210e+00,-1.840251488216476883e+00,-5.512516659454052892e+00,3.656662632512758915e+00,-9.263198569076624977e-01,2.618523845412147111e+00,3.329008269186999769e+00,1.919759256131804870e+00,6.860096599055582889e-01,-3.714949516331321533e+00
-1.936477937814964134e+00,-1.597056147923312075e+00,-4.466313723898833743e+00,2.489493310456369013e+00,-5.736572858317975365e-01,2.069444727080824276e+00,-2.266886968109615708e-01,-1.211438329468679936e-01,2.696119810241867754e+00,-9.153002945009985902e-02
3.786236202056393330e-01,-1.596792878926051484e+00,-6.441403863763877080e-01,-3.338166400977790271e+00,-2.980154807427707109e+00,1.216991606866124176e+00,2.997059365699947797e+00,-2.733704665017627988e+00,3.694720091730867573e-01,-7.132324251723161090e-01
3.816522898282369791e+00,4.262966309559879652e-01,-1.761456082428008774e+00,-3.643239158471419881e+00,8.510755746721483384e-01,-6.240017501011276835e-01,2.989738983415080931e+00,-1.238879835556827347e+00,-5.242328797965905451e+00,-2.391505331143688018e+00
1.681675231672170145e+00,1.414800084967025029e+00,6.545378371532746264e+00,-7.886595224306464758e+00,5.414758038038763877e-01,-1.294911949308509558e-01,-3.175412292960918759e+00,-7.968027199124076976e-01,1.672322727465559877e+00,-2.739644966332151821e+00
8.099245067405234089e-01,3.254408048630239580e+00,1.512813848622971857e+00,-3.687163847349935075e+00,-2.960890186122918877e+00,3.899966599337073792e+00,-4.847223271950409362e+00,1.910273153089513398e+00,-1.807792336303986058e+00,1.915972918142870407e+00
-4.887598280099263448e-01,-3.561477573598333390e-01,2.616846509821928457e+00,-1.533840974333218754e-01,1.065624462620780255e+00,-2.993346087262023225e+00,-3.071477309025028468e+00,5.163192509300273958e-01,1.185362970342499045e+00,4.083541417088745185e-01
