-6.129398417373519869e+00,-3.100889481750014998e+00,-1.282497280170090681e+00,-1.185700697052246122e+00,1.433693445785245046e+00,-2.599955551915698493e+00,-1.441268806336690744e-01,-5.190403264198775624e+00,-1.119742497153976890e+00,-1.692754726005286647e+00
-3.138780575675018447e+00,-2.683727412913043509e+00,-3.927001803926709833e+00,-1.592892341833510805e+00,-6.487410544339821783e+00,-2.867309716059707636e+00,3.937892232606715837e+00,1.695973834417379145e+00,-1.042708277142736506e+00,-4.358921113423873450e+00
-4.564126901736287323e-01,3.252300788009101939e+00,5.871181209454687355e+00,4.974521710458352786e-01,4.816662532434395239e+00,1.328049104090797794e+00,-2.114549660547199395e+00,-3.451492371283207294e+00,5.258339873523005359e+00,6.417846439226395638e+00
2.022194079384285637e+00,5.867864278884739271e+00,1.658641749868764226e+00,-3.378522390763047500e+00,-1.798555681992893840e+00,3.741259919241850973e+00,4.897622136316888142e-01,-4.303182021357592646e+00,1.080511885385067217e+01,5.336816432188544290e+00
-2.376849685916577748e+00,3.467408782844684456e+00,2.814060590298386622e+00,-4.391745336047859771e-01,1.720932669427438055e+00,-3.106249004379692646e+00,-4.178868941813489002e+00,4.055452947056554791e+00,3.654659569371588201e+00,-9.680633598680152829e-01
3.573728464526554127e+00,8.451281397923411376e+00,2.171289012113762240e+00,8.217371777828941237e-01,-3.839749060654222390e+00,1.133730229390201627e+00,-2.737075356178645169e+00,8.580479976709913359e+00,7.931385029153210198e+00,1.782076740277631854e+00
-2.175966403947579231e+00,2.821645613225020277e+00,1.008893669226663681e+00,-4.130973201504738235e+00,-5.185548092087054250e+00,-8.073268721334907472e-01,2.241363675778867748e+00,-2.787105807865942531e+00,5.489414030398938493e+00,-3.222935086928265136e+00
-1.672839365628167041e+00,2.608309607409317277e+00,2.919134532059804776e+00,-8.988383323969081351e-01,7.236767969981330872e-02,-1.936288808209142509e+00,-8.438900239121057689e-01,2.086309847311487164e+00,2.708189228495901713e+00,7.367606764325327351e-01
-5.408484725832802820e-01,-3.511372741984076562e+00,-5.826056386751876648e-01,3.588885460182580811e+00,-9.236736786431964941e-01,3.356233708514062997e+00,5.803501280793445183e+00,-7.228714835280992901e+00,-5.196233354088406031e+00,2.720868194420961172e-01
-3.879537834687256659e-01,3.892133591162442396e+00,3.954186533663662129e+00,-3.632427616194902509e+00,-1.795684512151045409e+00,-7.197596017294125570e-01,-1.804130786317198920e+00,-9.718840734553542138e-01,5.916788832049864055e+00,-7.438693450833990806e-01
