-6.744429566989623703e-01,3.246644017742101429e+00,-9.387599937420851859e+00,2.561287376375983804e+00,1.172550602422295363e+00,3.407944851364094418e+00,4.343559091603903077e+00,-2.198897083892816351e+00,1.306553141522685535e-01,1.220972700803913069e+00
5.756946494297585204e+00,9.040860927621931609e+00,3.530742462243911195e+00,9.306785372636022791e-01,6.782321971895288293e+00,-1.422996055319708075e+00,1.299898003913349864e+00,-4.711079938378436971e+00,1.845664002498841327e+00,-2.258103324602610318e+00
1.155229019853903916e+00,-8.309081799633526444e+00,1.174169519231761072e+01,-1.671514868969798062e+00,-2.986659504662554365e+00,-5.441521240062080267e+00,3.002538798050043312e+00,3.280983672828955200e+00,3.247555682056070925e+00,8.800874920464404338e-01
3.084522509801464807e+00,2.197186742227819067e+00,-9.436325839414307914e-01,2.992304390435657768e-01,2.146538165112811480e+00,-1.318766658190626773e+00,1.456112927728535178e+00,-2.402799376006193643e+00,-1.681237425733936641e+00,-1.023964958019048410e+00
-2.215302552560862726e+00,-5.319439888960602048e+00,-3.702494781857298634e+00,1.651394423485764262e+00,-4.992054710706998577e+00,4.133571472865172680e+00,-3.562317230278571500e+00,-4.117720662983660462e-01,-5.195561500620437201e+00,-2.803924589251624244e+00
3.671869714375719962e+00,-2.945915808759163479e+00,3.402868464186669328e+00,7.980212545677334290e-01,6.002016925473985243e-01,-1.399841917528932722e+00,4.514638037721121044e+00,-2.313109450699776026e+00,1.282321764667198272e+00,1.776368083859956037e-01
2.142595975039228495e+00,-4.893625449850042664e+00,3.770380175486329311e+00,-2.722269937107108184e+00,-4.576639188748958254e-01,-2.549749134881976520e+00,4.994576392938339104e-01,1.019084728850906396e+00,1.057989217173138652e+00,2.117369398693779381e+00
-2.108187896325213639e+00,-4.639633422461428403e+00,7.487508901924773141e+00,-1.916299504560196487e+00,-4.358343297080979895e+00,-9.471390005409418222e+00,1.088228772008310141e+00,6.349545062135331541e+00,-1.694177911898768540e+00,2.665306140882106600e-01
2.057149181744310162e+00,3.186672594296820371e+00,-2.162672886418987694e+00,-1.836135697820100443e+00,1.422707936572499277e+00,-7.912030194733703503e+00,9.298175590736848406e+00,1.306930470964784208e+00,-2.652867688637440269e-01,-4.265202631390462851e-01
3.363789706225490672e+00,-2.457570940144733207e+00,2.357300307831236452e+00,3.479207135679074803e+00,-1.596980783402426773e+00,5.058181428006841784e+00,-5.504590336776594484e+00,-3.462786871111455334e+00,-4.136166275994484387e+00,-5.197646734723674555e+00
