-1.553404850677828353e-01,1.930634751871504351e+00,-3.310670943731208293e+00,-1.998474006929819469e+00,-2.436156703836982906e+00,1.054478628534000872e+00,-8.294027181971115326e-01,1.040722301758568724e+00,1.858045107946372454e+00,-2.685339385920029631e+00
-2.969472510885526884e+00,-5.090489160638869137e+00,1.771550652504659595e+00,8.957610650071154978e+00,1.150453371552547344e+00,-5.154273641279176754e-01,-3.716309474514412514e+00,-4.645843394571659069e+00,2.592124007484049919e+00,1.725128431388225358e+00
-1.969904597728038054e+00,-1.285821603025137705e+00,4.787616907709145164e-01,2.440652477726489078e+00,-2.848485610393634460e+00,-2.420327338800095929e-01,-1.080534114736288576e+00,-2.616995520213812654e+00,4.247219700901845307e+00,3.287266949274266992e+00
-1.329037277858273747e+00,-1.803550555846215708e+00,-6.809999163632242114e-01,4.394974142890794688e+00,3.471918346229458940e+00,-1.907313608861784360e+00,-1.996395967071203037e+00,-9.594680988026105251e-01,-1.433772380125133417e-01,-1.261838501611009800e-01
1.411509833999713637e+00,-2.659578125799755624e-02,6.563514166691400975e-01,5.344957865416354537e+00,3.436126772810717878e+00,1.353569235001521598e+00,7.289092534482871644e-02,-9.751178336417024584e-01,-6.491370239310869650e+00,1.759225606130468744e+00
2.106244839299969307e+00,1.423959872764321455e+00,6.169203175341867684e+00,3.376810157465218953e+00,1.612711526671011475e+00,3.135597810740036628e+00,-1.491180226866293923e+00,-6.104631664718199957e+00,5.406347176051919112e-02,-3.724221383828702159e+00
-1.559805116151731896e+00,-7.826532697552046614e-01,-3.567577660172959408e+00,1.349738516734021676e+00,1.703618249102971660e+00,-2.971867943150701130e+00,-2.123685429277585968e+00,3.438646323007306105e+00,7.090139804505937171e-01,3.712401183347641354e+00
6.600877473508731663e-01,4.018872688978538221e+00,4.641295396745733770e-01,1.118805711060102626e+00,4.446825780993750143e+00,5.597569286819874534e-01,7.893330526866478847e-01,9.974517584379216650e-01,1.097426670427074508e-01,1.233637248179473511e+00
1.839928230805716547e+00,-7.347179211796757592e+00,-7.054297593839533587e-01,-1.426422116396810047e+00,-7.246603353746321474e+00,-5.487472701052170665e-01,-1.617008482036165873e+00,-2.821410928309280752e+00,-7.240127246631039570e-01,-3.618972251508074667e-01
1.804728085055827269e-01,2.841244379812509546e+00,-2.891620319358513047e+00,-6.591309160730977723e+00,-5.027681439778932670e-01,1.637602098458901478e+00,3.207188692284055787e+00,6.545632622570423997e+00,-1.380204754906277476e+00,-2.666680345750169323e+00
