1.199975468183938965e+00,-3.872435381335652238e+00,-1.277922767642435620e+00,-5.574252826779403369e-01,8.480195621222067492e-01,-2.473436239440214568e-01,2.398126084946101688e+00,1.906922352516988051e+00,2.826503130210705983e+00,1.357300393281293927e+00
8.129524249986050943e-01,3.518987236371344363e+00,4.030371818265551909e+00,-6.838854070984923261e-01,1.386635507523092947e+00,1.661443680156498015e+00,2.377160379924506017e+00,-1.399857925715700224e+00,-2.367048594656141258e+00,-1.828141870988760687e+00
4.684386813570723951e-01,1.393886178863155578e+00,3.338177100486046101e+00,-1.455791018458604480e+00,2.546905967058541886e+00,3.543957898726163513e+00,1.607317380812181895e+00,-1.102508017643933469e+00,-2.954472683627185958e+00,6.639100740514598809e-02
-1.706228360302284752e+00,-2.824815652452049353e+00,-1.653616895227144612e+00,1.346674135067850608e+00,-9.330961822519220350e-01,-2.380381943833250968e+00,1.746363235146779214e-01,-6.020350483559202409e-02,3.909717136481453803e+00,-1.626811389536415131e+00
4.157495666082420271e+00,2.413316100338465109e+00,-5.912056896984019261e+00,2.439120709187283520e-01,1.456374801439737299e+00,3.017391002691459434e+00,4.901234907413370423e-01,3.438864886148624400e+00,5.994548726921741233e-01,4.365106332848422976e-01
3.206150203767852869e+00,-3.081464537809263660e-01,-2.746982702576355351e+00,-1.896082015456650227e+00,1.816010662211738069e-02,2.177447619714317550e+00,2.074185420492519416e+00,3.924953845808450303e+00,1.486930195716483771e+00,-2.220795117289330545e+00
-1.564207070929441723e-01,-6.830604031391021014e-01,-2.396016973288328522e+00,-1.598745203476821697e+00,-5.029790178961928149e-01,1.825631937553824358e+00,-3.154484148359868900e+00,1.547885098491561751e+00,-2.782935897777965462e+00,2.537296447747320549e+00
-1.134398040329921836e-01,-2.730083767393006067e+00,-2.350707903474878790e+00,-9.190756021527712871e-02,-1.404364249434478795e+00,-8.924263931044053022e-01,-3.161397097994277372e-01,8.243374243858287986e-01,3.052695155045131337e+00,-1.101386226273654456e+00
5.057196368968687183e-01,-1.326975159588460906e+00,5.741747308518413417e-01,-2.451097711456497130e+00,1.330452675134849549e+00,3.955110655988597124e+00,-2.178058951169401070e+00,8.666439996403468848e-01,-5.480554523624259211e+00,3.863647048315120180e+00
3.141158345207753388e+00,-1.569834274902921489e+00,-3.603330828281920972e+00,-6.242061543750535790e+00,-3.986793642305465735e+00,3.833777561167227788e+00,-3.757899289975998869e+00,4.612673422519866229e+00,-8.680164110915065123e-01,1.620442143594263695e-01
