-2.043603626256484507e+00,-3.113829688163714415e+00,9.023039929031928530e-01,-1.258828063634458649e+00,-3.217333692658256861e-01,2.321183744934178783e+00,-3.402764950554954204e+00,6.896724327711209468e-02,1.299476218661197169e-01,6.381643747631938979e+00
-7.389260920316813308e-02,-9.656707418434100632e-01,2.774522395960718590e+00,3.405914090338469258e+00,-1.865305783122100936e+00,-9.896894380328365992e-01,1.865251071434463614e-01,-3.467252036236070367e+00,3.914114775711594607e-01,-1.870397646138407532e-01
-7.349827781934434867e-01,1.516003369077762386e+01,-8.493395620589041073e+00,2.961010160198074725e+00,-9.606217989249405065e+00,8.158151195642304732e-01,-3.719796949884097703e-01,-1.539539137377542000e+00,1.821843398887225129e+00,-7.532847860901729753e+00
-1.411664683621806526e+00,4.937365786974075021e+00,-4.150466724673012919e+00,-2.541714442234136229e+00,2.984969856809229216e-01,1.502555217364557771e+00,-1.245692356648639088e+00,2.378045470121813665e+00,-2.202799499466245869e+00,-4.315028380506343630e+00
3.024337038525976684e+00,4.123393628539957945e+00,-2.829835226330350562e+00,2.782752128088022414e-01,-3.828059204864580956e+00,6.389487635185843450e-02,1.554797479126409421e+00,1.669661084506509630e+00,2.286203515711302980e+00,-4.401189940234081277e+00
-1.000666184826852101e+00,6.164104786458531882e-01,4.491523902427739579e+00,1.500215060060169359e+00,1.884041708235447032e+00,3.591869181538530409e+00,7.145753415949223086e-01,-3.615440116352782063e+00,-1.966782487653530476e+00,6.465914152231548861e-01
1.323541531494576873e+00,-3.825284826515942704e+00,-3.229400827304860222e+00,-5.500137434503016287e-01,-2.885789330767372096e+00,-3.665649842308281503e+00,1.892149675462122316e+00,5.338056004593512149e+00,3.396410867933160826e+00,7.198324003509531943e-01
1.491105383731252898e+00,8.018917961621414570e-01,-3.820738594933895893e+00,-3.906423016687794042e-02,-2.318125680343646078e+00,-3.714168170527323731e+00,2.040440004539903818e+00,-1.058472724159750022e+00,2.219323016377849012e+00,-3.855274627498395112e+00
-3.001699345711560163e+00,1.134002729604850712e+00,-4.401527037125291919e+00,3.842743147268428139e+00,-5.094446376345498351e+00,-1.437836450206402938e+00,-3.172538912689125024e+00,-2.158866925384955948e+00,-3.664033597785861796e-01,5.416303182525655124e+00
1.403453863598228102e+00,5.764179081777504265e+00,-1.138109442089036971e-01,8.414825431106250919e-01,-1.744491689055930994e+00,7.223501644941842104e-01,-1.130969966425809492e+00,1.266688774241882198e+00,3.583994484355295662e-01,-3.444639474238371690e+00
