-1.196049575539962717e+00,-9.611165192932448198e-01,6.027675410465885841e-01,1.360472039186587212e+00,-9.383132575461319846e-02,-4.062860235182904844e+00,1.259222180250871848e+00,4.671639954801785954e+00,3.132406994428098002e-01,-2.135792130997215543e-01
5.474895119723678372e-01,-1.574898770385882329e+00,-2.223911314229355174e+00,-1.496330772232352946e-01,2.129729372091972162e-01,-4.853414849447363011e+00,5.122119955685957571e+00,2.768037495320200936e+00,6.960484266117784591e-01,-3.185502169061748656e+00
4.979393998079947314e-01,5.007697975500397192e+00,-4.407453598460703503e+00,-3.332800363100275387e+00,-6.056423520661129434e-01,6.098448358834454908e+00,1.237356536849590904e+00,-4.799889097410074967e+00,-1.533968018879977357e+00,1.671550542341387890e+00
2.815423551411753711e-01,-1.141435209630420999e+00,2.071605921058142119e+00,-2.194589092281653553e+00,-7.949510455426556099e-01,2.360006552209626296e+00,2.256925463716314084e+00,-4.910529257959463934e+00,-1.651423092004722593e+00,-4.921217735705694984e+00
1.088565165200453988e+00,-1.217513154202517711e+00,1.827492335055669326e+00,4.207996509820465469e+00,-3.469084341889188683e-01,-3.003336498910151864e+00,-8.152515794928850701e-01,2.633916968321902363e+00,-1.284711875739227516e+00,-8.173442378055926216e-01
2.067307847521986375e+00,4.353180274483914758e+00,2.239242714919398303e+00,-1.523657118173428415e+00,-1.310374129289207490e+00,3.929794555668951750e-01,5.127833781692228143e+00,3.459390474022402961e-01,-1.329625980531788043e+00,1.265906662866432830e-01
5.688265477962981542e-01,-4.712154899093733418e-01,9.810450368897570828e-01,2.408242230566393527e+00,-1.005447067543224993e+00,9.404614793878596224e-01,-6.211934279449449203e-01,-3.256246950078523827e+00,-2.106125255062127444e+00,-1.840040121046402577e+00
-2.237556208593239671e+00,-2.176270378393052596e+00,-9.193976823049959668e-02,-4.468289266726923059e-01,-4.808388929119846167e-01,-6.410252256797320802e-01,-2.842280665191799116e+00,2.934532798949381682e+00,1.802613524350661800e+00,2.497535467128907172e+00
-3.879675887858983430e+00,-8.425691001041867523e+00,3.165187239254693363e+00,1.875362118871366057e+00,1.699302131875393418e-01,-4.938816228169669031e+00,-1.959496100395672569e+00,3.091135306470448985e+00,5.921976455700066477e-01,-7.316137722131286658e+00
-2.205706432733932409e+00,-3.836644283277286682e+00,-8.952602458345199077e-01,-2.958158300147681885e-01,1.100820663156353296e+00,-8.774053814841501486e-01,-3.843616615362145161e+00,-3.264003496085280398e-01,4.152754844772299059e+00,4.165530331447112045e-01
