-1.730572165013823105e-01,3.032684660764972229e+00,-3.755081387870574439e+00,1.269173113229816074e+00,-1.141643653060129493e+00,3.523349456981288430e-01,-8.128975560249435128e-01,-4.968905413662887405e+00,-1.222094962347386371e+01,-2.611368009585238958e+00
-1.842289402604294635e-01,-1.476136949735540549e+00,6.810645139610765897e-01,-4.237321073826789131e-01,1.285798849799794752e+00,1.558813262379598719e+00,1.712698949593090436e+00,2.441324919624486167e+00,2.933801156193031723e+00,2.419440294940263136e+00
3.552564543214728587e+00,3.452546292545513040e+00,1.352163549744315407e+00,3.624336961630326703e-01,2.364410985406271426e-01,-1.713248373080859421e+00,-1.456536643616153537e+00,-2.446651218247786197e+00,-2.829081534207447568e+00,-4.908666416585043990e+00
3.079656003896481753e+00,-3.148158127772396231e+00,1.626777984011719802e+00,-5.798773169018471840e+00,-1.495075742126532381e+00,1.655741457039857867e+00,5.240560095281110442e+00,-3.132891050511425579e+00,-5.589352971287972593e+00,3.243692424138653774e+00
1.219259121992120942e+00,7.330409548903188410e-01,1.351422575929781100e+00,5.230304722329376377e-01,-9.273146221774477560e-01,-1.467403975488497769e+00,-1.873826998168711955e-01,1.231251077337492061e+00,2.316612978062762895e+00,-1.649509981628100475e+00
-4.665941084158747310e-01,-1.345655233889296643e+00,7.383011531019613161e-01,-1.824916738121753479e+00,-1.677625701963432636e+00,-1.650484859510551239e+00,9.642516558607523436e-01,5.241005363059078270e+00,6.795453105239049663e+00,2.177514510648242752e+00
1.097206173014572350e+00,5.246307821654214720e+00,4.880262744089865379e+00,-7.672732255615917207e-01,3.049853059332123362e+00,-7.060970594511557508e-01,3.087389029138092766e+00,-3.052892773520595071e+00,-3.621328099115062038e+00,-5.142539985471942465e+00
-3.366257891092381271e+00,-3.171380097747203974e-01,-7.884358716180306370e-01,-5.370959172126911207e-01,-1.710028417449533933e-01,-7.322056014221611786e-01,-2.207684867301606513e+00,4.426244341916198977e+00,7.535839892514018423e+00,2.596044373211899625e+00
2.810302140874936239e+00,1.512528933164496436e-01,2.748431293286700772e+00,2.300231865904072581e+00,1.505844281812557917e+00,-3.607655730389154769e+00,1.879072686717829788e+00,5.950407615997454158e+00,5.644637926420126739e+00,-1.264517591006763864e+00
-2.470700978475628862e+00,1.146080828679466812e+00,-7.081159547564971568e+00,-4.016137904954042881e+00,-7.365542033377291409e-01,1.199981356332685101e+00,-3.038185841960206801e+00,2.021671971065222451e+00,-3.595390681339500905e+00,4.246483053728612234e+00
