2.138731892580131522e+00,1.372794560610531622e+00,-2.753384207108533932e+00,-2.174021588207764921e+00,-3.407309780659386167e+00,1.166598367808795444e+00,-6.117251466994209075e+00,1.709405993417620007e+00,-3.310536725218876875e+00,1.732393555023397091e+00
-4.016011459990766141e+00,-5.635063337078337398e+00,-2.462415002332054570e-01,-9.844919138777649126e-01,2.752784377559362117e+00,1.218277405409764702e+00,8.898628170119227132e-01,4.657967078257876370e-01,-3.574111932847491069e+00,2.496678361184732076e+00
-1.796279210819005101e-01,-1.085244873054216352e+00,-2.538990543849049430e+00,-2.503059394490288803e+00,-3.421903689156193806e+00,3.497403482723253632e-01,-3.965336688612432603e+00,-1.598577606608271529e+00,-4.687698264706359197e+00,-2.397407119536390852e+00
-2.820785952035392619e+00,-9.493878794663657139e-01,1.294373713325049080e-01,6.403757003697316819e-01,1.692571591511049522e+00,-3.218981449571649556e+00,2.077167291186501785e+00,-3.615717854721127722e+00,3.963999477224256829e+00,-2.230292129626641362e+00
4.306012805258671028e-01,-4.155442609163855217e-01,1.718463250067455261e+00,-1.353122260498886842e+00,-2.112918518461508466e+00,2.443640907152517527e-01,7.104631884047637458e-01,2.217510383652201433e+00,-3.292424973503848218e+00,-1.368492611373158141e+00
1.615853346478605346e+00,3.222796037532146829e-01,-2.851823821020890382e+00,1.363478262132435725e+00,-1.189284283356938643e-01,9.183833240886554172e-01,-9.068389197333865948e-01,-1.257070971307081120e+00,1.066576683337157272e+00,1.346883388714284813e+00
2.796838800579083628e+00,4.301642585630597537e+00,4.847848556514968266e+00,3.261601134835429683e+00,1.240885122638543114e+00,-4.821040143769969255e+00,5.038367456408271217e+00,-2.160262703905982740e+00,4.428308305125864486e+00,-3.934655228567313756e+00
-3.494572196753003457e+00,-5.728341133295483445e+00,-6.171830088045901164e+00,-8.150777429339322033e-01,1.090653099535880965e-01,5.822246323703632598e+00,-1.254861442613318445e+00,1.050589976289862282e+00,-4.217517813834661844e+00,6.997065791776728716e+00
1.447838734568396291e-02,-1.096594580437713518e+00,3.530831582834855098e+00,-1.221432320468851973e+00,2.116269075857879489e+00,2.059960367177495755e+00,2.726392848298178517e+00,2.197538175169254426e+00,-4.246628775780936671e+00,1.048830089816997546e+00
3.828224811462994204e+00,3.400716899248327429e+00,-3.658679585057945438e+00,1.589410183642938179e+00,-1.708932646996002003e+00,9.875109267912782762e-01,-2.181259119549782355e+00,1.015568889136223341e+00,5.087127375523296635e+00,2.652602563936190094e+00
