-1.527643213431521652e+00,6.257432416013677390e-01,-3.209328033376210421e+00,-7.239430824303905165e-01,-3.661478756595457629e-01,1.727941889012589272e+00,-9.203265297562266412e-01,-3.512610791821511036e+00,4.822352379173375780e-01,1.235709778896576294e+00
8.010663018240339994e+00,-2.497408656259769710e-02,3.294091323684468886e+00,1.949216379454161929e+00,2.615335080830401449e+00,-2.258618441681919720e+00,1.743543612774365537e+00,7.820968297571107897e+00,-2.552287055500635837e+00,-2.537006056437151713e+00
4.425248115626066792e+00,5.411031081175232682e-01,3.272957694697181896e+00,-2.172705741442494620e+00,4.378742140347999245e-01,-2.626060159214016032e+00,-7.350036915884987643e-01,-8.993463390190943318e-01,-2.971072997833872353e+00,-2.000902814102742955e+00
-1.437454654687330358e+00,4.093933608180504446e-01,-4.563952171093221821e+00,5.452170825763719364e+00,1.693844554649792666e+00,6.904002422299006625e+00,5.668413739413735719e+00,-1.832239202907364195e-01,2.497267235508416228e+00,3.441302935063377255e+00
7.214831683180895627e-01,3.633792316784331788e+00,-2.056956698781967630e-01,1.954669708201590916e+00,-2.991921256957813524e-01,1.698131144361948675e+00,2.145086237944017427e+00,-4.024072788564538428e+00,-4.716182664926893420e-01,2.030432572166532612e+00
-6.872953458132691207e-01,9.401605051234196431e-01,-1.967004334072158800e+00,2.533017340886182467e+00,-1.792213626838972118e-01,6.004320207367644713e+00,5.087677744024491133e+00,-1.644613964757352331e+00,5.886218496164361547e-01,3.382544906599446732e-02
8.797338242619151538e-02,2.254252400279350699e+00,3.482292950168706547e+00,-1.678870891688289735e+00,1.150435694070156334e+00,-3.997922825775368949e+00,1.773843583198762008e+00,4.806666289886940002e-01,-2.180803246502277748e+00,-2.673189834789211350e+00
4.394875214787585804e-01,1.509872102964289198e+00,-8.005499200368670909e-01,2.865760797447374220e+00,-3.846775630728246909e-02,1.710807546067879770e+00,2.827733121419040430e+00,-1.531633734450356110e+00,-1.337497253337366798e+00,-7.757525984779647388e-01
-1.706562041294980681e+00,-6.772445110782354671e-01,5.212433518325075843e-01,1.950117291374768858e+00,-7.009220963588458364e-01,-1.623716280938871215e+00,-1.000580636172627713e-01,-3.630401333172781353e-01,-1.045605859710944774e+00,3.073043450813980892e-01
2.231924291299009155e+00,3.261408077859196730e+00,-2.081586141123668465e+00,-2.450029625345466200e-01,1.014963415317317319e-02,3.479087783812013779e+00,-3.762008097950571561e-01,-5.764284635985804650e-01,2.655161306712237046e+00,4.642172523832044817e+00
