-3.336764364126243443e+00,3.670715601877581058e+00,2.049860138577722424e+00,2.155528443863460542e+00,-1.932197068888924285e+00,3.492645567486518665e-01,-4.859752536154512192e+00,2.989745678998388723e+00,9.206137255926829521e-01,3.034579024479702625e+00
2.338435238217021622e-02,-3.728550518652268053e+00,-1.744493192032642526e+00,-6.497993305017184529e-01,1.689165923574152961e-01,-3.598658388800965113e+00,4.805021844271394116e+00,-4.950159345086827756e+00,-6.679006116199650567e-01,9.446044366147459126e-01
-1.086313547528785950e+00,8.731233286132454197e+00,1.492857811037137106e-01,5.659567234017811588e-01,2.620551602998493768e-01,-2.940549516179741030e+00,-3.605037909370503169e+00,4.103730300254918362e+00,2.957418605696714220e+00,1.455325300720756942e+00
2.903056180684264742e+00,6.352732378534531321e-02,1.668976993020029109e+00,1.842641987215567489e+00,-1.159317367518772235e+00,-1.706146942404106692e+00,1.005894430060911837e+00,-4.583027519633491309e-01,-5.299620164996108329e+00,5.432653463910774860e-02
7.382122988977678490e-01,1.011871898218122290e+01,7.293234764417408478e+00,3.466053805876896377e+00,-1.707824298881396974e+00,-1.504821707443694256e+00,-6.653145143639156878e+00,-1.059873178556731244e+00,4.860845610855912824e+00,-3.521330940073636562e+00
3.449946073613678332e-01,1.115500128009367842e+01,2.285959937135477738e+00,3.807677175913713352e+00,-2.413526706416229572e+00,-2.161426525439787305e+00,-7.922016739427172105e+00,3.979340377397496464e+00,1.431398484102356816e+00,1.271620655003235401e+00
-9.722130240264110768e-01,-4.120114162394981960e+00,-2.752565243407411266e+00,5.649235619093426752e-01,-1.314766488861796256e+00,1.092644530820983340e+00,-8.304738470663627359e-01,5.120705917963469522e-01,-3.361001281931224050e+00,7.304357455332904925e-01
-3.004812324957226721e+00,-7.033550670271630167e+00,4.091036761358587626e+00,-2.956914319681546832e+00,1.924849516930801308e+00,1.547887495424097093e+00,7.524376621826308842e+00,-6.280824990326091317e+00,1.113417679319575582e+00,-3.675558800770512224e+00
-1.542365920088251685e-01,-7.504080373399041548e+00,-5.989224457567110527e+00,-1.534727818562080515e+00,-1.058484723492822965e+00,6.556603599846380526e+00,2.504035183095538741e+00,2.415906483159722118e-01,-4.128966379210620374e+00,2.604317857032444117e+00
-1.846784666784113016e+00,2.827072599376949213e+00,3.314663693803207689e+00,1.848723901897158184e+00,-1.398273773007190357e+00,4.211490445234286284e+00,-5.367378265840593521e+00,-3.538907904073700927e-01,3.061636102807714366e+00,-4.223619391402212209e+00
