-2.972893362249031668e-01,-6.285431739782613159e-01,2.195926634314064319e-01,1.094452431409650206e+00,-2.927705919399042234e+00,6.258209141482065085e-01,-9.608952453675790872e-01,-2.302010128006315992e-01,-9.403480888103978863e-01,1.248357754308664580e+00
-5.124874217308157398e+00,-9.006738233312537867e-01,1.190008285123740794e+00,6.316266915482467992e-01,-2.440912043223103511e-01,-1.187772112764125643e+00,9.725357586010798805e-01,2.161801104584007316e+00,6.514499884730025059e-01,-5.221663345673416279e-01
-6.071035057103444821e+00,5.648141406956817434e+00,-2.282394664840643905e+00,3.222509417749560789e+00,-5.016534157372040781e+00,-1.531739614887157375e+00,-1.570157772932079254e+00,1.145945737019266941e+00,2.214561299144417461e+00,5.755368616736257437e+00
-1.532027728153010138e+00,1.550998792571032459e+00,-1.073782275324875579e+00,-9.709915463295292204e-01,-6.894414199942009436e-01,-5.343095582736165916e-01,-8.340204062455051082e-01,-2.402222855264067203e+00,2.502904365759590632e+00,1.323570154543043165e+00
-3.223345701203424785e+00,-1.170587306557731022e+00,-5.227241181012698412e-01,-1.180393010984113422e+00,8.084459206387628605e-02,2.247538663274597059e+00,-1.910458571025945407e+00,-5.101361857757398255e+00,-1.885190373180051671e+00,-4.997072786182470416e+00
1.228275191853042125e+00,-1.025429476863363387e+00,-1.432737267672882231e+00,4.621519674432176039e+00,-1.633724104927251952e+00,-4.907096693733131176e-01,-7.975373306703977816e-01,2.233354766232251709e+00,-2.518360478486593390e+00,1.011369056905907504e+00
-1.266857402799929311e+00,-1.206850862567097282e+00,5.466166831711777307e-01,-3.774037632254944263e+00,3.576993793466416882e+00,3.715620236170257273e-01,8.223826332125858674e-01,-3.291527604914444849e-01,3.875165102149823237e+00,-3.109854185555027239e+00
3.079026144480083715e+00,2.741978589952907441e+00,4.500854791376903030e+00,-3.743513791338016983e+00,-6.897441636061727444e+00,1.316038820835922163e+00,1.504178688959118215e+00,9.491731869143920086e-01,-1.368196482865426500e+00,8.554580128068303146e-01
4.970912708994246754e-01,3.173682725555777018e-01,4.403811066749608649e+00,-8.880077092969019148e+00,-1.773308359144891266e+00,2.852441121070597330e+00,1.601649360102212594e+00,-2.056777887387730708e+00,1.746952146164399089e+00,-3.535397470559942246e+00
-9.508460656856652093e-01,1.231980315046788732e+00,-7.184044905364077582e-01,5.581646346436647477e+00,1.109686330579211067e+00,-1.892847461173250645e+00,-6.862910406548218267e-01,8.580821750810899706e-01,-1.727390964859918165e+00,7.769827714653700035e+00
