6.200885469335057909e-01,-4.237586352345880769e+00,1.474968623383363653e+00,-1.389993458434994000e+00,-8.135468427076851583e+00,3.792109450738328391e+00,3.049133671444279603e+00,9.595504143223665405e-01,-1.635245578416525181e+00,1.809350786203614891e+00
1.843643289219911940e+00,1.180646210983693045e+01,2.629280680834540362e+00,4.868899181549472543e-01,-1.055892459773438041e+00,3.989412825751704972e+00,-4.956758292508776087e+00,2.826031867484738447e-01,-2.098187803426317277e+00,-5.582666191544322309e+00
-5.185416911814123564e-01,-1.149305302826016950e+00,-1.695329443175824347e+00,-2.864902170430176476e+00,-2.633943343820921879e+00,-2.307967273213095361e+00,-1.780474514295998123e+00,2.432466143551815563e+00,-1.447341667462939796e+00,-1.529496000409201972e+00
1.463910492562134902e+00,2.884284707281894899e+00,-1.254526747930095443e+00,-1.323524277323148812e+00,4.677752095612500050e+00,-1.573470631414058296e+00,-4.717247179316155226e+00,8.185850672839987130e-01,-4.154341176056082219e-01,-4.242210404108688770e+00
3.910420937550667109e+00,-7.717323627108557460e+00,2.772667000068325116e-01,1.117765511684954083e+00,-2.335297046413829847e+00,8.523803373501337433e+00,5.418059643552549431e+00,-2.622518879487497401e+00,-3.393122038379694505e-01,4.699319720643320153e+00
-2.183715651119494172e+00,-1.718916707091045160e+00,-2.085476318262606821e+00,2.531070512429907104e+00,-4.353914043378318333e+00,-5.608167045561103237e-01,-4.299287961596258700e-01,1.289023194495434899e+00,-1.760280820837487603e+00,-1.332030651024480594e+00
4.274679395805906168e+00,2.626297543879495544e-01,-2.175344729145607392e+00,-1.031282138451681485e+00,-8.399922081619193293e-01,1.110957912639214840e+00,3.514428148734121127e+00,-2.017844357620701690e+00,-1.047638467033229714e+00,-6.206768968330529379e-01
7.388816899446104536e-01,-7.455128430205429924e-01,6.997383583472648327e-01,-1.226520018453230110e+00,-2.804695772491673456e+00,3.630405535211507217e-01,3.762127568620621698e+00,-2.041270196620200927e+00,3.259203709491877987e-01,3.612163095362635801e+00
-2.192106899788895724e+00,7.469161556493336462e+00,8.352966575559769291e-01,8.649113084786841377e-01,4.330541578077760079e+00,-2.657949398293266263e+00,-2.718578619364310889e+00,2.475917671060462677e+00,1.108071090670486036e+00,-3.364997392518250141e+00
2.293814173578589966e+00,4.686025121345611111e-01,1.443942035980668059e+00,-1.529140611005185946e+00,-3.614164444897941530e-01,3.247309394951253037e+00,1.505206891153908488e+00,3.416011650865730109e-01,6.935120869980379021e-01,1.453632447739458655e+00
