1.241130787501072280e-01,-4.041369120052967223e-01,-4.841057959010081069e-01,-1.906751798975474088e+00,-2.036320704062266174e+00,-1.810945459459555984e+00,-4.168002519490984215e-01,-2.061687593654601969e+00,-4.206224065769548388e-03,-3.291581766758543415e-01
-1.737384893391937135e+00,-5.426804204570431445e+00,-2.176266846098517949e+00,-3.025447899355698245e-01,5.243619270045303260e-01,-1.100856664007008545e+00,2.755764036407104545e+00,-5.990687707081246316e+00,3.057610824569016117e+00,1.629486011586795069e+00
2.850365341528393603e+00,-1.788117496868417478e+00,4.737768044812840529e+00,-4.885087082834669303e+00,5.573120048350174160e-01,2.965664502478484010e+00,-1.766305886668415814e+00,-4.121324329147137977e-01,-2.944592499757754389e+00,-4.266940407691352632e+00
7.168233217130736135e-01,-2.453483240750547356e+00,3.191259061109348316e+00,8.529567299341440645e-01,1.381789967517006446e+00,-5.838437493125333555e-01,-2.480490814268605515e+00,7.184738327295171700e+00,7.744765531432088457e-01,-2.288218770143244929e-01
-2.634338869583768838e-01,-1.155953263546141585e+00,-5.708977868577944648e-01,1.631645919885531093e+00,8.567119557072646607e-01,1.593224843051754602e+00,3.155862489659703174e-01,-8.655733931010810567e-01,-5.907711076864047284e-01,1.970020123295114445e+00
3.375902749415635173e-01,4.402883007035943486e+00,-2.438490823552341702e+00,-1.733677679067354926e+00,-1.182019312909345254e+00,-1.792705958433471025e+00,1.125619047877971735e+00,-7.185746951753877454e+00,2.511812352965876904e+00,1.741544345412150419e+00
3.302038884862526835e+00,6.432848688122673408e+00,7.221511167632918005e-01,3.447347464412377493e-01,3.128264343412888504e+00,1.322925908835902442e+00,-2.428721704113276481e+00,-2.786337505647498158e-01,2.324975170277182368e+00,2.328267578285841299e+00
-2.173546782449285175e-01,6.574751325724891515e+00,-3.884124233693844741e-01,-3.089332019161070142e-01,-1.768256223734974597e+00,-1.777757821663393134e+00,9.140589774004933554e-01,1.709813981167957131e+00,-4.889876220225102266e-01,3.494752595436784737e-01
1.492821895278774805e-02,8.314640438301861280e+00,-5.632820951748517047e+00,1.365663613691248113e+00,-8.464549257992747266e-01,-3.567704524942125310e+00,1.296925566579411271e+00,4.829637447433761110e+00,-1.141281177405588876e+00,6.580173442230675684e-01
-1.791998756953169902e+00,2.945238576325993840e+00,-2.303387587677083737e+00,-3.262814255733853530e-01,-4.156346699483170148e+00,-5.121450586290171358e+00,3.165227543456379244e+00,-3.059340743250400063e+00,2.927870138284557999e+00,2.675553650773049519e+00
