2.858710052120228884e+00,-1.318901882164723149e+00,2.043837809965909913e-01,-2.009404474769729276e+00,1.956213070870266302e+00,-1.979429792730980742e+00,-7.420225984510698813e-01,6.250391066875072843e-01,-5.241856142726458723e-01,-1.928653961234857439e+00
3.443652636286595570e+00,-2.678893439777564556e+00,-3.961987238862560101e+00,1.798959008994149622e+00,1.232353824178281099e-01,-1.775383558392652494e+00,3.170352562021166332e+00,-1.840387209551415326e+00,4.842585448960029737e+00,-1.878609524256320773e+00
-2.137916977446853828e+00,-9.952369874705280228e-01,1.584784519495818556e+00,2.037380974596534777e+00,-5.290798396253760139e+00,3.925473605528612797e+00,6.087610523957469155e+00,1.431955995823980698e+00,4.322603496162587433e+00,1.404840874333871392e+00
8.429629768498495324e+00,2.977693800751580966e+00,1.785853263832754001e+00,-2.342809463664718539e+00,2.143847892999442895e+00,-3.643640327892552766e-02,-2.397000927840701401e+00,-6.205820026099376774e-01,-3.176329900281942287e+00,-8.757135828886088991e-01
-1.596826332450201891e+00,3.780400546705958154e-01,-3.425531067390655160e+00,-4.173586971888060937e+00,2.648572554836755355e+00,-3.697946593756647804e+00,-2.523781214690394847e+00,6.136483166501679465e-01,-1.939830725170986314e+00,2.000549208966803327e+00
2.210377200393252917e+00,3.689323136654588886e+00,2.529251229662285994e+00,-1.772601650054419054e+00,4.346889930096260457e+00,2.242881569978339318e+00,-5.410251470168850219e+00,-8.701956344473700256e-01,-2.524761581056779391e+00,8.854935262875247570e-01
-7.217580989470986363e-01,-1.438094588960560749e+00,-1.643296917913642297e+00,3.396692988513533074e+00,-1.313951944659250914e+00,-3.540389186002733446e+00,-1.084527243329016954e+00,-1.843552484896296084e+00,-1.791793741270468476e-01,-1.396254385207599480e+00
-2.346155687478863328e-01,8.074672310333491643e-01,-8.856699201023984225e-01,8.849355486063968657e-02,-2.938800499232284924e+00,6.003663944571282940e+00,7.674419867842470211e-01,3.086056660413222019e+00,-1.843850219215272257e-01,4.200173436732921317e+00
3.416189363392647671e+00,4.844389080258835745e-01,3.261621465068879289e+00,-2.290090594265807855e+00,4.846299042768654197e-01,-2.756826085606122412e+00,1.566539927121804787e+00,-6.375185149596792611e-01,1.133509109333002529e+00,-1.947843224718738275e+00
3.386654684610706845e+00,-2.233800454601516439e+00,-2.365680557357702440e+00,3.237801094929139367e+00,-8.357069461741762906e-01,-1.708653053698163449e+00,4.360509716347261921e+00,2.847996269042230022e-01,4.664933152179547626e+00,-3.203616110111366933e+00
