1.123363489203613286e+00,6.294709618996535028e+00,-1.182464423083581906e+00,-1.813191764925759841e+00,-6.565543969553198522e+00,-2.127007136555029820e+00,1.970112081624962208e+00,1.089591268042342076e+00,-2.829286958406818098e+00,-1.431855194023091693e+00
5.332333837970493207e+00,-2.487062039927837365e+00,-9.349112742867540238e-01,-1.115463386538669832e+00,-1.862410300278082520e+00,1.906837043941089771e+00,-1.017082996971106379e+00,2.952397711128508462e+00,5.507962988236636548e-01,-1.360985019354478798e+00
-2.563659982329039355e+00,3.824189507958095646e+00,-4.405535441935994334e-01,-2.319643993910503355e+00,-4.135652121357102473e+00,-8.623859849306995118e-01,-1.480848774266877887e+00,-3.303948799801786684e+00,-5.600360750671910637e+00,-2.952043888026404161e+00
-8.155744535078641722e-01,-8.248517557821911650e-01,2.085764075736567413e+00,1.266318774916994627e+00,-5.703389644166541039e+00,8.671812255488776655e-01,-3.264769911487716669e+00,-1.927838118427792846e+00,-2.395847830372396903e+00,-9.476625651904636571e-01
-6.999256553400294401e+00,-1.182416987597879832e+00,-3.947905254117205942e+00,-2.134509167028238785e+00,3.145694715874421732e+00,1.626103053110602881e+00,3.442004765986801829e+00,3.567648447580615834e+00,-1.696891936571592874e+00,-5.046530359432597201e+00
-3.432484073348990083e+00,2.365619107456919501e+00,-2.640730331890877913e+00,-2.431085101688696071e+00,-6.665038758794471496e-01,-1.154502550940226469e+00,4.025326924073282520e+00,-3.165323265622846272e+00,-1.191011500999086037e+00,-2.661186640204620257e+00
2.104705054519012020e+00,-1.172656711471627133e+01,-4.515056850094483210e+00,1.223135418395347784e+00,3.501972943487008383e+00,6.181629475668465545e+00,4.809570719948038642e-01,-1.126894946011286258e+00,-4.943666089279556530e+00,-4.569278214249979264e+00
-2.069954803248976738e+00,2.937245921464064047e+00,-2.068830409404735615e+00,-4.334257077508349099e+00,1.931689411284476243e-01,-4.840213313487325975e-01,-1.777751337430160561e+00,3.907229924160837697e-02,-3.682569352396898310e+00,-3.009768463626500079e+00
-1.123220049290411415e+00,4.714950293687803828e+00,5.535866055874877345e-01,-1.303912376003845131e+00,-3.402182908355990687e+00,-1.876018421076982134e+00,1.410503994666969074e+00,-2.552192025181104551e+00,-1.289121624547358458e+00,-1.159815352241308828e+00
1.294551785174985259e+00,5.340818114657223115e-01,1.341888123791053156e+00,-7.283911479175863013e-01,3.794946879081152247e+00,-1.537736672084306644e+00,-2.852086014554269244e+00,7.676289077467838284e-01,3.119905209928393930e+00,2.528510086781476929e+00
