2.668612116859129024e+00,-2.663987707810907324e+00,-2.497183860017884172e+00,-1.107068203695875219e+00,1.068516034680625948e+00,5.690134590597037967e-01,-1.823061469553686642e+00,6.950339594715204683e-01,-7.630513258018907230e-01,2.615909397359938549e+00
4.701418793025010423e+00,-8.631669327477844433e-01,6.059609634301349468e-01,2.075201086779659310e+00,-3.330120694936681058e+00,-2.149281348480937215e+00,-3.599150542456301505e+00,2.035373580228569512e+00,5.229442225959417101e+00,2.022637699674952050e-01
3.098647182136289313e+00,2.698447897731198752e-01,-5.691846844952037215e-02,-8.126642573119997603e-01,6.022984196718601524e-01,3.025826716446220477e-01,1.312509773390529322e+00,-3.615364715067034829e-01,1.928415679125797810e+00,1.840486736769686660e+00
-1.795945976496177376e+00,7.108874625929523239e-01,3.048161631349085354e+00,3.435876247126426364e+00,-1.691132560947640417e+00,-1.598055491427426977e-01,1.308463898550196403e+00,-6.366837493807425696e-01,1.303005293352657468e+00,-2.093591395144523304e+00
6.859707263521648279e+00,-3.468692322269603334e+00,3.309717668454358996e+00,1.337851840547793048e+00,-1.158089909591178746e+00,1.590632410933124630e-01,2.975524118713869459e+00,1.024083768661701699e+00,1.650815571586718766e+00,1.082232533200933489e+00
-7.944970987935090712e+00,1.600471899205140991e+00,-1.157717374716510199e-02,-3.585515408153800543e+00,8.588172129524672682e-01,8.516760542251325949e-01,5.899085052820055575e-01,5.268587084804843279e-01,-4.277511334184202596e+00,-4.447923609961248914e+00
5.188266405527600433e+00,2.175010424968581102e+00,1.835348300767191798e+00,2.320842648391548302e+00,-4.043115735651512388e+00,-2.548168537279146939e+00,-2.074398052175127738e+00,-6.368091528637486176e-01,5.933971281339204928e+00,2.245683360848355736e+00
9.741307246730911418e-01,-1.492561208545488016e+00,-1.040428630555018996e+00,-1.489402569932057219e+00,7.466403428828900513e-01,-1.336708770514515310e+00,-1.902516525568820338e+00,4.190217381238245054e+00,3.886579738116733296e+00,-5.968562769959575576e+00
-4.074438637999746149e+00,-2.014185456224999893e+00,-6.526566598252228069e-01,-1.703308092056751377e+00,2.147401484383701931e+00,2.786047797025099637e+00,2.114987564917007568e+00,-7.905981823874149717e-01,-6.809507423954548777e+00,1.341336547594437212e+00
3.255149253186526259e+00,-5.208492630515022093e+00,2.636627802592363956e+00,-3.036319761857436128e-01,6.744728901560111956e-01,2.429765542074544094e+00,5.573316042054817565e+00,-5.888679005701871194e-01,-6.773338275885752324e+00,5.360887356309839369e+00
