1.264705764448853520e-01,8.988643637473497927e-01,6.828133955548978395e-01,1.692797491981606339e-01,1.623379878608242954e+00,-5.738416186024738685e+00,-3.971584473527314696e+00,2.679655833572947454e+00,5.885985440588389572e+00,-3.044919979966231871e-02
1.371980084930383814e+00,1.847761069767048792e+00,1.260812144899401854e+00,-8.886332690708722559e-01,9.729475337455253392e-01,5.001701346309401774e-01,-4.510916099525758005e-01,-3.930049277682484465e+00,-2.050722961501336261e+00,-9.253791692387660639e-01
3.413516235330826820e+00,-1.932795353912746261e-01,-3.255894453730312055e+00,-2.276014531280411646e+00,3.115116120161161017e-01,-3.593532127819327293e+00,-2.261406021480715900e+00,1.238600673555165343e+00,4.492732082019283979e+00,4.342308283331774987e+00
1.541971245428996218e+00,3.731079841729293411e-01,-1.582707923186819077e+00,-1.342214357974786942e+00,-3.911576960485274590e-03,-2.164940529417598292e+00,-9.347693599493700489e-01,2.131006000158884639e+00,3.586013918382294108e+00,2.784308038835484389e+00
4.815765153975835489e+00,-1.583299225290237811e-01,-5.797821970292425853e+00,-3.223382260675999866e+00,-1.010770313660961595e+00,2.656520026411999247e-01,-8.528278834130639252e-01,-4.934693495744166825e+00,3.025602199610310628e+00,4.154193753857852833e+00
1.937310417547730257e+00,1.092776658478630925e+00,-2.148505886752283711e+00,-4.862770661908120129e-01,2.021434041091795031e+00,-6.780982225622786963e+00,3.108452907787070618e+00,1.692009586013407008e+00,-1.531849489060401082e+00,-8.264138699723536652e-01
2.041690903080218000e-01,-1.385587625825877689e+00,-1.469684143593548153e+00,-9.890905873427524586e-01,1.248288249126888183e-01,3.905688361292455113e+00,-8.918525790944986653e-01,1.414671720221560181e+00,-2.499333258788119405e+00,-1.032570430192866207e+00
-2.038094185619793830e+00,-8.204525857311344428e-01,-1.475937484296343749e+00,7.417986778922700530e-01,-2.248956981150748824e+00,-2.299986544735712179e+00,2.691190460024843745e+00,-4.610999182051685352e+00,-4.129543546429974121e+00,2.194935190474959441e+00
-4.424599659762484261e-01,1.110923453111715808e+00,6.516543292888457017e+00,4.154621140241023802e-01,1.356474932883235285e+00,7.824788905674227024e+00,-5.215736198758770037e+00,6.945109374924312018e-01,1.048666616890343350e+00,-4.145862272506532165e+00
7.854382175511115394e-01,7.479520658329391614e-02,1.841443624630382914e+00,-1.049320209376648494e+00,1.118725409834771423e+00,4.576212316848036643e+00,-3.184775786662658703e+00,4.158842421120278132e+00,4.512999820387886829e-01,-2.049224278228667817e+00
