7.208099065805231298e-01,2.531418957020294958e+00,-5.610004667827993563e-01,6.081356308241732123e-01,-1.509801504702342534e+00,2.990639103895102124e+00,1.891017018575741560e+00,-1.285047270335953673e+00,1.887887182655260787e+00,3.394292948115848141e+00
-1.535944296895921157e+00,-3.987520804149881748e+00,-9.427334056496416981e-01,-1.862814621691806005e+00,1.213580007836478902e+00,-6.106494251494258840e+00,3.373634949449960452e+00,-2.033581828184593654e+00,5.713447014979109007e+00,-2.072129829100844312e+00
-9.283962766194675531e-01,3.085093689096109593e+00,2.526000336766700549e+00,-1.913861425499269409e+00,4.526071565081812409e+00,-6.669815371695850814e+00,-2.073894811960613094e+00,-1.456564007164433683e+00,2.160408191491003826e+00,-2.143488376184840227e+00
-2.864497105488710282e+00,2.665133875013828479e+00,-1.627061466672309553e+00,-9.135001176221723140e-01,1.388961038659722425e+00,-2.695852811821818573e+00,1.129551076443466168e-01,2.174694360251351100e+00,1.468153541501767023e+00,3.337671468225079874e+00
-5.850422701671053716e+00,-5.738035679972696812e+00,5.873186717169023296e+00,-2.500359897660149322e+00,-1.259749669082096846e+00,-3.624662766622958721e+00,6.219327145874717466e+00,4.623295417292473175e+00,5.812912177409120140e+00,1.688153970458141639e+00
3.391143383272416933e+00,-6.646697315937599271e+00,-3.809156000495991456e+00,1.620447989951666168e+00,-6.447184686510192719e+00,6.246451815610535085e+00,3.552163217025171349e+00,-4.533158413196613168e+00,3.431460306003174754e+00,2.852620314722833506e+00
-5.683168378225667894e+00,-1.508903910455267727e+00,7.850509051389209958e+00,-5.044056032825148250e+00,6.440979964009257985e-01,-3.060320112216074584e+00,6.057750309474680073e+00,3.919698339077140048e+00,3.482464063899345375e-01,-3.924714208633720558e-01
-1.548143720071365914e+00,5.293260020485162087e+00,2.093731623142587761e+00,-1.846750736691162631e+00,1.685915984546723312e+00,-3.531288727034026742e+00,1.631219626657083310e+00,-1.981158712470151517e+00,2.352166106976107063e+00,3.464188715316947054e+00
1.296752270982294064e+00,-4.767357189755739633e+00,-5.972844124400127352e-01,-3.801962317739929764e-01,-4.123553633142459374e-01,-6.925107752904735570e+00,2.314670005040459611e+00,-5.425700674586510175e+00,6.387047691467719446e+00,-2.043453496503472966e+00
1.097932759554360205e+00,-9.006479386823705857e-01,-7.859400891815929158e-02,1.294836080495789243e+00,1.261000569248368341e+00,-1.561090268350830756e+00,-2.317565240689208217e+00,-2.757412634447781175e-01,2.712688064754510631e+00,-2.227745366960957263e+00
