-6.228547369381258747e-01,-1.636035829325219737e+00,6.057024795333343370e+00,1.773872891373344807e-01,2.513006404521341164e+00,6.759652152520104762e-01,-5.603852941572859514e+00,2.290713257842390327e+00,-2.030969421922775631e+00,7.390967794741311325e-02
-4.297607578692526964e+00,1.462022828608819269e+00,-1.339585688663887053e+00,5.000415209966976304e-01,5.998816690882129876e+00,-2.751295433184589800e+00,4.034239617773221376e+00,-1.718300934790620016e-01,1.201566496343115853e+00,-3.684606384501513954e-02
4.051025740444414325e+00,2.393503555859409992e+00,-2.907142379407576360e+00,9.153348972358482313e-03,-3.201314179378395242e+00,3.339832521792877706e+00,-1.052775630186275624e+00,-2.728265149247251387e+00,-1.427474200755189493e+00,1.813315188873573236e+00
-1.785259984316372783e+00,5.422677646226788717e+00,-3.915834960804990494e+00,5.871682208299693784e+00,-1.660928764338753139e+00,-7.324071581015832999e-01,5.069253696459063541e+00,-1.416358850388693691e+00,2.899493159918169471e-01,1.450036049146374628e+00
-1.268189510974650824e+00,8.180030946016808580e-01,6.257861624143177259e-01,5.361004937287766614e-01,1.790188591196410162e+00,4.500986858179524819e-01,3.603881336759200860e+00,1.098899040491356782e+00,1.206003573525567418e+00,-1.324431255021894627e+00
-3.110172630372089575e+00,-3.055327267193451046e+00,9.024498163876646828e+00,-2.311710174422355824e+00,-7.315493062727057350e+00,3.468125110204441697e+00,1.567987569942475012e-02,6.868199584358574583e+00,2.353840576695102715e+00,-2.640968387538594975e+00
-1.122014477030934598e+00,-2.446635704303202097e+00,-7.186772755181203287e-01,2.066248623186123456e+00,-5.396980990752530127e-01,-3.547823034539071774e+00,3.892175463411444269e+00,4.640357091503687359e-01,1.652305196214311156e+00,-1.232738834311993825e+00
2.008167525448655955e+00,-5.234364745052972889e-01,-6.782758849413024649e+00,1.964955322331696896e+00,2.924095609517517236e+00,-5.578910321432459796e+00,5.829215235452230859e-01,-5.898557030298001713e-01,-1.464153718075372534e+00,4.043581144185800724e+00
3.057076381416063082e+00,4.771976527077177010e+00,-7.664763445648437035e+00,7.282808421738531379e+00,9.473569891561525180e-01,-3.480501714226505339e+00,1.775553842922100944e+00,-7.376630519188125401e-01,9.339542093895544239e-01,3.440010430478371184e+00
5.745886239255687533e-01,1.055135017665620012e+00,2.516142921111400810e+00,-3.052873220745928595e+00,-6.917740293635058713e+00,5.763440818134087706e+00,1.564929216164508974e+00,1.010114528671081313e+00,-1.177308420020499069e+00,-5.572757687617052369e+00
