1.977778942898410719e+00,4.520130407452451760e-01,-8.359912589441795827e-01,-2.869430762588629502e+00,1.303659018507650647e+00,1.320272347201508989e+00,-7.639557017781390957e-01,-2.643502813214248626e+00,-2.707031153300669679e+00,2.177733129567009929e+00
8.176412039258301734e-01,4.974875108033435245e-01,-4.154079523275276742e+00,1.165415827877056332e+00,5.732373578551670512e-01,-5.684625545910255290e-02,2.129197186914228546e+00,8.221609232882074458e-01,2.305968630857063495e+00,-2.121721322163926171e+00
-3.787751321496384271e+00,-3.053258034130150733e-01,-9.051968698175955064e-01,-2.802785709683451643e+00,-2.412059046122941197e+00,-2.021882081897112826e+00,7.796247452587065641e-02,-4.355535392513639081e+00,1.860452117959240370e+00,5.244151967577105999e+00
-1.935357555785419681e+00,-2.554318071014625713e-01,1.421758818628106491e+00,-2.168128080072144470e-01,-2.711373385311584006e+00,1.936271231840937246e-01,-2.439347177896676655e+00,6.163933287269406591e+00,6.573113104492780856e+00,1.704590246152056565e+00
4.522758089247717272e+00,1.847193383454378779e+00,4.773388379535412618e+00,-1.403259380489689512e-01,3.498344095719785329e+00,4.248757042866849964e+00,-2.362774488681953500e-01,-1.683342106344245526e+00,-7.654265620031014628e+00,1.544255725283297132e+00
6.030965916690884221e+00,1.972869234025418361e+00,1.416215298954650592e+00,3.073136953889993972e+00,9.596265101833255429e+00,6.787750675397195899e+00,5.185416152984799742e-01,-1.467644109441391898e+00,-1.664853995179336632e+00,8.887951044913947607e-01
3.444877564122422964e+00,1.102038650902301686e+00,-3.220142360031551743e+00,-3.834894780073917764e-02,-5.624059682021483875e-01,1.797123814039680856e-01,4.280988220663365595e+00,-8.165370372934993570e-01,-6.250902256637730581e+00,-8.149086823874416297e+00
2.637155498399441633e+00,-5.149321489458972279e-01,-1.649698966363101427e+00,-9.375355096329217597e-01,4.172051872616607149e+00,2.285827437789577754e+00,7.170836986720042772e-01,5.774665992163483669e-02,-1.098771817803043227e+00,-3.736338918989552838e+00
-4.961302089789769720e-01,-9.854564431081971332e-01,1.077103990529601596e+00,4.382997079494145576e-02,-2.220996788189015803e+00,2.385616927734647952e+00,1.424844305593211180e+00,1.313436738102749857e+00,2.516524646395138731e+00,-1.490615378025301752e+00
3.643744216985866480e+00,5.291857741416335081e-02,-1.567157389898549136e+00,-3.149466673191458010e+00,7.141967752348098664e+00,8.477225708556145989e+00,4.191141754197592384e+00,-6.178821395183927478e+00,-5.537940866583645344e-02,-1.398065756965629347e-01
