-6.101372716092345883e-02,-1.165668774949588649e+00,4.823357739409951606e+00,-4.579360491740731121e+00,-9.630351864007549167e-01,6.756467625335145222e+00,4.305936253267000247e+00,-1.417583327495540280e+00,-1.870220368162423874e+00,-3.434590141519979767e+00
2.805936021833976834e+00,3.402947909436925489e+00,1.165762023426081484e+00,-3.038154388420293284e+00,-2.176086750878691856e+00,1.187248464802930448e+00,3.214980443884781991e+00,-2.202490228229176505e+00,-1.055229681528570218e+00,7.821409244832244756e-01
4.833306263383937207e+00,-1.771957650617721924e+00,-4.442865962594503837e-01,-2.322007415954196130e+00,-3.061635789297356691e+00,-2.884643148590444461e-01,1.523252457426865991e+00,-1.677539888742128893e+00,-1.639908149492670164e+00,1.913603539810513565e+00
3.782454151073831206e+00,1.047082082442588824e+00,1.253510551741228607e+00,2.229176820797137637e+00,-2.670528164156008799e+00,-2.198512782461332193e+00,2.040610095931295831e+00,-2.452495309214221611e-02,3.965570923984838014e-01,3.818250113464940920e+00
-2.250809322707919335e+00,2.493816059370698390e+00,-3.295389200816525865e-01,-1.824397055028516679e+00,4.864625374607537189e+00,-1.854161992885174026e+00,-5.551726576173132699e+00,-2.854702319435067803e+00,-4.290213990673416022e-01,7.254891647467416327e+00
-3.928912808654029254e-01,8.818608666561977838e-01,-1.546692004672007625e+00,-5.215356038149610018e-01,4.060995076189889197e+00,3.938706297421773472e-01,-5.030144395494115628e+00,4.969870967609670842e-01,1.745801239918583159e+00,3.470694428171583024e+00
-2.450844142921055457e+00,-7.172773039058668587e-01,-9.831800353655186786e-01,-4.742443176849048037e+00,1.497357454999716175e+00,-8.274205677286632366e-01,9.250286848772080184e-01,-1.682294912324251879e+00,-1.266497999405445718e+00,5.955310610457849041e-01
-5.467290912574344075e-01,-1.194347692331866329e+00,-2.029485953485746119e+00,-2.496018516253154296e+00,-6.369729731876172529e-02,-3.612486048084436185e-01,-6.255743074670107040e-01,-1.121077805270219274e+00,-1.355316826272028541e+00,-1.251434125502043138e+00
-3.238559780174251390e+00,5.366801128002941512e-01,-3.524103012590526607e+00,-7.148060305373413748e-01,3.120612830228057355e+00,-1.722619215271829152e+00,-1.904392484002686015e+00,2.650122373420337407e+00,2.766121125774713807e+00,-3.886544553855240114e-01
3.841920812730772017e+00,2.703888678534663637e+00,7.225964390286612193e-01,-4.148045669963520865e+00,-3.202731458217815685e+00,-7.978678050598282390e-01,2.090248535009691988e+00,-4.227077284386163925e+00,-2.887244472477836332e+00,4.969950527162494858e+00
