1.294903426629017362e+00,-9.433656510196073430e-01,-7.214125561357431771e+00,1.706685511377923126e+00,-3.041061492970369429e+00,-2.576777583267560789e+00,7.472167621101760693e-02,6.060837450212757105e-01,6.436525899368011672e+00,-2.021353291515508577e+00
-5.886443303305159969e-01,2.796303030005301338e+00,5.341878161213850618e+00,-1.202902715716105964e-01,2.135151967575656951e+00,-5.861850517181592390e-02,-4.831530071292392314e+00,4.136405252072338001e+00,-1.608729284658533931e+00,7.425699365027289556e-01
1.674732489555936787e+00,-2.793829544893071226e+00,-2.855818669563681578e+00,2.280446476819315560e+00,-1.352703141494538075e+00,-1.332358883062146337e-01,3.497582222673012886e+00,-3.318298260229964214e+00,5.980802212681537000e+00,-2.847266269592625410e-01
-9.223999808799923095e-01,2.534136265699880042e-01,-3.265625997482819010e+00,3.964583363165287366e+00,-4.124788710471357867e+00,6.569821705132876666e-01,-3.209596683686226637e+00,-5.753651433777224433e+00,8.380805145749240515e-01,-1.813003539775994488e+00
1.625218916005583658e+00,2.958487409952018865e+00,3.470086609692482948e+00,3.493200120495741245e+00,1.129347741180774412e+00,-2.647536572841725722e+00,-3.775839229141353393e+00,2.954453495290216836e+00,1.263154101209950975e+00,7.797484977987555466e-01
1.541210820428504213e+00,9.882848445061558351e-01,-2.876601782007049302e+00,1.681246753346448353e+00,2.458580149962050765e-01,-6.080095443538994893e+00,-2.358876110073855781e+00,3.617658684836601690e+00,2.209612408011179419e+00,-6.688938956235500610e-01
-1.243367128795411780e+00,-7.120492791491203732e+00,-2.983678335454742925e+00,5.872355693586633896e-02,-1.166306727163912704e-02,-1.148670379407606301e+00,3.280441414366970510e-02,-3.654143540394112488e+00,-1.949267233009454925e+00,-3.419141539000304597e+00
1.981470020533376841e+00,-1.717577846987242918e+00,-4.881628647852446212e-01,3.730597844099496019e+00,-1.528746536190932037e+00,4.788897286232002837e-01,-1.771837538224469988e+00,-8.201237540773826939e-01,1.497790532832547594e+00,-2.307940822931795033e+00
1.564633617460305270e+00,-6.558090497967710153e-01,-3.703642996955380795e-01,1.768157242518171524e+00,5.895929909912929201e-01,-7.410949152779133797e+00,-7.027198369654836796e-01,3.815036022766554069e+00,2.301363744068300576e+00,-5.267637872921864250e-01
1.585045459459684336e+00,8.686451931294207895e-01,-6.600721601789517834e+00,1.661708084154139620e+00,-2.258868400122046705e+00,-3.540318095938066012e+00,5.686700417579749534e+00,-2.735013238079142539e+00,5.433125708149237454e+00,1.544200598617055498e+00
