-5.967027420500474744e-01,2.736553590609718256e+00,3.245475046746352010e+00,-8.798183432313173569e-01,-1.786885047075364108e+00,2.231085318420765073e+00,1.450917115127477341e+00,8.903142843344156176e-01,1.218867792070755574e+00,-2.080198427547642837e+00
-2.658474226386328798e+00,3.828248361613951545e+00,1.461142772117555610e+00,-5.979018997744602437e+00,7.312728162819206457e-01,2.854749570441278639e+00,7.303873356788916915e+00,-1.136666263316653547e-01,-2.243868321630793083e+00,-1.506956225894434231e+00
-2.816008010310733667e+00,-2.377021436103766483e+00,-6.094979609787777974e+00,-3.396608812488320694e+00,-6.259037902740884896e-01,7.243307418748896609e-01,-1.004510194280864743e+00,-4.332708108481883258e+00,-3.492385986794425357e+00,4.320174286393663188e+00
5.680141933023615808e-01,2.872679204095568650e+00,-1.622739981218568328e+00,4.052394323294408629e+00,-4.157678050513928802e+00,3.054257876145292538e+00,-6.099035211200368067e+00,-4.411253182420228902e-01,6.797174421425685731e-01,3.780139034679718346e+00
1.784921801362364002e+00,-8.313733744825153593e+00,-3.414091532530847850e+00,3.366012180267766052e+00,3.804161806908934462e-01,-5.804632246100864812e+00,9.381220894796695742e-01,5.138655506787330740e-01,-1.237958769535617842e-01,3.041636128816546325e+00
1.749167021625632534e+00,4.040726071626419724e+00,-9.554734385430316834e-01,1.062435011973443144e+00,3.419022544206269831e+00,2.315676128367217590e+00,-2.172753270279838667e+00,5.984966094915745716e-01,1.481414845137486669e+00,4.909692422329064998e-01
-5.334485317539402693e+00,1.424664538323550556e+00,-2.438914819313076521e+00,-2.498602996018338462e+00,-2.132192424557417088e+00,1.891515730552790542e+00,-2.679933468857993883e+00,-2.875172112302591287e+00,-3.484086646755530925e+00,3.505362564403591730e+00
-3.333470559714466930e+00,1.251689864538216401e+00,-3.452791003057827268e+00,-1.959481392273730194e+00,-1.173004139154685266e+00,1.669286856470841629e+00,-2.928471943997223437e-01,-1.964911081377147095e+00,-3.600337021641617952e+00,4.614934234217521691e+00
-2.053628651396959715e+00,4.106857741488570746e+00,-1.076239593815325080e+01,-6.184429083064308941e-01,-1.081521170251754205e+00,-1.004045235267397018e+01,-5.862064290685922163e-01,2.160207551791254676e+00,-3.879299218188019704e+00,1.702321701099574813e+00
2.838182253052897064e+00,-1.086074306168053782e+00,1.085357111352125870e+00,7.764831549236062003e+00,1.624834861642936445e+00,-2.008087729799702181e+00,-4.696538052212521741e+00,2.846616607819080880e+00,2.768299775173033606e+00,1.260291257604188919e+00
