-5.951349602272084205e+00,-6.347450732559938302e+00,2.323412363632867184e+00,2.124918330887301643e+00,-4.378705548789544544e+00,-5.229645554581932032e-01,2.115292323730990187e+00,1.066971694731916109e+01,-1.085113573569812084e+00,-3.061849275847822405e+00
5.594422723791288021e+00,5.887156442790346667e+00,7.597578313084577539e-01,-1.684702967729502010e+00,6.300943971452411141e+00,2.642225201788204192e+00,1.767722321693751431e+00,-7.501329799187392844e+00,1.783392771898074214e+00,-1.213809188308311304e+00
2.980432092918160469e-01,-5.837648637781136074e+00,1.070689801306309530e+00,-9.389034296331953966e-01,-4.538271588807925916e+00,-8.568394179943771283e-01,-3.395716619036269757e-01,7.631804116617771250e+00,1.508584541631758480e+00,-1.978782629485175137e+00
-1.901829147347935622e+00,4.176888734064117870e+00,3.807673266967597225e+00,1.787289989791465805e+00,1.959486351029631201e+00,7.741412816364957594e-01,1.663132223647152630e+00,8.696392365004442793e-01,2.772900838117327460e+00,1.274294824080071775e+00
-2.908210495349779379e+00,2.321764051224056935e+00,-5.552364524183802663e-01,3.672336186705974503e-01,3.333254662423506542e-01,6.116167645500574235e-01,1.538909760474706623e+00,-1.056976295834663571e+00,1.923598661864142079e+00,1.655194529513097645e+00
-3.704285620616447172e+00,4.479713602279908002e+00,1.872955185914053411e+00,3.502270714333299284e-01,2.246495496670574354e+00,-1.793744729371645474e-01,1.160134046984694578e+00,-4.546657598089140606e+00,-7.000852812316926688e-01,2.115792261254823003e+00
7.735145981540325621e-01,1.874677679529204610e+00,4.250334467858450649e-02,-4.434105212376270311e-01,1.676352068583878419e+00,6.120598014244799101e-01,1.045711223410217938e+00,-1.177090146234222034e+00,3.181803486727810437e+00,2.255005143739090556e+00
2.790558157099126468e+00,2.763853975637682314e+00,-3.612604022559846584e-01,1.051164235628889276e+00,1.757142713905529563e-02,1.096134132081830304e+00,-4.302881440280806880e-01,-6.441244958843559409e-01,9.547462256731173991e-01,-1.686857801771693310e+00
5.288353667599141161e+00,4.241111601632331585e+00,1.097833455226514543e+00,4.393110464503646173e-01,2.533597309418387233e+00,5.180477232018655398e-01,-1.495783531502015817e+00,-4.515562681124142941e+00,3.339884570826932020e-01,6.766501763017447324e-01
5.849938716302860442e+00,-2.293538137217332462e-01,-1.033628473812348236e+00,-1.948757353798883152e+00,2.079226528261258977e+00,1.110364272567235799e-01,-4.001478740420724378e+00,-9.603527499893897978e-01,-1.245515971700113855e+00,-3.011200956475844404e+00
