-5.488295380163389581e+00,-4.678249470170451119e+00,3.996683318117503880e+00,1.603733833904844364e+00,-4.344403345830746055e+00,-1.062697093591232989e+00,4.901497697748373739e+00,-1.016745537719379033e+00,2.866429343037643296e+00,6.320204779895416181e+00
-5.237819275836000266e+00,7.036907645254217858e-01,6.801180948835434670e-01,6.880717705290535502e-01,-7.827477709647141957e+00,-4.511919714903987355e+00,1.206056072985342009e-01,1.289955833811684993e+00,5.949696748283387571e+00,3.379753368582201767e-01
-2.097833332206538448e-01,2.701174509840056359e+00,-4.477816217164211743e+00,-3.530934673783419520e+00,1.371770090830154221e+00,4.062265861206709183e-01,-3.674211451165323439e+00,1.033920641673695018e+00,2.142082230499717355e+00,-7.517033949625600009e+00
1.182228505332247437e+00,-4.100271311727932688e-01,1.510288854816498327e-01,-2.459051296059930447e+00,7.234070084264782707e+00,2.886190302500190263e+00,1.350573211797213347e+00,8.747338341921803151e-01,-3.046593870654213276e+00,3.181021016160126447e+00
1.290959792146564755e+00,5.409815088514660530e+00,-7.597491076711129665e+00,4.187072364347399933e+00,-8.449350816102082717e+00,2.079327022844644990e+00,-2.202928357924697350e-02,1.022161450719250908e+00,-5.548054844985442990e+00,-6.117235444515642051e+00
7.239038794022637502e-01,1.369187361182090390e+00,-1.403221098498810493e+00,-2.949262855808701733e+00,-1.998253227331195481e+00,-8.827600321680224849e-02,-7.556056409464642076e-01,-1.864414401083432649e-01,-4.597577468259649081e+00,-2.216649203656436917e+00
1.418252055424761071e+00,1.185255686817540344e+00,-1.004834687256106918e+00,1.973155405822425434e+00,-4.959871322581126396e-01,1.713463813441013839e+00,1.023190297678825855e+00,-9.698641108856792536e-02,-3.282020494992990756e+00,-9.660040492052951455e-01
-1.212436858036442855e+00,-2.991604656293347375e+00,5.021288510689932316e+00,-1.842026856805486779e-01,1.651994540428760594e+00,-1.233683196731690579e+00,-2.633648644555902418e+00,-7.839745580903657585e-01,3.992001357530888583e+00,-2.352289938637334710e-01
3.961247644562163051e-01,-9.744184733532710307e-01,3.485659064689675901e+00,1.007877191501858949e+00,-3.611862466995390264e+00,-5.073039999757433804e+00,-1.175644433645354758e-01,-1.106679996391398912e+00,2.499460453438416607e+00,-7.848388318034619004e+00
7.198695021792724802e-01,2.372771855835458243e+00,8.580789795717305157e-01,-3.296961165992056686e-01,-3.851037931222835553e+00,-2.562281186337611594e+00,-4.509055122007265659e+00,5.905928285108896780e-02,2.216812082685652718e-01,-3.326264259459482453e+00
