-8.591671441473660575e-01,2.763845134924787228e-01,-1.586873862729817342e-01,2.392321444300937294e+00,1.163928259151887357e-01,5.960310191419015968e-02,2.434079194065836838e+00,-1.709102600364638125e-01,2.515699980218857768e+00,1.523055895998383313e+00
5.260109404179877934e-01,-1.949728104783448712e+00,-2.765483033937174984e+00,-3.619126892571662424e+00,2.238825656316310919e+00,-2.816619519616856415e-01,-4.182680218446666043e-01,-3.777387672445589040e+00,-2.116969596472486059e-01,-1.995637812668700883e+00
1.259976716902946992e+00,4.233248520964186135e+00,-9.099972781998099114e-01,-7.893401791753627883e+00,-1.274412148178642734e-02,2.974647132751107925e+00,-2.658037242798494404e+00,-1.030384136525763994e+00,-1.614135920938440272e+00,4.716887493057471681e-01
-9.901080082401559901e-01,4.221219531019117177e+00,3.413902402178881523e+00,1.323360175470090550e+00,1.959080454944700511e-01,3.718679032550813890e+00,4.072624184282534365e+00,4.527278428002694532e-01,4.407152920984879430e+00,-6.516367451319986515e-01
1.908703943169225425e-01,-1.521426674363162423e-01,4.571600854836594952e-01,1.734318004984573003e-01,-1.049550825285877398e+00,-1.683942710419252808e+00,-1.472220823459145622e+00,1.652442681522115597e+00,-3.984702558806494932e-01,4.292138201972508504e-01
2.437702123027314816e+00,6.263020554365533954e+00,9.552476364475513959e-01,8.668453357292446038e-01,-7.553216295721347784e-01,3.550667737893199671e+00,5.624154261421083767e-01,-1.234711492031695501e+00,3.231022986732895230e+00,9.946870587837828293e-01
-1.137945800817303565e+00,1.008147349250435587e+00,9.432071983533409920e-01,1.840709138148421076e+00,-2.414990359464691316e+00,-3.164236021020965239e-01,-1.186126675307834555e+00,3.837594664354566643e+00,-2.230281702578789549e+00,4.999063303065333308e+00
-1.234555972058992701e+00,9.667379169600499589e-01,2.287477301689186948e+00,9.492545368245005610e-01,-3.055216321518777201e-01,1.129900993468953674e+00,-5.447107131737340957e-01,6.035146032152471918e-02,-7.031041173640812936e-01,4.065457352282561665e+00
2.705783281193911094e+00,8.136730164465777904e+00,3.236361410513488579e+00,6.171622903776655455e+00,-3.611108214032940911e+00,3.251805933107613900e+00,1.597043867530940853e+00,3.339427120551620387e+00,4.524658677691164144e+00,-5.272172984766072545e-01
-1.463979460588817227e+00,-3.054675381901163167e+00,-1.238154590696723067e+00,-2.624544524329819772e+00,1.942873165253599099e+00,-1.076308012533184311e+00,3.414706043196742424e-01,-1.915878295153669475e+00,-1.311855149391909947e+00,3.439054631035661558e+00
