-2.091124388548916357e+00,-7.994718378924958735e-01,-4.112093985285483200e+00,2.166504263963512145e+00,3.730195906266582817e+00,-4.942347870101528429e+00,-2.544620347911293656e+00,-1.318831112187453636e+00,-5.776357114887483490e+00,-3.362330180086448905e+00
-8.480487481622253298e+00,1.195520970958169338e+00,-2.893648710125749979e+00,3.014946976226732911e+00,-1.063955301288983968e+00,-2.531889051797785228e+00,2.114688973830352925e+00,-2.007774786340358553e+00,-1.965038179036972199e+00,3.864071926819470093e+00
-1.828226576251279267e+00,1.823026452979201295e+00,4.117866718821493244e+00,1.591394914406033534e-01,-5.142206709736366399e+00,2.259333561176843475e+00,2.369887044701324719e+00,8.755614501024524543e+00,7.728063201591989007e+00,1.094780491763503960e+01
-4.809544592461940660e-01,-4.545266088584220654e+00,2.287630626978892634e-01,4.635905966955511381e+00,-1.825571906267867250e+00,-1.486902937530962809e-01,-3.448150426403302937e+00,-2.199729610484936426e+00,1.170598056516762409e+00,-2.140168201148974880e+00
-2.939020681276899083e+00,-3.096722393035179710e+00,-1.816148415819639927e+00,4.124317889192667508e+00,-3.017744672247722471e-01,-4.727303394617867305e+00,-2.995618158952731314e+00,4.826146523077843753e+00,-2.672455841710843494e-01,4.323194973632686455e+00
-4.034072124678229621e+00,2.353969343854365182e+00,-9.320936709542826382e-01,-4.210095979977894753e-01,1.838117030987972411e-01,-2.835307071628359044e+00,4.415499632861301649e+00,-7.863399444721156373e-01,-1.545429136010696425e+00,5.343152549507689031e+00
-6.782019101324461285e-01,-7.107284614020468183e-01,1.657125976410807500e+00,1.068094411167798352e+00,1.755326125141489502e-01,-4.810620043860491357e+00,-1.618537836189085866e+00,-3.967082326091577293e+00,-1.920394185458162983e-02,-2.945797018766054709e+00
8.995532108943500305e-01,-3.365970119854444498e+00,-4.588449356067822116e+00,5.596344230597526170e+00,3.065693916167328226e+00,-5.327590398826499651e+00,-3.029071350266952400e+00,-2.384108509298865641e+00,-2.976540747820126231e+00,-3.063858412125338937e+00
-4.640152542602057117e+00,-2.488399644265540278e+00,-3.936512415513891305e+00,4.283837604238028618e+00,-2.555758429537324239e-01,-2.194675746989506404e+00,2.561609806907177322e+00,-1.086172416205193869e+01,-3.115453743980736601e+00,-1.408350537863729102e+00
2.872464572419890949e+00,-2.285143864916593159e+00,3.221622066758290881e+00,-3.354279594693961863e-01,-2.634828417225625774e+00,4.100022692735115548e+00,-2.257805471001901765e+00,1.859165714640103939e+00,3.671543556594476065e+00,-7.978197905525290512e-01
