3.365230984966299577e+00,-1.983698091217149129e+00,-4.853471704307537493e+00,7.641922298562082716e+00,-7.919545958963123411e+00,-7.607881568800843652e+00,-5.719751157887117188e+00,-1.678232424781545884e+00,-9.800814537426310036e-01,-2.862907045107202508e-01
9.933968906060299808e-01,-3.647794963157340753e+00,-1.937560228871145762e+00,3.158277793704234782e+00,-4.256734924617243010e+00,-2.585209342567817981e-01,-4.571061513885322114e+00,-1.352729087819553699e+00,3.857819104421726486e+00,2.946250981045365869e+00
-1.005142276613856689e+00,-1.561261262344660228e+00,-5.613903619661369859e+00,-7.776399450152223558e+00,-7.974772884386993610e-01,2.741539101147165258e+00,-2.242720538646683526e+00,-3.535425430223966714e+00,-9.983371241848364441e-01,-1.549392882339350130e+00
2.171920380913151760e+00,4.369669495866605580e+00,-7.167656957233450310e-01,-4.904760735376977543e+00,-1.342596282502517724e+00,-7.991565186548328370e+00,-1.407510398448097666e+00,2.451878568003246883e+00,8.585036853557731718e+00,2.139558408409963253e+00
-1.639448406470862540e+00,-1.330496176164394306e+00,-4.178240071609756967e+00,-4.870867717561196741e+00,-3.294487792874467580e+00,5.075846291949272171e+00,-1.255638996066650526e+00,-4.558525802377144664e+00,1.601462094427615224e+00,-1.260871658274093976e+00
-4.177183060879935406e-01,3.734391950905600055e+00,-2.413388916175562837e+00,-6.766664082048181150e+00,-1.062925929580400108e+00,2.482054682719680549e+00,-7.774812688451180342e-01,-9.665075232798774341e-01,1.732127966094282767e+00,-5.359168555262419531e+00
1.910738543072046269e+00,-4.969280774746545504e+00,2.787444018197857143e-01,1.053752329974710467e+00,1.857535083569789025e-01,-3.306365078124419821e+00,-2.232887218827493303e+00,-2.877637758010136437e+00,1.669844708408666722e+00,2.386235625409700578e+00
-2.823244352726824502e+00,2.795149879895770351e+00,3.771055544142729143e+00,-1.122385383750336363e+00,-6.030538073498495244e+00,6.154588623880556497e+00,5.725539719150332107e-01,-1.635944740336647482e-02,8.383846214080993064e+00,-3.979425737956241438e+00
2.321902284165492603e+00,2.491602741542181532e-01,-5.977306905456098107e+00,7.020490728394126023e+00,-2.700249235822076432e+00,-4.996131468306678869e+00,-3.639689992561602416e+00,3.151214049239384973e+00,-3.953825845750796653e+00,3.985007211697935592e+00
-9.073280736559066195e-01,1.595247083285614265e+00,4.865582934285637151e+00,-9.952121823763024899e-01,-1.505399107815356574e+00,-1.472317438691236102e+00,2.076460456303953261e+00,-1.176125420367989838e+00,4.246556171401192792e+00,-9.298081047777289054e-01
