7.891277703483058348e-01,5.150091213783536404e-01,-1.851588400097713860e+00,-7.494906772417589735e+00,-3.751888610489593212e+00,-5.977574213817586912e-01,5.975864301729933992e+00,1.871181801982699788e+00,-2.791334121234755550e+00,1.116106036906736598e+00
9.158900079526118843e-01,6.212534826420034184e-01,-2.846892306606160883e+00,-8.946899191836806153e+00,-6.008352125639827790e+00,-1.780469538132311680e+00,3.090589314060872450e+00,4.746971688798770295e+00,-4.548871052639741563e+00,2.911199553452686661e+00
5.465085789281329820e-01,-7.529674453662444922e-01,2.065753861601662855e+00,-4.085416175239776848e+00,-7.125092799167849211e-01,3.877104147801400114e+00,-6.218966908441716512e-01,5.570928208770834500e-01,-2.778620055997467198e+00,-5.024478620917079752e+00
-4.295138868436723656e-01,-6.862857049200994375e-01,3.539481815749149440e+00,7.879905750722859814e-01,-1.498856982562805973e+00,7.917945168816745705e-01,-1.504592491122180853e+00,-9.343162221788769983e-03,4.787209709742706210e+00,1.133702850270521090e+00
-6.786818289750622846e+00,-5.949772413940907612e+00,-1.642520157219570009e+00,-3.803633194269007589e+00,1.618867324529457363e+00,7.227457197707585212e-01,-3.006245331088222006e+00,1.249364407976663705e+00,2.284582484832633487e+00,8.315629915857028820e+00
1.206809321130947632e+00,2.877591153791592582e+00,1.406529492130685011e+00,8.880202083694580750e+00,5.489585859748646435e+00,2.046242739752641704e+00,-1.619119850587412479e+00,-7.246861157918176310e-01,-8.580578810509653653e-01,-4.338585560386034601e+00
-6.182408652185262810e+00,-8.049990237660479053e+00,2.744500940115170096e+00,-6.476330888895184934e+00,-9.743257322419407451e-01,8.077568820982157227e-01,-3.913532700785227192e+00,-3.561085627248625762e+00,5.526084935985002833e-01,3.311529215483131061e+00
-1.360840261075307200e+00,-1.611405581040881163e-01,-4.056023869630818623e+00,-9.091766464251466173e-02,3.240052370880456056e+00,2.178878519368901312e+00,-2.025452838069152328e+00,-2.133887558812630481e-02,-3.678454856102522541e+00,-7.379697929297452941e-01
2.232864373744860131e+00,1.641506316496964102e+00,-1.342562361915264346e-01,-2.775176273867433485e-01,-3.748104705691993832e+00,-2.476087032369526764e+00,4.726249313746524017e+00,-2.045814745771530607e-01,-3.980212450446603878e+00,-4.447499965702254032e-01
1.269792417721031352e+00,2.528017954496294184e+00,2.475828499524549198e+00,7.196205942639906095e-01,3.084828093947823424e-01,-1.598225218589056418e+00,3.258441928346893945e+00,6.734432144293207856e-02,-7.106330503804227927e-01,-7.627193346882910063e-01
