-2.672374975828338606e+00,2.361050479833282090e+00,1.088048433334723342e+00,-1.789964403348830890e+00,3.850460686712932734e+00,-1.717689690920433332e+00,6.683433704761027272e+00,3.238360447134676967e+00,-1.387665331720236983e+00,-1.196376028260659696e+00
-2.835582630191477715e+00,4.930270117684374398e-01,1.878556616324082107e+00,9.668415831352323853e-01,1.353812108122316171e-01,-2.387858470756083928e+00,-5.539037124843832594e+00,-9.722457211520600939e-01,-2.707059186704950715e+00,-3.176017412064270573e+00
-2.827040373236617388e+00,-2.155655049825084824e+00,2.731414884927767961e+00,1.646992592763434349e+00,2.194615585769290167e+00,3.917121132820161389e+00,1.046879635150211429e+00,1.662922258247222063e+00,-3.215630943959674415e+00,2.083431662078881530e+00
5.883218985717054039e+00,-2.405932745419312457e+00,-4.370809151805801207e-01,9.852384355528523985e-01,2.539355338331614309e+00,5.218425053009428938e-01,-1.259046471709802439e+00,-2.012892511474909885e+00,6.584464458015300004e-01,1.070178535889843852e-01
7.346825378779790583e+00,-2.073712857464026227e-01,1.692277510687613784e+00,-2.976104581089226375e+00,2.734916924355579759e+00,-2.117059131278633988e+00,1.143095892491728272e+00,-1.827461831976424200e+00,-4.003279608353703445e+00,-1.423870528679678227e+00
-5.297191038637174554e-01,-1.543606675765277769e-01,5.206184033534748679e+00,-1.085133714661105531e+00,1.251664402036394286e+00,-3.223551254936274924e-01,-2.428364288439476493e+00,-3.824802584452909215e+00,-3.283229505990667096e+00,2.034716418271124372e+00
-4.966420804921458654e-01,-2.817944682438389137e-02,1.133531886577548242e+01,8.046051704271436344e-01,-3.291209569258624512e+00,1.217641509966741475e+00,-8.168657888474440298e+00,-4.858889247005301115e+00,-1.668621760604692028e+00,5.868439172733491915e+00
4.053281948837219595e+00,1.236617634740197147e+00,1.620691101245320898e+00,-2.737124917964740778e+00,1.281120800195030829e-01,-3.299395720643871766e+00,5.449729132770254614e-01,-2.807185272512649377e+00,2.740422730891548753e+00,1.971449677234632936e-01
-2.324173449250888090e-02,2.297062870634694498e+00,-4.443727293764571762e+00,-2.838909073974059449e+00,-1.049504791165522199e+00,-1.054917412925083786e+00,5.272385802363272589e+00,5.330626742885625546e+00,-5.773471800061717119e+00,-4.136030784189220988e+00
8.174226675199456338e+00,3.334719820034075077e+00,2.832016098136457494e+00,-5.944492379792416514e-01,-2.159097341895036326e+00,-1.834764294789445360e+00,-8.666624437303310780e-01,8.876464114419388984e-01,-5.256226676804603315e+00,-2.539770569408977163e+00
