-7.268671213705338308e-02,1.952107507726924540e+00,2.158786325963718333e+00,-4.680576101140100365e-01,-3.330967077495150086e+00,-2.316829603291598261e+00,-2.751717011725668183e+00,-1.074923184164803397e-01,-6.854053242082102093e-01,-8.239327582971001096e-01
4.796276115899821946e+00,-1.284166127797058132e-01,7.595990044131981644e-01,2.811819307953335567e+00,3.238261555691877902e+00,2.062669652643217777e+00,-3.190847614844461777e+00,1.956199245677129328e+00,-2.592209247765032920e+00,-2.576771974285821720e+00
7.411352320155896178e-01,2.943425370641852723e+00,-5.893541035741916012e-01,-7.144958370796005154e-01,-1.015520424764703833e+00,-2.259609469895143885e+00,-4.554517153117161321e-01,-6.466044121499473496e-01,4.230752083796396334e+00,1.087098924399671596e+00
4.555078731541206238e+00,-3.084268301649904842e+00,-2.041762369953342482e+00,-3.476438857483437950e+00,2.849649680425951015e+00,-7.318448348050931251e+00,-1.675833262927816758e+00,5.088835240541826899e+00,-1.456585330596066541e+00,3.884538553352440804e+00
-6.302794542437365699e+00,-3.108323122874140143e+00,4.239339823313986955e+00,-5.636704626637626392e-01,-4.357655072855309841e-01,6.482063406962218721e+00,9.564117039471092596e+00,-7.138315988957010250e-01,-1.104673909212957028e+01,-4.959337697630108011e+00
1.537275075827085891e-01,1.136636467477628587e+00,1.884254145709728601e+00,2.092185792708401326e+00,1.691640756744871910e+00,5.469398800633941349e+00,2.633933100437809927e+00,-1.594286117093428157e+00,-3.775539743865014231e+00,-3.523157069446350320e+00
-1.639234467696365272e+00,2.992571348630178374e+00,4.211495829261803436e+00,6.976614020646540806e-03,-4.121824824249582520e-01,-1.502356159757711973e+00,-6.963078122657021529e-01,4.958329135271318577e+00,-5.967993100275045038e+00,-5.709124115563913193e+00
1.858773925854003917e+00,-7.425574304153731431e-01,-1.635639923210113408e-02,-5.114879147621735456e+00,-9.208058199114435016e-01,-8.755923909444083719e+00,1.989142220938677319e+00,2.428661445967218668e+00,-2.977312872041062430e+00,4.974684385473324255e+00
-3.423215961919511052e+00,5.293015133847359444e+00,3.771196874173380564e+00,1.220716538511561700e+00,-6.063220450552872620e+00,2.523950563918929468e+00,1.870809077041845347e-01,-4.436750225278854209e+00,1.267657242070642454e+00,-3.546392767955375724e+00
-4.022048167565137056e-02,-2.490146057270888225e+00,1.179879942901498557e+00,2.402405817001741717e+00,4.875230422567504718e+00,2.324252746165813566e+00,-4.002530272861384297e-01,4.066751039247801458e+00,-5.836788681765886722e+00,-2.319308372519654604e+00
