-6.332450983206124873e-01,-5.538355286261953392e-01,-1.234771507228067666e-01,-7.927858760452077824e-01,3.885391368688477787e-01,7.816223317499360057e-01,8.197279866927393854e-01,1.811845551156107348e+00,1.049133543203219499e-01,-9.089013578763369683e-01
-1.732110019744943497e+00,-2.206807156003275150e+00,3.878567333776270942e+00,-6.121078178793328384e+00,2.423726963417377478e-01,3.517009342954085849e+00,4.814781472341286062e+00,7.464800365846842922e+00,-6.998341965027850969e-03,-5.228513303186709038e+00
-3.176738405037971003e-02,4.746919560802800753e+00,-6.599403712270828226e-01,2.635924058707480810e+00,-1.015569593394834769e+00,-7.491590267187153707e-02,-7.096416161271484668e+00,-4.475625629056889210e+00,-5.605036792901143539e-01,5.915512326692942136e-01
-1.074111745571341370e+00,-1.656897254386403340e+00,1.474294320526318813e+00,-3.698253180733289458e+00,-2.624742541352286240e-01,1.537675082860369580e+00,2.939815996832553235e+00,6.138844148742077067e+00,1.516848518382699074e-02,-3.384835400926103244e+00
2.179002426331953401e+00,-2.725369205321537258e+00,-5.179651184250254614e-01,-1.078038906442211564e+00,-1.363244505079031388e+00,-2.395393129517274566e+00,4.091942821117463325e+00,7.757462665162138116e-01,-5.464549061028689536e-01,3.561813688773899367e-01
-1.634151830797341720e+00,-2.313142489582343808e-01,2.349721557282522966e+00,-3.915915632188980311e+00,6.185784668709527756e-02,2.994575485941985082e+00,1.424837754585392524e+00,4.831161804006256943e+00,-1.694671466414183758e-01,-4.118133405975352268e+00
7.297331120345134092e-01,2.958119378805610378e+00,-2.528533083740387877e+00,3.485155603058776475e+00,6.411381843877712594e-01,3.039377118796223187e-01,-4.200712974947412803e+00,-7.862600841765455151e+00,-7.962361314211812147e-01,1.984099086629026010e+00
1.469411995485125022e+00,1.029677390535934878e+00,1.030528908901796159e+00,-7.225557181303963183e-01,-3.121490046014476327e+00,-2.495048783945121862e+00,-1.561277079303707183e+00,1.355647441748219606e+00,-6.190793679119189763e-01,-6.438481775841971011e-01
5.881296398067380471e-01,2.176724486043212892e+00,-2.356108895736273023e+00,3.794593943123234947e+00,1.403078543728272232e+00,3.223948273853808333e-01,-3.180872282157313879e+00,-8.091175286917380305e+00,-3.908343316288869773e-01,2.792972222987447406e+00
-1.121427214900225122e+00,-2.363586855056701630e+00,1.828515143178060409e+00,-4.270346638195412048e+00,-4.720741768707099606e-01,1.209362405632583126e+00,3.841506911768744370e+00,7.797357929666421050e+00,2.000310666416710292e-01,-3.612808988134847965e+00
