-1.075644025027712392e+00,-2.824468270765873257e+00,-2.813757157431329148e-02,3.257718633074857539e+00,-9.094188773708729023e-01,-1.757105101135504888e-01,1.478079890149888165e+00,3.592720341778262494e+00,-1.181542103105154284e-01,7.426271159311026437e-02
3.948965857788012679e-01,2.359656352730241213e+00,1.224688149141141658e+00,-2.274986111557355084e+00,1.266893779965375888e+00,-2.754708563519385200e-01,-7.455542392374966409e-01,-2.272799138702493504e+00,1.697401815957497950e+00,-8.467085869606816306e-02
-9.845554157072309298e-01,9.516918087165360252e-02,2.322622874156662132e+00,-8.692520077939943635e-01,7.364799168613493929e-01,8.958766455060235279e-01,3.761229388068465518e+00,1.616018986834410587e+00,2.196703092096685406e-01,2.265219773679740811e+00
-3.154390990775160830e+00,-1.276835534923763671e+00,3.975747105271024928e+00,4.750021605572142036e+00,3.517273136730483252e+00,6.791738530802573504e-01,6.022536364855074709e+00,5.989545878947557966e+00,1.281408712563000485e+00,4.551222186683153481e+00
-4.548141003688486728e-01,5.597075017224769633e-01,-3.938835469268967548e-01,1.810614786457001024e+00,2.112385262277212572e+00,1.081790140603881234e+00,9.353512672492740876e-01,5.581376647486363529e-01,-2.412669247937789141e+00,2.619718048455166315e+00
4.584706810391446785e-01,-3.800546698160007786e+00,-3.582484994723081684e+00,1.807624579024402989e+00,-3.740631264511836918e+00,4.047998979174731726e-01,-2.232138203523303943e-01,1.891997012399497358e+00,-3.596647898797565190e+00,-1.311320781079757136e+00
5.462439476211315981e-01,7.392662200458601784e-01,-1.418488768685820967e+00,1.151730489121138401e+00,7.565117344663010446e-01,-2.670024552306854981e-01,-2.784566170530678342e+00,-1.351575040347710477e+00,-8.188500395639430884e-01,-5.597757347594893851e-01
8.921091017023274894e-01,1.770855468872534200e-02,-2.704308822153396186e+00,1.702154603524914434e+00,7.606493133332462020e-03,-9.841084546653672271e-01,-3.742886895555274318e+00,-1.576883974555283174e+00,-2.079360550687128495e-01,-1.917343939949857967e+00
-1.449796507698214221e+00,1.157998660902207266e+00,3.437009738976548601e+00,2.984464807483873106e-01,2.538954980163179442e+00,1.192743221108794494e+00,3.145276332563750721e+00,1.785206820903047165e+00,-9.078475496646079557e-02,3.431872889415513050e+00
-1.465723361197186048e+00,1.152700909941481555e+00,4.841758311558988837e+00,1.700982027233886029e-01,2.033050144173039531e+00,-1.422970202823256258e+00,1.005417975180191048e+00,1.337219160091750458e+00,5.902024825567779409e+00,-2.079207409084054547e-01
