-1.298838866270732861e+00,1.629427509770253746e-02,1.427336368742168515e+00,-1.910536762433212132e+00,1.548210192762297543e+00,-3.168115084061745024e-01,-7.845426419109695626e-01,-3.227787135517293793e-01,-2.130806279918030288e+00,2.487675407710168707e-02
4.447657558639114272e-01,1.055944977762880210e+00,-1.182818511537547579e+00,1.537494584034928558e+00,-2.627518536370824220e-01,4.907279412739991020e-01,-8.069617602403722501e-01,2.914106925471355414e+00,6.817198419317448410e-01,-6.658979920461683966e-01
2.623356720530275465e-01,9.792343507119622981e-01,4.097963017142688180e+00,-2.064647774967960814e+00,3.409441645689565981e+00,-1.763213088334673939e+00,-7.974928083323976624e-01,3.963723079738679100e-01,-3.307364123669540135e+00,-2.576033425883846650e+00
1.598738874981824543e+00,2.514227309386455333e-01,1.568386134356841932e+00,5.874819653802505481e-01,6.347215988353233085e-01,-1.044853966663107148e+00,8.822915485529581048e-01,-8.062000151738261122e-01,5.505032661379478665e-01,-1.650016800816366480e+00
1.027345164768352026e+00,1.619284469650334457e-01,1.331921198885366309e+00,6.204932269337685158e-01,9.172164799681247205e-01,-5.457730591195263381e-01,-1.034859137032408283e+00,8.298136078546538563e-01,7.525474752134653222e-01,-1.587584530476847444e+00
3.529919168746800118e-01,2.337051732002879412e+00,-3.631915265806740845e+00,4.297699446607371243e+00,-9.444862899644177467e-01,1.554917390335133209e+00,-1.218110910344991860e+00,5.588109901610970986e+00,3.065986613315062836e+00,-9.211341984845220487e-01
-6.360592969452791845e-01,-1.299682174881910957e+00,-1.163071636326893810e+00,-9.102851174413193469e-01,-1.565007542917878247e+00,5.848418003695363687e-01,5.326131813148403671e-01,-1.591471704775565321e+00,-1.580243339290332283e-01,2.072416667081411479e+00
-3.428688271480485383e+00,-2.762123282067570962e+00,-2.575007604530087368e-01,-6.479760135252460529e+00,-1.266004730951313606e+00,7.287725185511950698e-01,-2.811699346603678262e-01,-2.853050298273595686e+00,-6.342844637602409463e+00,5.040447180137440419e+00
1.143330368039202405e+00,2.072604086846207672e+00,-1.791714742180843034e+00,2.818269979310740858e+00,-6.968970664204888754e-01,7.747655246821216757e-02,2.414071214075135252e+00,1.269942117918065438e+00,1.425621403750601868e+00,-1.065829538865592951e+00
-9.808838514241524642e-01,1.552845032326449992e+00,-2.283479068649002519e-01,9.314080143814419399e-01,1.296554594239320402e+00,9.754180958343042218e-02,3.418375474159386362e-01,7.143528713014667408e-01,3.346606744624094909e-01,-7.985098231992264761e-01
