2.164846560749754012e+00,1.736201065774245267e+00,-1.554779958596113509e+00,7.336742158844758444e-02,2.724796566749603688e+00,-9.148911042143016425e-01,2.429363407316488033e+00,2.513433173987773550e+00,-2.483626736454536132e-01,-2.490087516054115546e-01
-3.448691426417613837e+00,5.117198213026535880e-01,1.551020306121104309e+00,-2.671615785209613403e-01,-9.292732171860934587e-01,-1.986365241033698215e-01,6.571659208797765439e-01,-2.228301543215353675e+00,-1.416095573165480515e+00,1.418677742520233043e+00
1.824454284169841900e+00,-1.273055633253424190e+00,-2.201815574144780019e+00,1.911809922604877698e+00,5.059225207696532722e-01,-4.600027024387575159e-01,-9.759943793229624021e-01,1.821082432200783252e+00,6.794710211172888537e-01,9.800933897800229166e-01
3.596495325637955709e+00,1.673354657301622472e+00,-1.175591625383553440e+00,-8.159848797893944905e-01,2.846425245105163704e+00,7.071567961806399794e-01,1.077067680235715308e+00,2.418946675782277289e+00,1.894205407782812323e+00,3.984941372403688620e-01
-1.753380653563145541e+00,-2.344546964510059450e-01,1.298033765634687642e+00,-1.512389942337663440e+00,-1.916857828197670033e+00,1.621073781913764167e+00,-1.318323301549872539e+00,-5.743316633322278486e-01,-9.003956083980474423e-02,-4.467818468459410775e-01
2.733304149862688881e+00,5.771223138057804958e-01,-4.046156046547370599e-01,-8.586672730197846271e-01,1.143185684649783207e+00,2.548936070999975878e-01,4.059498474413508196e-01,1.382866651573750660e+00,9.981518004414680068e-01,-2.046930552820372728e+00
-9.740152212237372931e-01,-5.754830278512398922e-02,1.552764542776757573e+00,4.572010586846099733e-01,-9.210023429391527017e-02,-1.556717294813278807e+00,9.678903105817467933e-01,-3.162041051463094554e+00,-6.154802624748858531e-01,-7.949985540282491492e-01
-2.679432436279118424e+00,-2.901647038489894914e+00,8.534715059300680418e-01,3.319877928637783970e+00,-2.160928235824180810e+00,-3.083099459460314495e+00,-7.760847433589277422e-01,-4.529508984785880266e+00,-1.720347330613318126e+00,-1.661450849009762920e-01
-2.886010315945372051e-01,-2.147490776981601623e+00,-7.618148348436651895e-01,2.060846976798970331e+00,-1.253956102997934918e+00,-1.219849696504286873e+00,-1.260697805789005255e+00,-5.713675881081894392e-01,-5.483517360851887235e-01,-3.819898819377328669e-01
3.263991118153928728e+00,7.487482806495656673e-01,5.199387976464178163e-01,-1.903299762869972822e+00,9.319907522613670725e-01,8.789917012467027835e-01,1.058757583745512654e-01,7.270947876144144839e-01,1.702370760973282993e+00,-3.191397500377792795e+00
