-2.848863147129499507e-01,1.044274446590545580e+00,7.744001612920015098e-01,-2.462854634251391284e-01,4.712590698164293435e-01,-2.427077640097455857e-01,-1.291014449783152385e+00,5.288151830644580165e-02,-9.405636023239684063e-01,-1.068501990109519184e+00
1.421276267362604040e+00,5.842911411749523998e-01,-1.411937833221298622e+00,-3.606504874060404653e+00,-8.754008162138311733e-02,-7.246534562972721805e-01,5.487724118928245964e+00,-1.352686668441427376e+00,6.586689080744186242e+00,2.034664601068945977e+00
3.089688641065044816e-01,-7.111930996238151614e-01,-2.608062677103184512e-01,1.074266189934168114e+00,-3.715794628239296182e-01,-2.759571853915496753e-01,1.205032917712914653e+00,1.619808046315537542e+00,1.169488241708624088e+00,1.520230372819226794e+00
-8.057254956916943822e-01,1.039112669560148916e+00,9.915912521152221437e-01,5.080806429483768483e-01,3.104246111909166883e-01,-2.021835475304374352e+00,-2.810842299409281431e+00,-1.443575346102720092e+00,-5.095291414064709201e+00,-6.005492145956715655e-01
2.370908994882743315e+00,2.383391886906889301e+00,-7.048225761772635156e-01,-2.337930532643325954e+00,9.318647019630841299e-01,-2.043409910098246129e+00,3.399936419250824571e+00,1.106986810447773584e+00,6.342667054189865539e+00,6.248087897291478843e-01
-2.187211179315324827e+00,-1.515169115506378894e+00,7.061818343657021435e-01,-8.408121357598781209e-01,-1.025562654162213594e+00,1.854700339061773340e+00,1.266971257427777831e+00,-1.244053193676377012e+00,-7.142002109375105157e-01,1.330510998620533014e+00
2.004341806011422644e+00,1.324815689941427621e-01,-1.740499764911201730e+00,-9.747496284721293147e-01,2.689526900042072954e-01,-3.378163055924851554e-01,1.798287594787554067e+00,-4.913901540448406546e-01,3.464745377074060162e+00,-9.985896745191652490e-02
3.456164352071364299e+00,2.105056940396103471e+00,-1.083746112986879284e+00,2.245110766317484963e+00,1.350382571152464850e+00,-3.990690367003447037e+00,-1.625435344588410880e+00,2.634341564883154518e+00,5.045560489790461567e-01,-7.710649520244459154e-01
-2.993968931353394591e+00,7.550839865049233102e-02,1.249042513272023092e+00,-3.072463433467676808e+00,-2.320681241099505354e-01,1.803628570063331660e+00,-2.055115702225383867e+00,-5.708283569303886473e+00,-4.952562122739998074e+00,-2.030585236299303098e+00
2.928073729771270450e+00,2.096226575292617633e-01,-1.638473823671974472e+00,9.635753426408323330e-01,4.179879357521152361e-01,-7.859935360430785334e-01,2.255280691801984982e+00,3.278963380799373883e+00,5.571343336551982439e+00,7.095280354348333374e-01
