6.341381401129498885e-01,-3.312270116919081575e-01,1.138370930940185488e+00,3.470478630424429778e-02,-4.948382238079725992e-01,5.794413299411957929e+00,-7.961167970913129999e-01,-1.625704641774139869e+00,1.547801647982921081e+00,8.745878598218727318e-02
1.488228322454804298e-01,-2.536154782067820523e+00,-2.444520611409596977e+00,-1.309019273113604942e-01,6.104487472110534663e-01,-5.962246688366303893e-01,7.675381275507409118e-01,-1.182092672328730165e+00,1.454713417779434304e+00,8.400987965608988084e-01
-1.351514424235977785e+00,-1.623536870056186521e+00,-1.529171371575917648e+00,6.630170650402430477e-01,-8.032679035855629091e-02,-1.338457829075077710e+00,4.893829933326499515e-01,2.437805396582216205e-02,1.417216946361439696e-02,3.746733443522205775e-02
-8.969562602204631530e-01,-2.945817192837250520e+00,-3.879001996799855245e+00,-1.028373231870989002e-01,4.016561210620321898e-01,-4.497292606979515384e+00,1.771894262424318578e+00,6.055582722223316061e-01,-1.469638334215195075e+00,1.052320957022046644e+00
-1.739545483905536871e+00,-1.903348180566277081e+00,3.072038704571998124e+00,-1.133771933542281340e+00,-1.344641952593001344e+00,-2.575882774423129629e+00,-4.626683911754041034e+00,-3.346247324459485917e+00,7.451066169883500123e-01,-4.720749503664127822e+00
-1.830766815355566068e+00,-3.723267426046991346e+00,-3.382071662062500650e+00,1.041506744314332433e+00,1.095771785189282976e+00,-4.502337546289754577e+00,4.791866884086985467e-01,-1.663111439930951230e+00,3.650798356566732572e+00,-2.519765863960202745e-01
2.002517978985180136e+00,-4.647979750720302589e-02,7.704250347424936862e-01,-2.444689072109778039e+00,-1.883885628261984524e-02,-1.759784423234709072e+00,-1.058954332006449839e+00,-7.994314153979766857e-01,-1.708481495403572747e+00,-5.909697588327028628e-01
-1.614129682731652915e+00,4.430889261523904832e-01,-4.011845560562099511e-01,1.489444874480546854e+00,-2.427723183549891639e-01,-1.184240862062648086e-01,8.091987595925618226e-01,1.394227443720603254e+00,-4.409964007052322721e-01,2.372474151565407696e-01
1.909272825699841469e+00,-2.573276082546347876e+00,-2.456016270719250549e+00,-2.103344890490943087e+00,6.584069996476421549e-01,-2.096899807627865098e+00,5.981826795083989845e-01,-1.245685202966637428e+00,-6.369850280155666677e-01,9.969774002997175977e-01
2.122924917539019685e+00,1.083604098062549204e+00,4.886929909400331562e-01,-1.397583035128769469e+00,2.500235970722642503e-02,1.476768430257946685e+00,3.379715098747078650e-01,4.240511318915868300e-01,-1.720095667042021326e+00,9.401577787972283939e-01
