3.598755329650626056e+00,-5.819210283057519639e+00,1.365630910929011455e+00,6.303540308601346398e-01,-2.481357010368295590e+00,-1.954432730474014779e+00,-3.880456752098959683e-02,-2.334732827686283319e+00,-3.747907257191993136e+00,7.177446341634993177e-01
-2.346215358187623834e-01,3.899296669566464146e+00,7.640559631621045567e-01,-2.628929975062170854e-01,-7.837274846259402183e-01,-1.664954371573618419e-01,-2.631411120806272042e+00,-1.149904945542455925e-01,2.173012054062324339e+00,-1.058027589589637829e+00
1.384546414559318706e+00,-2.139033644818935098e+00,4.738099072026042413e-01,5.647812601446977609e-01,-1.398733759064936799e-01,-2.231919363824739655e+00,-2.053234325100073754e+00,-1.189421087942992949e+00,7.219413015158876457e-01,-8.753864033313653037e-01
-3.352159616813654264e+00,-2.949233445508911977e+00,-2.882047158780249863e-01,9.829388207689000456e-01,-2.525155950535468152e-01,2.827029047117603167e+00,6.014294920231362251e-01,1.855006396804722346e+00,-3.588807074924497797e+00,8.769215312325789879e-01
-2.116156512777744414e+00,-4.912368038411984994e-02,7.305452086134679446e-01,1.861159921505892267e+00,-8.869809463657933879e-01,2.050011463491441255e+00,3.659339004374353443e-01,-4.506023916564066978e-01,-8.367799383609400565e-02,8.447326667947179235e-01
2.938783152731658355e+00,-1.622948007703191475e+00,-2.129249344360911733e-01,-1.302125661198461959e+00,-2.984470637879775845e-01,-1.303217783941751362e+00,1.728578190370423595e+00,-5.369464175126065220e-01,-1.855621657147686010e+00,5.157804655059343713e-01
-2.378642726817095543e+00,3.594110313893603692e+00,8.772130336458526800e-01,1.352797677058207526e+00,-4.175631810649453879e-01,9.231331055921656592e-01,-2.797356172600273361e+00,-2.190201409187634285e-01,3.220326329182215730e+00,-8.762494496074694217e-01
-2.148876141577463983e+00,3.732599313275290154e+00,-4.709751390257829184e-01,-7.804423311284153231e-01,6.439277632591565714e-01,1.324063883844005751e+00,-1.086464911126288513e+00,1.811678454566947316e+00,1.201427443179989618e+00,-6.970735935062020161e-01
1.016728493828445989e+00,-5.995954985905137535e-01,3.717010175808441175e-01,5.805352981789377864e-01,2.314066417275048582e-02,-1.423559794416999535e+00,-8.731674575457614162e-01,-1.229178640011691526e+00,1.410284108579301865e+00,-4.186163271884876247e-01
-4.833434521483819246e+00,4.533124788999500221e-01,-1.799742281072651995e+00,-1.205819685529557539e+00,2.029409661504924411e+00,2.274556352170026940e+00,-1.844435789841782469e+00,4.784962408057019445e+00,-1.730986011776008970e+00,-1.158326614577776414e+00
