-3.660428848700464144e+00,-3.793667680109870322e+00,7.037062793365888247e+00,-1.525014863784066810e+00,-7.565345104742079441e-01,-3.201201614702083198e+00,9.122989747822114470e-01,5.029045510153828946e-01,-2.130765541410851061e+00,7.913245275600907513e-01
1.003329900214167125e-01,3.670268420550897304e+00,4.398028919792329461e-02,-4.127065484852995070e+00,-9.947005304610289089e-01,6.505363938402819457e+00,2.105434409277100016e+00,-3.456792750066476572e+00,-5.893578794495098805e+00,1.741676676721456429e-01
-3.175246329747736240e+00,-4.194192761018541660e+00,-1.183947760914248581e+00,4.404165603738762869e+00,2.148407611078623436e+00,-4.936379054924166176e+00,9.137142951861725315e-01,1.786444782555620669e+00,6.244857411203528663e+00,4.861967368029503911e-01
-5.124644980591404497e+00,-7.774218017447180884e+00,4.020583982540554047e+00,-1.461825653013842707e+00,-4.866895377313131821e-01,6.304880174918514602e-01,7.141961853064427990e-01,-2.006648954331350931e-01,-2.790739077265319334e+00,9.418707885925208245e-01
-6.512729203266369282e+00,-3.256435575506182900e+00,-3.318688112540676194e+00,-1.998290499376261131e+00,4.167538446154231302e+00,2.511495842307915005e+00,-3.179364321694423179e+00,-9.487310052906635649e-01,2.144756473326789425e+00,3.701814300091323950e-01
5.101707695113921748e-02,-6.675362882184676661e-01,-4.231746820018232325e-01,6.858234887727530094e-01,4.359552940348981331e-01,-1.226476777486454006e+00,-1.160592416279492278e+00,8.311110374063224171e-01,1.439115129485773359e+00,-1.369090901319661158e-01
2.288157717114095213e+00,1.256708660239800546e+00,-6.024984278407126137e-01,-5.907443995855204966e-02,-1.221711277522178118e+00,1.555763855110992022e+00,5.742375054335413509e-01,-3.628389297831924876e-01,-1.485232334593735271e+00,-2.341588953374542648e-01
9.015838234156980935e-01,3.174595748325390598e+00,3.061784950305224129e-01,3.265834310667865559e-01,-3.730858546204221526e-01,-7.904753044879964108e-02,2.603520516753795810e+00,-9.144114179710994827e-01,-3.341306719870281716e-01,1.254875502159789602e-01
-7.441350045718627015e+00,-6.263250364453724295e+00,-7.953782416662598109e-01,-4.089852546139650102e-01,4.349912156590439949e+00,-2.272473837453486301e+00,-4.397556866448304014e+00,1.251456914455956415e+00,4.545227267575421060e+00,4.591295626699314347e-01
-2.391747235341317168e+00,-1.158131429960030712e+00,1.898519358357034559e+00,8.375508901411846674e-01,1.180686707359928089e+00,-3.703573776567985476e+00,2.138964721551533943e-02,9.052365051164985577e-01,2.383686886855260756e+00,3.384320395793379843e-01
