1.778203589782201943e+00,-5.295840358016935312e+00,6.614400676055599559e-01,2.661373320490264538e-01,6.522345558615223027e+00,-2.456912858167829228e+00,-2.851866394713805875e+00,-3.194621476597347964e+00,-2.137831762006451974e+00,2.446890106718810465e+00
-4.764169979110097208e-01,-1.362568472474305015e+00,1.309063273437168551e+00,-2.202393792162219199e+00,-4.412644792644615510e-01,1.616221347930797414e-01,6.592213380911540188e-01,-1.828823394967936444e+00,1.634563202900801704e+00,8.987065416892970893e-01
4.531728832562305520e+00,-5.024250904775998450e+00,2.350755942178007762e-01,3.365199710242787301e+00,6.856816171383663949e+00,1.009213158816362199e+00,-4.136479616878089516e+00,-3.601104831910124204e+00,-4.463059263715568825e+00,-2.710790530134204790e+00
-6.784583292056799442e-01,-7.294736915716637515e-02,2.649487135286685113e+00,-2.124329080025884942e+00,2.939958342064563634e+00,-3.983010692061150770e+00,9.021072899756745755e-01,-4.003031707184096177e+00,-6.765201140970437121e-01,5.080098606512255976e+00
1.429158055061593879e+00,2.363395132777214691e+00,1.150168363847274611e+00,1.204915127149381648e+00,1.716619009781715111e+00,-7.488091780100580852e-01,-4.299949177428532554e-01,-9.289079936211366295e-01,-3.393683073103770376e+00,3.384350868611069041e-01
-3.202141686113112229e+00,-5.162189995611368154e+00,-1.756570362876853197e+00,-4.729582941818458508e+00,-5.298864094047011974e+00,2.643808577669103155e+00,7.942262291080153247e-01,3.178124780171996733e+00,7.993354812039058288e+00,-3.257141349727623036e-01
1.105480169078918440e+00,-2.555827573253228291e+00,1.836358128898824549e-01,7.257869753560903803e-01,3.413448742124758351e-01,2.362345437867836573e+00,-1.516718814046384423e-01,-2.740288841140876119e+00,9.735393060244385000e-01,-3.172772196567263947e+00
3.056153246008848967e+00,-3.679672991333297283e+00,-6.888410341128905490e-01,3.285692435979715498e+00,8.047602171126932546e+00,-2.791937119422692071e+00,-4.300838550454755271e+00,-1.114616917505732108e+00,-5.303071568615062681e+00,1.444282783241724655e+00
2.732656361824482349e+00,-3.944188271108176380e+00,8.777607153323055966e-01,-6.179069138805894923e-01,3.469776176599193018e+00,9.478315686273525165e-01,-3.427098680411426734e+00,-4.397263503123529094e-01,-2.451878849108649394e+00,-5.511009486777423971e-02
1.331939640045215034e+00,-4.878359623414544544e+00,-7.623184987791481459e-01,1.090851545764722097e+00,4.882922144582575008e+00,-1.403243785552988454e+00,-2.699801500851455316e+00,-1.221887845165591013e+00,-1.234568368658307325e+00,8.866726236950180917e-01
