3.213973911879110523e-01,-2.651889834204675278e+00,2.035394912897007025e+00,1.499425629609786537e+00,-4.649886406350606904e+00,2.980965460848433946e+00,8.753543683038457202e-01,-4.828496627021964249e-01,2.039444892412587862e+00,-1.508399431428115056e+00
1.984648335865750957e+00,-6.401965391569523156e+00,2.663657932080699453e+00,8.191392809260584773e-01,-1.052091357694776574e+00,-1.310017889248734857e+00,-3.694495425465023075e-01,4.107869231296951362e+00,2.545198637852532642e+00,-1.146141605144416431e+00
8.963125405347505126e-01,1.626505573410214067e-02,1.334826724764608841e+00,4.284902495194492511e-01,-3.965158632057941723e+00,-8.882586543229639142e-01,-8.303315511264219850e-01,2.786832972671314579e+00,2.736031772846652999e+00,-1.019507092283822747e+00
6.400430261332965554e-01,-4.135793532420104057e+00,9.894601085462896295e-01,3.856816489696678119e+00,-2.265672890989182786e+00,-4.358661636678119677e+00,-2.742609497886314252e+00,3.249809550648591117e+00,1.546556496150340854e+00,2.464360185996822050e+00
-2.604910993050768009e-01,1.857750352132097604e-01,-3.011526924528343807e-01,2.194295518440532611e+00,-2.298011725427786534e+00,-2.738185202929652284e+00,-1.950600394492765677e+00,1.378181978446729072e+00,7.068567776762763044e-01,1.877910479387193465e+00
-9.027760494113752365e-01,2.429716664851220287e-01,-1.386282823426799649e+00,-3.524081235065725348e+00,4.407992958771233205e+00,4.164403375824699438e+00,3.112230644818517966e+00,-3.277278986329711152e+00,-2.782591330067563984e+00,-1.641483485883106663e+00
-8.680573707091610025e-01,-1.500805042349650398e+00,-5.471291792753092409e-01,-6.275262400592211964e-01,8.850343474745331340e-01,3.004849284725719105e+00,1.773351244045094033e+00,-2.431172958645658522e+00,-1.419592673681448147e+00,-4.837031720175335447e-01
-7.796107256542859076e-01,-4.438993617716168849e+00,1.319364385295634934e-01,2.897244676517192641e+00,-2.671378161831828635e+00,2.696706951640437389e-01,-3.217758291302463824e-01,-3.493080258425566020e-01,6.600077326098874320e-02,1.480813510907363906e+00
-6.949008440954367316e-01,-8.138170188315849707e-01,-3.426853770418113454e-01,1.885449558511975710e+00,-1.891484104174110392e+00,-4.176197430205031980e-01,-6.774570736030425255e-01,-4.312509050550196177e-01,-5.080449455148100535e-02,1.339783859328433691e+00
-1.759870703854872653e+00,1.148312229503220649e+00,-2.060324329811535904e+00,-3.690534952791175716e-01,1.204349958821897326e+00,1.727462811680224641e+00,9.537133977804130858e-01,-3.080928504072844909e+00,-2.426744560774420911e+00,9.787185691707016577e-01
