7.097693922758644414e-01,-2.426416193986477232e+00,1.625063900368225900e+00,-1.749883174749940762e-01,4.221388847067514938e+00,-1.384314989608621316e+00,5.405616399678980777e-01,-1.316154133639994228e+00,-1.641504143446853137e+00,-2.577438618777759261e-01
1.861711426023359373e+00,1.506880261398454435e+00,3.522470684071196345e+00,-3.344910654883665568e+00,-2.265969611910966908e+00,8.535151252531639754e-01,2.586113219851027822e-01,-1.352845534439209407e+00,-8.102796061920017334e-02,-1.601179799825170225e+00
-1.298867388582860771e+00,-3.124362457246559366e+00,-1.093524986097233587e+00,-1.078886728240469051e+00,-4.915584257656013811e-01,3.166459920642988313e-01,2.918911331039471535e-01,4.388586882017148305e+00,2.981864986142443441e-01,3.057667212673741197e+00
-2.166275605505340707e+00,1.656894628219520937e+00,-9.018971119791174829e-01,-4.763078902062129139e+00,-3.571542762379987579e+00,7.230540175287630156e+00,1.174800614427802703e+00,-4.394153343361548281e+00,3.473845832056660754e+00,-9.038531031219037004e-01
-9.261788397468022627e-01,2.362150708769520380e-01,-8.784163931644196621e-01,4.779773223270965765e+00,5.206793333390522527e-01,-1.015190746162522828e+01,-1.384908189047209803e-01,4.232919114831404706e+00,-3.481716087256168546e+00,1.158248749564136926e+00
2.533161090557916939e+00,3.205668343642471996e+00,3.316582947787145130e+00,-2.146794037351360984e+00,-3.137708378570422951e+00,7.711964956365010559e-01,-3.711149950562864230e-01,-1.624043826421825543e+00,1.385304579077776543e-01,-2.380339414939271592e+00
3.219360714195740325e+00,2.312952229606411336e+00,4.541138612274314923e+00,-9.500089331307291773e-02,-9.759620181562107533e-01,-5.137343418595992084e+00,-3.491426400570291633e-01,4.338817941114436749e-02,-2.636293950288757681e+00,-2.198169053480266477e+00
-7.561912160481524259e-01,-4.387950389524951866e+00,2.582447203926284685e-01,-1.700192621778723323e+00,6.721777310781261727e-01,-1.053216070543006699e+00,5.765259471245346434e-01,4.934541466406169086e+00,-7.436212890856216395e-01,3.286217733108647288e+00
1.681337662341061412e+00,-6.843910609711030268e-01,1.642824778568580335e+00,1.336506226900661121e+00,4.955975837965486130e-01,-4.233774741488491422e+00,-5.728447723217982013e-01,3.336338091868316980e+00,-2.026309675995596749e+00,5.805273908784368553e-01
2.246088534177611340e+00,2.163679846704872123e+00,9.716488236532996314e-01,3.834384196341274365e+00,-5.685838617828151698e-01,-5.561064030028648020e+00,-1.394223657882656120e+00,2.627391277298448458e+00,-2.058793742393959292e+00,-7.262458255594592682e-01
