3.473280413899784702e-02,-5.564740638239058512e-01,-4.034725961253204929e-01,2.279028641976462488e+00,1.189487577461097789e+00,-5.560338013411463720e+00,-2.016670698206930012e+00,8.047269295265798705e-01,-1.938584291050843511e+00,-1.004380761901310315e+00
7.254346007806271313e-02,-9.517369461315576817e-01,1.178058203566754170e+00,-6.852439205538141120e-01,-9.825417768973410126e-01,2.786809074184506407e+00,1.576170134648098742e+00,-5.224042064199563296e-01,9.646385395200187673e-01,-4.120759384463191566e+00
-1.603597142021243149e+00,4.384514359087854363e-01,1.112643025164773425e+00,1.740293809525158331e+00,-9.357288790504922904e-01,2.247485045993740993e+00,5.643016518550635574e+00,-2.745548192996237091e+00,3.157883598560217830e+00,-3.443702557196668845e+00
-4.974941360970012161e-01,-3.003968279342740244e-01,1.013279508134626444e-01,-3.173147455373712122e-02,3.285532696990954293e-01,-4.743068291307777629e-01,8.790636593288632117e-01,-1.535875922407147209e+00,2.103507240300529713e+00,2.034719121662495467e-01
1.178218486672691911e+00,-2.276549114081090508e+00,-4.841138661314456360e-01,-3.093127439810189561e+00,2.293756202917656140e+00,-3.831615523192115624e+00,-5.585570553547750450e+00,3.583057320727466299e-01,3.105034080947217667e-01,2.420125528304380769e+00
2.579371037913639197e-01,1.360220871528322606e+00,-1.027000870730038429e+00,-6.891287158780763367e-01,1.138738649225638833e+00,-8.416403825215074130e-01,-1.830954091011625096e+00,1.824267460921521034e+00,-2.570245322159463441e+00,4.799437833165551837e+00
-6.803729573211578785e-01,-5.239077321176555113e-02,6.865372927985065044e-01,2.365712686369442874e+00,-6.010608127959715663e-01,-5.284050918170353217e-01,2.439205800390743306e+00,-6.156444836669218157e-01,9.161758083706340872e-02,-3.964747226374332190e+00
-1.230035198669670704e+00,-6.782397856497087707e-01,2.097132915654065788e-01,1.708109659083664855e+00,9.551146496680190667e-01,-3.343392751850462474e+00,1.798835052408723101e+00,-2.836680451897706678e+00,3.260537327014151998e+00,-1.061522026349028147e+00
-9.416320600593324208e-01,1.592940086944796940e+00,-7.426042658056036805e-01,3.105041203504949721e+00,-2.150469318376694083e+00,7.382916193008512984e-01,3.061635305690120212e+00,-2.199426443244074214e+00,2.831328047738679743e+00,1.111994320072882125e+00
-7.244948610372176079e-01,1.322103128914849268e+00,-3.853397359579092130e-01,-6.904539738794566173e-01,3.144562429521373659e+00,-2.366457470907751048e+00,-1.889905823744808533e-01,1.356257204693898988e+00,-2.740359449119338819e+00,4.179476267326961647e+00
