-8.898748545057088011e-01,1.616019279963212707e+00,2.325560535619980218e+00,-1.585248698405992585e+00,1.640013405501328791e-01,-2.697112296042571522e+00,-2.547454563575251463e+00,2.049330597862933701e+00,1.962257792294947123e+00,2.108665444854223026e+00
-6.595763511105828814e-01,-2.860987373528245947e-01,1.554673121021898252e+00,-4.233405146783352224e-01,7.597630351794423254e-01,-1.354899702318932642e+00,-4.750448491512245797e-01,-2.405886595303149633e+00,2.345477590903278120e+00,-2.528272535833009815e+00
1.651186721892755394e+00,-8.355065303412285704e-01,-5.991435392391519343e+00,3.541352348249416693e+00,-1.402756635202117241e+00,2.843673530509150948e-01,3.303099844317803679e+00,-2.198942796473236427e+00,-4.383235560334795444e+00,-1.019957891549897244e+00
1.285848129995646349e+00,-3.310559480667115917e+00,-3.812369428884394118e+00,1.293797763709119586e+00,-5.558468330625816467e-01,1.507134892974778761e+00,7.114703164769426991e-01,-2.336031279809008154e+00,-8.340352813314769520e+00,-8.045624946342539996e-01
-1.352030941392809993e+00,3.605563376512826324e+00,-1.243355796598277330e+00,6.846107452840135554e-01,-1.106097847217772934e+00,-1.340645791376789742e+00,6.883638252781715261e-02,2.740071421170314547e+00,2.388306745380518237e+00,3.853589914977053166e+00
-3.379968340154207773e+00,-6.257591171173826350e-01,7.141710809519361547e-01,-1.479671715208850102e+00,3.646853768301116516e-01,3.606069275204226265e+00,-1.504863798110777751e+00,-9.125634174800543175e-01,-2.733445610226551636e+00,1.740525375684756959e+00
8.156084537339520768e-01,3.671082788207622460e-01,-2.283625843032678571e+00,1.528325051231556930e+00,-6.420054188963159048e-01,-3.057230056677616048e+00,5.207746304185810748e-01,-1.288321472891693187e+00,-7.423303738992685918e-01,-7.062175003266127904e-01
-4.408077950077924356e+00,-1.415430798340677754e-01,3.439783697594848810e+00,-3.389745502859963899e+00,9.135479814044816793e-01,1.768094149874687382e+00,-4.190962163498804571e+00,-3.065210621197062002e-02,-1.717036851965062727e+00,2.776640204295203862e+00
1.412998901473966118e+00,1.108901529052322532e+00,1.145639053746275504e+00,1.981852878664568107e-01,1.252252449917776178e-01,-1.794176816355204540e+00,6.330286344855093894e-01,1.223775393000113620e+00,4.108219322025350451e+00,-8.703308476303727170e-01
5.001997560616229244e-01,3.651206246021669877e+00,-1.584615493269101449e-01,5.811710148031450363e-01,-8.669830364084040175e-01,-5.699902166847076401e+00,-7.899920008142375938e-01,2.702259359013827300e+00,4.155376663077386290e+00,2.267863633553160341e+00
