-4.746578081233675528e-01,4.365575838313901641e-02,1.435650534897001673e+00,6.491119236116841273e-01,-9.727461060493547418e-02,-2.269485095080243653e+00,-1.585150542311807964e+00,-1.181969571299490873e+00,9.762446015480845674e-01,-1.019907391205111757e+00
3.884822318964205046e+00,-4.855036140611040940e-01,2.240318938758915301e+00,-7.338913042305035273e-01,2.290578036375255699e+00,-1.025941142583680854e+00,-2.602947011947505551e+00,7.924545152019856209e-01,-7.962762284863258433e-01,-2.708700397874252985e+00
4.509319578593626865e+00,-8.215793538844753385e-01,-7.110886231118538348e+00,-1.699457041872503682e+00,-1.234982362660996813e-01,2.858824388878828948e+00,-3.262048265017959636e+00,6.073672255772917250e-01,1.039434723203786826e+00,-6.111794435096388867e+00
-7.349261038599510520e-01,3.034222866894913384e+00,8.086614104741429720e-03,1.700430143832764696e+00,-3.150888861284956377e+00,-1.555765921684574948e+00,-1.496758000067135441e+00,-3.540220233157688412e+00,2.778741688214212413e-01,-3.407611920758665036e+00
-2.731276721306286071e+00,1.994927654288330743e+00,-2.571484631637081186e+00,1.242560918419706173e+00,1.396771635914267340e-01,2.078240486648181840e+00,4.423725426726517362e+00,-2.701706102010014821e+00,-1.973561415818479770e+00,-4.805976810152648993e-01
-2.753560992789910067e+00,2.629821626022282199e+00,8.551227525851066602e+00,1.889594986758040163e+00,-1.476321323196996049e+00,-2.958637057506201984e+00,2.027202254876119270e+00,-9.179675533194694426e-01,-1.960373990004247169e+00,4.736407139498311381e+00
3.846838467185954347e+00,-4.845815716512258398e-01,2.757539625641242775e+00,-1.411774140803194522e+00,2.251110683927270983e+00,1.221805916483628796e+00,-6.474942501472291667e-02,2.874206348692967872e+00,-2.321584444020525773e+00,7.134845816407539010e-01
-4.217769864751234721e+00,1.708991695483029538e+00,7.129078081220298735e+00,1.097333801900632233e+00,-1.903665686118033884e+00,-3.614289866189501765e-01,4.969713687725845652e+00,1.343468255511972353e+00,-2.264360665686538265e+00,9.095119651040286968e+00
-9.942125676862088035e-01,-3.454562874211088430e-01,1.340900733880701079e+00,-9.224364554493141855e-01,-5.020953500029371463e-01,2.845827108429541674e+00,3.850898902934619006e+00,3.384024735564415742e+00,-1.677970047431844858e+00,6.468110063048950309e+00
3.137930670560011848e-01,-1.148006455141210580e+00,-3.362835344211908328e+00,-7.115221718409829865e-01,3.182678872327837638e-01,1.363675652854523745e+00,-1.282720739174715852e-01,5.940285923541119839e-01,8.545948411693533586e-01,-7.186579055140746020e-01
