-2.515433599201635673e+00,-4.323086653219143094e-01,3.342014170998819367e+00,-7.157249634681567274e-01,3.141512203791168911e+00,9.670527233205835627e-01,2.245490747330755266e+00,5.027823566571037794e+00,2.480508244805157858e+00,4.253808340956398482e+00
-2.045749345854696255e+00,1.041191956346019909e+00,1.301058993724324431e+00,-3.229971478976177979e-01,-4.866204579388102580e-01,-1.116785541086470213e-01,1.215341805429881017e+00,1.951234406343953953e+00,-8.089442171252252400e-01,3.879594373282163611e-01
2.238149711171605327e-01,3.857535543554033719e+00,-3.976415846326716852e-01,-3.840046296001297765e+00,5.313299168195793953e+00,-3.770473674151447963e+00,-1.364752869416257397e+00,-1.300703395111184602e+00,-2.999527446380140239e-01,4.833824935053508298e+00
7.859706348725197245e-01,1.415429749138387816e+00,4.646914934230411687e-02,-1.205971529474486159e+00,1.988042446697953158e+00,-2.608715314041096800e+00,-1.140115488067501848e-01,-4.577218230904132490e+00,1.713481681537631696e+00,5.352118863746185840e-02
-1.694460576609898128e+00,4.294055193618258048e-01,1.085169747652413363e+00,-8.610148862200552866e-01,2.779015107316287647e+00,1.188342966605486772e+00,7.078371614113806443e-01,3.014071427137416492e+00,-1.049016994775547884e-01,1.146815451595350588e+00
-2.975668762768576281e-01,6.254757779842156085e-01,1.629306991709040364e+00,-1.459710974407045114e+00,3.551332914501980742e+00,-1.496931167698348109e+00,7.121401024284588210e-01,-1.144438485049732168e-01,2.760139320032498400e+00,3.595477694803915547e+00
2.295939680170297592e+00,2.183523908701167304e+00,-2.105659320926817291e+00,-1.900717479583273972e+00,9.221926138386800087e-01,-3.476225575228188980e+00,-2.401319405815271146e+00,-3.093637596820073998e+00,-9.653436120443543711e-01,2.682787023140324134e+00
-2.893938623775829555e+00,-8.094587270703117454e-01,2.149831487543854891e+00,1.178825513102822020e+00,-1.513781990144548839e+00,2.320864422099005786e+00,2.316745654956470446e+00,3.835796287094303203e+00,-2.892312822840588660e-01,-1.390965961944474971e+00
-1.017281232360183418e+00,-3.312528387454870549e-01,5.032283944235484974e-01,1.630941658794654359e+00,-5.803718026905892557e+00,-1.147583441122784764e-03,9.295458114945817085e-01,1.821061045480728335e+00,-1.730328352365274824e+00,-7.298301602222704298e-01
2.133431897314520764e+00,1.185242341228714524e+00,-8.384397530788684216e-02,-2.581001197994010177e+00,6.835184152490761278e+00,-2.961362641989065292e+00,-9.809137730800802091e-01,-5.259768167323699117e+00,4.044594816808012361e+00,2.821877579334158614e+00
