-9.812601835643400827e-01,8.473356293289151520e-01,8.294331352035755334e-01,8.173453853993701834e-01,-4.781194247784023021e-01,1.161048185352273887e-01,4.059742528204856038e-01,3.578227754287775397e+00,-2.082248122026971071e+00,-5.044947409730211607e-01
7.697500201356947125e-01,2.826358530433569979e-02,-6.398750118838101297e-01,2.472109753211149119e+00,-1.567405310651106110e+00,4.377939290844775400e+00,3.317631979548911758e+00,3.698378764565801724e-01,-1.005201168812513979e+00,-1.574947531484624241e-01
-2.245765896761359737e-01,-3.886076120439532211e-01,8.016903232172444271e-01,-1.908816136708802347e+00,2.234721350242995896e+00,-4.076167199028863486e+00,-3.077818669919217154e+00,-1.022569328474654871e+00,1.432313153363431457e+00,4.994497774918841282e-01
-1.342767538550964534e+00,2.241504162053600702e+00,3.001668744096971597e+00,2.991962477501183049e+00,1.763974599635742102e+00,1.918289119406920040e+00,2.911340917349800606e+00,2.577379180254045110e+00,-5.821455073034950800e+00,-1.753136841601880214e+00
-1.141274816814678017e+00,7.485987693366562556e-01,-2.054045048558459818e+00,-1.452360585530753090e+00,-3.853912805568005417e+00,1.557318089839068609e+00,6.437008138945146118e-01,1.333258027166325688e+00,-5.839470942029010292e-01,-9.989591745281549695e-01
-1.903714783968694091e+00,1.348649044159834665e+00,-1.134880664942414352e+00,8.476646399502091311e-01,1.419697980553665584e+00,5.662993732223693399e+00,3.071929549692446582e+00,3.006313786378401076e+00,-3.283529616422459441e+00,-1.793806595026076867e+00
2.657556597749244354e-01,1.202854092727358326e+00,2.942968368492663522e+00,-1.902948646007567302e-01,-6.005334163645444256e+00,-6.636930751063536249e+00,-1.726181863895733581e+00,-2.741613296005551703e-01,-1.575584899861400823e+00,-7.389037342320511903e-02
-5.782283820411262543e-01,8.596845474150254240e-01,1.129604247721915700e+00,2.355108076597019817e+00,-9.315869132000365038e-01,1.515437648836736928e+00,1.709359739085026142e+00,4.442567876579397890e+00,-2.753408001758891999e+00,-4.038228426727994980e-01
3.534237783797391508e-01,-3.289749237921808511e-01,4.657742639298362297e-01,8.464096294525150777e-01,3.210652997061908209e+00,1.118473786711650764e+00,5.233902419692600949e-01,-9.976417367212079279e-01,2.758149540633558772e-02,1.713976303344594276e-01
-1.287649167817300766e-02,1.051486729106220208e+00,2.834846802868483451e+00,2.277141310950713038e+00,-3.024325883358490508e+00,-2.417301501735392932e+00,3.779245970338981908e-01,3.488921190142950657e+00,-2.797240788387413524e+00,-3.223015864531600383e-02
