1.695139061976476125e+00,-1.202037663712250737e+00,2.078630548134203337e+00,-1.292671030736755711e+00,1.004687990194133462e+00,1.008451466082958825e-01,7.238504889554776556e-01,-9.755385620938145097e-02,-3.197779682856457528e-01,4.647316929529922702e-01
2.589676177947245472e-01,-1.291585397576670680e+00,2.224204651459734672e-01,-4.553907251218713981e-02,5.352929046910962496e-01,-1.013130119476929103e+00,-2.685710057910844495e-01,3.014307461800937560e+00,-1.009777196895057294e+00,-4.097786840496738248e-01
2.682213268612847035e+00,1.722814518834353992e+00,3.396328998152606249e-02,-1.688856920204307110e+00,1.206289137333475869e+00,4.235906618768903731e-01,1.187894012314874237e+00,-2.270887878804327187e+00,1.656347232763957456e+00,-1.863566956118361206e+00
-1.315855986235570985e+00,-2.709160215040959052e+00,2.120415018622999970e+00,-7.914453415619786547e-01,3.558294679134753058e-01,-2.457668045877116736e+00,-1.389039673439077749e+00,3.340796179530802767e+00,-1.274304057097886078e+00,7.061055277274960185e-01
-4.454832698462222323e-02,7.836739913041946837e-01,1.007000779825258041e+00,-2.193572354576040606e+00,-1.772745198582989234e-01,-2.830079459685427068e+00,-7.847313511582385548e-01,1.312025541876980839e+00,-2.048637274272759878e-01,-7.196651437027905551e-01
-4.632384866766686704e-02,5.508496199030521456e-01,1.217652206566538942e+00,-1.515266434162351850e+00,-2.792295724551350777e-01,-1.208251059028656815e+00,-2.827065381600404326e-01,-6.314629194900663878e-01,9.108768506522502140e-02,2.636730518642292909e-01
-2.119358279495763497e+00,-7.381733036976046991e-01,1.983399200123222794e+00,-7.997429388986063703e-01,-3.420724666933867564e-01,-8.029597421531360357e-01,-1.182156480988074465e+00,-2.393115688556600507e+00,9.777556320745509622e-01,1.306468914129392145e+00
-1.688260998761500042e+00,1.285153671837560019e+00,-1.528977581841527433e+00,2.441236449235491435e+00,-2.027390841107314046e+00,2.878062747818438183e+00,4.050700974730954695e-01,-3.337661943041464241e+00,-2.192588462742461886e-02,2.257320070957975933e+00
8.041744788119936649e-01,-6.013140223101176574e-02,-1.567878152247460743e+00,9.105243953720253414e-01,2.666591073147115409e+00,2.301316403616337158e+00,3.910182099032635250e-01,-4.050417987486497395e+00,4.277303106333947724e+00,-3.139790813870601216e+00
-5.997753864106580846e-01,2.481630935699225660e+00,-2.082598587566298232e+00,6.984249331388454607e-01,-1.068184473105174614e+00,5.979903220740097058e-01,4.158027482270285069e-02,-1.746825370965839674e+00,8.330905484342014944e-01,-5.682544122686874477e-01
