-3.063449434506056446e-01,3.183604702842099954e-01,-3.998470538024156529e+00,-3.948578044040986779e+00,-1.453551558867391735e+00,3.025038409651902072e+00,-3.751137093126155175e+00,2.495184930739387408e+00,1.436017059174093058e+00,-1.364747436851219575e+00
1.083719697442819818e+00,2.640000720928143529e+00,4.126116827775869744e+00,-8.015174995052192219e-01,6.524055758687128392e-01,-2.586362385200241309e+00,1.586670236923748645e+00,1.902741266276570586e+00,1.636960600850459802e+00,-2.170291750619433579e-01
2.444008733647113352e-01,7.398288122899877861e-02,-2.157416185818764376e+00,-3.145933054010507046e+00,1.703781399070950220e-01,2.174352944043881075e-01,-1.585193601163134680e+00,1.372469616758963173e+00,1.925028537317624022e-01,-4.211046936334272850e-01
1.729941860913453811e+00,1.923477851114874015e+00,1.687943730920961061e+00,1.087749259417643666e+00,-1.184268206642488330e+00,1.959220951672990818e-01,1.252810727959337678e+00,1.709865418619352262e+00,1.080545154701923360e+00,-1.957344735439531691e+00
1.257399151880110866e-01,1.080827941722982910e+00,-2.552743234396971928e-01,-2.593846420478495673e+00,-3.215311463547411708e-01,4.284360296218680531e-01,-9.467622283660617200e-01,1.863633634466089983e+00,1.738564950880559845e+00,-9.919827883030736260e-01
-1.236900943913924689e+00,-1.480259987875873984e+00,1.584655013624493014e-01,8.709641911161440930e-01,1.873952437797314019e+00,-2.093797790920999269e+00,-6.204022040676473448e-01,-2.207666360420601048e+00,-2.821615615805430188e+00,3.740790630251046522e+00
5.107463287014386566e-01,-4.172830638362864941e-01,-2.976966568838623317e+00,-1.287892472242065489e+00,-3.045395426207352374e-01,7.802544820985641838e-01,-1.950681024149911069e+00,7.617635280307779588e-01,-1.368570557888554529e+00,9.823924977102671541e-02
-2.580694302760050629e+00,-2.175640841160026540e+00,-2.732500314695002874e+00,-7.655965313451386756e+00,4.397200381124659607e+00,-3.743556357652825461e+00,-3.156050051658036093e+00,-7.775301163711800800e-01,-1.481754027944778063e+00,4.461183947320074950e+00
1.502962575395309530e+00,1.137546295108730066e-01,-6.309457935290323505e-01,2.293372953849869944e+00,-2.341602860818472909e+00,2.882196123868535853e+00,2.249476195046609117e+00,2.533932088014407280e-01,1.605951013428839946e+00,-4.365131700486508670e+00
-1.669322206916390883e+00,-7.699421415888537679e-01,8.290945800686382317e-01,8.977101354303471670e-01,1.320951602648756218e+00,-1.454318054944474081e+00,-1.372291689689526306e+00,-1.596288325087881210e+00,-1.929341916326923867e+00,3.894246499445601195e+00
