-9.198842889325986594e-01,5.649783368126124472e-01,-8.765844631864713188e-01,4.469138455045500002e+00,6.390888412679319730e-01,2.475872580010259671e+00,-1.483282640318148715e+00,2.569085995922030463e+00,-7.200103178526499725e+00,-1.748903536800479053e+00
-1.145031133629983655e+00,2.627897412448064518e+00,-2.795027158978350967e-01,1.650278253184752408e+00,1.800971231373778014e+00,1.722601163877846453e+00,-1.589133182894139740e+00,3.097417245813896880e+00,-2.603216116346026787e+00,-9.993386403777207994e-01
2.852982385713525915e+00,2.383945828800955624e+00,-3.476401162348012608e-02,8.548219714631656585e-02,-2.292681193054076694e+00,3.524017307234334151e+00,1.309493915637275352e+00,9.398241951118182502e-01,-7.611704477914005729e+00,-4.741036366784343592e-01
-1.570802027442191884e+00,-5.155147658060851512e+00,-1.319350873976220972e+00,3.796828843353999616e+00,-5.115536114695816705e-01,-1.454374338006994893e+00,1.025913355050104725e+00,-2.346195252285612654e+00,-2.429691298875113148e+00,-8.265744090845426051e-01
-1.100780172604420404e+00,-2.851989919449726685e+00,9.355169162101749647e-01,1.598089866384826863e+00,3.576127389521788907e-02,-2.703287823289997505e+00,-2.379474550991626192e+00,-1.058012633169709282e+00,4.862333721181598456e+00,5.541071534148315214e-01
-1.723969382648591786e+00,-8.578499559915755968e-02,-1.344803692206376411e+00,-4.117130979522555023e+00,2.683107819092851010e+00,-1.475729889897754443e+00,2.195094287471864192e+00,-1.005492917695324229e+00,5.156249559688364847e+00,3.695914733969753452e-01
-1.649894037415133630e+00,3.762765407124896377e+00,-7.095337989944679180e-02,1.393540900891165890e+00,1.254218470540818364e+00,3.570601479173468595e-01,2.176913325804213706e+00,1.977266976597347847e+00,-2.083743039115000695e+00,-7.224955060262027162e-01
-1.755796629698064548e-01,1.004606233276378546e+00,-2.387886030814734273e-01,2.196298041295963621e+00,6.393557179067508311e-01,2.045866911463673610e+00,-2.300490396479820454e+00,2.355784764711295054e+00,-3.831812044295662911e+00,-9.558213996886351094e-01
-8.361950875656776194e-01,-2.712280810590165236e-01,7.721704945591563451e-02,-2.059283652240776696e+00,-6.889095434095309223e-01,-3.374941375766232099e+00,5.886949675343192467e+00,-3.336193833365087791e+00,4.057539812365583920e+00,9.804373649252041689e-01
-9.002417198581320612e-01,-1.893240143680227638e-01,-5.660340544743789337e-01,-2.238903182647599688e-01,1.649450152424124516e+00,3.586716188457562682e-01,-1.688995966533147541e+00,9.950159659932544809e-01,8.637941976410297151e-01,-3.299240107594094140e-01
