-8.961307735660323237e-01,-2.450582054355199269e-02,7.337337325764875517e-01,-8.222500408795108129e-02,8.813437524623149999e-01,-1.799155505487688433e-01,-4.688987773214097210e-01,-9.753401257915988998e-02,7.901493221689204205e-03,-2.475900010186426137e+00
-4.177591500676067215e-01,1.203454078246513514e+00,8.031474105111525708e-01,-6.093796621118813261e-01,-1.260608655859093652e+00,1.432822604394751731e-01,2.165419742242732926e-02,-8.547165620602831249e-01,-1.033692340958128009e+00,-2.219093244108925500e+00
5.774214966851809461e-01,4.354099011879995373e+00,1.983350238098167351e+00,1.133082824967339142e-01,-4.624851243959298586e+00,4.296236351533891273e+00,-1.032822527951291702e+00,-2.522137181657825522e+00,-1.080335613128988514e+00,6.325162291628971811e-02
1.528045008124750692e-01,1.078574512709373101e+00,6.056610297495428341e-01,5.052975397757342169e-01,-1.333015003256008635e+00,1.598887757154495493e+00,-1.044844174658031033e+00,-4.665425344769574822e-01,2.332672818261725678e-01,7.299630697633342769e-02
2.467891747814655312e-01,-3.243320005807229789e-01,-5.122391192917397085e-02,3.125015405543821734e-01,2.304092392460016736e+00,1.235147256863594056e-01,6.258940914305750614e-01,3.855176015676299306e-01,5.892310332816095286e-01,1.245508124519532522e+00
-1.907295053155875775e-01,1.673055500150648078e-01,4.823790321503922812e-02,-1.873638526996083409e-01,-9.487231854816993160e-01,1.239823369193959968e+00,1.501882293358199894e-01,-8.576491040866249804e-01,-4.049498197666673294e-02,1.527148187365743981e+00
1.724851130164321011e-01,-3.915716770963405313e+00,-2.039960058428517353e+00,2.357828398235043976e-01,5.185116505864751701e+00,-4.863376433908433327e+00,1.063015165097421555e+00,3.212857455368889337e+00,1.111990557752153386e+00,-3.591415361942685847e-01
4.036438413092491850e-01,4.838209279043159672e-02,1.496173627359483893e-01,7.175973989428807709e-01,1.247690026053289269e+00,-1.075276285581001190e+00,-8.184466116220572296e-01,1.275175600277907328e+00,4.602915680627645556e-01,-1.986507052086595504e+00
-5.508823791765361522e-01,3.037012367271703539e+00,1.714776293830522214e+00,-6.891100441982365155e-01,-3.824593114963334983e+00,4.726393631587365363e+00,6.982633888048261905e-02,-3.468722561610762423e+00,-1.069545691709007595e+00,1.735807345518457501e+00
-8.778522698859793083e-01,7.128572994760440373e-02,3.683330912830105608e-01,9.159157882003166051e-03,-2.560183358369502837e+00,1.636362705626500436e+00,-1.357932265047000042e+00,-1.046775902907953970e+00,1.430650404433946310e-01,-8.232923639128533755e-02
