1.907219805305634952e-01,1.588901494517943602e+00,-2.708123966861808896e+00,-7.785727424367120397e-01,2.716535789709712545e-01,-1.820222335431299632e+00,1.501319075806667236e+00,3.467313787658792834e-01,-1.277278128918824196e+00,-1.025771889484343946e+00
2.695478754192210058e+00,1.931381538757537486e+00,1.301991029408809952e+00,5.285439927256044834e-01,1.886280297114434346e-01,2.069245463730142731e+00,-1.188838063674846790e+00,-3.156420899467908381e+00,-4.399211273630782237e+00,-4.565799974298960784e+00
-7.025394262313304772e-01,-7.942204739377941580e-01,-7.354536909254502097e-01,-6.740023607968700370e-01,-5.366549771741373487e-01,-9.828968898608322347e-01,9.697622217342193318e-01,8.325036399081056082e-01,8.522755844465553787e-01,1.616792407181633973e+00
2.131794751565952772e+00,5.140284105673686987e-01,2.742353272494296945e+00,-2.640011300365830982e-01,5.823914694894005706e-01,2.204694068662706730e-01,3.456980746985048591e-03,-1.840519810652455623e+00,-8.105671096529107444e+00,-5.596560988481011911e-01
1.499953026317520921e-01,-2.773035059825800452e+00,2.841632893361713652e+00,-2.143150071929437461e-01,-7.510445514712443815e-01,2.126266120531338011e+00,-8.754625980666723706e-01,-4.453185103092320296e-01,1.521093345620807558e+00,2.621585601162795598e+00
-1.354918725054476081e+00,-1.458678451207350291e+00,3.212440096108482024e+00,1.949609840098015745e+00,-6.269175028469384792e-01,1.486933071765303760e+00,-2.225798785238583655e+00,8.464133840895865513e-02,2.347621214922476884e+00,3.452078529615901781e-01
1.623128343873965651e+00,8.677448947940716861e-01,1.049994137121326609e+00,-4.583826167784912364e-01,-5.108853126847018311e-02,-4.002525719027260065e-01,5.686617367559236857e-01,-1.560769409548353304e+00,-6.253028961300076460e+00,-1.272245726681981326e+00
-9.298373899424241529e-01,-4.497694443869633130e-01,-2.000923744805554350e+00,-8.188094411698009223e-01,1.280843797679876994e-01,-1.144426960307919350e+00,1.108595816264610345e+00,1.538974271520865633e+00,2.645088371381316250e+00,1.898876869504504183e+00
9.910187531004570616e-01,2.058706489944233553e+00,-4.075339560772390790e+00,-1.472448874033586375e+00,-1.570423601303454764e-01,-1.441422261923643422e+00,2.011542671250380554e+00,-4.190574502968189563e-01,-7.156120307066258235e-01,-2.233851473813924571e+00
2.544168707127760776e+00,3.599110611345094135e+00,1.014907184440168919e+00,1.069381178414305023e+00,-2.220684760636770783e-02,2.030770025183302463e-01,-6.770581831992554811e-01,-3.423447911802189658e+00,-8.398546560287174501e+00,-6.642888071710526532e+00
