-1.770528225437727921e+00,-1.203090239312329057e+00,5.818554350906803840e-01,7.211475149045253330e-01,1.001051902797754467e+00,-1.969737432041896552e+00,-6.034701780952163030e-01,6.596841086971672041e-01,-3.827325422029465019e-01,1.710207905234778281e+00
-1.088422606234474288e-01,4.756346186766003292e+00,-9.966737047187080867e-01,-8.925815715152256580e-01,-9.039794749817176012e-01,-1.210276468239684655e-01,-6.212116073085055534e-01,5.974439820880854679e-01,-2.717653186417657851e-01,2.488862485664905311e+00
-2.883554544760156269e+00,-5.035236188461126305e-01,-5.019129074478220209e-01,5.437435279224374085e-01,1.699178688143525129e+00,-8.359816360774806610e-01,-6.728355737946540849e-01,3.891671132599287541e-01,-1.279563056962728762e+00,1.288385619538670701e+00
1.358213607387130484e+00,2.760918748245763110e-01,-5.415715844256514533e-01,-1.691831619917657736e+00,-9.084155855988043093e-01,2.049210460252316679e+00,2.855121109428631954e+00,-2.735785299452904162e-01,3.493265120996303374e-01,-2.267074657668157300e+00
2.312898560235042700e-01,2.548763377914376793e+00,-1.685416061412632116e+00,-9.602163554726506067e-01,-3.668326896013269778e-01,2.646614391638124619e+00,4.251322531401513505e-01,-6.215069309775609341e-01,-6.319083185739862163e-01,-1.271036951319518771e+00
-1.186597739710695709e+00,-2.073561008615703916e+00,7.980232977948887862e-01,3.866414368568851234e-01,7.868825281040822683e-02,-8.021777335200213077e-01,7.569115786862230522e-01,4.356709195202513318e-01,-1.233056427195553528e-01,8.273847386835686546e-02
1.100688456997989562e+00,-5.925185669321491044e-01,2.714652829779714005e-01,1.172455148073271669e+00,-7.345149732635433137e-01,1.167280991576834071e+00,-1.617659880009735707e+00,-9.202975415483328758e-01,2.911963431610615771e-01,-1.449985256184544546e+00
-9.010508606076198523e-01,-1.856143729305944401e+00,-9.382404403475856913e-01,2.400631189042856661e-02,3.026476014703773920e+00,4.525120920465158791e-02,-2.179097875272923979e-01,-5.675465002766537648e-01,-7.559717833675554388e-01,-9.707127240755889508e-01
-3.066487028299907713e+00,-1.988437048735024915e+00,3.661692053590183127e-01,1.202389802883513603e+00,6.002639737181207913e-01,-5.785724926373027044e-01,-3.992905842840122621e-01,3.897952206483695781e-01,-1.097934211684418182e+00,5.553059267916016228e-01
-2.204397025946760458e+00,1.350860390997957294e+00,-4.123147926461722124e-01,-1.151738161202182087e-01,1.587928893054015189e+00,-2.284818624277625609e+00,-7.392166135463926757e-01,1.017384018849114780e+00,-7.997290585024486864e-01,3.238763138506257633e+00
