-9.193536417053487231e-01,5.645910708471394424e-01,-2.730328848087592020e-01,5.059595443614597343e+00,-3.392965524021656964e+00,1.854101950791321007e+00,-4.068571969141613565e+00,-8.557187094519478343e-01,-1.356451877841612585e+00,1.419411691353420046e+00
-8.238605209340484903e-01,-1.786404611050259883e-01,-2.050778136154801423e+00,2.248171716699653988e-01,-2.768452043635206028e+00,3.447164682232894961e-01,9.512450368760771990e-01,2.380173104141598106e+00,-1.305650705942394296e+00,5.999081831593113812e-01
1.493970081191904997e+00,2.004412358975613540e+00,-3.558324212005837150e+00,1.113565917422076668e+00,2.692796066151091905e-01,-4.002625238200799629e+00,-9.234057180829797762e-01,5.295120955762406822e+00,-8.996857964963238530e-01,-7.236298028213784761e+00
-8.660751958224943703e-02,-2.737738065087360173e+00,4.325146224249998284e-01,-4.871155047618104916e+00,4.970079813041117234e-01,-1.463307507773100868e-01,1.899725623037207711e+00,2.253706713388150540e+00,-7.942948427460241323e-01,-1.266907433002465000e+00
2.137048252116059199e+00,-2.874014450807629295e-01,3.120147377993398585e-01,-1.407626584940162129e+00,2.789065955954078024e+00,-1.226480895186994324e+00,1.765542390409774454e+00,1.229547841891849430e-01,4.050809398495510694e-01,-2.776416021125980294e+00
9.232982908805152933e-01,-1.483890566749388240e+00,-8.600113265726719303e-02,-2.217221447455045791e+00,2.300228514190972018e-01,1.311964129856180827e+00,4.919588756328534096e+00,-5.618717968395282591e-01,-1.959818792830857470e-01,2.256591682013202149e+00
-2.106816657290909056e+00,-1.123540811082424096e+00,2.524351333936983854e-01,-1.108388510992000642e+00,-2.231617433808476658e+00,1.359613600955783097e+00,-5.789568077515797606e-01,3.931834861277181403e-01,-5.728457027598427009e-01,2.614754397283570952e+00
-2.589833240915601742e+00,-1.712254180341054033e+00,-6.341814471126538955e-01,-3.067992675874164910e+00,-2.742235825294049967e+00,6.397040087599158431e-01,1.627204636214167888e-01,2.686522091488950270e+00,-1.077780075195925669e+00,1.573085904244107436e+00
-2.949774993763736308e+00,-9.466259673811487640e-02,1.569030388225821415e+00,1.375172347259903560e+00,-2.282247452403067367e+00,1.812418424671357942e+00,-4.162372556302839754e+00,-1.800891028851290709e+00,1.214801941066840502e-01,3.578221226362215734e+00
3.177455452566970706e+00,2.111484663239142634e-01,-1.320845038722539222e+00,5.800591973080116759e+00,-1.018862141240239438e+00,-2.764788816029312146e-02,-3.124650654093293678e+00,1.212777526650036464e+00,-2.564238248445426027e+00,-5.292533623368012030e+00
