-3.063633402956971619e+00,-1.129965170242392958e+00,-2.659598237244522601e+00,2.262455445204830440e+00,-6.274961071104204757e-01,-4.652024775391783162e-02,2.974090245198697691e+00,9.743162286072386546e-01,8.025958861384069332e-01,1.185117759848965280e+00
-1.519953647063731150e+00,8.888752829312873693e-01,-8.272909316669871949e-01,2.507608850013193891e+00,2.446237796527023500e-01,1.261531902751110712e+00,1.049993300528425433e+00,1.927853217664840857e+00,-2.411313624141983247e+00,1.843898943013278391e+00
-1.873420927325426311e+00,1.035292325491016463e+00,4.283182147777326865e-01,9.055134597608563984e-01,2.008350387956834293e+00,-1.683104096300562236e-01,-2.469777967765786064e-01,-1.011000546062935435e+00,-1.055433214997591129e+00,-1.619652248393516958e+00
-6.953001332038344362e-01,5.985104828243712483e-01,9.198249414467210561e-02,6.303986145730409163e-01,7.628132514191466873e-01,3.283380078650788292e-01,4.987519933436002639e-01,-4.558766547688265502e-01,-4.359879414492719985e-01,-5.093454834455855007e-01
-3.838162002945969320e+00,-2.504780179060657641e+00,2.190569724731126655e+00,-2.973444186293431990e+00,-2.562821869985012491e+00,-3.730908968598870334e+00,8.329807046843307194e-02,2.459265609760107996e+00,-1.588809071871471357e+00,1.561253146382724388e+00
-9.372068209022712537e-01,3.474382933877341539e+00,1.560187322758096684e+00,2.917618864231984688e+00,1.642084080028592963e+00,2.944643969469893818e+00,1.051805889778042236e+00,1.653379626735971053e+00,-5.515808471585828876e+00,1.577222591840234944e+00
-2.017163408277192538e+00,1.504540027503993849e-01,1.897674650553537123e+00,-4.940721605675294503e-01,-9.798733128447087992e-01,-4.483016263293740922e-01,1.022337535772136485e+00,1.894121734707440385e+00,-2.923520953627371632e+00,1.652676059800899377e+00
5.742040189743569112e-01,-4.878090178983865433e-01,-3.249865008416552570e-02,-1.001870534900206611e+00,2.097382280708437186e-01,-5.990903800698086368e-01,-1.277544331234241604e-01,-1.633879106607137199e+00,1.941344198180422032e+00,-1.511579457884023814e+00
9.316969430009988118e-01,-5.896711666847536115e-01,8.789092633272104216e-01,-1.663912654023751658e+00,-6.071548763623865197e-01,-9.151594884023731558e-01,-1.344217794671019650e+00,2.493001550371995445e-02,3.397354882079146599e-01,-1.374470528003137737e-01
1.328500274492129929e+00,-4.801673262920442276e-01,-3.472306544043660459e+00,2.057565272547237090e+00,-3.803062837442389710e-01,1.862154976914844218e+00,2.923681331356726698e+00,-1.229198162718621923e+00,3.652153782414668370e+00,7.930047363007108885e-02
