5.952027666934419869e+00,-1.817741498349013884e+00,2.599817864539346157e+00,4.048437537437942879e+00,-1.273628459661359624e+00,4.452690019098252350e+00,-1.790282085256905464e+00,-4.083430059184812499e+00,2.125111514439681493e-02,2.407079668204792910e-01
1.874320812481998111e+00,1.558461513628076389e+00,-1.356234832463961038e+00,1.856386231784068475e+00,4.423784601759599977e-01,-9.769909826841575995e-02,3.184637936720654761e+00,-1.177584325336925808e+00,1.146739684011011562e+00,-1.928776687667108414e+00
8.208401121566262226e-01,9.612290274708755744e-01,-4.541491166231122478e-01,-2.942472045167837669e-01,3.096288792582108651e-01,-5.116224313451310790e-01,7.233681965109692857e-01,8.733483389550348308e-01,-8.324066965990017941e-01,-2.756053857642929983e-01
4.453489574908423010e-02,1.113065651385782173e+00,1.086061178536756877e+00,1.165891615827634870e-01,2.677753956222430065e-01,3.199104403263018925e-01,-2.598338018822367590e-01,-4.508967870987735660e-01,-2.521097585027544663e-01,6.468317936676809543e-01
4.311341215918911729e+00,1.506942109110809502e+00,6.888696857383286298e-01,4.607746865805504299e-01,1.144786180571365219e-01,-6.187698871931222033e-01,2.727363633981930935e+00,1.515129498452637113e+00,-1.063530559762503325e+00,-2.919620285057297204e-01
-2.341856188481645784e+00,2.137767227008273263e+00,9.041981324296527456e-01,9.522992994279144696e-01,7.775601576904795920e-01,1.302713064718012070e+00,-1.268318142842242979e+00,-2.983804551282471795e+00,7.461697041634361982e-01,5.224512417230817718e-01
2.631703892518051813e+00,-1.260970976900019469e+00,2.614698815369425500e+00,1.630357332907435675e+00,-8.114783657212831791e-01,3.079878441107469556e+00,-3.101425608481545915e+00,-2.274699293828153834e+00,-8.670510321491639028e-01,1.369050874789744521e+00
1.536112184742256082e+00,-7.768246151926190279e+00,-2.844317466967453689e-01,8.670024148564656197e-02,-2.606259342848378235e+00,1.724818330115029275e+00,-3.642243453625228611e+00,4.299422645667212439e-01,2.098221742900300557e-01,1.913420414872346320e-01
8.394126122818295954e+00,9.586401764065238806e-01,4.983043739810825379e+00,3.965030894323133270e-01,-7.487223599939467622e-01,-4.580628914446047140e-01,3.325637371769045281e+00,3.055000621369361458e+00,-1.750105170691197642e+00,1.938122618297339450e+00
1.974517947015301589e+00,9.542903513751213040e-01,-6.799875914023810752e-01,1.214208316935433851e+00,1.937463674883952991e-01,-2.055645421688079011e-01,2.490996416676932945e+00,-3.771471527802969237e-01,6.285012213730505337e-01,-1.233875713951968933e+00
