6.879087518554747316e-01,-1.916480989080998842e+00,6.727704669142611227e-01,1.364260594559059125e-01,4.941870974007265271e-01,-5.456546903381743752e-01,1.210614696584356942e+00,1.343639450769142707e+00,1.860382526542615267e+00,5.128103155685260761e-01
1.268517485651920573e+00,-8.129990868620265987e-01,1.311079960776284414e+00,-4.615549635879752088e+00,2.155981689301878501e-01,9.017888177185813259e-01,9.322546541318224023e-01,-3.538720937478690431e-01,3.430869916153733712e+00,7.058619014795450841e-01
1.240764527756176294e-01,1.687654643127397991e+00,9.577499064309114019e-02,-1.503405822972744277e-01,-3.102680585621402365e+00,-1.747418833284113404e+00,4.916604682668572757e-01,8.717448512146304118e-01,-4.034022967125020287e+00,2.945946713419279051e-01
1.408770063782169624e+00,-4.819832977947558383e+00,-7.185235154232301191e-01,4.917509127764715160e+00,4.044304999685136792e+00,3.009631999015095483e-01,-3.064538032562933445e-01,1.705095186339910418e+00,3.826624521443763971e+00,5.485515809321428460e-01
-2.238384967702884865e+00,2.025053321117177063e+00,-9.043627760800061477e-01,8.275659450411034790e-01,-1.531294527369172764e-01,9.364832663602998264e-02,2.350510291512304950e-01,-5.924120470260137994e-01,-1.747034489850836980e+00,-1.331160123033809484e+00
-2.143717951927875287e+00,1.341278369276454940e+00,2.176610375212795212e+00,-5.881793996713641226e-01,-6.334991714062454538e-01,2.902408051713408210e-01,-1.133837567872647556e+00,-2.104703409937421554e+00,6.316542589121625362e-01,-4.739051239471019916e-01
3.604927846354194276e+00,-1.914373041945725218e+00,2.216373516168626434e+00,-5.785940956515917222e+00,-1.288069542972408277e+00,-9.504902747991714196e-02,1.127606458265986156e+00,7.595399309475602267e-01,3.104656503031731685e+00,2.179653468280164041e+00
8.957952998940549305e-01,-1.460698893002725818e+00,-1.318941792859134710e+00,1.600787520020735322e+00,3.307710593846572511e+00,2.125802722096685748e+00,-2.270912029117523101e+00,-1.352668361031384769e+00,2.358105316298158893e+00,-3.917131439258819681e-02
-1.214331205728866880e+00,2.335533146498211643e+00,4.012650926052960365e+00,-4.276564823349370492e+00,-4.686836142839799990e+00,-1.822922703077943574e+00,1.000110889608874620e+00,-6.358722966983347824e-01,-1.343694626000776049e+00,5.594070165559428265e-01
-5.392626872006943684e-01,3.162655072467245032e-02,-2.706092893416025102e+00,5.148949609744589040e+00,1.406759701887819958e+00,-4.584224683793831912e-02,-1.126316871073198778e+00,4.946575605033284861e-01,-2.601154447045986196e+00,-8.039843996882183319e-01
