2.348559700183983523e+00,-1.791182415947896622e+00,1.803392136048050653e-01,1.037268122365644141e+00,-8.257925681529098005e-01,2.364306569906680977e+00,-8.812412107443798881e-01,-1.058859586990536394e+00,-2.736702111936974990e+00,1.335303302175026019e+00
2.525763803706830402e+00,5.145371957789482309e+00,1.263299970157101493e+00,7.456327308872033877e-01,4.193045450194184731e+00,2.378756981727272901e+00,-4.135728259068027768e+00,-9.630321790444853480e-01,1.334591259005101227e+00,-1.269589156872831248e+00
-1.481613550528281698e+00,1.142189402254443875e+00,5.596327223863827305e-01,2.581648275820873639e-01,-3.000265146874786737e+00,2.714111576589617880e-01,-4.672705657622717723e-01,-1.279760860405850131e+00,-1.714558956643505772e+00,2.236920842589333436e+00
6.909780747653996302e-01,-1.573717837081314519e+00,-1.489504903762048360e-01,1.376864632909490460e+00,-2.782650779432727539e+00,2.200028823770551423e+00,-5.076839463693829657e-01,-8.133110516052557415e-01,-2.659748990246505240e+00,8.946475087295823192e-01
-6.918130843806814534e-01,4.850103593049157613e-01,-5.042590806363425049e-01,-4.803573198491460916e-01,1.569371397856520467e+00,-1.269114912889544033e+00,8.917970833445276746e-01,1.442086381534228634e+00,2.679442680342419614e+00,-2.280625361470076662e+00
7.747222170168362787e+00,6.566905388237402441e+00,4.085796121435359751e+00,2.539033790987508254e+00,-2.393163478827161850e+00,7.102498742052589797e+00,-2.575235433565262966e+00,-4.362084090924711610e+00,-1.475176781503340084e+00,6.810799578526744114e+00
-2.066740468145310761e+00,2.729487610601620817e-01,8.143658199920665863e-01,-1.847650502078287627e+00,-1.560217004021285492e+00,-2.835705553057168871e+00,1.572186198853881445e+00,-1.014775066247929791e+00,-8.383791269377549593e-01,3.975505423744333466e+00
1.134421212618136332e-01,-2.201633301060531789e+00,-4.245510414067881211e-01,1.196460013680886281e+00,-2.711095860022523674e+00,1.735664333003654525e+00,-4.641444213087396187e-01,-6.581408926190168707e-01,-2.939475870094189425e+00,6.369413880064689337e-01
3.241158166637779559e+00,-4.287304330325941493e+00,-5.406596050775278606e-01,-5.623586925810424714e-02,4.756674164694840168e-01,3.257187263864211313e-01,3.050592191148387755e+00,1.130421681433370962e+00,4.833091266841024192e-01,7.361964138625341769e-02
-9.551746894587643810e-01,-1.179341581522706406e+00,-2.383859188034878951e+00,2.135351510750915338e+00,9.719259452185936565e-01,1.741260137997291846e+00,-1.118711355919196793e+00,2.821602294280526113e+00,2.141309306078818420e+00,-7.755050122920096989e+00
