3.879950471874246354e+00,2.806446233061413942e+00,-5.638631596272358770e+00,2.094751497901065740e+00,-1.217575380837114585e+00,3.020888484406744623e-01,-2.727718795527219964e+00,-1.604373290742020064e+00,2.160189362959318848e-01,1.018320357458636138e+00
-2.314340959255368979e+00,-1.941411174329458866e+00,3.953829993421401845e+00,-1.249589343581893219e+00,1.027914658870187070e+00,-2.425899788654337919e-01,2.005620274966485983e+00,1.168214136917574031e+00,-4.666025841357325787e-01,-9.656832069004661623e-01
1.153823579179650283e-01,-8.489112662194611136e-01,8.324457873184720746e-02,9.720189122511287971e-01,-3.937084089351505778e-03,5.882932630450951050e-01,3.207507114408910676e-01,1.270765844928494204e-01,-1.418514960307825090e-01,-4.931326821550974238e-01
-8.412935061700091977e-01,2.180553395628561208e+00,-3.190416445209602880e+00,1.168888607887173414e+00,-1.487574320712451881e+00,2.023559638555843421e+00,-4.578963885801584643e-01,-2.006275610864205916e+00,2.401002535709002128e+00,2.050056085046986887e+00
-1.492979978544460629e+00,6.226662802552203058e-01,-5.197651824633024997e-01,-1.899907950610267182e+00,-5.075750109013505984e-01,1.008846446372454464e-01,-7.312460077922119384e-01,-1.104274888011324229e+00,1.371230342599105256e+00,1.018858205803682804e+00
-5.921003067959784705e-01,-1.006168791383104777e+00,2.448604070082735618e+00,-8.471535940370507056e-01,-2.285961919599770742e-01,-2.783095189575740758e+00,-3.631794919288711121e-01,3.260483400679292210e+00,-6.419031372861938589e-01,7.280938555007138158e-01
1.269077209022859698e+00,1.021134925026838891e+00,-1.908858104153885460e+00,-1.470350582363253000e+00,-4.627802505666829824e-01,-1.236724753360271656e+00,-2.253914118653165932e+00,-5.796616537536641856e-01,1.024351148155017988e-01,6.162931049194824151e-01
-2.443034164265811548e+00,8.479957823577735088e-01,-9.503811937973222213e-02,-3.193814975139684653e-02,-4.002097949029674306e-01,1.917077615244078714e+00,1.235627391741325409e+00,-1.438527605389007702e+00,1.830903401699340183e+00,1.009834747073373062e+00
2.128065935759801519e+00,8.979198222391499007e-01,-1.875192076504939465e+00,-2.216151161436178185e+00,-8.013229216926420762e-01,-3.274414254780150024e+00,-3.695488027441699685e+00,8.780068665021473207e-01,-4.233247197178047205e-01,1.088589133655651686e+00
-2.931953919101250028e-01,1.513916064727206523e+00,-2.510480885192875600e-01,-5.274149161375631112e-02,1.190839991742715709e+00,2.297559603619341750e+00,1.945501969992395219e+00,-2.736765905565228252e+00,8.148022212192929103e-02,-9.541238286260209644e-01
