-2.391103146020557846e-01,1.149477724488248143e+00,-1.858202648110836241e+00,2.138856827218137191e+00,-1.750660261280357677e+00,-9.570194309779571640e-01,-3.287227757638104375e+00,-6.265862525074706868e-01,-6.965362011953314392e-01,-1.685286493606549252e-01
-1.751460293160982618e+00,1.294493717432701585e+00,2.307105719413235612e+00,5.855746340277163675e-01,-1.413632517674220157e+00,-2.891020449943487169e-01,1.970817882230910811e+00,-1.267078453058653742e-01,2.538527516179598820e+00,4.468781641081408296e+00
-2.384268910135728670e-01,6.168246862424990873e-01,6.491355291630082069e-01,1.083251817317980814e+00,-5.921952039698512582e-01,-1.197121967955808719e-01,1.536963506852672579e+00,-3.458931034757166678e-01,7.543400272169740184e-01,1.991857878739363930e+00
-2.447147191365474372e-01,1.487489432755938701e+00,-1.105678671531576507e+00,3.428177849919578524e+00,-2.616932837737556028e+00,-1.250022650540872471e+00,-1.922210816750741236e+00,-1.187049677697945338e+00,1.735310110883349077e-01,2.162587259068564638e+00
-1.274378956066587187e-01,2.587587337286375577e-01,-1.556616214601022286e+00,-5.822194260678115185e-01,-4.472764994112845560e-01,-1.019037095707265417e+00,-2.052144998380471375e+00,6.999731284144534715e-01,-1.321398663770643855e+00,-8.126074973905789145e-01
-1.971734932952905472e+00,-2.273931513129434645e-03,3.330817274415529550e+00,-3.618543018328431948e+00,6.425105238199799729e-01,7.093421958613158051e-02,3.605012436921965602e+00,1.708671997582311475e+00,2.244301366339306547e+00,3.377861172756569275e+00
2.337213965912957825e+00,-2.636843072801849708e+00,-4.774085309087426621e-02,-8.009043736331712404e-01,3.852176460817111625e+00,3.406228731590986047e+00,-5.642453256355914326e-02,-1.042450095133153232e+00,-8.581211070494596527e-01,-6.998296921767534151e+00
-1.738732503362900195e+00,2.016754775545988476e+00,-8.750312470709912249e-01,-1.487631444139384307e+00,-4.820071341552769617e-01,-1.537264685685749255e+00,1.069017710658422216e+00,2.087310060625138242e+00,-9.176985536496458096e-01,1.921271035193911070e+00
-6.146971515860925050e-01,2.382157157865048447e+00,-3.277427858939576222e+00,-5.770149147529060052e-01,3.006760496762632240e+00,1.589241637025994969e+00,6.955941664922200562e-01,1.579835293288122777e+00,-3.212019265675389423e+00,-5.720352342069735307e+00
-1.154380042910930909e-01,8.535425476993250271e-01,-2.333940395175570170e+00,8.671590323206996853e-01,-2.811321975970185516e+00,-3.113417623591280048e+00,-2.972723736658822169e+00,5.390229004239590616e-01,-1.557709692345518482e+00,2.249252314969182986e+00
