1.285350703735973266e+00,-1.440017367767558287e+00,-5.756108496280004649e-01,7.871694097017654101e-01,2.445023905568456613e+00,-5.703570537849951272e-01,6.438044997130878272e-03,-1.376730313292690466e+00,3.378832082921076285e+00,-4.790947119750781358e-01
8.763822661024444072e-01,-5.778497162867591852e-01,-4.463405104325341433e-01,-8.613168295011921494e-01,-2.426332404902789563e-01,9.410108873928568762e-01,7.428726661514026275e-02,-3.806550839602247938e-01,-3.963540701327064597e-01,1.292337942927994199e+00
-2.340786826378143948e-02,6.022219851412373703e-01,4.295365020732769601e+00,-8.271337192143091155e-01,2.804152922395758196e+00,6.573495762766332629e-01,-4.887418995774449604e-01,2.204948184514187837e+00,-1.206629571594448391e+00,-3.869887109767408351e+00
2.716839067845885580e+00,1.202335682855041554e+00,2.690561412505440675e+00,-6.700435220549478821e+00,-1.835469664667860989e+00,3.394783402248038762e+00,-1.065173576965229962e+00,1.617170749334561508e+00,-4.424465927016018263e+00,1.413722289048418901e+00
-1.203631783197940175e+00,5.421308629824402869e-01,3.845269200244409991e-01,1.182325427137550955e+00,4.589093074855159493e-01,-7.160899281646222470e-01,2.260333776705175934e-01,-9.199646353457158199e-04,-3.529363677368036467e-01,-9.165499371476280022e-01
1.302821730159384517e+00,-1.471578453323525437e-01,2.414769956641153570e+00,-2.010523300719130990e+00,2.219545435613416551e+00,1.546671750724008421e+00,-1.789729001887860604e-01,1.618349809722944288e-01,-1.315445239665161248e+00,-8.244979674880279497e-01
-1.384827678784531724e+00,1.947872968384436021e+00,-4.397639258862819034e+00,6.697718894313040572e-01,-2.672201129702548528e+00,-3.036477842237335967e+00,4.632159649231307186e-01,-4.436019999981753337e+00,1.138565129806792697e+00,3.355337511367040726e+00
1.589641622814996769e+00,-1.013434141277114398e+00,-2.777900100141771078e-02,-2.298265369689563631e+00,-3.195204654040844527e+00,2.541837912626817797e+00,-6.101234909009956020e-01,3.048894130335820574e+00,-1.469769577022644214e+00,1.524792984795802386e+00
-8.339200470419833033e-01,-3.147027559577889044e-02,-4.430437865125021468e-01,1.700889681126675601e+00,3.043809829320071048e-01,-1.187045430702587057e+00,8.936447188500805383e-02,-7.366554834040861532e-03,1.388612353529427024e+00,-9.130618496370241921e-01
-4.537838208392264150e-02,2.223126160594536493e+00,8.581787903669684248e-01,-2.228399314692540045e+00,-9.018384924347435661e-01,-9.550215959980825620e-01,-6.769860758288205327e-01,-3.053842274905325116e-01,-6.221060171940967498e-01,-5.505549350702780842e-01
