1.710157998640033927e+00,7.785256822015258482e-01,9.578715025584070286e-01,-1.221840771455671826e+00,2.067259970326326357e+00,2.281036425329332040e+00,5.489486142848968298e-01,-4.905099684965525952e-01,2.183315401073301132e+00,1.290925105628432767e+00
1.075302475343538733e+00,-1.331595702634480460e-02,-4.025513679606013140e-01,-1.435431632168350014e+00,2.046968369203514992e+00,3.271667916152943612e+00,2.355639221668097694e+00,2.744933220513431360e-01,1.610344904433415270e+00,3.695891780637670099e-01
2.545592421703965602e+00,2.129258547167692139e+00,2.184880376682703851e+00,1.296550955772451719e+00,-1.144385349547089037e+00,-1.423849831044058156e+00,-4.435089788267164046e+00,-1.224954653944000382e+00,2.531796518898304260e+00,2.403031253817030866e+00
-1.355317446202740195e+00,-3.866122394884995650e+00,1.350582765180397216e+00,1.235206997234744142e+00,-6.311781435998284451e+00,-2.866613943233580208e+00,-2.696153922045258167e+00,1.846160275032945330e+00,8.606748680564028087e-01,-3.787616081589890715e+00
2.439187433543391403e+00,-1.857312722609797406e-01,2.061433103755906604e+00,1.616900168584499919e+00,-5.480463161678072126e+00,-1.513776366713557309e+00,-4.920651754667027866e+00,3.027840655362656341e-01,2.413332998150313102e+00,-1.636228748241829178e-01
-2.654511146653277809e+00,-1.508386065944457233e+00,-2.430913657931848548e-01,1.377540502541682865e-01,-1.281237369143404026e+00,-2.446064719671251719e+00,2.685933856445226198e-01,3.018497387289352796e-01,-3.405243544590799587e+00,-2.036112148815036882e+00
1.361152709768506996e+00,1.986703513317695124e+00,-1.543365465717357665e+00,-1.104678487038035950e+00,3.479719985090437007e+00,3.307934575800105304e+00,2.720825001895932349e+00,-5.465850556718829800e-01,-1.869236358097582651e-01,1.902164224789855806e+00
-7.157548196939714225e-02,7.049589005457893576e-01,5.147271074630410670e-01,-4.357281967180765547e-01,1.196196381948400056e+00,-2.918435748676637131e-01,-4.407911799170938227e-02,-7.218418586283537053e-01,-8.483474415882177322e-01,6.369497011302902578e-01
3.397642776979776347e+00,1.148015573846163040e+00,2.986323143560597249e+00,8.435391236838463147e-01,-1.748178443324622133e+00,-2.082525749987879649e-01,-4.511814581266596846e+00,-6.493899439171109123e-01,4.998356497783662533e+00,1.923579546206618307e+00
1.981872094097367087e+00,-2.483416140558354801e+00,2.990456831501993484e+00,-6.306410037597661722e-01,-5.349036987021662526e+00,4.153771996572245273e-01,-2.750356117777978504e+00,1.045216021672457307e+00,2.398650478223950167e+00,-2.218229145082534881e+00
