-6.344726034339974730e-01,3.257755537873205931e-01,4.873962201568478925e+00,-6.011206922057293234e+00,-6.712423526445579824e+00,2.709381098252111819e+00,8.459799175371944813e-01,-1.837147323192066306e+00,9.689350001331074935e+00,-3.277026363884507631e+00
1.854797097799903316e+00,2.449096451261824292e+00,4.115471081570300171e+00,-2.198075983041424486e+00,-2.441011231060373987e+00,3.694291569696867228e+00,-1.853851637640044014e+00,-2.874531244336506308e+00,8.329958306504388066e-01,-5.290782660410662253e+00
-2.929095226333980673e+00,-2.821165324444462996e+00,-2.633204396582726758e-01,-3.116285437149521442e+00,-3.641828218139653739e+00,-1.527619535918885774e+00,3.296150002939650214e+00,6.508370835651824393e-01,8.215374335270396955e+00,3.373736406807362531e+00
-1.990063875460719389e+00,-3.122710421023551230e-01,-4.938871942475101307e+00,-1.817532464072525444e+00,1.944101339535941220e+00,-1.366795570968468265e+00,3.427568533045451726e+00,1.670775328637888801e+00,2.974697015864010474e+00,2.788882438313803114e+00
-3.922799123333070570e-01,-8.969855573829985662e-01,-3.187289776756347948e+00,-2.856347811801380310e+00,-1.131744580422613389e+00,6.815888151769191605e-01,6.615488150446962479e+00,4.316535728386572401e+00,2.309699371599060136e+00,-4.065792909557039980e-01
-1.082301986576390984e+00,5.478137813963224190e-01,1.330161467658630969e-01,-8.166687280662868753e-01,3.427873663292624329e-01,7.736348704272638654e-01,-1.492368691161825911e+00,-5.657451834286468362e+00,1.939516910401382077e+00,9.723690126123338828e-01
-2.436778482717056882e-01,-2.552465708876276551e+00,-1.292404576000039107e+00,2.339563066293255389e+00,1.413471700048085644e-01,-2.466802432158671010e+00,1.985560474808714782e+00,4.584415450811127002e+00,-2.107832065359519724e+00,2.530289573625880362e+00
1.084477363031913111e+00,-2.028096793357472727e+00,5.364944293012851695e+00,2.293761553415276211e+00,-3.652665514551724169e+00,1.782511341861221732e+00,-1.599974118533956879e+00,-5.250635505479957388e+00,-2.594794242847487720e+00,-7.717944827181779655e-01
1.157231032894102452e+00,9.029924615121043274e-01,7.287481500537481560e-01,-5.785350958031716395e-01,-5.217151951269727306e-01,-2.161700644484879641e-01,-1.293298880420590269e-02,5.100093684189305421e+00,-4.733212160541344637e-02,-2.313126717406531974e+00
1.296439752778157928e+00,-5.189299520214305517e-01,4.004514501116797298e+00,2.079566218532798438e-01,-3.166064119606401661e+00,1.490678058381915971e-01,-1.033039050374133794e+00,2.973731150014930602e+00,1.843793025077760106e-01,-2.258013937227855816e+00
