-1.875316822414595297e+00,2.308798021843862180e+00,4.444122704593260309e+00,2.633323613304169086e+00,-1.942377773391958939e+00,3.038351166926293256e+00,-7.369440122376592406e+00,2.285318900600386449e+00,6.760448954606074423e+00,-2.580922823562327828e+00
9.712621838486666936e-01,1.129501500308087297e-01,-1.746798212715633625e+00,1.710499329024532056e+00,1.383226586171343586e-01,1.574032959783927987e+00,4.445996356819758688e+00,-8.591788421523370856e-01,2.347986736264387364e+00,-1.018734073550821018e+00
-3.281648635810918702e-01,-5.089226232226746749e-01,-1.520761456634975861e+00,5.618147145110982121e-01,5.498049373962596853e-01,-7.807351533053313863e-01,2.975293513201890061e+00,2.691066821285726177e-02,-1.767461561172528395e+00,1.780389988367965873e-02
3.293845682152459542e+00,-2.751530118953312343e+00,-3.226409879544992698e+00,-1.220572482485057453e+00,4.504440727322734928e-01,1.377410488348996376e+00,1.218633974692321331e+01,-3.422494038745335310e+00,1.095432419388958911e-01,-2.286809121080260354e+00
-1.986367306090996543e+00,-6.143500168135448414e-01,6.265349003952690232e+00,-1.397612773768119876e+00,-2.066336245609933009e+00,1.361633659551402031e+00,-5.017371404708639737e+00,2.045902345290427249e+00,1.892105027529013217e+00,-4.455549207935598943e+00
5.355608247064068683e-01,-6.334544857069617230e-01,-1.548417903946025298e+00,-4.535911723971159937e-01,6.707213695830934741e-01,-7.804935788889102444e-01,2.794087293959414353e+00,-6.190496378491107121e-01,-1.952841557522945637e+00,5.908206637345998491e-01
-1.353357518928514358e-01,2.511879169690263147e-01,3.958032763812299848e+00,-1.094796559009603154e+00,-2.114440397535794602e+00,1.688799658085551325e+00,-6.047603760007388196e+00,-2.666572868521211240e-02,4.662340815047273601e+00,-1.284697839947948506e+00
8.065014423708788405e-01,1.118348509866883278e+00,-1.712668736297904504e+00,8.629919557943149799e-01,4.494376568902369584e-01,3.160383927603586246e-02,-9.321326150564582802e-01,-6.514158914227273778e-01,1.045611639128606551e+00,2.280436548754093629e+00
2.564896384511418770e+00,2.940901924834306014e-01,-1.076493106993641202e+00,1.207054994401933534e+00,-1.168368591221271346e+00,3.409246203886774573e+00,2.733483684146363224e+00,-2.624188397029433517e+00,7.256948023608852161e+00,-8.816296573656866586e-01
-4.712791703855499954e-03,-1.698843656200472951e+00,3.479229827079817761e-01,1.954228464748346827e-01,3.626727881319073976e-01,1.276595008426791411e+00,7.990169485882630873e+00,4.388807528198581664e-01,-1.356403303601160903e+00,-4.793599389014892687e+00
