-9.699506257764307637e-01,-1.120670613099365331e+00,-1.193696110081956752e+00,-3.287945784740129440e-01,-1.710183126278311372e+00,-5.979827159127191205e-01,7.038467771657413996e-01,7.880370208720425262e-01,8.108214086058385117e-02,2.841230775904646233e-03
-1.475972970604741086e+00,-6.146799903378885599e-02,-1.471227117593969513e+00,-2.443005352726469237e+00,-3.519832805214292204e+00,-1.018090438439266165e+00,1.615113221054371939e+00,4.353607577652859995e+00,-2.143718797163299161e+00,2.236791970187963940e+00
1.802685344671734136e+00,1.598423767694514330e+00,2.864524500601015600e+00,1.027874572476557447e+00,4.169989234816148915e+00,3.052061183159984759e-01,-3.205407333701725925e+00,-4.277321938446114302e+00,2.309728562796052653e+00,9.789917995199723944e-01
-5.970711587511441376e-01,2.024254578657687098e+00,-3.536830836297133906e+00,-5.991308203464149607e-01,2.978384448534024287e+00,2.261674505546572789e+00,-1.530441157497038240e+00,-1.520708752869392555e+00,3.699049896404102977e-01,-1.306506191552471163e-01
7.768723029821157366e-01,-5.458754668388030584e-01,2.313541694251102232e+00,2.716802085539637091e+00,1.062613469545724776e+00,-2.061832520436245542e+00,1.615301511384877875e+00,7.250704646234895634e-01,2.045013466770833510e+00,-3.161724632763406539e+00
-1.623895909425702166e-01,-2.488775280724317973e+00,-5.130976227410967150e-01,1.775662257593504378e+00,-1.665424494397140798e+00,2.809436296557102364e-01,2.074392818716177977e+00,-1.340480657194476066e-02,-2.970365308125347825e-01,-3.527301502841358349e+00
1.950006920509020081e-01,1.534687721283097828e+00,-1.050739397931578445e+00,-5.996730307895183909e-01,6.289944605920927412e-02,1.519645177732360519e+00,1.704788168160290107e+00,2.969152018778166369e+00,-2.875046975378528380e+00,-1.045981908335772648e+00
-1.639724661573872311e+00,8.919192238094999503e-01,-6.216008205817471044e+00,-1.450056891987666408e+00,-5.159665293088466775e-01,3.620955153977837515e+00,1.649083230768971786e+00,2.193463106507772764e+00,-3.334603174569458872e+00,-1.849745282116222356e+00
1.369765797864529677e+00,-2.517399015403336549e-01,-4.541713211922599469e-01,3.931343326537234173e+00,2.702706783709835747e+00,2.392115800035857553e+00,2.611761715600078748e+00,-5.212566303717300897e-01,-5.168085946456699720e-01,-7.470040570902481747e+00
3.223593039253935810e-01,2.481839891249847163e+00,-2.883473761055812101e+00,-1.567060712834932312e+00,2.903544658298296444e+00,4.472064332689580368e+00,-2.584043834698140696e+00,-2.816613785986592067e+00,-1.945701645511657585e+00,1.145174624903304350e+00
