-2.272704316115730094e+00,2.045947120018360099e+00,-1.137274547619370146e+01,6.761981370766705801e+00,1.968990156733720909e+00,4.327447438109470745e-01,-9.611730458456284598e-01,-2.086709922509089488e+00,-6.716862401014100925e-03,9.749395879016025113e-01
1.450952308163476534e+00,4.757102108668802565e-01,-5.731868558671846969e+00,1.035197441826723797e+00,6.667093557908851942e-01,-1.808246171563448801e+00,-3.806869148877942699e+00,-2.200769396711557579e+00,4.201373829099582125e+00,1.567657300788442676e+00
5.101953003032966283e-01,-1.168029837644436686e+00,-7.494897621476074079e+00,1.409737071646725903e+00,9.612946019921841945e-02,-1.782850482966665595e+00,-2.524522565997958878e+00,-1.922245012522425966e+00,8.496561985826474039e-01,1.553636875158079356e+00
1.524300163580865730e+00,-1.067621071794171206e+00,3.452951514385490750e+00,-3.436307900330080933e+00,-4.244852032529025654e-01,-1.228879848530857855e+00,-2.819528134846424061e-01,3.766255328973436289e-01,6.619916322833895306e-01,-1.979432065633834892e-04
-1.156772182154000239e+00,7.594680511870982587e-02,1.136728778472749779e-01,1.377336598476908813e+00,6.145416256196218896e-01,7.215723090703911602e-01,1.319770674331625093e+00,8.163134273850906064e-01,-1.176947137146254541e+00,-8.931383863113682153e-01
-7.632210331088189470e-01,-9.781214980563024408e-01,1.320520633208372985e+00,6.704371705164527961e-01,1.389771538291104946e-01,5.064835350693387417e-01,1.051473177530614755e+00,1.226418589185902963e+00,-9.800745974959520490e-01,-1.136962046226167145e+00
-9.530882934042647081e-01,-5.725255892251901457e-01,3.626024106120008028e+00,1.134970893758186605e+00,1.090012195905629477e+00,8.393577480963199111e-01,1.384614030622205227e+00,2.260422182078280606e+00,3.959098106252004756e-01,-2.335386801395505252e+00
3.685784136413304157e+00,-6.920332544395839669e-01,2.014047693921507509e+00,-5.268047915134022929e+00,-6.521667486576934181e-01,-2.951681536258577321e+00,-3.212259662236668145e+00,-1.342346092541276681e+00,4.029742063561350562e+00,1.572136105866198674e+00
1.054393352775526704e+00,4.298324116487103330e-01,6.519206498068284894e+00,-3.142644137384646541e+00,-2.959189948950005089e+00,1.623492888074741458e+00,2.500746009293439709e-01,1.469929714976271895e-01,-5.779939633898116824e-01,6.329950182484767041e-01
-9.130125510123014987e-01,-2.214241637396948015e+00,-3.834046640979242859e-01,2.058703447904910444e+00,-1.531717518425305125e+00,1.249679410317507067e+00,-9.652397110890728604e-02,8.540541899725747621e-01,-1.247725030122224243e+00,-6.537351595459549580e-01
