-3.177423623235285655e-02,-2.739764968315385740e+00,2.952825449522475942e+00,-2.467366299723534606e+00,5.111871067350222120e-01,-1.774572053237957414e+00,-8.190735562697055716e-01,-1.556297762895710424e+00,-3.586997765152636575e+00,-1.807344385233255579e+00
1.309739525401561577e+00,4.603430329478196970e-01,-2.740557134812612539e+00,9.832192025943793656e-02,-8.185728508055901687e-01,-5.757259634445299062e-02,-5.149932609259755267e-01,1.550860948481730617e+00,1.284923471288900720e-01,2.508618155809452688e+00
1.167436861405156234e+00,-1.589679686563868766e-01,-3.330361314393921024e+00,-5.886981597121083709e-01,-1.974240431432774168e+00,-3.898188345042590264e-01,-1.063619768319449710e+00,1.228078299540892315e+00,1.808701989193256254e-01,2.804901832096676095e+00
8.085480290676336224e-02,-1.322638019373076013e+00,-4.099770614030861515e-01,-8.561864906370521000e-01,-8.798808623178585586e-01,-7.818923838863501841e-01,-5.323823480733772540e-01,-5.020560055056879634e-01,-1.070895246436123216e+00,2.531403129441389677e-01
-1.336694342430250204e+00,-2.790940130894552507e-01,-2.942309104013406618e+00,-2.450160463675334910e+00,-5.752407873112922454e-01,-1.718814648175947646e+00,8.772518180993340575e-01,2.849339052752105084e-01,2.513925936248658566e+00,7.921713637061982005e-02
-6.590242200076710244e-01,1.910311697386590790e+00,1.573439885181878495e+00,5.675390190147179936e+00,6.594691462957886774e-01,3.328497923134394298e+00,1.369874171869598367e+00,-9.460891679369251017e-01,1.191724204209938964e+00,-9.057195741791942423e-01
-6.552670056590300662e-01,-2.786508396184924408e+00,2.106800386543130482e-02,-2.215484417585351196e+00,1.991444584406013019e-01,-2.347465770354614456e+00,3.359606215862391831e-01,-1.272325814115317311e+00,-2.122874436829936595e+00,-1.047814257567966312e+00
3.141399693097063572e+00,2.884957653498421148e+00,2.917781451119969560e+00,-5.792456015614399351e-02,3.275410141736166736e+00,1.150652795275964868e+00,-1.082387248023429560e+00,3.187829280607475724e+00,-1.717480433965143494e+00,1.038991439605544853e+00
1.438612069975879093e+00,3.161395138960494400e-01,-1.036990544173511525e-01,-1.640271973661308280e+00,2.388542133423414704e+00,-1.271812598800120098e+00,2.697769364097206690e-01,1.873568131599743891e+00,-1.463013845432038273e+00,6.685214334344886655e-01
-2.459601311527999545e+00,-2.449194756063024947e+00,3.898202481866510194e+00,7.210740010274523826e+00,-5.126857441169710983e-01,2.691869769876109597e+00,1.802909995913712038e+00,-5.398248381540522445e+00,-2.477343711179230468e+00,-3.593347966486984291e+00
