-1.440290630292337948e+00,6.361156509971203077e-01,8.741029386416335756e-01,-1.660960450401936850e+00,2.413068565120175979e+00,-6.011005889959381010e-01,4.963917335156713406e-01,1.832246416832395752e+00,-2.434289937528243186e+00,-1.633790836470320196e+00
1.308341711097250171e+00,-5.303293990190889318e-01,-4.253097821097490128e-01,1.945449703086586490e+00,-9.989571289530349563e-02,-7.650621124346208557e-01,-1.014223835702680709e+00,1.746401146186233433e+00,-2.558635018813424811e+00,-2.585647817970168627e-01
4.308110711175721086e-01,-4.746024003839257599e-01,2.643294782796655085e+00,1.320948350840740693e+00,-4.203574003454807695e+00,1.833637413467181565e+00,6.577736172505996848e-01,2.639481458540858583e+00,-3.120215276996335163e+00,-1.184376526836684818e+00
-1.338088873419636560e+00,-1.584043289156750189e+00,4.123323466234318779e-02,-1.023588274999134295e+00,-1.210591319544628730e+00,2.221749730927225386e+00,1.223931614418188651e+00,-3.521501140421485321e+00,3.031117353574712681e+00,6.331900566275143749e-01
1.744446438497402774e+00,1.635140775710743677e+00,-1.150169551986765182e+00,2.080157351183785863e+00,-2.549617933747087006e-01,-1.387381678063768442e+00,9.275434720202058170e-02,-1.478031841280780911e+00,1.803932225048687221e-01,1.706371794199829095e+00
-1.043316030895547808e+00,5.931103342428043490e-01,-7.203635296174959457e-02,-2.161467015079384435e+00,4.843407251979076622e-01,3.508528518533763352e-01,3.288384642537983682e-01,-1.567343500144569246e+00,3.595290502775827957e+00,4.913484200147836267e-01
1.298610874908176394e+00,-3.184280768423402019e-01,-2.605879856914080861e+00,1.798181094220425713e+00,2.027928726100103773e+00,-1.654384619421405800e+00,-9.245718709715722294e-01,-1.852861237976913600e+00,2.698596511077662186e-01,1.391298277903423530e+00
-1.466473909782948226e+00,-2.938410118766140222e+00,-8.151975962069499815e-01,-7.807924886680717158e-01,6.412272920807728926e-01,1.716799423096222466e+00,3.895374309288885950e-01,-2.795097235109128775e+00,1.521786793432730045e+00,-1.897558667252541298e-02
2.204772501080682900e+00,-3.547918246380841190e-01,1.562427766862659606e+00,2.851973820647246249e+00,-4.714279458714575100e+00,8.331412061452581064e-01,-8.566988931362771176e-01,3.324967968675662355e+00,-2.509426799744980841e+00,-3.396523604282830067e-01
-2.848908541097046498e+00,-2.428755851045676817e+00,2.008849016770160922e+00,-3.888135936385136215e+00,-2.418570124490326378e+00,3.855146772764906693e+00,6.530209775695735575e-01,-7.926049411196582906e-01,4.505651554925135471e+00,-1.086145327279488315e+00
