-1.244626498679821891e+00,-3.140976283204136354e+00,2.853428703961124580e+00,-9.894395153440186386e-01,-7.344243480034766403e-02,1.591732420002912873e-01,-1.506386058941608652e-01,1.654081766865157066e+00,2.632884323830385620e-01,6.154425890652917008e-01
2.637987200404004806e+00,-3.288636670479833324e+00,1.585615398034306178e+00,1.319730647569136162e+00,-1.476140675569149074e+00,1.381108272376288859e+00,-3.439865011321632249e+00,-1.057548669495851357e+00,4.139186846909298501e-01,2.939995676560440696e+00
3.049321741693812093e+00,1.673842657825011515e-02,6.932614129959450144e-01,1.969382902430673932e+00,-1.723945308436680035e+00,-1.559643451886237597e-01,-1.633209183058154101e+00,-2.054772184816674230e+00,2.013744307920543264e+00,-1.407523790115452200e-01
-9.733286599934372063e-01,1.719154134761805008e-02,-6.920555845689815855e-02,9.361847555369567919e-01,-9.239163685296125639e-01,-4.992947380158930137e+00,5.648942863601034148e+00,-1.366915531551313290e+00,2.210054173915977138e+00,-4.640279229912033010e+00
4.887417527867190969e+00,-8.018722911219434701e-01,-6.938416978478118002e-01,2.861302918516096305e+00,-2.067196257723501240e+00,2.413891420152761036e+00,-4.991915815888613217e+00,-2.981215726874624661e+00,1.284476829299311396e+00,2.606755427677506010e+00
-7.365415669022293832e-01,5.056851759622967180e+00,-3.847942269526904102e+00,-9.454055710700279835e-01,2.019317133563015343e+00,1.364024536072830029e+00,-7.518574699021911278e-02,3.058945518946964426e-01,-2.616010520051460286e+00,3.290139213342315738e-01
1.247886836840560676e+00,2.324112465655932436e+00,-2.624564844912670836e+00,1.106892233305790452e+00,-1.161344506961517892e-01,-4.041652839431443267e-01,2.920816220482100323e-01,-1.745794111893580469e+00,-2.105967780567204184e-01,-4.660331789886023035e-01
-5.093299224995394558e-01,5.662669228294519019e-01,-1.388151997654357983e-01,-1.158657750711336698e+00,1.420644807412494215e+00,-1.837006287387678016e+00,1.206982360779980334e+00,4.075363550757044040e-01,-4.518862129305956543e+00,3.006258974434250497e+00
-1.348500793005811271e+00,-1.428371684331174674e+00,1.160515392235804244e+00,-8.095226343863328733e-01,4.427649450976170464e-01,-2.566446853938298744e+00,2.563547722687255170e+00,5.918739618998571927e-01,-1.603875936456883311e+00,3.713100452966531240e-01
-3.152346326340587090e-01,1.066579661800316214e-01,-1.020506762144129498e+00,-3.282423227788173747e-01,4.963466616104104667e-01,1.568011441112034721e+00,-1.091194229009770478e+00,4.088101425667792777e-01,-6.758323557823211480e-01,8.761404260663443466e-01
