1.608310665220032076e+00,1.292586174151231448e+00,3.241515867679285456e+00,6.363174470581806075e-01,-1.934658190706463943e+00,-3.500851500379507097e-01,-6.413941713017816681e+00,-1.967762276821708678e+00,9.304792053561445897e-01,4.521717580212140319e+00
-2.003025191529730797e+00,-8.470576129329075998e-01,4.221492462558537051e-01,8.629434355411095270e-01,-2.684785352543198056e-01,-4.102734334314286913e-01,1.499837452400681892e+00,-3.288039989746665004e+00,2.662405025072262177e+00,2.679522397916382026e+00
-8.752543141886930389e-01,1.553522239510604974e+00,-2.513276093480162565e+00,-3.471863366781366533e+00,-2.016056919159374239e+00,4.048490850172410949e-01,5.845120896048359160e-01,-7.931974905741265847e-01,-3.656799581816677858e+00,-6.388470816933107255e-01
-2.664257816479480567e-01,-2.108709111593351615e+00,2.901466596205463100e-01,2.336561346889014956e+00,3.730992865717249529e+00,-1.328802725685533648e-01,3.940514197757693182e+00,1.064654900714624652e+00,3.150090127182006761e+00,-2.729149939888203757e+00
-1.632316139762575613e+00,1.108992853150644997e+00,-9.941842836049602505e-01,3.394203319086142034e-01,-1.939113780930758590e+00,-9.330563752466963789e-04,-4.163861544703756579e+00,9.727549773336638950e-01,-3.423696335923508194e+00,2.829504755685404049e+00
-9.147817157114776498e-02,6.044428168915837452e-01,1.228842424732675465e+00,2.700612709446358339e-01,-4.092490916292839676e-01,-2.044191969683321619e-01,-2.682723524017323946e+00,-1.815462671956935559e+00,6.038377640589098760e-01,2.315851463932401266e+00
-3.028613078521194435e+00,-7.868787924049432947e-01,-3.327950634996919010e+00,-2.560047983864879306e-01,1.284982644592747469e+00,2.019530955270694428e-01,4.233319647774238526e+00,8.769313977457232623e-01,-1.638550411485674152e+00,-2.158390869897073294e+00
-2.104044473239967405e-01,-7.365197137807453220e-01,8.868166007294659980e-01,9.499684244876593908e-01,1.381798555866112110e+00,-2.042173264722874082e-01,1.055938569699815144e+00,-1.260853175035627105e+00,2.354805000491277500e+00,9.661265780069443199e-02
-1.452049529871810352e+00,-7.241995502211855396e-01,-7.908628925078570182e-02,-1.548504971340951275e-01,-8.269214569781236923e-01,-2.555116808052880772e-01,2.605596360619434559e+00,-2.915573706856228853e+00,2.115836405585578284e+00,1.665643251735599017e+00
1.755667112863697588e+00,-1.300506495164222898e+00,2.613449911082216914e+00,2.133319435540547815e+00,9.847201533196398016e-02,-3.512641933912884484e-01,1.518062020988874550e-01,1.356941306096784150e-01,3.689504249089948562e+00,9.953739051910929225e-01
