-6.149317915400887014e-02,6.409102923435627819e-01,1.095553189471020650e+00,1.897647404805300475e-01,-2.152803197622880305e+00,-9.245074225921118272e-01,2.885631492095988460e+00,1.097208259837789246e+00,-1.004508697357370695e+00,-8.798381251026461403e-01
-1.328394919174557431e+00,7.299527270354437825e-01,2.511076927253999891e+00,-2.369781085669019127e+00,-1.417024528847397047e+00,-9.322703625310394537e-01,8.680966458745079106e-02,-3.787184335101326238e-01,5.932999224737695032e-01,-3.207030587975378211e+00
-4.267756624152008627e+00,3.327783109871498723e+00,2.042579413586351755e+00,-4.039774747131700927e+00,-1.933119726112204839e+00,-5.977112389663304270e+00,-7.386582128080516618e+00,-1.267727494774223418e+00,-2.627402722346257047e-01,7.403123568849143687e+00
-1.628356680903221942e+00,1.746175553308150219e-01,7.372049567750502685e-01,-1.746263078414699743e+00,1.039936628963407106e+00,-1.036606918739101824e+00,-4.083431328845448682e+00,-1.723566840992459603e+00,1.706077920196030995e+00,3.958532497703169950e-01
3.517550373868155500e+00,-2.572387538808722063e+00,-1.513359878853708151e+00,4.028872613968081495e+00,6.887665576518202659e-01,3.839360430162863658e+00,7.201371142291378646e+00,1.885068306200135879e+00,-6.351730075525546804e-01,-4.509602699248065782e+00
-7.496740125320094927e-01,1.297734591479519528e+00,-3.073582285312126405e-01,-3.274903649938911698e-01,-7.497272337275040499e-01,-5.226166306225727975e-01,-1.107399669723711177e+00,-8.060701516267806399e-01,2.963472180165939718e-01,3.944295228972515277e-01
2.538008565080621892e+00,-4.769673984388489441e-01,-2.155356010539549061e+00,2.929586236190555137e+00,-3.241056500705954413e-01,2.402794430930669023e+00,4.570327902335333370e+00,1.616170134736964137e+00,-1.664162930417183439e+00,-5.483562459618421814e-01
3.082362059707091539e+00,-1.977282915557239562e+00,-1.652029573949086227e+00,2.106931132564237252e+00,1.425261683088277831e+00,4.289801664588873464e+00,4.391522217658328842e+00,1.153512468606510577e+00,-5.366320407852500640e-01,-3.968282165308828269e+00
-3.031315718129505399e+00,3.678590684063596239e+00,3.972182186491554634e-01,-3.657609328995058640e+00,-1.476788220793633810e+00,-2.865539745250739401e+00,-6.389457497425210519e+00,-1.927044964333986865e+00,5.895958718331623105e-02,4.112701696172675447e+00
-3.145243837304229073e-01,1.215687763783223518e+00,1.325729088074032447e+00,-4.637105000385228770e+00,-1.097552459044767725e-01,1.758157185608370199e+00,-1.926185221485682941e+00,-3.661515798699794266e-01,-5.328629570705529783e-01,-3.164753131898752070e+00
