-9.272646060778151345e-01,-2.009639368812240257e+00,8.922747616184834030e-02,2.565561682499013951e+00,1.452768177423799045e+00,-7.064441478687137899e-01,-3.001515829166319538e+00,6.486631141586722826e-01,-3.549486545846694430e+00,-1.856315219159887286e+00
2.508573967390950177e+00,2.099947683283091671e+00,-1.759473633921976976e+00,-1.012706942105480623e+00,-4.664186185374349591e+00,2.535849355125973648e-01,5.371665042223556341e+00,-7.477506413461453283e-01,2.421216376633437695e-01,2.777845122404898781e+00
-2.866206313237684711e-01,1.215073405444240917e+00,-1.476089683298935862e+00,-2.485345692873883738e-01,1.489926210272044083e+00,2.965506782692360677e+00,-2.654546013900417556e+00,2.957381266766535566e-01,2.911901641980906064e+00,-2.124674285065770718e+00
-5.291737270145493888e+00,-9.423778540721162722e-01,1.634606100198489509e+00,-1.028244593662290596e+00,5.543212855163441866e-01,-3.277870774036963475e+00,-4.527727520885082235e+00,-2.739789587467806320e-01,-2.491231728827759451e+00,-3.925527512295818866e-01
-1.051532385482927268e+00,1.644174804735609730e+00,-1.859537072103547573e+00,-1.444377081088132453e+00,-8.925258762190354522e-01,1.212437022238145756e+00,-4.387934676196005856e-01,1.357488117237007241e+00,2.329298984720266308e+00,-2.040425403724306808e+00
1.121260305754516517e+00,4.734923052536975652e-01,-7.696443121532621223e-01,9.777694295258290147e-01,-3.537377122427228238e-01,1.388015543906872207e+00,-4.976426577938312112e-01,-1.405603942806462170e+00,-5.186691337858101436e-01,1.001228141449056253e+00
1.980098190160961114e+00,1.036658100413219374e+00,-2.148700489400206859e+00,-5.324403621155970878e-01,-3.409730043228600405e+00,-5.282756835107949023e-02,5.089835106668666675e+00,2.326755777405300041e+00,4.682501368263289332e-01,-8.773542541310902498e-01
6.227794066045557742e-01,1.502126209120920874e+00,-2.904688118849711564e+00,4.662840211093127740e-01,-3.958129468877253920e+00,5.391560091229670171e-01,1.473740892484757037e+00,9.168273506336699352e-05,-1.816049277902053394e+00,2.372906141403400004e-01
1.406270472426380813e+00,1.385889572314060736e+00,-1.963668411709350137e+00,1.062911264391432686e+00,-3.131665365507405596e-01,3.139224452345924732e+00,-1.465209056170630131e+00,-1.634838587711728852e+00,5.798153665625356279e-01,4.074633120984588741e-01
3.184539627690231800e+00,-1.685380384740502446e-01,-3.200431820355734702e-01,4.929428275919039981e-01,-1.618003929536056429e+00,-1.924771775027304122e-01,4.973849573632741716e+00,8.537062663956365149e-01,-1.519674059928588505e-01,8.502751722362145159e-01
