9.288723708682883329e-01,-3.241659910905716924e+00,1.701873792997236068e+00,-1.789067366708838036e-01,9.643348561410362008e-01,-2.054561156523047050e+00,-1.870084740905786913e-01,-7.833354820225332249e-01,1.683412403136299140e+00,-1.344866616252963665e+00
1.787811787632051619e+00,2.390440511162226667e+00,-7.231452495195572761e-02,2.157034326758787923e+00,2.896697090627565752e-01,-5.043357163071576998e+00,-2.097312535076611084e+00,2.859774447866890723e-01,6.417392542235781372e-01,6.661953049555152662e-01
-3.760544405191862394e-01,1.738940515482993332e+00,-1.509543322765308337e+00,1.016216440353828299e+00,-1.599288274352705042e+00,-6.162030875369832739e-01,-9.497302544247090972e-02,1.119998362569764927e+00,-2.270576718825323415e-01,2.415026395409120230e+00
2.970543206426453420e+00,-1.833912463756967925e+00,5.985751202265162663e-01,-4.911744581477944793e-01,2.172240487838299039e+00,-1.403567556692309148e+00,3.692863742144869010e-01,-1.385275877166990854e+00,1.198832114623776812e+00,-2.979515405408545980e+00
4.117348253852134654e+00,-9.422486555624204341e-01,-3.852397734496039172e-01,3.454539810844312608e-01,1.359183863148365923e+00,-3.949375858780799220e+00,-3.678770075046314258e-01,3.533330480865893852e-01,2.693703865975136669e+00,-1.960749037826836849e+00
1.354997451109120288e+00,2.820313351107347710e+00,-1.779472312976645210e+00,1.128470737294742010e+00,-1.945196386477152095e-03,-5.852856472195548942e-01,1.738752220895578571e-01,-5.797862209931872179e-01,-1.237548213120104768e+00,7.755859640733251403e-01
-3.092396058560480387e+00,-2.202006415439352160e+00,1.320100380408421481e+00,5.554576387344022370e-01,-1.783523295072926951e+00,-1.643404143930833339e-01,-1.155331326311750118e-01,-7.801968935668598948e-02,-1.127428418076590610e-01,2.704819837878835287e+00
-2.635070372354392898e+00,-3.785800882383941968e+00,1.931137817986107397e+00,-4.731743057474442904e-01,-5.180033551295053496e-01,1.530435085459906031e+00,8.906783394013368937e-01,-1.599321353381280453e+00,-5.102824682007289780e-01,8.187341258026601398e-01
5.149691086417146124e+00,-3.847786625098034818e+00,-1.064790175781939574e+00,-2.602293161610894856e+00,2.251204809410169538e+00,6.028527424521856748e-01,2.219839775786350167e+00,5.285401029455967237e-01,3.599453707307852746e+00,-4.874820298976075605e+00
8.617084321583194928e-01,-2.757041369716019652e+00,3.106528154367072858e+00,-2.915834114229844953e-01,2.801963234067504249e+00,-1.446812817971216303e+00,-5.471230364239336730e-01,-3.059510685503266103e+00,2.929123539504363549e-02,-3.185186086310594522e+00
