-1.385817368528426075e+00,-1.027564653685366647e+00,1.647040183665372748e+00,-2.552017460860646292e+00,2.272344484401250142e+00,-2.203269091461074414e+00,-5.471364934052473927e-01,-1.312862419492207611e+00,-2.345415609861187800e+00,-6.100836785487411262e-01
-2.430721988800991440e+00,-1.323727072139147642e+00,2.864022720176041759e+00,1.278995547704366187e+00,2.325807709820337799e-02,4.938019937429188877e-02,-8.363300550694767743e-01,-1.882956039874270404e+00,-1.159887633189002898e+00,-2.392495801469008754e+00
-1.807642129151113775e+00,1.401681347953710466e-01,5.641736003007260525e-01,-3.167341524409873266e+00,1.876423290071234984e+00,-1.385822244796446556e+00,-1.078414190387078087e-01,-3.610696012236623620e+00,-3.074784808714574602e+00,-1.219889957891577392e+00
-2.098191597513146545e-01,1.019601729238170273e+00,-5.080009335581566754e-01,-1.066523170469754866e+00,4.012931970303423412e+00,-1.643611595589216656e-01,-3.501322270209497489e+00,-3.026164890730920654e+00,1.773052611445695703e+00,-1.819048693817902018e+00
-9.432544923266619197e-01,-4.641670062326259227e+00,-5.485234476391037672e-02,-1.223189490732301099e+00,-1.131816354076783826e+00,-1.404908779459607127e+00,-6.700308638517872284e-01,1.178151563840100113e+00,4.590646407041096833e-01,-1.038394304974505467e+00
-1.758099978777817041e-01,-2.762532350357727484e+00,5.837007087542483291e-02,-6.258355233138586105e-01,-5.581016531400063707e-01,-1.039776579889397423e+00,-3.265723392867426744e-01,1.537143826839648453e+00,4.755618955412393989e-01,-1.174587254001083353e-01
3.972287284123631190e-01,-3.972149973815981561e+00,-1.506669786966146063e+00,-1.619983621785792804e+00,3.251179410140102588e-01,-1.400116884379307480e+00,-1.960546061045478794e+00,1.689236227761345521e+00,2.488336533175209642e+00,-5.386180539916248788e-01
-3.470535287393891721e+00,-3.477913176570138543e+00,3.992056532403126745e+00,1.339511820308687096e+00,-2.642564614033799941e+00,-4.735731426198133143e-01,1.207854592559014506e+00,-6.857330937292194228e-01,-3.196691493393572614e+00,-2.204839545433675774e+00
1.792639648077981152e+00,2.032153682440050790e+00,2.462360403085894323e+00,1.903871081709377133e+00,-1.188966599243083344e+00,-6.481847084693358463e-01,3.606424589588604679e+00,5.242148983575539489e+00,-2.086164024848211174e+00,4.236320833820275134e+00
-7.450389889582575975e-01,2.466855796272691692e-01,2.209304343635527967e+00,3.350993475147439060e+00,3.284845250612596912e-01,1.226155972819047202e+00,-1.544072239763097265e+00,-2.957038844945563127e-01,1.421988585500169933e+00,-1.508686985209820364e+00
