-2.794534921708318742e-01,-6.625756154648579366e-02,-1.867726879020882080e+00,-1.337140607189668984e+00,7.256799167654593985e-01,-1.742303930216430707e+00,1.333118850315615944e+00,5.023164068260730364e-01,-2.955076755916893561e+00,2.311601413488509227e+00
9.594742269399604284e-01,5.228533019370119606e-01,1.126693832480778701e+00,1.184284943613737318e-01,-1.079732754750600376e+00,-9.057048247747234715e-02,-1.200382918883040384e+00,8.979435659007782844e-01,1.657889320350713458e+00,-1.425599469033965949e+00
-2.670555076609712142e+00,-2.572886093056689916e+00,-1.055104997020866464e-01,6.736422254574800927e-01,5.297047422049716570e-02,7.676369510373663996e-01,1.023954584052039207e+00,-2.613359796959723980e+00,2.259104428856024249e+00,-5.624206337715431658e-01
-1.912778479671793042e+00,1.045997128674056142e+00,9.263191635242644661e-01,4.525802177835140938e-01,-3.216995336181693865e-03,1.203324061188655758e+00,2.656345436876246802e-01,2.458520440711705390e+00,-1.919337674521928605e+00,-6.086515797886586920e-01
-8.126023394072287021e-01,-6.161351301328681362e-01,2.175152519307471444e+00,-6.275492203275534475e-01,-1.444019402816552056e+00,1.935618498896840345e+00,-1.790984658546139530e+00,-3.869813877498096133e-01,4.373930189265896828e+00,-4.385731872467637515e+00
4.991596955297215588e-01,2.054342280324823022e+00,1.008734818149596979e+00,-9.391951219978293963e-01,-6.083221625132964050e-01,2.578512125941643252e-01,-1.036613491240531149e+00,3.220634350939906021e+00,-1.395727903059071684e+00,-1.227851749857190589e+00
7.474459365716351611e-01,8.628618496274229610e-01,-2.110398898647432020e+00,-1.669601314737637898e-01,2.203304936870782438e+00,-3.092149404138255231e-01,1.457745494951428356e+00,-4.582824388494645129e-01,-4.489805400264003765e+00,3.459331277558886697e+00
-4.452803698985761671e-01,-1.031707479030486319e+00,5.202982171744321427e-01,-2.410588979975309076e+00,-1.093475725486917849e+00,1.851034812523054129e-01,-1.080647873422152072e+00,-6.513711631449938810e-01,3.035178853337932026e+00,-2.954114118853721216e+00
-3.596073964692322100e+00,-1.656516950259593113e+00,2.368294918526822279e+00,-2.466269193305226093e+00,-1.546407304961404883e+00,3.153183786667723254e+00,-1.516235950455581571e+00,-5.349904588347129675e-01,4.932961479993677401e+00,-6.440618084468242799e+00
2.313698621037361125e+00,2.664092600053201920e+00,-1.089297553926015683e+00,8.069691525400064513e-01,2.410717504484971130e+00,9.154813433788775434e-01,4.145631523761610371e-01,5.322021744721806558e-01,-5.024770931397468665e+00,3.020898828803753489e+00
