2.527654555233737277e+00,-9.860673096044896280e-01,1.725975391775920631e+00,5.002495589121141784e+00,1.149999051314794407e+00,-7.520822616392597304e-02,6.525597878213843517e-01,1.008139258277506611e+00,3.714619199134969740e+00,-6.145684438278602446e-01
2.577554894536870034e+00,1.506655014921767233e-01,1.693922090733697816e+00,1.851188695136553264e+00,-4.427033367812123643e+00,-9.090462550334689196e-01,-2.337992560606553472e+00,-1.648966589599839772e+00,1.756104311250614058e+00,1.832075352555747827e+00
1.681836835930557994e+00,-3.660766484383956687e+00,4.270597961376403795e+00,-4.245372822383489009e+00,-3.774223958886614660e+00,6.008389476821481168e+00,4.317973098110893915e+00,-5.340562190779404972e+00,-2.968902528357007853e+00,1.124086461930063763e+01
-9.380921917068879567e-04,-1.502376619483052123e+00,3.732228931733550858e+00,-1.688151901155678480e+00,-7.067666495706167451e-01,9.926366252299848592e-01,7.478529366808103207e-01,-1.357160138025088392e+00,3.018943209147560314e+00,3.723531166748295096e+00
1.040612725577496178e+00,2.490492806332193776e-01,-2.527294281321788016e+00,1.536775465121723805e+00,-3.613106516875138619e-01,1.272107851108304155e+00,1.083970793657799137e+00,-6.473618200019337632e-01,-4.414683101396241760e+00,1.537371420487415596e-02
-2.667631796880707284e+00,2.730410092261154720e+00,-3.679426916804561909e+00,-1.525908361407626757e+00,1.349586768866195552e-02,-2.270129634207409097e+00,-2.325168479100018004e+00,2.464214285632831680e-01,-3.172987462991533114e+00,-3.708794286186526179e+00
8.813001291108670809e-01,-1.990344584528017435e+00,1.657295514734204778e+00,2.284608234399280180e-01,2.960943590420039850e+00,8.551748130100480516e-01,1.858221873080216691e+00,3.058569221850000908e+00,3.603281950019942226e+00,-6.331191313762831729e-01
1.707647588590254006e+00,-8.215414524781928796e-01,1.074724253037329769e+00,4.272349819273530969e+00,1.133972543119101006e+00,9.325477144344991309e-01,1.610199226874462930e+00,-5.689509548005956541e-01,1.106786141294991754e+00,6.946386967978639415e-01
-1.292208854275075147e+00,-7.409719581294238466e-01,-7.948236125642800243e-01,-3.449328040198292200e+00,1.607988054107131193e+00,1.334579362339910480e+00,1.600453952979827843e+00,1.149708131566753888e+00,-1.701509648545339370e+00,2.367069583585845738e-01
1.179785325438942989e+00,1.304990959284196839e+00,-2.697204152977422442e+00,7.035165328040671184e-02,-2.566787652747962500e+00,-1.425953733420786795e+00,-2.472190003373222034e+00,1.061950282363851361e+00,-2.080730660698584700e+00,-2.276570746871528161e+00
