-1.973728700152218352e+00,-2.181749206540323893e+00,-7.506124973560172053e-01,-1.764825212302730595e+00,1.295639861957287753e+00,-3.405450727365726404e+00,2.585438836792867789e+00,1.065491167688487062e+00,2.279094675564651840e-01,5.918546521543383010e-01
-4.571500968431932987e-01,-2.611757472250956003e+00,-2.543854313656540356e+00,6.497479469189721968e-01,1.066422581004448755e+00,-2.327507712674053764e+00,-4.491763192895461110e+00,2.947558064662378907e-01,4.592609368335078823e-01,8.578586845604404543e-01
3.895323857279797686e-02,3.941701433430955248e+00,2.943081033779495037e+00,1.313698849111636591e+00,-1.961210009137944743e+00,4.487206404209248767e+00,4.323321008202004379e+00,-8.454010845486452652e-01,3.856954000428737261e-01,-9.634360040824033744e-01
-1.928359030055244228e+00,5.174461488046790958e-01,-1.871659911193158443e+00,6.213705739191903721e-01,9.206313582811801455e-01,-1.212747817624493241e+00,-7.056115231243300645e-01,-4.349702541765077868e+00,1.810555755371987097e+00,2.746786105216874052e+00
1.087067298078244315e+00,1.584687241187364481e+00,4.788022838282948168e-01,-1.179085038945895780e+00,-1.886779517298173003e-01,1.410507829493659049e-01,-1.183621282904359528e+00,-4.396827286070800866e+00,2.347708450182830198e-01,1.073484414345926563e+00
3.820122263112590844e+00,2.207305405877678428e+00,2.412816928498173308e+00,-4.211135040572675514e-01,-2.201902362032583937e+00,2.778637664573912147e+00,-5.355225871892843159e+00,-4.255837810743779315e+00,-1.872326010324490697e-01,-1.017896279445163588e+00
-1.279309873437685763e+00,-3.624120815471545409e-01,-9.071195628734382010e-01,1.002068074008018339e+00,4.237130543923257608e-01,-2.099952116187760454e-01,7.614570943327702013e-01,8.342582886869798209e-01,4.691120134201276493e-01,4.439431713931803469e-01
7.514745949903637312e-01,1.485007450594233447e+00,9.573281751151576646e-01,1.066059787114629565e+00,-1.217794354031373150e+00,2.061263390558381037e+00,-1.768109241708918145e+00,-1.954397769944322016e+00,6.312084160903929098e-01,-2.462087145295271395e-01
3.884659395163622797e+00,2.143317246808052801e+00,1.075890013705214976e+00,-9.144011306524899574e-01,-8.750757693268822468e-01,1.995193659518990525e+00,-3.814744259117641700e+00,-3.124640295856712768e+00,-1.267781827579288700e+00,-2.734348730162979857e-01
-2.393812227851949803e+00,2.094718577924463698e+00,-5.284213086600796139e+00,9.147393697741882379e-01,3.806424782312844091e+00,-1.531788287826597372e+00,3.269075449779581977e+00,-3.628519407101482575e+00,1.112195951760460016e-01,5.438721170050014209e+00
