-2.008563195302691895e+00,-2.428641788478972385e-01,-1.208995152688418173e+00,2.028212005902660042e+00,-8.596728387007825933e-01,-1.627022108735747263e-01,-8.622970086598078510e-01,1.197170268194219789e+00,2.509458614409408650e+00,5.535487651578323565e-01
-1.831612508261086791e+00,1.136648415614440744e-01,-1.401559366333748891e-02,2.391348550568528353e-02,1.575068289221725149e+00,1.374538832168410885e+00,1.953008976771908101e+00,1.694815308158539091e+00,-1.026182626157597477e+00,-5.728096267605138348e-01
-4.165084055054467882e+00,4.432931230456599536e+00,2.396291207475742091e+00,-6.493713461126818132e+00,6.164567112171343233e+00,-5.581306581544982492e-01,2.012401122432829759e-01,2.691377130340043333e+00,-3.498583710833891303e+00,4.711448895199055187e-02
4.422670174655251252e+00,-4.300110100156705251e+00,-3.163533951020068624e+00,4.732621717409650763e+00,-5.788930485059069930e+00,7.311248953214926072e-01,-1.128407263774894753e+00,-1.682872513788915558e-01,2.330563512246120350e+00,1.787217054849264075e+00
-1.951674608356320784e-01,-3.111321312268550798e+00,9.039272566384157770e-01,4.872644039243207104e+00,-3.692614970443476974e+00,7.445525673660556842e-01,1.772676705980240630e+00,-3.965210025798307836e+00,2.537107386050124536e+00,-3.658298290445968881e+00
-1.780379599927275569e+00,6.130272223132601228e-01,8.580863269840893759e-01,-2.998485526477414176e+00,5.393858050422482009e-01,-5.255654130975000449e-01,-1.573921723953230822e+00,1.879960751937029162e+00,-9.629057501144956399e-01,6.334285578748096723e-01
1.742669058823295813e+00,2.184860349038211691e+00,-4.041276947273563458e+00,2.106123451168114169e+00,5.251696306239814760e-01,-1.737568687308093995e+00,-2.847989681674794937e+00,1.507681761076046012e+00,3.460069146074548740e+00,4.468517496232962571e+00
9.460553756514022972e-01,-2.562939568417358593e+00,4.952941654906769742e+00,-5.461587288621265301e+00,-1.950590905021247323e+00,5.172622791123828723e-01,2.728759874388213547e-01,-1.991484143129685691e+00,-5.131533505861114897e+00,-3.289876830508863037e+00
-7.159005704666407510e+00,1.616197881166115957e-01,3.771160387518368129e+00,-1.564510820869275065e+00,-1.044349571033212243e+00,-1.579329479956451454e+00,-2.097069237050039447e+00,-8.605643014727913931e-01,2.250385511687203799e+00,-3.385108541710156960e+00
9.377885883207941475e-01,1.859982803067909529e+00,1.693431741784034772e+00,-5.185890623000510402e+00,4.189749756390636293e+00,9.634659491017990574e-01,2.059336054341965205e+00,1.262975292358939461e+00,-5.504492654924197481e+00,-2.341515856789655459e-02
