-5.060384453416521211e+00,-3.059618890775710032e+00,1.028493240955597798e+00,-3.132435984987491651e-01,-6.978905437442506354e-04,-1.801430342065812429e+00,-1.204688511580845223e+00,1.975222994468132764e+00,-1.338429095183768958e+00,5.001495451624320410e-01
1.962284555769280514e+00,6.127536535140010177e-01,-2.476351760871930985e+00,3.077913928514981912e+00,-8.954601917107973819e-02,-6.815777287066197843e-02,3.185694278334734619e+00,1.979009220893324095e-01,4.567227084302822870e-01,-2.008431105666629524e+00
2.036584444138393124e+00,-1.891915905344252191e-01,-1.374084651712558780e-01,-1.466637103121093411e+00,8.240609888842334030e-01,3.979368813018249629e+00,-3.432118672521643710e+00,-3.479558752165035518e+00,1.162468126739982122e+00,6.502835783545743431e-02
8.468270829371319364e-01,1.204289308664896918e+00,-8.186200464031467838e-01,2.800650126487657765e+00,5.334104265527335187e-01,-1.084685932098733874e+00,3.508099104925013201e+00,6.905880786139387828e-01,3.843891503698030898e-01,8.881820156440951575e-01
9.041390448534533109e-01,1.161630516340219410e+00,-1.042700381597951198e+00,1.064506987818223172e+00,2.013979001208009212e+00,1.251952932097563531e+00,2.285427753838417786e+00,5.671379913481420232e-01,-4.288742183848595069e-01,-1.324304334272356165e+00
-1.830362396477495768e+00,3.738636887031665523e-01,1.653494676926780427e+00,-9.526298148556667789e-01,2.293770683683936884e+00,4.840430262250471904e-01,-4.669528496902253245e-02,7.054924156020827564e-01,-7.580180443848474336e-01,2.025655308546763234e+00
1.662327199273326173e+00,3.622662380097130264e+00,-2.199034344600679702e+00,4.828861616382798871e+00,3.703663413506850244e+00,-6.286476705383599040e-01,8.767170532869988264e+00,3.137340320901556900e+00,-8.716126457910873260e-01,-1.094810223859742804e+00
-5.879173484796702098e+00,-1.601508674396062482e+00,5.434158874214394253e-01,1.047095085342947041e+00,2.356019526856302448e+00,-2.553195569500080087e+00,3.021596071588729338e+00,4.914110356861552731e+00,-2.846071251995947904e+00,-6.417944576976329918e-01
6.377284743369642239e-01,-9.610274598092092280e-01,-1.144240617482059852e+00,4.565659523711579348e-01,-2.958946579391890097e-01,1.269740438815131434e+00,-9.583352126795047221e-01,-1.171450394777900694e+00,4.675501817135975791e-01,-1.321341199684271217e+00
-1.783950204692135166e+00,-9.010048304149093079e-01,7.382050976853389290e-01,-1.108571970688654318e+00,-2.302234905651703301e-01,-6.769659085364863049e-01,-9.846867384991749850e-01,8.767434604404368281e-01,-7.286929151934159465e-01,-1.521098452764680919e-01
