-2.563349767829952164e+00,8.416107801930932553e+00,1.005965147547811522e-01,3.353316945578094455e+00,-2.013834229521324737e+00,-4.611228816775123640e+00,1.986918738616434643e+00,-4.918247055659190181e+00,-3.052126215960954347e+00,2.609341860007408531e+00
-1.455830161389840782e+00,2.034214310284306215e+00,-3.202525458624451815e+00,5.483449600829150228e+00,2.728893919684798330e-01,1.336309751267930501e+00,2.538589459384121838e-01,1.466049762211532048e+00,-4.011196967467682839e+00,5.613451012889738578e-01
1.725554670770909071e+00,1.029311382332062541e+00,-6.809634323456594807e-01,-1.039041500358132586e+00,5.530229802843938280e+00,8.802521286898357111e-02,1.092432663357103095e+01,2.956434652896912318e+00,2.883289980076739756e+00,-1.548879357457381367e+00
5.213283365771004263e-02,8.169763831682134381e+00,1.184887483037827094e+00,3.703129486543013549e+00,7.929667428011102359e-01,-3.917024564815899002e+00,4.637596564642100461e+00,-4.421859607240403278e+00,-3.802414153588346002e-01,5.330492413570033783e+00
3.259500777810999117e-01,9.440741620443519055e-01,8.988623645083918534e-01,-2.128546635803303833e+00,2.463756453774639810e-01,-1.309871320130615802e+00,1.648962285386463611e+00,-1.418814103380544367e+00,9.886756679022732364e-01,-7.265396014130242053e-01
-2.441631988304946432e+00,-1.607673255322819017e-01,-1.722439389275037147e+00,-1.509771035887802482e-01,-4.634053402108635478e-01,-2.113598260539590323e-01,2.301388118036656216e+00,2.403041877941571425e+00,-1.352982485962514358e+00,-3.551001908352412251e+00
3.384898592578774457e-01,1.565288746428982636e+00,2.063170312743248802e-01,1.908346913298683223e+00,7.835375993857839338e-01,-3.626349405709967666e-01,1.473601843026186797e+00,-1.000486785497381459e-01,2.800891847219376118e-01,2.234015773193000598e+00
-1.098168205691475441e-01,-3.249111816945884357e+00,1.320781661841853583e-01,-3.108186082454373445e+00,-1.142176969159039573e-01,7.618122657909464079e-01,-2.169587037845017996e-01,1.777754550231678277e+00,1.224559172946632524e+00,-3.013267731607848443e+00
-1.677949231799797936e+00,2.769937677866485259e+00,-4.348700333234583049e-01,4.880099801533352988e-01,-3.362188289258691398e+00,-1.542924778818392850e+00,-4.746185930041660228e+00,-4.218959066813219749e+00,-3.644799009290367042e+00,-4.017399891931397460e-01
-2.512478746677377917e+00,-7.872609689386742549e-01,-1.511725538426477167e+00,3.764709886507873193e+00,-1.908122424799383765e+00,9.128451379738411475e-01,-2.520038447084761213e+00,2.720857388051125980e+00,-2.208621605367433016e+00,5.516218570988212777e-01
