3.449692514303279722e-01,-2.574555371806351189e+00,3.180395128177592401e+00,2.706695061434593708e+00,1.772105476187454176e+00,1.756932096238838614e+00,-2.738851579390534585e+00,-1.280052210468844986e-01,2.013275215188488065e+00,-3.093390672130914787e+00
5.647465366825331623e-01,5.414960344479597953e-01,8.138225408502588465e-01,8.700799213461754000e-01,9.245189066807243394e-01,-2.429944451412031192e+00,-1.922129747015190127e+00,-8.771650315096162220e-01,-1.338636997374454740e+00,-3.788007588939039660e+00
-5.254355940661066260e-01,1.334020065982054248e+00,2.124975901942944390e+00,-2.462193135320013937e+00,1.742566196409241486e-01,1.044764884543922356e+00,1.093000129296088030e+00,9.870834375625205936e-01,1.365586416766918498e+00,4.221112012741608410e+00
-6.956347534372733232e-01,-2.108688659894651263e+00,8.070826036105218648e-01,2.738880834727493330e+00,7.484059849480428905e-02,-1.871571875560227971e+00,-2.646853318301919611e+00,-3.815729397206839124e+00,-3.763526549853089875e+00,-5.764404300488168431e+00
-8.678232955289908457e-01,2.550212214565052982e+00,-2.784447898728843462e-01,-2.536162313551233893e+00,-8.543243575403253187e-01,-3.048677048834366410e+00,-8.234388295349959197e-01,-3.811574970100602755e+00,-5.124920205186347388e+00,-4.584633573592901357e+00
2.167703265822196190e+00,7.520060441746703184e-01,-1.803818376156261838e+00,9.348983008771984959e-01,1.171209124846680938e+00,-7.585567498880396720e-03,-1.318506352386018099e+00,2.019084328270240647e+00,2.242642068795234866e+00,-4.793856362335232824e+00
1.160824159010740875e+00,3.835291580686816637e+00,1.250944128615227857e-01,-3.889631568196068478e+00,7.759447905483365382e-01,6.589966929239047255e-01,-2.527707852069980277e-01,1.352386474017688522e+00,1.706782803500708656e+00,-2.664916699232491748e+00
-1.195387387971358795e+00,-1.914380738820800065e+00,1.267138437147831143e+00,9.208167057031259040e-01,-4.274433035167640726e-01,8.890243913707960299e-01,5.522493087936297673e-02,-1.359226140390170867e+00,-7.864587233419662038e-01,1.582197844601143322e+00
-2.446381688152839295e+00,-2.412223584424694423e+00,1.983890030669334781e+00,-1.218255352245382617e-01,-1.140183434919149530e+00,2.261365912253875177e+00,-8.364069798811298861e-01,-4.613263501993204230e+00,-3.045363624258004442e+00,-2.046734760186818658e+00
-1.513842866544695909e+00,1.740529056365805349e+00,1.063302602295162824e+00,-3.468622381853810221e+00,-1.035718788797372225e+00,2.129228673858223897e-01,9.288128861468201158e-01,-2.075222432603319511e+00,-2.209019757540767515e+00,1.232345777248419205e+00
