-2.690563583612721188e-01,2.341964297611696111e+00,2.563901269141909633e+00,4.159958933274119808e+00,-3.579845315643458203e+00,-9.920738510753701611e-02,-2.719046152621698909e+00,-5.854014243163025100e+00,1.352570733510774614e+00,1.385040000610299638e+00
1.320077486276948653e+00,3.116552999919954381e+00,-2.840597563014782168e+00,-2.827526314725805179e+00,1.453376197608889253e+00,4.597539052134630433e-01,1.311945644551093970e+00,9.794685680389303428e-02,-3.829390895486012303e-02,-2.145791074875456506e+00
2.097122253338048470e+00,-9.303597821403365442e-01,-2.652225597363513820e+00,-2.262447006976771924e+00,6.431656815574566810e-01,4.651687507201238692e-01,-1.332069251863176484e+00,3.319918949957964549e-01,-2.551327297920411130e+00,-3.159640207971333714e-01
1.350522648341539789e+00,4.798537508824022524e+00,-2.641379985568796496e+00,-5.192848848240618764e+00,2.990675937547562668e+00,-5.637269154207824595e-01,1.829125237583344887e+00,2.978930226561742334e+00,-1.319742129905410399e+00,-3.409415973155089929e+00
-1.554604757619980404e+00,2.615390648040088362e+00,-4.770810471964174404e+00,-1.069959440584500987e+00,2.195180462997485815e+00,6.675144788303535304e-01,9.236032091952880663e+00,4.910818556791865852e+00,6.655569502265877624e+00,3.670684041164487543e-01
8.810191736843185906e-01,2.616253412492799857e+00,-2.314360086243193670e+00,6.261451058448587181e-01,-6.755054056990302813e-01,1.822952769335253187e+00,8.239600531424451368e-01,-4.967339087154020838e+00,2.484016520341611578e+00,-1.396116712021370443e+00
1.736445276259379611e+00,-1.151216019646148503e+00,4.981715874843315461e-01,-3.310268970262089994e+00,1.502018549627541333e+00,-3.423724992379131304e-01,-3.808933648465973931e+00,4.907909436662336589e-01,-5.275346546113000912e+00,-2.318961033905654112e+00
5.548386532185515252e-01,3.450853154126225064e+00,3.885218175390758866e-02,-2.418528996780611173e-01,-9.824291354337371107e-01,-1.586724601987191230e+00,-5.602455596313398178e-01,1.196536194340095616e+00,-6.370622464814187369e-01,1.288301553449913817e+00
2.471571224454430782e-01,-3.687608617120162524e+00,-4.591836116887677566e-01,-6.071689173352152746e-01,9.756090648978901214e-01,1.133526980263247053e+00,-5.528314704588683792e-01,-2.776468784975022475e-01,-1.052878178979167023e+00,-8.423429567122829864e-01
-6.868038369937219390e-01,5.718459014908086502e+00,-1.125186977559992751e+00,-1.035532746433570850e+00,9.522464991862844563e-01,-2.907484631965884803e-01,3.859259391826183272e+00,6.845012240375683010e-01,3.261737335290581630e+00,-1.645236745812956869e+00
