-1.907707539141758613e-01,1.087965935114029836e+00,1.721960702196259518e+00,-1.221783180728309492e+00,-1.604270045788934729e+00,-1.128107976399633783e+00,1.121531583443442059e+00,-7.970541733173885923e-02,1.722700796561819736e+00,1.764852041433833563e+00
-1.743897541449999977e+00,2.756699534399405516e-01,-3.315771092761734540e+00,2.319655686163622832e+00,5.374127538143618210e+00,4.153664523038647083e-01,-1.915969905402222784e+00,-4.262414215520101690e-01,-5.276857241298340551e-01,-2.371486696704792507e+00
-1.971102859721004075e+00,1.524829502078201671e+00,-1.464692063596186644e+00,2.575652747648013108e+00,-1.818001890618342609e-02,-1.878662845394109826e-01,-2.065352357114451198e+00,-6.858416905484638892e-01,-3.155097894611904596e-01,-1.949049920177050588e-01
1.566192078903261731e+00,-1.553327323040906371e+00,6.634643168641849442e+00,-2.200758348760736283e+00,-2.450593758987708259e+00,2.131293828263512324e+00,4.279800096355639738e+00,6.189509351788542446e-01,9.594800648552421762e-01,1.118650291220221860e+00
-1.063719826731027718e+00,6.767205282275707834e-01,4.505936652543408028e-01,2.186553757718771696e+00,-2.543641249928509041e+00,8.012116855355226885e-01,-1.310996467725284775e+00,-2.678199370233371734e-01,-1.070241558494646972e+00,1.974109569264638486e-01
1.649880348701903976e-01,-2.250961672016654980e+00,5.072670498107457071e+00,-3.488758624057405555e+00,1.605235226392172532e+00,2.765265998216984045e+00,2.711417094331368904e+00,4.830771941478767317e+00,-5.678687500459503879e-01,1.039784422431166283e-01
2.768104549840008755e+00,-7.621117513888304718e-01,-1.737350095657278715e+00,-2.110316012843407307e+00,-1.451315616429156297e+00,-1.894983660041074325e+00,6.675331558882585670e-01,-1.146576127386349064e+00,3.915061133226485079e-01,5.237913505672655567e-01
-2.130195504865561418e+00,1.148182735709671443e+00,-1.832960288035929031e+00,4.649524142517129199e+00,3.913121528324793541e+00,8.842827926275356187e-01,-1.208851306358177391e+00,-3.344831536566972741e+00,4.460909061999860370e-01,-2.279925524141348525e+00
2.927085577483511170e+00,-2.070756793160910103e+00,-1.164594302688888305e+00,1.987608618812140016e-01,-2.646612251876387489e+00,6.560938250797772042e-01,-9.673416550392816005e-02,-1.283250545946975851e+00,-2.059074188353307910e+00,-9.417131767343022153e-01
6.004431085854889938e-01,-5.506378860169315326e-01,-4.056676621879831135e-01,-2.690095275681536169e+00,-1.527641623875596988e+00,-7.166186428446268408e-01,-6.522543611890039283e-01,3.198570851896389566e+00,-1.075383187764536785e+00,1.084654348551565173e+00
