2.172681131944731447e+00,-8.267295285789318937e-01,4.424194115957853946e+00,-1.289690846219170517e+00,-2.616137512387607611e+00,-2.274431997552541773e+00,-2.499913154097328782e-02,9.201792816497003091e-01,-2.180546025148673461e+00,2.016382976494269119e+00
-9.338478881827139144e-02,7.893296443486242930e-01,2.866701640437577137e+00,3.192708717196471646e+00,3.993397186398630616e+00,-3.009266031077888481e+00,-1.665972474059112640e+00,-7.086325303046646651e-01,-2.379318560096776558e+00,1.197351739264147064e+00
-3.793410412072802940e-01,5.266081199963045245e-01,1.745793699557192769e+00,1.360455022727284247e+00,8.976510245661568632e-01,-3.156920294459088505e-01,2.477466019379722384e-01,-2.448579984169166224e+00,6.665741484677283335e-01,2.428210870886016615e+00
-8.958370029279769664e-01,2.125267975766249318e-01,-1.146064237195013158e+00,-2.028115720799970323e-01,5.133904529961239582e+00,-2.510233353909875564e+00,-1.552913281609296980e+00,8.273215566110782015e-01,6.321679663633805735e-01,-1.006274811003534886e+00
-2.539518096313471140e+00,-3.136704661386814585e+00,-8.885439254344252857e-01,1.378325284379379623e+00,-3.617344071957534712e+00,2.379857800461945949e+00,-2.743707087877923723e+00,8.766326552358950641e-01,-1.118041518442884769e-01,6.207180330995452078e-01
1.072157749827119533e+00,-1.452537517854982863e+00,7.757556584624033524e-01,-4.992441703802405151e+00,-3.089190309782848143e+00,-4.225021939232284085e-01,1.137551382556113211e+00,5.093846438170943625e-01,2.572579164808018071e+00,1.646975926889991282e+00
1.043437214537367819e+00,-1.610277315038282753e+00,-9.604555782011263698e-01,-2.799939783303620366e+00,-6.581326699472574759e+00,2.688107026532801758e+00,1.079012019482736617e+00,2.070775680353450277e+00,-1.281750456777533131e-01,-1.098595116234980074e+00
-4.163816370221570112e-02,2.315457709324803826e-01,-3.193278874780949295e+00,-2.906691919767149468e+00,8.549003965712184128e-01,5.478862350717609297e-01,9.753052432410050931e-01,9.452523923047472243e-01,2.381084103203018998e+00,-1.996946941440091550e+00
2.745363866665575525e-01,-5.850723870144982630e-01,-1.429831814872593032e-01,-2.650861998531035102e+00,3.235283020499325701e+00,-3.315552788911265925e+00,-1.234709805626300616e+00,2.066062422256202957e+00,5.747441879474318727e-01,-7.171234947676004001e-01
2.229229645168597340e+00,3.920767050220876349e-01,1.956889796141774385e+00,9.224827132821884768e-02,-4.198322697927026503e+00,8.692739104604348954e-01,1.501474213483375841e+00,6.730630860045210273e-01,-2.666468925154457992e+00,-2.564672532974159869e-01
