-3.724897878132790385e+00,5.539601532574076614e-01,3.019286758171836116e+00,1.454691999839332395e+00,-1.164587372120779563e+00,2.986136506865502693e-01,1.239126257688319965e+00,-2.791948628098530061e-01,8.431954560927894526e-01,2.343640729521072608e+00
1.077566835442892890e+00,1.710164258997642683e+00,9.079953063656678314e-01,-7.263197273435346712e-01,-1.122495368931858861e+00,-1.572915362218830548e+00,-2.490411416955837232e-01,2.321412411366006623e+00,2.594101580274116303e-01,-1.203294103843587814e+00
-2.246346235230948896e+00,-2.265666316467946084e-01,-8.268452274949599001e+00,1.603023020099381801e+00,-1.748306872665932099e+00,4.533839055036327004e+00,3.972666793913233629e+00,-7.387115669802573059e+00,1.144823347688133097e+00,1.174453638390108301e+00
-3.149521079992947947e-01,-2.663739240962047727e+00,-2.836513128029561237e+00,9.540040683756617623e-01,1.311098338718203582e+00,1.538722323325839136e+00,-2.271502969793750104e+00,-1.926611807595362880e+00,-2.202966184397914251e+00,-1.471550705069090137e+00
2.042072128667848041e+00,8.818019485484457354e-01,3.172129279884447595e+00,-1.204906000311365410e+00,1.077935980931473692e+00,-4.590724890297674943e-01,7.324762977763146221e-01,2.386446759259316153e+00,-2.401777157334704371e-01,4.508370673723769984e-01
2.020961748055536411e+00,7.167238324087867873e-01,4.796143706225928227e+00,-1.306243991580258612e+00,9.296811927430930211e-01,-2.536822097377734675e+00,-1.677504799370360900e+00,4.587532980866820154e+00,-5.781643560280775862e-01,-7.465559800030823201e-01
-1.421862293560732571e+00,2.286319927838743382e+00,3.707753837719563794e+00,-4.390300395612313777e-01,-1.746320489997994052e+00,-2.572121240137211551e+00,1.688184866456283295e+00,1.736040138385247067e+00,3.238604406684865378e+00,2.358829988379275377e+00
1.882122746010906678e+00,-4.478518470494181614e-01,3.745740045661874351e+00,-9.701800674788773060e-01,9.579584711179603973e-01,-3.613927114148553610e+00,-4.585815788619900246e+00,5.084240038997901223e+00,-1.535309488470216976e+00,-2.664326342867807895e+00
-2.448935121153187566e+00,2.487565919570282613e+00,-1.849022875138558675e+00,7.622732500881025386e-01,-3.799119914581540858e+00,-8.664897002951844618e-01,1.584038445993551258e+00,-8.237942030207081601e-01,2.299549790272434890e+00,7.948308038083452820e-02
-2.595022532848907382e+00,-6.001701399282740601e-01,-2.858081818791628592e+00,1.227449410410194064e+00,-1.655956509227133555e+00,-4.627082435722920106e-01,-9.316028376351840334e-01,-2.129011549922361191e+00,1.046756494950401573e+00,-2.452230205776866900e-01
