4.726748353771598410e+00,4.198521743595794442e-01,-9.060874485485519436e-01,-6.698222236127667095e+00,-3.466338449919195708e-01,1.968088556991596905e+00,-2.005366230147203943e+00,1.440158064361641843e+00,-1.340312244430041044e+00,4.278534208033822672e+00
-6.587842893315241533e+00,4.862227072915585868e-01,8.271057638192376160e-01,1.013671498002067040e+01,2.290855970252722251e+00,-6.441661704465568405e+00,1.662093177218562312e+00,-1.447078962439018124e+00,4.504903573196648026e+00,-8.422085678515589535e+00
1.685605886582517698e-01,4.514640690472125906e-01,3.668567704134502727e-01,-3.523461052663690918e+00,6.265476763883948141e-01,-2.350925400513358632e+00,-2.749710015499244320e-01,2.064685868090983867e+00,1.171424652445012260e+00,-1.488247991012381588e+00
8.933471174562424011e-01,-2.247267259123148647e-02,5.341610738208352194e-01,1.352462392684437908e+00,-3.709568281873573126e-01,1.577404223773619940e-01,1.472188508893302217e+00,-3.294641506242207973e-01,1.495392221522787446e-01,1.540307382777404421e-01
2.073624521176757052e-01,-8.193775247923381633e-01,1.649964162015099989e+00,4.000859994817663079e+00,-1.559345690822744102e+00,1.459065479402900545e+00,4.102162862261517162e+00,-1.255168416615999982e+00,-4.375760325734063261e-01,1.436494440654049187e-01
-3.416410636694354075e+00,6.017998766674006461e-01,-4.644156282778887923e-01,1.217127139712609329e+00,1.892233715540746930e+00,-3.899721921064531305e+00,-1.709089610862811304e+00,5.219287479086284209e-01,2.252812721367465798e+00,-4.086186312993139502e+00
-5.750610678669604292e-01,1.846033091819463401e+00,-1.520139871734661696e+00,-5.113111880743465010e-01,2.174784205590633679e+00,-3.060502437822698152e+00,-2.782930791443330332e+00,1.034126563055482118e+00,5.261721372655215889e-01,-2.189435306781989610e+00
3.954094775944565487e+00,-3.995267461362957739e+00,2.227618430722654530e+00,3.453005717741302050e-01,-3.275283023156090323e+00,4.969707144337582427e+00,3.006710547717885262e+00,-2.908263239913874365e+00,2.746423361729649848e+00,6.057110712433687816e+00
5.302140678598086243e-01,1.791870042275478969e+00,-4.034831480107857749e-01,-1.336198964984088633e+00,5.793450407237001887e-01,-1.044418815665928646e+00,2.143139753485873433e-01,1.700660431083806046e+00,-2.100450942062108695e+00,-1.165376478263646653e+00
-1.561385261398233970e+00,2.005324849454999114e+00,-3.143602849336895932e+00,6.171315940047154003e-01,4.135675291837657142e+00,-5.130103724999006687e+00,-6.748844374897646325e+00,4.076926494620158013e-03,3.444023314301731808e+00,-2.941181416357041112e+00
