1.968323618677178644e+00,1.124420739990231510e+00,2.388577919113345605e+00,1.586274097453547194e-01,-6.485274730897850892e-01,3.096467319061392054e+00,1.726748643737359146e+00,-1.444128041126982342e+00,-3.148738099991815531e+00,4.454347100110679358e-01
-1.794426590922914677e+00,1.182300398882965675e+00,6.324367844807721184e-01,-1.013148518711209090e-01,-3.404949607151419588e-01,-2.759986498129966659e+00,-1.010491975190463521e+00,1.994971963037719398e+00,2.378578128136672909e+00,-9.177322691160729740e-01
1.463417756640533973e+00,1.177621677115558985e-02,3.129025304264758667e+00,-2.462147357296466943e+00,-4.665066056303638575e+00,1.957742694749590839e+00,2.879539524506673942e+00,3.071170135747876007e-01,-1.375934302493291961e+00,3.383625903210572439e+00
2.417331562331341832e+00,2.169364678888443976e+00,-9.570342452846126724e-01,8.294415270190466094e-01,-1.850541712138197514e+00,1.976725177031785075e-01,2.132736711201189905e+00,8.997339901644505478e-01,-1.029005617841411091e+00,-3.847278169055460828e-01
2.028810637717262999e+00,-3.867597682737293319e+00,-2.121686173447569157e+00,-4.968843393803030750e-01,2.422786242365060350e+00,3.249975462564974826e+00,6.777668387432105312e-01,-1.624861445190997955e+00,-1.976739497201841278e+00,2.279649449696047991e+00
-1.704254693903819007e+00,-1.724699624651453433e-01,-2.945531362028793732e-01,1.869660628985620604e-02,9.622175709113928166e-01,-1.949901694592920842e+00,-1.451738804595626320e+00,9.851976478126063252e-01,1.925647586662750488e+00,-7.151435052636820888e-01
1.819396166920636659e+00,-9.623765036978082499e-01,-2.940680737503612807e+00,4.817325169478847702e-02,-1.234746669637270644e+00,6.684588449374421204e-01,1.304135266995918752e+00,-5.170955252604703123e-01,-6.445124066696780174e-01,9.040345216772763814e-01
-9.711802036194396859e-01,1.354099960305012340e+00,-1.851184045314425486e+00,1.241964215275802363e+00,6.271522156210804777e-01,-2.737050932529889735e+00,-1.124393223636440897e+00,1.254089731706323319e+00,1.915251431030078777e+00,-2.122204469605160959e+00
2.245262478799723294e+00,-2.782972343073731203e+00,-1.024959812182538732e+00,-2.997542442350262237e-01,1.103538985332151778e+00,4.036467418989240663e+00,1.114869130744884806e+00,-2.803691331325450786e+00,-3.083998371814895112e+00,1.915153693182507055e+00
-1.911113644230113540e-01,-1.861022502330069717e+00,-5.780293195947055374e+00,1.894090856653031230e+00,4.250869322404353667e+00,-1.771130967267968037e+00,-1.962350941917128555e+00,2.016453588836690236e-01,1.638048285926343217e+00,-1.821683925030951334e+00
