-1.307884050907590412e+00,-4.280251340355540002e+00,-3.824869606151040990e+00,8.397815054192281359e-01,-2.982642774873899949e+00,-2.840004493259506546e+00,2.339552326810222738e+00,6.525037342166729815e+00,7.418103108321215666e-01,-2.351826347944185880e+00
-4.916500658834768167e-01,2.995129192037828236e+00,1.015715038943012793e-01,-2.729181026389639886e+00,6.499022162600358588e-01,-3.151750617599218707e+00,-3.668003561732223750e-01,3.186857341768598584e-01,3.443533140294733896e-01,-3.218116572260708019e-01
6.237255414621041272e-01,-4.899402201762801390e+00,-5.204755308603669306e+00,1.179383358751688649e+00,1.734958356526571155e+00,-5.949322458809986003e+00,1.116435925604998491e+00,3.249761897946264355e+00,-3.099596859409788907e-01,-1.896668048162913456e+00
1.231223388876158786e+00,1.094189196148874776e-01,2.087899699645610507e+00,1.607749210555934116e+00,8.384328372515726935e-01,4.169449239200505808e+00,-9.537872477992671572e-01,-3.523822962051177399e+00,-2.697986809154448440e-01,1.185323106922537395e+00
-9.989174063366674794e-01,-1.623289749482816013e+00,-1.346595084216654303e+00,1.998792949890642046e+00,5.376628177536494357e-01,-8.878760149259005141e-01,3.725860388378292587e-01,1.519060547521921878e+00,9.950842521398002294e-01,-8.137061535591438854e-02
-4.823013371627477008e-01,1.598096819116119338e+00,2.061361873192351535e+00,6.127916487473945573e-01,-7.239710131177926056e-02,2.753036076997849690e+00,-5.984505084275137943e-01,-1.608105933883157812e+00,4.891083973270083929e-01,1.105548169437774231e+00
2.044165019622381507e+00,1.981028182180376351e+00,3.262974160389378042e+00,-6.786772082067509260e-01,-6.992778413833072859e-02,4.569717592555850416e+00,-1.172807841391009909e+00,-4.215191043495233991e+00,-7.311683255758438804e-01,8.039783323431137774e-01
1.532358550109772510e+00,-2.628122538373710348e+00,-2.202280790740887895e+00,1.480788010863817172e+00,2.038155407757401782e+00,-1.978374181796061171e+00,-3.903220745040575368e-02,7.363560826789472546e-02,3.860975361054450605e-01,-1.093134603859756693e+00
2.734340870457901307e+00,-6.262499204999898428e-01,1.102951308501939121e+00,2.124508579383409312e+00,3.779508410925908723e+00,2.412691936239941271e+00,-1.698499507218843130e+00,-5.455318647187702652e+00,-6.162051554188548996e-01,1.159781399298588811e+00
1.404396576703611954e+00,-2.242291262666374685e+00,-3.340753209506666654e-01,2.393271533937996409e+00,1.269022221949471341e+00,1.643320483063114290e+00,-3.136807283092915566e-01,-1.462891707360695515e+00,1.265778493033682950e-01,4.968880169441552974e-03
