9.554731100285622780e-01,8.648078538663223069e-02,-2.921884209442404678e-01,1.766947904309281170e-01,-1.399855258844564077e+00,-3.102165255010000400e-01,-9.597818777473280383e-01,2.052271415351395678e+00,3.265290095425109618e-01,1.495473533833145130e-01
7.511650285201216803e-01,1.655621457926291784e+00,2.061811521811760084e+00,-3.207127103789748634e-01,-2.219881449313673816e+00,9.522975304363481275e-01,-6.649731711292903302e-01,2.792505852867696037e-01,1.237302731824220903e+00,-2.057649839237271350e-01
1.204231581305279741e+00,-6.225334639602784215e-01,4.130915843188121550e-01,-2.566681834162449327e+00,2.868483679843621958e-01,-3.667394214255821350e-01,-1.835677282509019737e+00,-5.805571232590747144e-01,5.003542959776954291e+00,1.802275394977177481e+00
-5.535733888362054378e-01,2.797773225698133359e+00,1.435971736456034265e+00,2.928799386897445345e+00,-3.837574906799639418e+00,1.905125613940173990e+00,1.789562178413387272e+00,2.000026878926356722e-01,-2.772928842989988762e+00,-1.621287669029203737e+00
-6.060236208240421529e-01,1.081923522804139504e+00,2.630442393255787881e+00,-1.220953815192636016e+00,7.977260169665358891e-01,-1.650591762792849027e-01,-4.489384484507541462e-01,1.291256158406334897e+00,-4.131185009791232154e+00,-3.371921994292264024e+00
2.557675972431666445e+00,1.097394348696398403e+00,3.301880592492407729e+00,8.639793812939073891e-01,9.906833954355226401e-02,2.607077367478195518e-01,-2.784595696652600427e+00,3.878250287293718124e+00,-3.445210787062851221e+00,2.585980205504759821e-01
7.224738423919795371e-01,7.540764036383478253e-01,-1.446301614205234287e-01,2.437919994421266168e+00,-1.723402680928042940e+00,1.478077258680555728e+00,7.499631886725657282e-01,-1.366700812300389423e+00,1.852727846012404589e+00,2.623505534967441655e+00
4.382522756501020522e-01,1.616798241669775704e+00,1.343497013086957237e+00,9.375645567901734756e-01,-2.450349280641573202e+00,5.312976453330063853e-01,-2.682790262718551255e-01,2.138772384334440613e+00,-2.117163002511341485e+00,-1.533854349881978330e+00
1.470809622260520033e+00,2.007217482370868833e+00,5.818663922387118603e+00,-4.486429355149739173e-01,1.658772861714048696e+00,9.222638362733523998e-01,-2.246081074064206540e+00,1.681851964032188729e+00,-4.607223126280113767e+00,-1.265782973936685485e+00
-1.422681265097910819e+00,1.786001355835333593e+00,1.346939448213565482e-01,1.059011611244440321e+00,-3.106681234715842344e+00,8.733086498767960171e-01,1.912989893961381194e+00,-1.775483670156847160e-01,-1.534062874792268882e+00,-2.556283348347733853e+00
