-1.600480703909717972e+00,-9.371690008805766414e-01,-4.595538269421398647e-01,1.853247114333622381e-01,-1.270916246150434858e+00,-1.671356336243176255e+00,2.073312295366601443e+00,1.579067602587028718e+00,3.733777301054091780e+00,4.487185331323617632e+00
-2.203195364509985765e+00,-8.249044696368264262e-02,1.212586696220270488e+00,2.923548249198107962e-01,9.447218337042678771e-01,1.616095382835497363e+00,1.890924653866390415e-01,-1.080190747547316255e+00,2.630776395657218991e+00,1.269300758616664249e+00
-2.506751448594954912e+00,-4.765542505955538966e-01,-1.197831226605188482e+00,-9.092117516782777242e-01,7.215250520706951720e-01,-3.235380788055354451e+00,3.907402992114009432e+00,2.577970004372694746e+00,1.535609080773441271e+00,4.745270931805769976e+00
2.299672246252866259e+00,-6.880315315942676646e-01,1.480295032604863170e+00,-2.550558238614177853e+00,3.305050088146281428e+00,-3.569242093485919032e+00,-7.943497518395954415e-01,1.366526232577637501e+00,-1.374649800945421996e+00,-5.020288227021082683e+00
2.416575302791328816e+00,-7.245376123771491983e-01,-1.975906654816713126e-01,-1.915176393530604981e+00,-2.119595463450603401e-01,-3.875834654092547016e+00,2.021645558905665607e-01,2.213530877450822221e+00,2.498063093968979853e+00,-6.114665115109496618e-01
7.406673512052843744e-01,-2.472442028417664694e+00,1.406224465724587480e+00,2.532011515934487811e+00,-3.767434463383859455e+00,1.544459368718400227e-01,-1.774899163281269843e+00,2.534019411285748924e-01,2.680037216944338940e+00,1.078826399353198351e+00
3.018316452281426976e+00,1.371705284619429976e+00,-1.562629321280758710e+00,-8.069344052498178543e-01,-2.397174977575248889e+00,6.109431329741986660e-01,-1.298724973514874259e+00,-4.635116853718163621e-01,2.541561549803447839e+00,-3.288724323638019809e-01
-3.306583388891856323e+00,-2.996127044941718776e+00,2.255699136649974790e+00,9.414598654780275133e-01,1.935244996152432284e+00,-2.848958412799913908e+00,1.949721500117729933e+00,2.023435474154919422e+00,-7.995382543384402796e-01,1.591328624407263082e+00
2.409595382199217095e+00,2.143075881390503312e+00,-4.025193198268778971e+00,-1.747815902133866617e+00,-2.063415637623220444e+00,-1.746005776267163467e+00,1.651334676350597164e+00,1.477113121938611551e+00,1.947625144507715844e-01,2.084450722495986952e+00
1.113481347623046736e+00,3.684312741371348898e-01,8.653370678969178609e-02,-1.877163473399836358e+00,1.207551205123157168e+00,-1.483191327764686207e+00,1.685360038573913491e-02,5.374636787407669480e-01,1.807952576824139568e+00,-1.119948790003880035e+00
