2.286980751614555274e+00,5.083857567328948335e+00,-1.103254309908759945e+00,3.412791856707547478e+00,3.554974963175138836e+00,1.944263557484182225e+00,-4.830489864867848482e+00,-2.563624486321233853e+00,3.220195431731709412e+00,3.082981792000214494e+00
-4.423195669213211279e-01,1.309194058803089922e+00,7.205398354325665000e-01,-5.705930389338584874e+00,7.044161631386889333e-01,-4.371640651609027373e+00,2.474333733200684726e+00,-3.349744111725562412e+00,1.084657623455188347e+00,1.535573156644796766e+00
4.273013319020576573e-01,1.583191633411153987e+00,8.058559867970622737e-01,-3.612242061661896209e+00,-1.068678131920392849e+00,-7.509989849108235083e-01,8.490763614975628260e-01,-2.047008764810668957e+00,-5.644338528751877693e-01,1.406398772317155377e+00
-2.735634828001361374e+00,7.213741801757911354e-01,-2.205482553808038926e+00,1.293085064060661482e+00,-1.557158743993903416e+00,4.190789235191287432e+00,-4.133143028460335433e-01,5.484752110919035140e+00,-4.741601789768311370e+00,-4.815354216958967370e+00
-1.351122594747796724e-01,2.496073158429965577e-01,8.293247267300849490e-01,-3.024025694975867484e+00,-2.975749371490604700e-01,9.805823418499581834e-01,1.983978523769152513e+00,-2.204322072615914951e+00,-2.269969464327214581e+00,8.748665227206888773e-01
5.307922274817573616e-01,-2.564476162298879203e+00,-6.068256718228537405e-02,4.617929721650329000e+00,2.896531303604511276e+00,1.652352726395915905e+00,-4.237631831661744508e-01,-5.294219047119039789e-01,9.896153261636407850e-01,4.018193714782600789e-01
2.026435168450752222e+00,2.012828906506011872e+00,1.770209117688458678e+00,-2.795735236936630841e+00,1.820410568513163296e+00,3.069846123077887068e+00,1.138062334094400940e+00,-6.892450197792511446e+00,-1.700778324289902166e+00,4.657660262579376820e+00
-1.897951771460479664e+00,2.690486483527286588e+00,-1.182996439686453183e+00,-3.284392753988144786e+00,-5.903036930045681974e-01,3.301556871648374247e-02,6.919349127351739348e-01,1.175604410637818953e+00,-2.271701287477991382e+00,-1.838877775121958047e+00
6.318329470104833145e-02,1.141906622874191424e+00,-4.854160481678646555e-01,4.046205178633334731e-01,7.127999789457393209e-01,-2.164332053396788580e-01,-8.812345145766610210e-01,-1.987770633390597425e-02,7.797072241894096312e-01,1.306125389172544393e-01
1.881477980851868903e-01,3.319442728550581645e+00,3.083438245707334491e-01,-4.653067375871971834e+00,-1.560700395180599553e+00,-1.610978575846801597e+00,1.637871293359065561e-01,-1.477480357609480377e+00,-1.765759387267464287e-01,1.108403262927770694e+00
