1.834583275757972309e+00,-3.544463742690131980e+00,4.364305565208626003e-01,1.431714773118863970e+00,3.343312011033888087e+00,-1.013211933283063582e+00,1.535626059057963344e+00,2.071937917869669521e-01,2.122722136914065860e-01,1.854702731447224862e+00
-3.926063630518422887e+00,2.200773822990327311e+00,-2.332316491719627072e-01,-1.438521220739127360e+00,6.112613256675950568e-01,-1.640278140729489520e+00,-1.031368735114307766e-01,-1.448784642243216292e-01,-1.038259575865428275e+00,7.851387790544234191e-01
-2.465169989043659304e-01,-3.484025048650600365e+00,2.594104005013650127e+00,2.776135507545045011e-01,2.140930675540912986e+00,1.106535881629780782e+00,-2.668740283167500227e+00,-3.788612092398845110e+00,-6.540788687486988051e-01,-5.281021550544682253e-01
-6.012620995399820423e+00,-1.413783849253340552e+00,9.143541731231076275e-01,-1.803213333513586925e+00,6.427620105934575001e+00,-4.177239872844689117e+00,1.224646265699698811e+00,-2.346506634375922773e-01,-1.806935978632000062e+00,4.246042693828977477e+00
6.514381983814877763e+00,-3.039228184863862037e+00,1.637019038896801559e+00,3.836310832149888217e+00,3.359620741394237498e-01,-3.254750177327707217e+00,5.102049545758829296e+00,1.466228764225988579e+00,1.933620145102893373e+00,-1.196956578646240832e+00
-5.443018224646944070e+00,4.405583662975455006e+00,-6.142273748585004300e-01,-1.037679415784995562e+00,-1.132809456296913320e+00,-1.694445373629404616e-01,-3.292998779554325850e+00,-3.455214982353022712e+00,-2.231496211919611117e+00,-7.547290462072331341e-01
2.822710313383078873e+00,9.446447232068430067e-01,-2.398016263951283644e-01,2.973984687593241194e+00,-2.749158790896632176e+00,1.636690249240930761e+00,-2.048654524385387088e+00,-3.470646007876443395e+00,-2.547141725417719771e-01,-2.812896540845802651e+00
-7.010818503817039193e+00,4.478686404669785404e+00,-7.369454544064311108e-01,-1.530488831473449496e+00,1.143858080161730406e+00,-3.404978794972839395e+00,-3.698449414552206216e-01,-1.384975398108251987e+00,-2.320109943672011177e+00,1.262770942440747834e+00
3.115679794685601856e+00,-4.180577993491390032e-01,2.890256350636813409e-01,-1.035808225601965171e-01,-2.851457650160069690e+00,2.345223193871520451e+00,-2.818526760140735998e-01,1.129042175345513987e+00,1.418417757486598818e+00,-1.955103416466827282e+00
6.567725674268714897e+00,-5.276383593055939514e+00,1.339103251054122867e-01,4.841403789641527844e+00,2.594263759363713007e+00,4.342046334121021922e-01,1.120266744770832990e+00,-1.573151072167683351e+00,6.750125210874948767e-01,6.354618390008806017e-01
