5.532861858376509012e+00,4.150091160434577375e+00,1.572693865010513115e+00,-1.681085467657975396e+00,-1.035030137943576234e+00,5.716534003596906111e+00,-1.411582541655397094e+00,2.392386408821137511e+00,-1.552613333191298128e+00,2.373506712061269064e-01
-1.375488421900207925e+00,-7.490657415895130011e-01,3.474522475740976502e-01,3.239748028024687643e-01,-8.869330869921587812e-01,-1.030294186955220265e-01,9.398131476129955031e-01,-8.552784189895346056e-01,-1.631486512284610946e+00,1.074306478464568615e+00
-5.079024538752811679e+00,8.027512362870737883e-01,-4.932314639910019838e-01,3.481872299134014526e-02,8.205420345174567753e-01,-3.364178907009851560e-01,-2.946033139525149114e+00,-1.044890012581718652e+00,3.641907120890160998e-01,1.432714683336159533e-01
5.447020532324957642e-01,-1.601523430796534253e+00,-1.601266835490064322e+00,-8.382295155893511041e-01,1.343540549928347261e+00,-2.078664374275942084e+00,-1.975922050570828592e-01,4.745865619003008518e-01,2.618952554484792472e+00,-1.233397566254311073e+00
1.513033788079620079e+00,1.919062980542171282e+00,1.345458385630935894e+00,1.687880142703380493e+00,-6.497476948275991981e-01,1.680659468091775022e+00,7.535509127752031411e-01,5.150768270268435423e-02,-2.956844783510427788e-01,-4.824830975603022765e-01
-3.083851670358447095e+00,1.545820470314900774e+00,-6.267055706985513730e-02,-9.501090870893014184e-02,-2.883298889355096151e+00,5.534824085845757580e+00,7.985919055228007934e-02,-1.913030755915048786e+00,-1.534740096307593671e+00,7.443985413828133613e-01
-4.629107134060135742e+00,1.182649591236918374e+00,-1.601996824333673519e-01,-1.380164857781035259e+00,-9.788131307216607624e-02,1.470684393574980930e+00,-3.318550098046771701e+00,-7.193152921850943793e-01,-1.647085162886053888e+00,1.458769419097853959e+00
-4.858757458566035581e+00,5.684208132965589133e-01,-1.186710608794137034e-01,3.068341491392715614e+00,9.005029885001205603e-01,-1.718731427742619555e+00,-7.175898645336020731e-01,-1.932161440764948779e+00,2.136871506690940059e+00,-1.430613967536838338e+00
-6.081801630918136858e+00,-8.207364515155137763e-01,-9.152630301551736292e-01,-8.593147052657507112e-01,-6.385658547807562258e-01,3.483209413861473314e-01,-1.573050391303971951e+00,-1.904232833818417570e+00,-1.316630497798510602e+00,1.455319241998078716e+00
-2.869090700778182068e+00,-7.160511688444605838e+00,-2.196137907366149999e+00,-3.153295835956145154e+00,-1.068948161987772538e+00,-4.230261663954657969e+00,2.877640518504285705e+00,-1.381892164135626544e+00,-2.951695245967569381e+00,3.284812723173854199e+00
