3.699629479402957721e-01,1.966177875144726084e+00,-1.236866297163661921e+00,2.162766119710949120e+00,1.318315586477918799e+00,1.666068983861473951e+00,3.833432524789870399e-01,-2.354998471803348425e-01,-1.826656986327158672e+00,3.231901141476337447e+00
1.397792485553164710e+00,-2.790445821830296880e-01,1.483905231191580132e+00,-1.309166696289300047e+00,3.875591957623988199e-02,-9.863051186478793975e-01,4.046136537749780993e-01,-9.298557566864988910e-01,2.478942860864522757e+00,-2.471236952664654485e+00
-1.720866045241083775e+00,-2.574798328851963802e+00,-5.149182521910650179e-01,-9.708139358424565657e-01,-1.844275060777721187e+00,4.565983403070352775e-01,-1.439626853581787991e+00,1.612768787476450028e+00,-1.199480066549130086e+00,-9.278073878178723088e-01
-1.041673547804220945e+00,-1.125721723484892411e+00,-1.998771046270432228e+00,-1.251748191669141974e+00,-1.492092739456132966e+00,1.027415483495803139e+00,2.244891522655064198e-01,2.001417484928472934e+00,-2.038500309162885049e+00,2.970036898152350169e+00
-4.194684930570855563e+00,-3.092732932450287908e+00,-2.509981776467906212e+00,-6.656221855509035779e-01,-7.731917373271390836e+00,-6.432147750574024769e+00,4.616145290058265793e+00,4.455785767198928937e+00,-7.790766099519789378e+00,-2.250525231764466394e+00
-3.075325638639518466e+00,3.318565625706853872e+00,1.697179271458344685e+00,6.112936303414071126e+00,4.861693793761368454e+00,-5.076711942241791675e-01,-3.698034627466887159e+00,-2.713111504029971144e+00,3.859006972472344699e-01,-7.578816997302157965e-01
-1.893564026082208862e+00,1.121384207315609061e+00,-4.902566193704661623e-01,3.011717215823519034e+00,2.669829354549888123e+00,2.541464236889598105e+00,-3.171835316691446138e+00,-4.428949570717330975e-01,-8.634058220366236380e-01,2.345769840992676603e+00
2.660940873570072362e-01,1.385214088787198650e+00,-4.963360748252685917e-01,2.686113921195991683e+00,-1.892823281722471718e+00,-2.921142704210775154e+00,3.613751229626888772e+00,6.594763566747459393e-02,-3.985061911445000327e+00,-1.517861329523670033e+00
-2.856356752534506160e+00,-6.235520552826238072e-01,-2.514155757750286546e-01,2.855475187243655011e+00,2.613548101803568890e-01,7.464355642938385049e-01,-2.687104498986994550e+00,4.556991746927523956e-01,-2.395067816842442188e+00,-7.330004586339347039e-01
2.463469753484222480e+00,-1.259193651562159344e+00,-4.667170501719410391e-01,-3.379079125271875039e+00,-3.138788870819884558e+00,-1.365361104074696019e+00,3.668041475404347107e+00,1.058288706073642116e+00,-8.054009796664803045e-02,-7.557261746366672472e-01
