-3.608981419577000693e+00,3.069933744425431765e+00,1.028012873465554922e+00,3.441453105550793534e+00,2.196422584712011350e+00,-7.065812422444825991e-01,-1.312921890520810875e+00,-3.076279570462963520e+00,-8.673731475812926917e-01,-2.002115812071669776e-01
1.665119892517856748e-01,-2.220775837511505646e+00,4.278060508487260827e-02,1.732551130845924492e+00,3.382768968926106457e-01,-1.764700168184280660e+00,2.035430914641329636e-01,-3.298764956243093849e+00,-2.510558631722993095e+00,1.112701743908356411e+00
2.317418958865221645e-01,-3.166966627553851055e+00,1.719088578311768423e+00,-3.014654563102398654e+00,2.769481822971223917e+00,6.311490021182949439e-01,7.977789349408981323e+00,2.787498941607208902e+00,-4.295328560417989827e+00,-5.066922482172621089e-01
2.098321507371176953e+00,-1.080075122187765524e-01,-3.152462090832170549e+00,-2.696600180629151189e-01,-3.062291512334681887e+00,2.325900585528388742e+00,-2.259038006650223807e+00,2.035627469432715664e+00,4.751386208243651765e+00,-3.826712099338805961e-01
3.993313131668738691e-01,1.033674447217808767e+00,8.546000857532232153e-01,7.682028955055608677e-02,-3.399606667329503562e+00,1.307275392865429042e+00,8.318205952262678338e-01,5.051632503944722963e-01,2.120091094539063192e+00,2.322315285062439560e+00
-1.033896651836685443e+00,3.671377944571377672e+00,-1.937756095751126839e+00,2.739465418678586950e+00,-2.875425570277982512e+00,2.683125359566622681e+00,-3.309726392389115368e+00,-1.024024184320272701e-02,5.637321703610695067e+00,3.660903024157215468e-01
1.285197064004995671e+00,8.551009940325894343e-01,-6.783808163954017090e-01,1.394795447543737410e+00,-3.998280261717247264e+00,-7.050568848831330060e-01,-4.764208771840964474e+00,-2.064007933019008867e+00,2.869840712722768750e+00,2.030679670851860408e+00
1.803292765430090761e+00,-1.519265552039159362e+00,6.687095806715446233e-01,-6.679135825545972072e-01,-1.279713291863131319e+00,-2.868003532245302356e+00,-2.891576791468969621e+00,-1.998839938449578302e+00,-1.346576807564402456e+00,1.227163431000267702e+00
3.245514133664350598e-01,-6.563340089865601357e-01,-1.467694153162867332e+00,1.435543733370948205e+00,-1.978838055935731921e+00,2.321887790062685752e+00,1.928349968237347944e+00,1.852501306500871914e-01,2.002773765597942290e+00,1.029668951364603791e+00
-3.736704851338640276e-01,2.423419655923458205e+00,-3.295984961331998031e-01,-4.965463928746781663e-01,-2.400423525718639040e-01,5.327027478647783365e-01,-2.654672894738021593e+00,1.333528491255436599e+00,2.294492120689779924e+00,-1.029297141525861381e+00
