-1.492642897984824302e+00,-2.422700263281047928e-01,3.819591340769692422e+00,6.166229438070197633e-01,9.233777041405775154e-01,1.403914366166203243e+00,1.599690313188121049e+00,3.365980843695071112e-02,-7.452210750017862484e-01,-2.486036734499429635e+00
-9.239551078222495439e-01,-4.426854984126908921e-01,-2.823031085527111905e+00,3.550979385360547580e-01,8.396291783585630997e-01,-9.200657221403374386e-01,-1.830977567440418508e+00,2.626254438381058209e-01,1.072266666694440929e+00,3.258143543915267282e-01
-8.604662210135923806e-01,-4.338221044615728772e+00,-1.427451412762742233e+00,-2.470652637654542794e+00,3.527051672661166926e+00,1.406895114102645117e+00,-2.907143912763868521e+00,-2.128237049186730623e+00,-1.635212559602786220e+00,2.758887656829229207e-01
1.115245944466717321e+00,2.558437634678927264e-01,-3.531654728922278164e+00,-1.444790768216064336e+00,-4.073675966458578657e-01,-1.082219772157579918e-01,-1.381417216091866962e-01,-9.485098277395508370e-01,-4.670889699278105156e-01,7.697197328796602234e-01
-8.010465302647076236e-01,1.110324853516840182e+00,-2.710300983225128135e+00,6.015001903988380638e-01,1.360542114845485484e-01,-1.292090408525602696e-01,5.005488268462155999e-01,-4.232749006943037351e-03,5.813307356200357878e-01,-1.618754189129862242e+00
-1.877411561394781714e+00,3.249853104072886190e-01,-3.687104305730470877e+00,-1.926364326546949668e+00,9.241978435681282855e-01,-1.958049051657627659e-01,1.135914165726559233e-02,-5.572544674295598632e-01,-4.182559862711520693e-01,-5.799768131971633212e-01
1.235598576006876170e+00,-3.858310376097837668e-01,-1.067818263973876691e+00,-2.932361094276649371e+00,-1.164113124047582160e-01,1.249586903607457833e+00,1.169791853194944276e+00,-1.811444300318854506e+00,-2.212198743284265134e+00,3.318299329680163279e-01
-6.540237982973975406e-01,-3.703747977285725690e-01,-4.123219310936217519e-01,-2.110263489934724179e-01,4.570291631939898402e-01,-3.203628543316590638e-01,-6.929927004324667461e-01,1.475754705551169943e-01,2.014016696389412386e-01,3.214026323085674708e-01
-1.456994485403313222e+00,2.408892360898030827e+00,-1.526641313463859451e+00,-3.850119833150641435e-01,-1.196425468985635510e+00,-1.525029465809767393e+00,9.575786176452316667e-01,1.226516558352613195e+00,8.315786456704764573e-01,4.126320507279290228e-01
-4.748022139734309754e-01,-1.175804143021968562e+00,5.041194795411156893e-01,-1.439471225555941203e+00,7.813257457111499882e-01,2.387007045413144790e-01,-6.127156213421269815e-01,-4.347869811471849477e-01,-7.883731734904039223e-01,7.700218359955977032e-01
