-1.726733413911749171e+00,-1.603419790700442826e+00,1.026064451342482808e+00,-3.597055373501325537e+00,3.007780686747546728e+00,-3.328853249967419270e+00,-2.664619476692745348e+00,1.923148931523011917e+00,-1.690413478880346210e+00,2.578513622744955103e-01
7.563254573262152558e-01,3.096637171860042947e+00,-1.396265206913318346e+00,2.965809529861887395e+00,-2.706458718594042967e+00,3.446495842962905343e+00,1.278379491383316857e+00,-1.812891022174105471e+00,3.264774233188787456e-01,2.727384527527845215e-01
2.817844597602012335e+00,3.161020147918008227e+00,-3.100162859321562880e+00,4.069688872390051060e+00,-2.674266642447048703e+00,5.829305614732307461e+00,2.503338241881611914e+00,-2.984377496791465134e+00,1.820768073989513791e+00,7.298073189092922908e-01
-4.192985634215439461e+00,3.964022835615148461e-03,1.097847950608421996e+00,-2.640158045152727784e+00,2.021567272397166715e+00,-4.496486271024516590e+00,-3.657862153605348166e+00,2.567859140593443446e+00,-3.066795428221109621e+00,-1.073467708251257396e-01
7.726105824862130600e-01,-2.899367384033919581e+00,-6.118912410501433641e-01,5.588662379951520043e-01,1.479407141554298200e+00,-7.517810896023111589e-01,9.904146109153558752e-01,-7.460952160830628399e-01,1.877123375444872622e+00,-1.447618930424199091e+00
-1.218406795713503632e-01,1.870769154378011834e+00,-3.742968617845500390e+00,3.982482908624727536e+00,-4.629246015467355924e-01,2.811795489238258394e+00,6.169688442690822727e-01,-2.932711895686091808e+00,1.012434093414917413e+00,-1.179324544439264155e+00
2.689587875905402825e+00,1.087097011688656217e-01,3.498841977134004466e+00,-1.144520328770299189e+00,-3.022847356025758714e+00,1.285381005647737274e+00,2.263218146868312353e+00,9.127716226129068966e-01,4.865085870558710224e-01,1.489360608938772756e+00
8.081259073641949842e-01,4.975373745099900269e+00,5.090840264926313474e-02,-1.191441411341736201e+00,-2.964243529326596960e+00,1.961168969263199502e+00,-5.557863499097838167e-01,4.550764806384322014e+00,-1.941040428262243989e+00,5.883591686633660167e+00
-2.035853316364680587e+00,3.109389883935639975e+00,3.571055792510421600e+00,-3.330715726153787415e+00,-9.762253146460428965e-01,-8.408027256724207033e-02,-2.784841352193026420e+00,-9.963909157549724060e-01,-4.251845729360967496e+00,-1.229957224032134644e-01
-2.040652794746537158e+00,-3.611054031885638338e+00,5.393238395376310557e+00,-1.906208915514404634e+00,-5.486774432014347447e-01,-5.192735214728859461e+00,2.201581007203686768e-01,1.473967330372800033e+00,-5.830591083956331300e-01,-2.571089030657816910e+00
