5.179645579203238093e-01,-7.401367742344960865e-01,1.215824985557172777e+00,2.270349452080979713e-01,-5.907990771673107822e-02,2.397284990929048565e+00,-1.025630431036644419e+00,3.536867066283861383e-01,-2.137146330154328089e-01,-1.856964098000838170e+00
-2.126327420754053676e+00,7.253606145237747604e-01,-6.272829189276331263e+00,2.849028679114234741e+00,-1.703986808993318558e+00,-1.103564617376605828e+00,-5.963564485410837168e-01,7.517691424368799780e-02,-3.414767961612846570e+00,-5.544552715149213107e+00
-1.492003671120140762e+00,1.819138141641681305e-01,8.703961558603657833e-01,-4.171817663178155611e-01,1.780136175711050983e+00,-2.662348594096053400e+00,1.265430529122315795e+00,-1.156697013501707616e+00,9.488420314093851671e-01,4.822559622331972662e+00
-1.123547769631771720e+00,5.839756451691688888e-01,1.572090451243125520e+00,-3.297315510937065541e-01,2.518091022026466508e+00,-1.934588949756353538e+00,1.514539373800182664e+00,-1.958372387874465659e+00,-1.224652675052131934e-01,4.883841348563005447e+00
-2.651614641664946870e+00,-2.808207793346195746e+00,1.587514333281518031e+00,2.943885899174164766e+00,-1.196431509245513003e-02,2.866267832773694568e+00,1.531649181568042750e-01,-2.967446218502974187e+00,-1.758578534124102810e-01,2.384586509149658529e+00
-7.784744725488373929e-02,1.204795753188544927e+00,1.725085636311605164e-01,-1.607069074049001678e+00,2.414713074299712492e+00,-1.623262065522246056e+00,-1.515719813445160824e+00,2.389833100993163484e+00,-2.169765631011599805e-01,-2.141423666075298549e+00
-8.177854646110811476e-01,-1.151292439672509715e+00,1.513922532363610962e+00,5.771594087221765257e-02,7.583593567988555773e-01,8.182436413534577291e-01,-9.171520353390438807e-01,4.293237211649014728e-01,9.604031987769193757e-01,3.007695601909656791e-01
-3.859321054704151877e+00,-4.377963757249282217e+00,6.639969644092569290e-02,4.018465153511054488e+00,-1.533315683342227231e+00,3.816867883575224329e+00,-1.721500846899109760e+00,-1.200896898085375586e+00,6.192025582563044361e-01,-1.052512307394160240e+00
4.618458142252738208e-01,-1.928505863001165777e+00,5.749513893291451794e+00,3.596663838203619235e-01,1.426357873140341903e+00,4.184196765072877078e+00,5.858360797102865059e-01,-2.821436459012905740e+00,6.073029731682544341e-01,4.236328461394050393e+00
4.956273912868121023e+00,3.633419238560008147e+00,3.248630660059398156e+00,-4.297424470261596241e+00,1.768147407928451154e+00,-1.785831765753744804e+00,2.766723547942746553e+00,-6.157642441069963724e-01,1.246755385049959364e-01,4.441813109247337188e+00
