2.535307981181147419e+00,1.046125168753414547e-01,1.135099930613313379e+00,2.947208679354676342e+00,-2.222900145309408160e+00,1.074612490119561503e+00,-1.787458316438300887e+00,5.314509925792634260e-01,-7.652324386900462017e-01,-1.190954359476757096e+00
4.163690981442225159e+00,-8.631645096718800758e-01,-1.292832100173272547e+00,5.269584160952233809e+00,-1.093450178295954922e+00,7.524416483202746031e-01,8.169464717738509352e-01,-1.039372632728073231e+00,-3.461052533051876545e-01,-3.206093753028530280e+00
2.376407188982173402e+00,-6.243062025395748060e-01,3.541286725864574159e-01,3.617391001044413024e+00,-1.114295805111510163e+00,1.676488967004269304e+00,-1.025868275198861257e-01,-9.128707810392178157e-02,1.401262528595945134e-01,-1.285653177917803980e+00
-2.442848638060428179e+00,1.990050632165457634e-02,1.226772849259050391e+00,-1.638538617563010780e+00,1.742772113585600469e+00,1.403163100383816975e+00,7.352453156856850747e-01,2.917267209993377741e-01,1.763853047524217788e+00,2.376205173211370258e+00
4.845375146711567105e+00,-1.069787926110605802e-01,-2.919718687556055237e+00,6.055616284505560110e+00,2.667103053478497854e-01,-1.694472402359703089e+00,5.100077583807849368e-02,-2.140087559985256238e+00,-9.116409455617220381e-01,-4.705323989537979479e+00
-1.334842203534394089e+00,-2.317219924946067322e-01,1.314680417379193500e+00,1.911631459827378032e+00,2.226875673070037642e+00,1.990460629954512450e+00,-9.709817922421204450e-01,-5.763971549015484142e-02,2.079111639851074500e+00,1.411304335386469377e+00
-2.186939037125983809e+00,5.755657124957120896e-01,1.775798683919712406e+00,-1.280159653516230955e+00,1.675875871572914511e+00,1.243807742323169929e+00,-3.662626305471117782e-01,4.253439490095367037e-01,1.639090025479150947e+00,2.377325820613207519e+00
2.428078387365860902e+00,2.683301438682340057e-01,-1.161892896162561861e+00,9.167365717038071793e-01,-8.492730602780670379e-01,-8.695847131507035144e-01,1.381928527021018649e+00,-7.142429213191063830e-01,-7.705874837664536958e-01,-1.890932099043504788e+00
6.807254384419771931e-01,1.957664848754679499e+00,1.408855322489195538e+00,1.088326496259340415e+00,-4.821311691207093020e-01,-1.682066894631597087e+00,-5.095375699072465459e+00,5.398587484847523488e-01,-1.271630541579090501e+00,-4.217138991211490939e-01
2.131209682346128620e+00,1.020729831147776157e+00,1.602719021975004043e+00,6.394873393064360201e+00,8.571254825844830671e-01,6.008241481794165395e-01,-5.460442053450892175e+00,-2.212920655547813420e-01,3.661905895241423514e-01,-1.308667821821419386e+00
