-2.561324090196294145e-01,5.538797518701907840e-01,1.562139586808920289e+00,-1.720580536713530950e+00,8.817474834691088059e-01,6.457019487829058768e-01,8.708818481274175349e-01,-2.992592302485849842e+00,-2.178011300939011630e+00,-4.875477072361255715e+00
-8.038107424912346310e-01,2.217562452192965772e+00,3.314208225790898688e+00,-1.797507469377744416e+00,2.127400945981550162e-01,-7.210441416382882274e-01,1.772278043517301560e+00,-1.266544903094833474e+00,3.979413054063110078e-01,-5.678678246711895028e+00
-1.792228862757747843e+00,-8.070266360303999242e-01,6.498834837492378780e-01,-1.303080459394804214e+00,1.068338888577404222e-01,-6.189765320090850897e-02,8.806206906830341685e-01,8.962321225988487683e-01,-2.874846685209254016e+00,3.149124564965180006e+00
6.879091913810162495e-01,-1.928616088703039244e+00,-2.721107594844547783e+00,2.659932540442118576e+00,1.484100241623874661e+00,-6.605093349474366882e-01,-2.091980339317865312e+00,2.108167272349953603e+00,3.385439891448951411e+00,4.811495732112880397e-02
-3.187464073455259062e+00,-3.498816644508927265e+00,2.687145761507128139e-01,-2.047242942582782721e+00,1.422959209334563546e+00,2.365684361096024313e-01,1.817271297470091529e+00,1.225909833793141113e+00,-6.360728217235703141e+00,4.798155964335156121e+00
-3.009340802677005211e+00,-4.019408948706082896e+00,1.035471744883224243e+00,-2.328706879412726583e+00,2.003411580194408348e+00,2.118954196207040175e-01,3.165012751115246381e+00,3.767086582003160711e-01,-6.676389559644353433e+00,1.693792267338865010e+00
-2.552898098373747260e+00,1.800788869827506078e+00,-1.083464204820859589e+00,-1.390063996473685615e+00,1.314143461211396247e+00,3.289806250064338244e-01,-5.224243596326602734e+00,-1.007807823166526617e-01,-1.568926223036715140e+00,3.278096655612332988e+00
3.832766271921629331e-01,1.079778031542869998e+00,-1.157833544484211163e+00,9.702853934805864000e-01,-8.132075235354671028e-01,-1.534394881141158407e-01,-2.067696901578947255e+00,1.122670667871883854e+00,1.953595919137413262e+00,2.842311716403670641e+00
-4.437174830283754368e-01,-1.518103957844334495e+00,-9.530496347929153789e-01,5.421386395276917014e-01,1.401990845093531002e+00,-2.118036149204095553e-01,-6.345118908878436548e-01,6.693783964820715360e-01,8.304079594325891600e-02,-4.038285185752212847e-01
-3.900646580523586593e+00,-1.471942586432922973e+00,7.534879241761488489e-01,-3.500480226922595417e+00,1.256392549707817663e+00,8.756671904653525740e-01,5.858702425406731723e-02,-4.388228961809619300e-01,-7.835717290506366339e+00,5.030997105896025445e+00
