8.431242055969605520e-01,-1.928576979577713013e+00,-4.959159866759625945e-01,1.198493228614264217e+00,-2.834272620379572949e+00,8.841587219778705986e-01,2.032846564837489933e-01,1.796291344147590063e+00,1.960409234777558574e+00,-3.626902526628416723e+00
-1.005959755389997490e+00,1.663131081246099985e+00,8.266381243920644106e-01,-6.058153025014838544e-01,1.436541524772280587e+00,4.230507270631387873e-01,4.713280167588077690e-02,-7.366338345061306248e-01,-1.255956199761367520e+00,2.712307228188945984e+00
-1.808961289238536052e+00,9.354265358161307775e-01,9.290562354563842717e-01,-4.064125731474085290e-01,5.912696719038091908e-01,4.276346656849381866e-01,1.586511532578460226e+00,1.130877316974442603e+00,4.882874792061384084e-02,2.713391729861085011e+00
3.715770670953025157e+00,-1.206434543030323603e+00,3.190615522096079015e+00,2.210695704311508969e+00,-2.087719870527170229e+00,-3.280121242133539727e+00,2.793344626362748606e+00,-1.074496232975617804e+00,-3.303821480538041033e+00,-6.831040383862432841e-02
-1.098972574807577929e-01,-1.059397443344099354e+00,2.213822990934651624e+00,3.884091869114280726e+00,-1.801457456778346788e+00,8.532638375310386269e-01,-3.248753550818717528e+00,2.729929316917230064e-01,9.394447001286345689e-01,-1.024414938233686012e+00
1.157136062934305265e+00,-2.653499069067856375e+00,3.158420033903976409e-01,3.262763640783303831e+00,-2.351211866530656280e+00,-3.724470838330230515e-01,-2.794367670343665733e+00,5.594034476640853404e-01,1.995337426146755355e+00,-3.734723507050242919e+00
-1.765509906668857099e+00,2.562026745112999215e+00,1.829400425373985506e+00,2.037180311323407711e-01,1.479725963815251344e+00,1.909163914340590740e+00,-1.461611786639108734e+00,-1.063360652937432649e+00,-1.523920309431255671e+00,3.549434028978391886e+00
-1.854676249980045544e+00,-1.147596874394443800e+00,-2.220750778544121840e+00,2.812904170030601225e-01,1.256779867506266246e+00,-3.642692342075037892e-03,-3.554127953975339427e+00,5.644443160180977470e-01,3.332696723626634050e+00,-1.291463473839471243e+00
-3.202341064273118931e+00,4.007588403724994808e-01,6.661324127121248662e-01,-2.501902757887062290e-01,-4.318486429189674070e-01,1.642384345574959159e+00,2.381497143454700982e+00,3.350561635710348707e+00,2.053451278307597772e+00,2.275085504002714920e+00
8.458424324106726955e-01,6.242862655724986665e-01,2.830397477121005423e+00,1.221501917820689176e+00,2.860590893674143098e-01,-1.774588846034939493e+00,1.132668246540355472e+00,-1.185330817160084038e+00,-2.704087076531858980e+00,2.744025432060056779e+00
