3.143234210785020188e+00,7.554334183927434720e-01,-2.173094966824137941e+00,2.544151826349807965e+00,3.094864402351465760e+00,-5.256390928811216057e+00,3.359647399444168681e+00,9.957793087178855584e-01,-1.411670328352808923e+00,3.215048468145023097e-01
-1.739572314015687349e+00,9.138875396758318059e-01,1.880894939248333397e+00,3.786433179602990418e+00,3.733926244509761627e+00,-2.549800809639082289e+00,4.131187447239505595e+00,-5.644536033895470872e-01,-3.976652793572562405e+00,3.544415633125586051e+00
1.775740668896099050e+00,-8.748103116770544752e-02,-1.073026077572030168e+00,2.850927230512667609e-01,-8.836023237712451461e-01,-9.407713726227642237e-01,1.268722234748409061e+00,1.565184668567534132e+00,1.390865161482005841e-01,-2.068171554006152935e-01
-1.676721847539004440e+00,-7.277573302478698714e-02,1.609516008694603206e+00,8.904728205944627550e-01,4.732800235309226333e-01,6.676100602684383878e-01,3.865875984480137695e-01,-3.295631468781721196e-01,-1.112538147467938998e+00,1.157012587239195645e+00
8.231018521784725372e-01,2.871123698636084853e+00,-1.241322901258902434e+00,1.004069864434442572e-01,3.330095299045006563e+00,-3.381960986702331695e+00,3.827114258092012555e+00,-2.181019179722401002e+00,-1.425527358028464642e+00,2.106782680675138852e+00
-5.464815440817178960e-01,-1.429949613626576133e+00,-2.798116282046067660e+00,4.716526728578596117e-01,2.866914147297944249e-01,2.060749288368968202e-03,-8.550635489649107690e-01,-5.220383709344582623e-01,-7.992447040921955015e-01,-1.187070209557664346e-01
4.797377315460341629e-01,-1.242570404826911279e+00,-8.355994874407811634e-01,-1.014039692809107773e+00,-1.299178162715740381e+00,1.114484337573026673e+00,-2.833578500010089485e+00,4.056620127295975098e-01,1.639403684588853993e+00,-2.084441739466405874e+00
2.965597977355856063e+00,9.805802928158429133e-01,-1.605320054293718268e+00,-1.636993316921818709e-01,-1.821088302389361591e+00,-1.465034874730712477e+00,3.762508911212815388e+00,2.306645443340356039e+00,1.066039481943836797e-03,7.581698709429615102e-01
-3.619011122322915330e+00,-2.710494292498094038e-01,3.172521367709592255e+00,-1.467675379349821230e-01,1.151991790434740093e+00,2.349546264377806448e+00,-2.812549468368171102e+00,-2.242481763501704695e+00,-1.703917974990733497e-01,1.997391801118386656e-01
8.517760945196424238e-01,4.844915235456015878e+00,-5.820758267573331590e-01,-4.257915756372507410e+00,2.651004112673680968e+00,-1.584251873017814116e+00,1.179812841154426417e+00,-4.792067299865351515e+00,1.792554262858006675e+00,5.058145512881788708e-01
