3.781384175056403230e+00,-2.033229332577670245e+00,-1.448099869001730378e+00,3.314937802230875086e-01,-2.761916438656833339e+00,2.238389677242842990e-01,-4.579784151746411069e+00,2.945394073307477267e+00,2.582692455597823233e+00,-9.950256175471470232e-01
-1.190134240044014913e+00,8.745048803094489509e-01,-1.310404052901993355e+00,-6.474878275575933484e-02,1.271126347120605793e+00,-1.678089792194108920e+00,2.426441373780235722e+00,-9.988624757294488343e-02,-1.426753212590820552e-01,3.898091783759179418e-01
1.808042593830760492e+00,1.814185699202825797e+00,9.499314788976376267e-01,7.887369729300283128e-01,-7.025155289351491250e-01,4.110721265685715942e+00,-3.706625252385868485e+00,-2.560656222767040191e+00,4.138842734413810120e+00,3.036026437053476190e-01
1.825954287711855084e+00,-1.395621906186620853e+00,1.192138216792329342e+00,-3.488477220556505110e-01,-8.982102073625020111e-01,2.944320058916601646e+00,-2.632662185695264334e+00,-1.902721172243946324e+00,1.846068804391354901e+00,-2.287159486311976853e+00
-1.392869220183744039e+00,1.626252625206323632e+00,4.068329134002101277e+00,-6.894000830908441069e-01,9.430195829929598483e-01,4.098018256560222561e+00,1.343594410241117365e-01,-4.833688451920211904e+00,-6.930806173840540207e-01,-1.807213568601562237e-01
3.807381693956718660e+00,-2.487143430747354333e+00,-2.879749638034889259e+00,-4.022509056541665462e-01,-2.608161680275417726e+00,-2.022753007282088067e+00,-3.193585171537870249e+00,4.279583936522472598e+00,2.081138399000722838e+00,-1.455916861610476509e+00
-2.286682259157577057e+00,1.549196410887167419e+00,1.802833311553694084e+00,6.196503717822023916e-01,9.888922429254759505e-02,-9.389414864755323276e-01,1.150210585009435738e+00,1.584614937882648622e+00,-3.838098837608356462e+00,3.451596410420715522e+00
1.196363258997775070e+00,-1.781993706589207971e+00,-4.425513903319181486e-01,-1.961707679425913398e+00,-1.317932031411185756e+00,-2.504992392873984564e+00,1.428308479480081550e-01,2.749718882747893112e+00,-1.898827499220864023e+00,-1.235311090940667489e+00
-5.361122984191100116e+00,1.042835083777165117e+01,1.961584156199190909e+00,3.350207187892304095e+00,4.657777903095449368e+00,4.598974229909633671e+00,2.870510485949757662e+00,-7.446971659137714639e+00,3.229596039081717773e+00,7.283700974675480388e+00
1.897059511527074083e+00,-7.235407273620429791e+00,1.739216546689067444e+00,-4.915829921528364066e-02,-2.645260783601769639e+00,5.886280556428196142e-01,-3.009148872959593657e+00,2.654470574296995622e+00,-3.321403137610102085e+00,-3.873066708294096827e+00
