1.038062238739261955e+00,2.182360168157717606e+00,-8.379796208134184798e-01,-9.493144008374921894e-01,6.238118298888275515e-01,2.267279840474044850e+00,6.793050462662848510e-01,-1.239386300873133173e+00,-2.768420986673155948e+00,-8.901258876556392696e-01
-1.517955499176285361e+00,2.735778876008813754e+00,-2.372583504512310704e+00,-8.939023754995949478e-01,6.063219160617885350e-01,3.047014625735642301e+00,1.360459762809339557e+00,3.233344550174687138e-01,-3.993912019740881725e+00,-9.817481548278979009e-01
-4.125623361360829300e+00,-2.630160956852646503e+00,-2.547011662293988121e-01,9.819473991430063275e-01,-4.170681429294797460e-01,-2.831171947518587473e+00,2.179561729423769023e-01,4.437043600426190615e+00,2.583808596667146240e+00,1.744329945432089968e+00
-4.508187093928738065e+00,-2.813382190307199604e+00,-1.209614418907381417e+00,8.575599350929741238e-01,-1.855818152001801780e+00,-2.572637944096383578e+00,-1.574896787087486594e+00,1.976145507994966355e+00,4.004567085763079959e+00,1.874795930965797996e+00
-3.001044376819534953e+00,3.742866156932804778e-01,-2.049517362896454920e+00,-2.626783444470683460e+00,7.874312148597590877e-01,-1.096386465800339716e-01,1.114650508344839919e+00,3.926072905009537983e+00,-8.346186065147600530e-01,2.899386880920122422e+00
7.205077459334389367e+00,5.254024143399351754e-01,3.806352100407503158e+00,2.518940444049869720e-01,6.492240938493076818e-01,4.919504761706965379e-01,-6.250171147306078367e-01,-4.644602232782722773e+00,-1.104651997420206810e-01,-1.747708259066818037e+00
-7.108797745923904010e+00,1.550147927793646407e-02,-3.278606780456892356e+00,-1.125804733021152249e+00,-8.426758665685004646e-01,1.257207505072525988e+00,5.828113306770311697e-01,4.837851645877457862e+00,-1.131943654571763602e+00,2.099702003338784095e+00
-5.267661149125076214e+00,3.031927672272229479e+00,-3.578452538154198947e+00,-3.088355571062782801e+00,-9.104318488093421369e-01,5.947972340604763097e+00,4.976803655299101292e-01,2.159887690667733562e+00,-5.076330697349891174e+00,1.274610694457607885e+00
-2.587662584745524796e-01,6.242897458182681270e-01,-1.101846779570724078e+00,-2.137956477574009195e+00,-7.441481774386154990e-01,1.227651676919485402e+00,-1.141551552559795013e+00,-1.156134608222630700e+00,5.074399930292702865e-02,1.540506297971987237e+00
5.269238472116511973e-01,9.935862423737995552e-01,-5.411655240380516818e-02,-4.531523347055699813e-01,-6.641202274010278295e-01,2.170002098549216996e+00,-6.616162347529114252e-01,-1.808974709083227994e+00,-1.173985570398383027e+00,-5.532640614199755280e-01
