3.839492004848992224e+00,-1.081978224127402832e+01,4.602034187275638288e+00,5.408749578074227848e+00,2.616392676708693799e+00,5.060822041529087656e+00,5.273090112813776820e+00,-1.059747844529347383e+01,-1.013739229716697832e+00,7.532978349685878428e+00
-2.462997587399861077e-01,1.390624640632796005e+00,1.812625815575891641e+00,-1.387302721317672516e+00,-3.848392360576891047e-01,-6.143022406119564849e-01,8.776851266383475236e-01,2.944301901268063126e+00,-1.095575080662233525e+00,7.811707990695735404e-01
-2.866758344372282163e-01,-1.137231988423903051e+00,3.728650638025889474e+00,8.578444424300561977e-01,1.559716914198998605e-01,1.096643496508417304e+00,3.656128781451782661e+00,-4.077739364455721827e+00,-3.513983037053066916e+00,9.352594138414092040e-01
1.108036227483040759e-01,-2.427377649755939171e+00,-1.606848250078533713e+00,1.359045338911038181e+00,-7.039322819026772038e-02,1.257898460648538386e+00,-7.138962960770340871e-01,-1.603683565675211975e+00,2.028926768016744653e+00,4.127880374466162960e-01
2.398251192526025810e-01,-3.479521287985713474e-01,-7.294378339018634527e-01,5.047914331553564615e-01,2.029166501353226945e-02,1.125680026887864310e-01,4.162293740925360752e-01,-5.462844420786727717e-01,4.118187680824182961e-01,-2.930795199815283136e-01
-6.670245432432404531e-01,-5.872092223922329435e-01,-6.047216784098830011e-02,1.693597382024685516e-01,-9.246628362103530563e-01,6.658159655105446717e-01,1.198366756641380260e+00,8.497790166887690955e-01,5.760957848000406445e-01,2.204043708610508578e-01
2.669001370889690916e-01,-2.185100323177652015e+00,-3.104317191356130712e-01,1.561989200421898705e+00,-6.288756548232622423e-01,1.328774818489887322e+00,3.324513668614502038e+00,-1.083281625962878358e+00,6.792888870450590755e-01,6.792261432489384854e-01
1.433050408997259995e+00,2.150164610400628895e+00,-2.476947363899685284e-01,-9.289593782274256917e-01,1.407658070413380980e+00,-1.902262428943308104e+00,-1.597062690923265471e+00,8.501246359208749492e-01,-7.665869017299260513e-01,-5.524420639899844110e-01
4.390659082883725528e-01,2.718932322857569250e+00,-1.296041769522056963e+00,-7.708286694755159818e-01,1.202568227092253306e+00,-1.917653142567513402e+00,-3.014313103022836504e+00,-8.116207819494469788e-01,-7.216481959219709363e-01,-2.302034038649165559e+00
3.251065638866155627e+00,-4.507907328370430733e+00,2.393130601976452443e+00,2.153844005070205458e+00,1.671607930760854455e+00,1.539076474061574995e+00,3.870745435365606113e+00,-2.660875027271973003e+00,-5.086641202900813452e-01,4.447502182657392389e+00
