6.859654921066121069e+00,-4.497033617024021268e+00,4.247231732582573471e+00,-1.901419442304554730e+00,-5.641303166591334906e-01,-3.329465838550082157e+00,1.134256175142805745e+00,1.495782300330689596e+00,2.490782879661338267e+00,-6.079598292772903534e+00
1.930067943442286937e+00,1.326123307206404256e+00,-2.858881661270101793e-01,2.946285872116457760e+00,-1.590664262851310351e+00,-6.582208463644431795e+00,4.616397580382007870e-01,3.870167937514297662e+00,3.195209875932698562e+00,-2.584374654790101200e+00
-1.995199524908443323e+00,1.234205266132417433e+00,-3.287379553218184869e-01,1.725330994671845142e+00,3.073453068501212360e-01,1.380628857339420978e+00,-6.423087004014214063e-01,-2.882940210670985604e-01,1.808296459465471573e+00,1.664080852529443710e-01
3.849198563690985342e+00,-2.228331399886836817e+00,4.559163133802202950e+00,9.667941620096195399e-01,1.446701904917096826e+00,4.681055248462928642e-02,-1.896122527937742497e+00,4.420434296648297234e+00,4.905668614103303682e+00,-3.864611759827073723e+00
3.823724168956814218e+00,-1.932751708984817407e+00,-7.931175822010199106e-01,-3.461417827335591113e+00,-2.435515445398883649e+00,-5.638189088724880449e+00,3.296632695545393510e+00,-1.020168063996119034e+00,-4.242878987216328390e+00,-9.108787157076613239e-01
-2.002762793478100711e+00,1.751182874739513951e+00,-2.681285338258356798e+00,3.980330815654572474e-01,-1.470998952739111854e+00,-1.776467957620906812e+00,1.476957965257055250e+00,-1.849778264940876049e+00,-1.615959379141636898e+00,1.356009313059752586e+00
4.315942619187554286e+00,-1.842839820953106056e+00,1.197243186677817928e+00,-1.471667247913082122e+00,-1.665103001749697054e+00,-5.315662407722436811e+00,1.929662518595108178e+00,1.676256241518820689e+00,-3.950565030795133437e-01,-2.545148138092838241e+00
3.537404260421710411e+00,-2.219493909245974894e+00,1.973760572329615215e+00,-1.229459003449550059e+00,-6.169077920568100115e-01,-2.292540529981264452e+00,9.758865910379881381e-01,7.694620178691478074e-01,7.525387283100689606e-01,-2.833524996121656869e+00
-3.359943542258412297e+00,2.713818578079232324e+00,-2.339262192634723903e+00,3.185917455365726347e+00,-1.082666328892412100e-01,4.901928893709519008e-01,-6.492322419690171875e-01,-1.185018580020695156e+00,2.041814106733425671e+00,3.180433779060002353e-01
2.271800506808907105e+00,-1.822259949687707437e+00,1.648607124249048317e+00,1.936993849298084713e+00,2.356217522138446263e+00,2.646095158787634016e+00,-2.972566964395380484e+00,-1.881189725898860798e-01,4.722363601235398889e+00,-4.725807311499798047e+00
