8.048380118966578234e-01,-8.848963272077442488e-02,-1.281105821335917661e+00,-1.835327257289946612e+00,-5.782259112293166581e-01,-7.601072094760259468e-01,9.307477043659724281e-01,-3.479799807400948408e-01,-1.380496215335726085e+00,-1.915115294464969642e+00
2.117918409901043297e+00,9.424363693423525312e-01,-1.930832343132321771e+00,-2.023937068511727055e+00,3.625779543578470765e+00,2.230904669121373196e+00,-1.605702895394857110e+00,-1.885623931659353492e+00,-1.499198287929185192e+00,-7.356842749423746497e-01
-1.307948397126775131e+00,1.757112763187167470e+00,-1.443461342014963122e+00,-1.935669389547050478e+00,-2.647313218901948151e+00,-4.144397719794382873e+00,-1.144736118851007678e+00,1.630191351978839576e+00,-2.175142696048038005e+00,-6.381285721660657773e-01
-7.216671379412977760e-01,2.394888985350914989e+00,1.100466130305693069e+00,1.646080544006836011e-01,-9.943674389554790771e-01,2.187995157182683670e+00,-2.589455635288890889e+00,-1.854591864928854639e+00,-1.535055507417230070e-01,-7.386138668331372337e-01
2.209055065269702745e+00,1.500209548866596965e+00,-3.277961153317830778e+00,-6.230682943792191786e+00,4.349434515635206111e+00,4.898841281161064209e+00,-1.214296478863833073e+00,-3.121254194336054333e+00,-2.165910615444366805e+00,-3.194016153987536022e+00
2.521094533675200200e+00,-2.003168820731233701e-01,-1.310740235677262611e+00,2.551803959941397748e-01,3.613986600639408575e+00,9.522552814082105854e-01,-8.258707530683943032e-01,-1.195861027602778570e+00,-9.163867160380956278e-01,4.344350744605196546e-01
-3.598311399660088838e+00,-2.146047584296054911e+00,3.865634079559789882e-01,-3.881202365883036354e-01,-1.713374127280898662e+00,-3.861845554252386847e+00,2.602934268818760444e+00,5.163986599761495988e+00,2.248820104109280127e+00,2.957092530466320923e+00
1.604729087370981855e+00,4.025749567241386218e-01,-2.197802226503321466e-01,1.618218917069846219e+00,3.507306646826301666e+00,1.372721939400185276e+00,-2.036423696206239864e+00,-1.009251089885138342e+00,-5.878819672622315196e-02,1.760158743876813148e+00
4.284961705657774900e+00,-1.296494102530914017e+00,2.767877886198319426e-01,2.433938991928155104e+00,7.951976380187612214e+00,7.019423391392987099e+00,-1.051620930345621652e+00,-3.867298586883050948e+00,1.448720028923856429e+00,1.551836528354367584e+00
-2.260449400857439617e+00,3.125492952564175475e+00,4.362361910972845092e-01,-1.571208460461424039e+00,-1.297054602842061755e+00,1.100807120295639319e+00,-3.256881656898131361e+00,-3.838543686554281020e-01,-3.070891320356052834e-01,-9.732268693896228839e-02
