-9.095182924366449484e-01,-4.033806065369786586e-01,-9.241635841309938648e-01,5.245517401713238881e-01,6.109332887905309928e-01,4.002117602551353848e-01,-1.910805403365973598e+00,-2.304663072320420447e+00,1.445275482401967571e+00,-1.893183592035220020e+00
2.551890546400389148e+00,2.090682543049730224e+00,-1.326025923598261880e+00,7.734736195800883118e-01,-2.391254094259094853e-01,-3.208916857501935282e-02,1.211659596503598946e-01,1.191413178597797939e+00,-7.420149268210819438e-01,1.672653511014417171e+00
-1.393758099228397107e+00,-9.094362706319813583e+00,-5.309919657540147497e+00,-2.567416803592392771e-01,-8.672765507096563686e-01,-7.018371034864451907e+00,-2.244009206540200196e+00,-3.771801290610933943e+00,1.019361486368465686e+00,1.016208605015557609e+01
1.073335536626619735e+00,3.121244663536339559e+00,8.808269627823696046e-01,1.318947164721498089e+00,-2.964241777915223395e-03,2.066340646879937903e+00,3.247443875353094866e-01,1.043938158705594255e+00,-4.281840023265042205e-01,-3.915850964204599993e+00
4.520912834732785934e-01,1.055908192807647195e-01,5.201214981049226971e-01,-1.712692477298713767e+00,3.608076669033726258e-01,-4.748054637147525181e-01,3.894874165575397673e-01,-5.427749527032184051e-01,3.044165698558117805e-01,1.400551025111177905e+00
1.874184386523504831e+00,2.663672184701241452e+00,3.677006366170394447e+00,1.889343012255841003e+00,-1.411881340106017957e+00,9.473578217185065764e-01,3.312307998866033998e+00,2.179511301455695715e+00,-2.047264458566282030e+00,-6.899574040231523320e+00
2.066171342232435482e+00,-1.080527897119234249e+00,8.679329223069828791e-02,2.239880295096460028e+00,-1.839849414022650453e+00,-2.467084527829609630e+00,1.831008220249733975e+00,6.046452281313513533e-01,-1.660315370328260265e+00,-1.026869175125094458e+00
1.553182323179119750e+00,7.466554030429636279e-01,-2.112254309388120088e+00,-3.108363058173359561e-01,2.408623336223036371e-01,-5.188781673828526397e-01,-7.254208008779502448e-01,3.862827199249450061e-01,-3.528866004323371469e-02,4.085822039061372202e+00
-1.979711198086811619e+00,3.698830479231058899e-01,1.106109204902439691e+00,6.837114294324934116e-01,3.078702645952651751e-01,1.986717961411074151e+00,-4.194432228814691799e-01,2.187289957624282966e-01,3.300782585621827026e-01,-3.626097125204797766e+00
-1.720229883876868149e+00,-2.404257535454276784e+00,-2.152412168927269942e+00,-1.668497739811395097e-01,5.222376713657855829e-01,-7.348077102913657122e-01,-2.106233300745588899e+00,-1.625268383883127887e+00,1.208065446376237695e+00,2.610252611789023014e+00
