9.174925989602538134e-01,1.420679672965409202e-01,-4.071031223373240970e-01,1.729203071522786295e-03,1.729355647378557403e+00,-3.597540608089887515e-01,5.894002364270004568e-01,9.454040494206098488e-01,-1.157747754997608070e+00,2.281884571621144442e+00
1.328046383197679425e+00,2.512930812862343544e+00,3.821340837503975352e-01,2.145984655462886526e+00,-3.382129852915736201e-01,-6.902553571315194203e-01,-1.560484276753778821e-01,8.133087492184527811e-02,9.870803946201692214e-02,-3.126895850820589740e+00
-2.124095981798529209e+00,-3.863156944044670027e+00,-6.474279603743980926e-01,-2.327220157270839529e+00,-3.069076410183818604e-01,9.027602078076095715e-01,3.835905824865371017e-01,-7.779637413854895156e-01,6.020617988532641629e-01,4.475908606684505742e+00
1.251190084260028534e+00,1.105657378605329422e+00,-4.508007909628092835e-01,1.602917874866262027e-01,4.822712935547690538e-01,-4.820510375031273886e-01,3.650748061139776901e-01,1.811696830410896297e-01,7.452632507483862856e-01,8.968570392172885430e-01
5.624464806445002019e-01,-3.818388495765381307e-01,-1.022820266558938762e+00,-3.091458596264478054e-01,-3.316707566172457877e+00,-2.380109265732174517e+00,1.052581065502957713e+00,-1.399990970181504979e+00,2.352426752226882911e+00,2.525624683313548058e+00
-8.642293041667308273e-01,-8.659843404745015683e-02,4.089021850854772100e-01,6.192693851996214915e-01,-1.840969766140150510e+00,2.388043663555417528e-01,-4.750774162826737479e-01,-1.062480406648850240e+00,1.116986351425186541e+00,-2.383175009589938664e+00
7.002693900146825801e-01,1.871318368556042611e+00,7.656069332204356037e-01,4.445157613256055518e-01,8.804794497181476221e-01,7.387520602217544780e-03,-6.544500764012747274e-01,1.063149279721763873e+00,-1.548820150719117272e+00,-3.172839887160916472e+00
-8.169066578318779914e-01,-2.516454835641814824e-01,6.101667014107774456e-01,-4.539652235537718905e-01,8.944485631042060625e-01,1.245870893001164381e+00,-7.331461381474818628e-01,3.975353240745344019e-01,-8.592114002981782184e-01,-1.620378042870817215e+00
7.906028575146129000e-02,1.482018388676251686e-01,-3.260704597687069661e-01,-9.901050262130961510e-01,4.798442496428761972e-01,1.062091156550233118e+00,-2.399631551627413040e-01,-4.032736317904214163e-01,2.007082717346291734e+00,5.406339480273537612e-01
1.833549582316777338e+00,1.245146009227668049e+00,1.597635314691375485e-01,-1.394482925566880249e+00,4.272435731479496290e+00,-7.731851069601964888e-01,2.469308777272042899e-01,3.480134642742271023e+00,-5.017512788812238611e+00,1.716949686325182300e+00
