-2.174469877622787206e-01,-3.229947338543692759e+00,-2.166933704724475440e+00,-2.364764913955518466e+00,-5.084987763401798144e-01,1.419407926762499828e-01,7.959533168912604761e-01,-1.211568144557963134e+00,-1.165118651893498836e+00,-1.729926689631084979e-01
-7.118006208606068030e-01,1.749543710211773906e-01,2.964891098845962025e-01,-2.198876948110093377e+00,-2.206096237898091506e+00,-1.356998778889006108e+00,1.055830565465442739e+00,-4.687442145870286958e-01,-2.592928173058642871e-01,1.243599952143075615e+00
8.810009965588228020e-02,-2.503717572738172858e+00,-3.323139463741692445e+00,3.397501409254322091e-01,5.021942203038262775e+00,2.260244169713158335e+00,-9.082569994946427805e-01,-6.059092756192301366e-01,-1.512874012789519718e+00,-1.711475289157319057e+00
1.013389547746629482e+00,-7.401184973590719807e-01,4.778106396776464315e+00,7.684160912678783539e-02,3.371888360627376180e+00,1.268084432547836204e+00,-1.827542690811318371e+00,-1.074736028358480810e+00,3.312897406001365397e+00,-2.152210481014950716e+00
-1.431193842976241637e+00,2.283770310036401963e+00,-2.642727499485120202e+00,-2.623658998387337071e+00,-2.283699751965389879e+00,-1.485477194147416302e+00,1.534229361653700163e+00,2.762646870789409181e-01,-2.622744324775069469e+00,3.188587215962853438e+00
1.439919113244881865e-01,2.208628822963198957e-02,4.955694127044065755e-01,-2.300012093650300571e+00,6.012252729139325735e-01,5.216952287481824158e-01,-2.830767338657977916e-01,-8.278769205338315507e-01,-4.746281433895771507e-03,7.516348644297434767e-01
-1.762726386317064797e+00,3.662660448611811059e+00,-5.024036016195518872e-01,4.317614950732282963e+00,3.374383817875408198e+00,-1.189574099724438838e+00,-6.387877288341489712e-02,1.916052171227914602e+00,-4.239084801984941975e-01,-7.854566370145351639e-01
-1.369181890077631802e+00,2.801743383984464764e+00,-8.632924306158111794e-01,7.200371806426282273e-01,-3.821874458397540586e-01,-1.509360926030612005e+00,7.972836262968328036e-01,1.026189109327335869e+00,-1.059639290699215142e+00,1.227541200761809614e+00
7.702142808027929721e-01,-3.370158489371968713e+00,2.341872824683331800e+00,7.062844964915262480e-01,-2.780200699736950831e+00,-7.057126528693344891e-01,4.231155126122683185e-01,-6.006650693235187077e-01,2.206895003873767358e+00,-1.983627675798330880e+00
5.149207101524875263e-01,-2.565748836287759627e+00,-3.892925032026302024e+00,-2.704705894058190729e+00,-1.366405873569994434e+00,1.141505314291742179e+00,5.515651805674951502e-01,-8.319296113348400024e-01,-2.387282413948423887e+00,1.130933922219657717e+00
