4.080903811412916332e-02,-1.142197431608431790e+00,3.273687303679989391e+00,-1.306987128128948850e-01,-1.984906778800134663e+00,-4.676099885853271521e-01,-1.249342826318746269e+00,1.336670371227734133e+00,-1.481811184945900806e+00,-3.011430410845028938e+00
8.092515301305172049e-01,2.341307337552513967e+00,-2.360980178439394450e+00,1.828029930582752982e-01,1.214451023257646423e+00,2.057166028497538213e-02,1.500454462865234539e+00,-1.282313099108782994e+00,2.505196197710696016e+00,-2.674224666881746870e+00
-1.889233338404894047e+00,2.103079706309997354e-01,-6.923963124995681229e-01,6.205523462925667255e-01,-8.992808643274670111e-01,2.888224554021865398e+00,-7.003876138649418881e-02,-1.121608143089964038e+00,3.198479176149717218e-01,5.003721962240182286e+00
-1.586060578768831331e+00,4.587497149997352835e-02,-3.859887367907026245e+00,9.451277537430826658e-01,2.859780802238385711e+00,-6.598872027357312042e-01,3.676762440945362087e+00,-6.220037252128138849e-01,2.553136009726246325e+00,4.136657135379497308e-01
5.324246050158711441e+00,1.927771400027914472e+00,1.990466572684858493e+00,-2.055671834859154945e+00,-1.762714449155724061e+00,-1.720585485773627354e+00,-3.882107153575830694e+00,1.115344500749201773e+00,-1.149985485639825500e+00,-1.635440418710971233e+00
8.299150022692382000e-01,1.710461375943515883e+00,-2.192676278901447340e+00,-8.363828077347730539e-02,1.654531801081788434e+00,-6.725810281778987765e-02,8.522822261906005670e-01,-1.323395566232381304e+00,1.391584168937373800e+00,-9.335966791119956198e-01
-4.466140531503238087e+00,-2.816203328020956853e+00,-8.520040629371689045e-01,1.371801069690906205e+00,2.933786500410979770e+00,3.837355744359561283e-01,2.757157789859280062e+00,-1.078990413991355313e+00,-1.009187978720620826e+00,1.042580247357957762e-01
-2.680249942408290953e-01,-3.028114128021052731e-01,-4.618439154653708023e+00,4.224790325601742169e-01,3.300247060638791030e+00,-2.270617193633088338e+00,3.598014705952239822e+00,5.453261364877969308e-01,2.627556007167089369e+00,2.203450098612454333e+00
2.465496692697016101e+00,2.386186025173499203e+00,-1.814962792603149744e+00,-6.932630029448827447e-01,3.788713529449832862e+00,-1.978004733436861784e+00,7.368304835300933942e-01,-2.137594713826262982e+00,6.254688465345371595e-01,-7.500601334378461438e+00
-5.074775205984948911e+00,-3.228359826323244697e+00,-1.270200364985524244e+00,1.497169111066332103e+00,2.274247636662407146e+00,1.250614702913966703e+00,2.552978087456897249e+00,-8.159957990890612800e-01,-9.935718745188995005e-01,4.298555603255747926e+00
