-3.366131191690559188e+00,3.640163375196032725e-01,8.176066285588976523e-01,-2.520855187792102825e+00,-3.420572683595263785e-01,1.682538771678516953e+00,-7.201736633261240916e-01,-2.412124283787531631e+00,2.074477598300480952e-01,3.468493195975506982e+00
8.523253129729292388e-01,3.315365745817781207e+00,-3.171549425841823755e+00,4.505234466431088158e+00,1.214525580332175503e+00,-6.005399456873367070e-01,-7.487467833244292326e-01,2.171840888113685253e+00,-2.228004831229100091e+00,9.615568138647451191e-01
6.190283761471127022e+00,3.888023607240516100e+00,1.647041851978714222e+00,8.135086635541860511e-01,-3.777580681370193982e+00,-1.895928130480201146e+00,-1.370589020352634968e+00,3.997178239414018730e-01,2.549271406428739173e+00,-3.710513583522508707e+00
-3.083693227413625504e+00,3.194905708947195500e+00,-3.276861894779073747e+00,-1.981414310817797286e-02,1.137208610554476085e+00,3.249203130395379446e-01,-1.075670626203741209e+00,-1.072308987577717643e+00,-9.168136182430028924e-01,4.059468137440170210e+00
2.554592233544417113e+00,8.835601335179252835e-01,-2.051034333512426588e+00,3.742360089827119762e-01,1.869027671986756844e-01,-1.210307366513777128e+00,5.377172248463194526e-01,9.400487723089612224e-01,1.234701999433664765e+00,-2.006957821839307154e+00
3.860980832800143148e+00,6.841767674244518815e+00,-1.875358192281510128e+00,6.788662213944311574e+00,-8.770721909502836589e-01,1.041622515088667100e+00,-2.062281703118433729e+00,2.676772685271051166e+00,-1.895757916190595971e+00,1.700103571769551625e+00
1.419738345433661508e-01,1.481740827672844318e+00,-2.965515394358297030e+00,-8.863584881161352680e-01,8.339214156069445494e-01,9.712771617019699821e-01,4.325259931236666855e-01,-3.518692038042752213e-01,1.345719147660404236e+00,1.398447281379011198e+00
1.045359876123116649e+00,-3.240899900599444994e+00,5.787717855735214911e+00,3.961633455839076445e-01,-1.871137593237632846e+00,5.849205509075868781e-01,2.661427714170483405e-02,3.106296216914472552e-01,-6.167293328449967582e-01,-2.202155937101638372e+00
-2.891337986739361821e+00,-5.975927483762321080e-01,-8.338611852601046648e-01,-7.365162552192312528e-01,1.169904679978961193e+00,4.220279057173778048e-01,4.390949137016376264e-02,-7.173250856781132612e-01,-8.938436500219747449e-01,2.000374043141540437e+00
-3.491399733778005610e-01,-5.565605382993551231e+00,-1.082526315047998455e+00,7.201817429257673098e-01,2.899974638083489875e+00,-2.569964677323919755e+00,2.439369866583940727e+00,2.288403895605206628e+00,-1.416876428873674598e+00,-4.064412370566451216e+00
