1.441041574993542074e-01,1.151665311230187116e+00,3.997601987851521765e-01,1.541446356251435779e+00,-1.770155726609232261e+00,-6.566759209655510521e-01,8.729053379263478352e-01,-1.826710114119065809e+00,-3.272738171284892972e-01,-1.790531640755615106e+00
7.755534521753830735e-01,1.497033121315617610e+00,4.119954334574971733e-01,-1.675229206408800797e+00,6.674928670397940744e-02,-2.707846658521691485e-01,5.926446490097370123e-01,-1.414029533439900232e+00,6.990769860697070293e-01,-7.233553831278100033e-01
-2.499000825835682171e+00,3.135684210475651046e+00,5.223268044996147719e-01,-5.401521670389810570e-01,6.100507084572320826e-01,5.119228883272224362e-01,-1.354256456470611436e+00,-2.261739841371523507e+00,-1.391374027756320686e+00,-5.671175855820653755e-01
-2.164565336067249657e+00,8.213491779114142632e-01,-5.335245492760584129e-01,4.744768644663952983e+00,-3.473578287639169648e+00,1.266233069004583767e+00,3.834704234305715276e-01,-1.007819470992882049e+00,-1.015463058428084819e+00,-1.092275042052655687e+00
3.760214285667851541e+00,-1.883625513307463972e+00,4.428074443787748948e-01,-1.007443300976777856e+01,9.057813236827868764e+00,-3.135474026035864448e+00,9.127187143081028076e-02,3.362730744297176333e+00,-1.642964976669832655e+00,1.385023318349844157e+00
3.859078490317783938e+00,-2.701202127946273457e+00,4.643650561239406338e-01,-4.217843124542423050e-01,2.070520244379369768e+00,-4.940076258507276386e+00,3.002535738807333043e+00,1.298633235209397219e+00,-3.833923734847203946e+00,-3.247459676698390307e+00
-5.784298911359682105e-01,-1.881544312472224756e-01,2.593017753010439796e-01,2.373363097536249189e+00,-1.150449817409756159e+00,-6.172008864245259740e-01,-2.147751359996441511e-01,-5.683103416551560372e-01,-8.215381898982421216e-01,-8.172476138240721832e-01
1.588895457711524406e+00,-3.019707590004737874e+00,-1.178420628471367859e+00,1.308052961976311490e+00,-1.257341258476650236e-01,-4.822279838187491507e-01,2.233842508622923440e+00,2.953646420601409694e+00,-1.400077537231708469e+00,-3.089972607013407035e-01
1.098751967399139273e+00,-2.709636429363877497e+00,1.017610557372615077e+00,4.577824259297614162e+00,-1.967954138805336095e+00,-2.957055042361982355e+00,-3.396900327843866974e-01,-1.912529919389071853e-01,-4.751202955461796273e-01,-1.409658183057398650e+00
1.512934233811756846e+00,5.066979763494551037e+00,2.607020044263652192e+00,-4.134235472044583304e+00,7.010762748473863271e-01,-2.689251515469055498e+00,-7.968208788775234253e-02,-5.952977385108483510e+00,1.147531366488693694e+00,-2.957409257165766192e+00
