5.330474679952447170e-01,-3.452196241770319141e+00,-4.276884481045235553e+00,-2.845464374103425342e+00,-2.996452121882264397e+00,9.380982549289504924e-01,2.166808420161578930e+00,-1.103983046832646808e+00,-1.118505054861376413e+00,1.628310145477560589e-01
2.376050398811161202e+00,-3.169849135069034984e-01,2.374823240414994707e+00,-6.250465828071288810e-01,5.026050856260151356e+00,2.059358794035194506e+00,3.251137625265799191e-01,-1.426557206493157093e+00,-1.525898062202728500e+00,6.053654021971932586e-01
-7.449346559332485906e-01,-7.309024947455384780e-01,-2.068511694030520154e+00,-4.491882723468112459e-01,-3.263431496356691497e+00,-1.600109317204443826e+00,-6.402284925666842930e-02,8.274595242242038795e-01,1.286740259375688034e+00,-5.941432089611141665e-01
1.521660999157136152e-01,1.447987190775466448e+00,1.887973632743602526e+00,1.956113884739485664e+00,5.998875655723370226e-01,-4.519971007340231495e+00,-2.915191724589661249e+00,2.741933632829903988e+00,4.482119546943990507e+00,-1.966093181097634091e+00
-3.994814393539908970e+00,2.860441047206780052e+00,5.040433714629282136e-01,4.450815973711117479e+00,-4.225549558128712135e+00,-3.897118383609322390e+00,-3.005600360073267918e+00,3.300859855961787215e+00,1.733835384367317101e-01,1.466451087025547828e+00
-1.755336226455609383e-01,-1.287723659855464220e-01,1.427109994282793060e-01,4.837475007953396799e-01,4.780685356508800332e-01,6.173296750432222257e-01,5.660941522425574912e-02,-2.169794993314507203e-01,-1.690044717347553682e+00,1.135567885141449906e+00
-1.476312432729896873e+00,3.048310050070370258e-01,-7.622169915540810692e-02,1.077361054001668261e+00,-1.183979022610571752e+00,1.560944614989054458e+00,1.520992641709711657e-01,-4.528511441104753343e-01,-4.604136752774651953e+00,3.382514419089379221e+00
9.977257335855838072e-01,-1.773148799969199052e+00,-7.994516360291280543e-01,1.001959831242968724e+00,1.900614543856209870e+00,-2.449303968615659244e+00,-8.364982036617214511e-01,1.328810677842796828e+00,1.720489170358011410e+00,-1.192857270243145029e+00
-2.757497878071418551e+00,3.595497631537689642e+00,2.054572944908557908e+00,-1.298751352345264287e-01,-1.031151606793206943e-01,8.316043617964739454e+00,3.078775625979514707e+00,-4.091442451271662506e+00,-7.305754523531756917e+00,3.821010803317384408e+00
-6.646609730535893990e-01,2.646731289180018210e-01,-5.376428875118322015e-01,9.741261012282034226e-01,-2.611967552473699161e+00,-4.090669249693586806e+00,-1.975147178869351539e+00,2.412677385929370200e+00,3.116494636624170145e+00,-1.076217118003093498e+00
