-1.475788411228857178e-01,3.718158187645664192e+00,-3.227565439902898348e+00,1.045233371229353780e+00,-1.403587424090159685e-01,-1.647457632646857906e-01,-1.184761217977364556e+00,1.242184418965418091e+00,5.811195280249614736e-01,1.173040453435044927e+00
-6.415308988853359873e-01,5.293100607113435885e+00,-1.755257187846730904e+00,9.939243941374733549e-01,-6.850666162032759132e-01,1.416532459859316528e-01,6.865748074342399310e-01,1.222705072891605349e+00,1.549168933572627749e+00,9.477997312554575782e-01
5.112669708814160385e-01,1.868302576391986936e-01,3.420835853979207752e-01,2.201444492794878416e-01,-2.066147243843804659e+00,-8.397501878313251567e-02,3.025552661094482509e+00,-1.016302326078476259e+00,3.345416749215028851e-01,-3.424265497626974852e-01
-1.030825825559549269e+00,-3.585880077068884231e-01,-1.073588656566450417e-01,4.710538521595136752e-01,-4.967304107313847972e-01,6.109115966835714229e-01,-9.654590052042507642e-01,-5.475146111619175748e-01,-5.778221811432043831e-01,-5.709574735731282047e-02
1.126346445975780597e+00,8.055874954880164474e-01,-3.011837087744706487e+00,1.272434895941352007e-01,2.311514509369049897e+00,-1.340870545599555097e+00,-2.977160762808135797e+00,1.851070137006652239e+00,3.514569414750731147e-01,8.444385669527795235e-01
-5.925427018744980900e-01,-5.709014235983018715e-01,1.678728211133183823e+00,-1.504341564910488538e+00,1.677695685688148197e+00,1.825347095143496245e+00,-1.984982679090857127e+00,8.071771188306483547e-01,-1.864979008088178514e+00,7.279478576143978419e-01
9.200036211194539959e-01,1.481238381060967058e+00,-3.684784268048933775e+00,1.146988813597234813e+00,5.642841496746425767e-01,-1.772384692070307688e+00,-1.437661769129899625e+00,9.919641807505475972e-01,1.137593513402657575e+00,4.617402352561982282e-01
-2.749950386230104460e-03,-4.660031194245451758e+00,-4.099633331922244994e-02,1.995374786526699307e+00,-1.795822705681807907e+00,-2.817896666218713264e+00,1.362855734010490316e+00,-2.934759649210727961e+00,1.804569090838060497e+00,-2.676506503422374283e+00
1.745728096641497196e+00,-4.070594288505787084e+00,2.885370269183880065e+00,-2.391425655307757747e+00,3.209547334370687732e+00,-6.134391534275035474e-01,-6.005065195588321636e-01,6.981398944474995760e-01,-6.469972442282342362e-01,-5.495761568661763352e-01
4.518586648063904199e-01,3.388165823294134071e+00,2.062064021969026162e-01,-1.706981707882851140e-01,7.131038025033609173e-02,-2.716463478173140045e-01,2.022782692283292771e+00,1.131133993738424159e+00,1.605301879172238655e+00,4.022907209740102519e-01
