-3.282481655346478178e+00,-2.069665827924722645e+00,-1.936332513420282009e+00,-5.720236907646109259e+00,-3.286896354464475589e+00,-5.524647101028845597e+00,-8.686961631158894859e-01,-1.689108809575728953e+00,-2.975820231143750938e+00,1.805889761851059649e+00
4.893730052189675384e-01,2.521113446731030550e+00,5.370341673688868583e-02,2.231356800114646877e+00,2.889634759259611663e-01,-1.527506662230118384e-01,1.426556403156892250e+00,-9.903210733322099779e-01,-4.882388166008142960e+00,2.629137261633470057e+00
1.135693218922390946e+00,5.563821819483040221e-01,7.078670476691423241e-01,-7.250119409129317516e-01,-1.330701414388064441e+00,9.872183891699486402e-01,8.803137863987455791e-01,1.040878491116300347e-01,5.031297742533528128e-01,-4.770506270554856765e-01
-3.785255208223323731e+00,-4.152851680355198916e+00,8.661773375075745851e-02,-6.416466192001988311e-01,-2.524063070260488928e+00,-1.531706525732096091e+00,-5.184612878222265131e+00,-3.078710960847942602e+00,-4.506818010378414563e+00,3.874185111315981533e+00
2.435966550378819484e+00,2.851311644159939984e+00,-6.818800242226892572e-02,-6.988924415920489963e-01,1.146046323472453832e+00,1.567878301266777186e+00,3.112741287459975137e+00,1.504461139210387266e+00,2.485700611796183512e+00,-1.843065310682515889e+00
3.981707433694665177e+00,3.593212280661159941e+00,2.036344158098477131e+00,1.358573288559245418e+00,-7.890742534844016332e-01,4.732844675305195814e+00,2.853061425780165195e+00,3.810578798714110427e-01,1.006384531748393402e-01,-2.511015188046992752e-01
-2.968664372984458399e+00,-1.444563262719564811e+00,-1.515220092317798750e+00,-6.262917983795269761e-01,6.369936973029747262e-01,-2.736821503180107751e+00,-2.185589758430605656e+00,-1.422040186172675025e+00,-3.111866000274341904e+00,2.477673373318448835e+00
-1.287738116400600319e+00,-4.722226492776392393e-01,-1.114992089579453838e+00,3.305950659760661825e+00,3.865923614874143155e+00,-1.444032799020522395e+00,-7.863610544291104176e-01,8.781067626611263055e-01,4.862720787535275146e-01,-4.433409002105801466e-01
5.512058319789833183e-01,1.638570060298392805e+00,-4.164219439546716361e-01,-1.005556829614629999e+00,-1.016285682900966547e+00,-1.772600964554346126e+00,2.387985326115662499e+00,7.138871190463760841e-02,-1.605378391152521012e+00,1.608209077665400943e-01
3.818633805324854968e+00,1.727806071791869180e-01,2.299239590781721798e+00,-1.193958603263608476e+00,-1.373049194474958323e+00,5.008113476548087029e+00,1.395063795755876912e+00,2.192038531096222265e+00,7.529116257754146169e+00,-4.658224204842939642e+00
