-3.494730088091427267e-01,-8.268113657231305424e+00,6.350333308066916871e+00,-5.111804111998963229e-01,-1.023383487047539786e+00,1.630173741375042562e+00,2.335001216855530082e+00,-1.993682923813460794e+00,-5.779789774334382457e+00,-1.825761053763672148e+00
3.510413635286081302e+00,-3.849423133632676741e-01,-1.633314169903825830e+00,5.451998171415401551e+00,-2.759683482123076459e+00,4.065774266591989594e+00,-1.199811106705657604e+00,2.309927913199856686e+00,4.453314396622063853e+00,-1.966798375305662261e-01
-2.246615718366165915e+00,-9.746560011061425333e-02,3.358381281628110671e+00,-1.095086385424117514e+00,2.289085762980755945e+00,-2.815600215247975768e+00,-6.242077336459945780e-01,-1.845859615214375526e-01,-7.407197234067735593e-03,2.090948095345236180e+00
3.608434636493723091e-01,-3.394720803399587705e+00,4.830858850024255524e+00,2.442958244678711921e+00,1.386411174718136907e+00,7.627158581027035922e-01,-1.272162398512095560e+00,1.349339402471005478e+00,8.598363051435469195e-01,-1.556911741384978953e-01
-4.665640661680325180e-02,-1.711502453706167604e+00,1.731063798997942493e+00,2.206720371768119415e-01,1.202368547506440510e+00,-3.397490028756596642e-02,2.019840514501966666e+00,-1.372483236173661358e-01,-3.581895689082525536e+00,1.953239649600856609e+00
2.163050066281348105e+00,-2.947389174840763904e+00,2.979544110759319575e-01,2.887388412776535240e+00,-2.280834329300913677e+00,3.140716578143770921e+00,1.615288836297405162e+00,2.844606022987013483e-01,-1.201508055699483268e+00,4.406434630836233990e-01
1.861258182356523294e+00,-4.724417468631014749e-01,-2.680060752798840151e-01,3.215715419990903268e+00,-8.155300319326076464e-01,2.030183386307969684e+00,-1.672894003695830356e-01,1.430927698375762835e+00,1.565073371280737202e+00,8.417601994064543014e-01
1.010096654660871840e+00,-2.103679090165966770e+00,-1.754027847838257159e+00,-9.345293368052913774e-01,-2.838680145122236098e+00,2.117575355972525664e+00,2.471082696354548691e+00,-1.714000691223554362e+00,-3.507419965261454831e+00,-1.819870680211596703e+00
-1.559012541153564690e+00,5.612503393145219510e-01,-1.722316220688833388e+00,-4.297456867434839900e+00,-4.578479340555331456e-01,-1.447635994607770371e+00,1.702144011185298123e+00,-2.462223518238017661e+00,-3.591433578599629861e+00,-1.339371333162429289e+00
5.654603677167685527e-01,3.111329028076292857e+00,-4.972427347909838424e+00,-1.254573323461463663e-01,-3.001203490418728137e+00,3.772491636217568667e-01,1.254281460750692023e+00,-7.927768621746882349e-01,9.180051376006587160e-01,1.715621222353820974e+00
