8.739687296430372065e-02,-1.684709878895717106e-01,-1.702656625369693089e+00,1.528138694549468823e+00,1.643927413499767676e+00,-4.280990434392478172e-01,6.788147650576105141e-01,-1.378533382802118012e+00,1.817526575110095299e+00,6.852250110075023271e-01
2.573628446334002895e+00,-2.488340905273157322e+00,3.340284920353967735e+00,-6.880212890636852041e-01,-7.036447052005707636e-01,-1.564108288554563186e+00,-2.622529691475580238e-01,-1.264306353857092557e-01,-1.898626040950824434e+00,-1.729111225650660888e+00
1.137727904865235423e-01,-1.118655446632430106e+00,7.333903329222096756e-01,-2.183334519005892371e+00,-4.736187061939160503e-01,2.608880202057386466e+00,-3.712059070009144368e-01,4.288346172177099902e+00,-1.688165652969872088e+00,-6.928307980606256411e-01
2.724516467030775879e-01,1.552909543356230548e+00,3.141358716648746441e+00,-1.101851223947029945e+00,5.545826432272511486e-01,-2.588521895420693220e+00,-9.089426338418266083e-02,1.285496237828440691e+00,-1.829463905629025611e+00,-8.988583286836516750e-01
-3.894168659382349684e+00,3.018426028647525072e+00,-3.827483108997854711e+00,-2.465450283996250824e-01,-2.146401301536489115e+00,5.129941616017315908e+00,-1.609133558394599595e+00,1.553115317566907905e+00,9.233024612621555660e-02,7.851322875078565744e-01
-2.870938182269103578e+00,3.779193238163849333e+00,-1.399787931555554144e+00,1.424338989582269732e-01,-8.562326647023190684e-01,1.400472593268049071e+00,-1.206001906530816736e+00,4.149453884094724265e-01,-3.922581499485710554e-01,1.972580769416040769e-01
-4.123432770558990157e+00,1.741317774310896960e+00,-5.920066086479121914e+00,-1.336058374053284314e+00,-7.403323321159704928e-01,3.919837040383989279e+00,1.976001714920996966e+00,1.475363522855325682e+00,4.084086803975094604e+00,5.092816456738682440e+00
-2.311638576425766978e+00,5.276696331594076916e+00,2.212684615302919156e+00,-8.657448347096489139e-01,-3.155342602505897820e-01,-1.974580559181845718e+00,-1.179094211989577534e+00,1.119963773919629979e+00,-2.226350587498119538e+00,-7.234920210542156171e-01
3.291078739235307804e+00,-5.041984595930028235e+00,-1.179366285331606035e+00,1.025138188689447505e+00,4.121520615599949089e+00,-9.267718365799266778e-01,2.749454589603382182e+00,1.651578354211719890e-01,2.995083286315561644e+00,1.004346531721582503e+00
-1.313695338297535598e+00,-7.569075572039627442e-01,-2.883381117779797886e+00,-1.097820271615379095e+00,-7.345583911007772526e-01,2.780980615128838540e+00,1.112167265874506095e+00,1.272534317771544909e+00,1.929062158202901722e+00,2.427205009014521409e+00
