-4.942815441092087703e-01,-5.981938132956785559e-01,-4.542478703316702449e-01,3.571397804984128288e-01,3.681718884549661785e-01,6.499620841531805748e-01,-2.979861407566368747e-01,-1.016858710084568518e+00,5.292332820275899019e-01,3.389479530009977676e-02
1.383731897638901254e-01,-1.122455489532635520e+00,-6.285263685953529356e-02,-1.570413030761879991e+00,-2.571974530217261412e-01,9.151030599126332987e-01,-2.327527535483402410e-01,-9.387767966450837331e-01,9.303836579276230090e-01,-9.519123625871765970e-01
-7.993894004008601506e-01,5.110976992719871159e-01,1.606955003784596714e-01,4.262289891117291285e-01,-6.175062089039804469e-01,1.980187310670404432e+00,-2.880720229149835721e-02,-9.129268769847915799e-01,5.375493645850289992e-01,-6.206586229248587383e-01
2.376490142307547127e-01,-5.060904577627158840e-01,2.173360397892948603e-01,-9.472339093970073565e-01,-1.813510344842928501e-01,-7.970982737901609605e-01,9.052917516715099921e-01,-3.563688106803675759e-01,1.583072206201760812e+00,-1.007561087497772373e-01
-1.105188084332818566e+00,2.769942389810753802e+00,-1.585094183313389971e-01,3.329664092524897701e-01,1.708507424322901924e+00,-2.724495495822960578e+00,-9.070780802844389257e-01,9.037143496966464351e-01,-1.202910282929894326e-01,4.183472382722003502e+00
-2.037936525656586922e-02,2.293680457594530209e-01,1.106043454542329441e+00,-5.568317766278315650e-01,-1.522217667245266082e+00,-3.538711221246138572e-01,2.910334658617082848e+00,-7.215530556221838587e-01,3.552136009204108991e+00,-9.302724774429832477e-01
-2.638353927096610541e-01,-6.749876604409354997e-02,1.488042719053867424e+00,-3.055413786663360387e+00,-1.813864541066748659e+00,-6.724391518607686358e-01,3.637914187823201750e+00,-1.965133461812368587e+00,6.646737776787833063e+00,-7.814779481245773818e-01
-2.533323504020382533e+00,2.341643461176690533e+00,-1.960965289594072569e+00,3.053909347446119860e+00,3.481420241640626134e+00,3.533068208237566399e-02,-4.303215947650686601e+00,-2.303213479401790553e-01,-3.308063675956612215e+00,4.911244411163592005e+00
-3.867960122009250767e-01,-1.120814452220704638e+00,1.448484475982141584e+00,-3.197707715104993742e+00,-2.251728086889319691e+00,2.556902863580935437e-01,4.305001389924545840e+00,-3.154030939040062709e+00,8.069295175435408751e+00,-1.856049537977411790e+00
2.438836375264554768e+00,-1.902382272474525404e+00,1.175215727534425492e+00,-8.739333384312766295e-01,-2.649537215028572756e+00,1.045610775699371775e+00,2.083001094279588461e+00,1.327123381519351941e+00,-8.100547429425168922e-01,-4.626748567683621971e+00
