3.555209518285243675e+00,-2.579736858779264175e+00,4.747119924529805135e-01,-4.522860438909990233e-01,-2.130672406092131155e+00,4.827574945983042376e+00,-3.087375309290253167e+00,3.186563707489510566e+00,-6.467168239561658094e-01,1.242397478470371186e-01
5.882578589476315400e+00,-2.511408603117746274e+00,1.462860189750364137e+00,3.426260422241654835e-01,-1.861543343813806484e+00,2.410597323677023507e+00,-2.850687327216529621e+00,2.718883910028408568e+00,-1.155422280312264238e+00,-9.324249670529471956e-01
1.148017278019215048e+00,6.162175658366820796e-01,-2.214839317968690047e+00,-2.691438545018988382e+00,-6.189718277832352289e-01,1.214395183818679280e+00,-3.079623858307055873e+00,2.887317788091775750e+00,-1.453584048319765953e+00,9.619052924558203488e-01
2.677508226987495021e+00,4.254163312406206710e-01,1.343772869078301069e+00,-1.326817295483896819e+00,2.013315229289455444e-01,-2.244252699949822460e+00,-6.737267332476257753e-01,-9.345971459091291511e-02,-2.836172649491427666e+00,4.174058885189211865e-01
-4.802710393976852843e-01,-1.976689364980534380e+00,1.614804603392922422e+00,3.255140051774645382e+00,-4.813581299207230213e-01,1.913685992529242874e+00,1.849070812395391838e+00,-1.191665746022035011e+00,2.667188366558234769e+00,-1.336046791987338667e+00
1.036362629133186886e+00,-5.360573861225131909e-01,1.018139775821798931e+00,-1.024739738691408553e+00,7.998398973533897560e-02,-5.847377881473262429e-01,-1.042672097919963514e+00,-1.239065680447166834e-01,-1.807811368005131314e+00,1.631763445947028157e-01
2.522929430763628744e+00,2.263483079100384376e+00,-2.659219876844513664e+00,-3.732730487400432118e+00,1.748394900338809954e-01,-2.385377875660612546e+00,-3.396678592202610147e+00,2.786781437918493864e+00,-2.982742126473361122e+00,8.370471003671684507e-01
1.308371539386077753e+00,-2.875588721656259672e+00,1.851478362250853271e+00,9.214123680444287201e-01,-9.069821281664051105e-01,2.601663151394169038e+00,-1.174867074442647041e+00,2.498377753610664387e-01,6.496598955758928207e-02,-8.294534931932164845e-01
1.548035822637968462e+00,-1.978616728169612760e+00,1.868676177950357564e+00,1.961012944579541895e+00,-7.848563397037700007e-01,1.677822193809211493e+00,4.414599225653184078e-01,-2.114712047760306801e-01,8.649486118279710034e-01,-9.192031360268250184e-01
-5.282269352193754486e+00,1.765365092629116894e+00,-4.078813136818610019e+00,-5.749666149800355619e+00,1.265201315990261755e+00,-1.437079250480131631e-01,-3.856979610445442574e+00,1.144818350456116685e+00,-2.413805397327358992e+00,2.164001809753138605e+00
