-2.064830803312324381e+00,4.511722512837406995e+00,9.658425961966179418e-01,2.709498930296934116e+00,9.442724886414174401e-01,2.742465334261658061e+00,-2.872951783300272233e+00,-7.341924284666971889e-01,-2.552757067022039639e+00,2.251410342017685196e+00
3.175233615218342464e-01,1.410640810869868145e-01,2.553002867624025729e-01,2.058615128877941292e+00,-3.128903970363166920e+00,-1.480795920257991005e+00,1.642984504143115920e+00,2.497575883673617270e+00,2.230384962919042202e+00,-1.041978416259675022e+00
-2.151062743104516617e+00,1.856419214690024910e+00,1.136735721680857791e+00,1.160785327671364442e+00,1.031994182708666941e+00,2.596847953051859115e+00,-2.357633871630303357e+00,6.511305012644150736e-01,-1.973594787597504174e+00,2.298791394262084786e+00
2.975156456919243464e+00,-2.099062811076356283e+00,1.112918001662892564e+00,-2.275663371596013285e+00,-1.280393606008223273e-02,1.466355930094644378e-01,2.923071053630265759e+00,-6.112254727782074903e-01,1.057226739847306085e+00,2.553806026591603828e+00
9.831671102596867273e-01,-9.573485319796880555e-01,4.586937148427067679e-01,6.160033807355757007e-01,-1.628870220421497761e-01,-1.386439562069561315e+00,6.426248096369430174e-02,-4.799481310944375689e-01,3.945604740016143142e-01,-5.035607285724051918e-01
1.925787771705767204e+00,-9.204281718449582872e-01,9.203049416398738636e-01,1.763520893230424491e+00,6.860030885382972787e-01,-2.681908573512702176e+00,-1.036770257945828444e+00,-2.528121646308985060e+00,-2.598637778037181656e-01,-1.002878082273778615e+00
4.732662958839083389e-01,-2.967187195648781195e+00,1.194063262166351613e+00,-1.584622764563129893e+00,2.304988282748941852e+00,1.591151931469111103e-01,-1.172794345024259943e+00,-9.051313212827021282e-01,-1.151054172745087367e+00,1.362277791313535769e+00
5.926617025560353413e-01,-9.617136886406870699e-01,4.162743892204511020e+00,5.958837368657877498e+00,6.258679554415251811e-01,-2.560661802004246645e+00,-4.268517014911759944e+00,-8.937036043622406112e-01,-1.487266840964804215e+00,9.517597008371150302e-01
-1.181322782701951901e+00,-6.137241155214552268e-01,-1.074099519621688703e+00,-1.903957307723591619e-01,-4.931667566128287161e-01,-6.353491177739544193e-01,-2.670442274981817410e-01,1.212608585494951985e+00,4.936754566940794176e-01,-2.002957239671789846e+00
-8.208253754734410323e-01,-6.733840101284710444e-01,-2.232045804342039919e-01,-3.224064984746034757e+00,9.413457500060558036e-01,2.868431005528624400e+00,9.232919612441836676e-01,1.092977606600489704e+00,-4.394098332642981664e-01,2.287120643035778667e+00
