4.591982853798995734e+00,1.946078435250860883e+00,1.540398033877020012e+00,1.972668473756725493e+00,-1.094895855313454236e+00,-2.022175572567016300e+00,2.674390986713223395e+00,1.406239935484020709e+00,-3.863443921543603388e+00,4.027327717807370533e+00
1.385423135093074798e+00,-2.029065941174094334e+00,2.428502027628426596e+00,2.026107543183440551e+00,1.155734926070964841e+00,-2.758756787837240765e+00,-1.607011144057082230e+00,2.873482531569017784e+00,5.632713577953030182e-02,4.545721400139367319e+00
-5.429904832952848759e-01,2.530535132998448677e+00,3.318098986567255548e-01,-1.692039729642854207e+00,-2.046984501877861629e+00,6.265143239304725720e-01,1.838248773835848393e+00,-7.545307542208494755e-01,-2.330148882264734933e+00,1.526314001174432056e+00
-9.189758216071597374e-01,-1.598080888152076495e+00,-3.226940515537666254e+00,-1.868059247101828246e+00,2.031548395973030718e-01,3.091091359053825371e+00,-3.904343011927996487e-01,2.240130505206458178e+00,-4.041734842944819661e-01,-6.104197845353313667e+00
1.423762644207274830e+00,1.232307623139714314e+00,1.654787509908682619e+00,3.124599365797434691e-01,5.987975501609993367e-01,-4.425221914273912427e-01,6.737075527854922974e-02,-2.618969749666993363e-01,-2.189948715755053676e+00,-5.810079010400948096e-02
-2.549744927311490716e+00,3.038329532848889070e-01,5.592694180717704411e-01,-1.156441081262681747e+00,1.964842699131300385e+00,1.348418903369828392e+00,-2.233911328193092238e+00,-3.345055571917663340e+00,1.631407314142729659e+00,-4.499010003139860103e+00
5.736670627988371685e-01,-1.742015522761410917e+00,-5.776871262325363743e-01,8.725812596566338009e-01,-1.811903684867951225e-01,-7.783717422795524143e-01,-1.203539923042155485e-01,2.283678878804073165e+00,7.633427734782899376e-01,1.788646537040631257e+00
-7.418022214992898711e-01,1.141876966051757814e+00,3.018380466675331331e+00,-9.753150138115911361e-01,-3.316272161346127678e+00,-2.546538284529335616e+00,1.324756561518781739e+00,3.025089563711265583e+00,-2.712445751435935026e+00,1.079886451618413901e+01
-2.021517896755645083e+00,-2.004009998404526982e+00,1.705629596827866190e-01,-8.795790819697307805e-01,5.117191976438697498e-01,1.688459253159875773e-01,-1.940293324877299774e+00,1.895966384898138957e+00,9.987992168652445324e-01,3.789612106540415359e-01
-3.544126872427338704e+00,-1.043825459693198177e+00,2.295551423962076676e+00,-6.831933441634369109e-02,-6.471660444833488013e-01,-2.389721169234180653e+00,-1.720724854035049045e+00,-7.000352515693065714e-01,3.459536663634430909e+00,7.264966553283716877e+00
