-1.864279803655429113e+00,-1.867868776920958984e+00,-8.521628901337765072e+00,5.331887720495213090e-01,-1.250759411238122398e+00,-2.403502975218045457e+00,1.292002769817046370e-01,-1.213839544461133624e+00,2.132129143878389144e+00,-1.558135569147430122e+00
-2.384347733430980387e+00,-1.641746429036387234e+00,-7.116908258733489312e+00,1.008736624744575705e+00,-7.749605283471299177e-01,-3.256121466221761462e+00,-1.571751121329601597e+00,-1.148840237676301612e+00,2.909736847864999199e+00,-1.036526836863501888e+00
7.909463904665317013e-01,6.817692272134846521e-01,-1.999296647323525411e+00,1.341515381115409467e+00,-7.108016578068355740e-01,-2.039671707328316319e-01,-2.809792280315719815e+00,-2.993101071325095397e+00,6.474589403913831587e-02,-3.240069898889592181e+00
-1.310171592484375092e+00,-3.087635634294281228e-01,-4.676208267086679804e+00,8.007624406926798777e-01,-3.315510026094172780e-01,-1.236518804993259391e+00,7.841828820714344950e-01,1.588644327951566348e-01,3.472200983130220853e-01,-8.592091223506157505e-01
4.113160422636228830e+00,5.162235651348003884e+00,1.305484035587470615e+01,9.854281064629757947e-02,2.999263834760272918e+00,4.457670268423544968e+00,2.897363629990970413e+00,2.709813493404570561e+00,-7.820062411760280163e+00,-8.522154383062288119e-01
1.554269031726394967e+00,1.797405653868969333e+00,4.851430966544192813e+00,6.313923964039810377e-01,-8.157620728825564216e-01,3.500360836563376044e+00,-2.837386897317038859e+00,-1.237029777957609378e+00,-8.332688563995811759e-02,1.211672527636070473e+00
-9.577204832116421596e-01,1.106797814494288934e+00,4.331435914392068653e+00,5.736845853818516305e-01,-4.003764306473912571e-01,2.459528103249604580e+00,-1.712349886063072146e+00,1.710395545910235349e+00,1.549796314746340276e+00,4.958175743372048139e+00
-6.708946854644128877e-01,-1.397378423395048808e+00,-3.226904451644739158e+00,-4.186135875373258458e-02,-3.308940224005636921e+00,2.688569128322391144e+00,-2.695203659901327597e+00,-2.104860447397968848e+00,4.225382235071874604e+00,3.059239265428978616e+00
-5.497909918078052183e-01,1.431417046037032570e+00,2.301609748496456831e+00,9.439793693305204014e-02,3.492789624714852104e-01,2.437633521901148459e+00,3.113514930738249920e+00,3.407595458513856368e+00,-1.647935680886619680e+00,3.225046988117186597e+00
2.527522893215438105e-01,-5.674916545687851421e-01,7.425138860862150469e-01,-5.384402954285322229e-01,2.032826916246284643e+00,-3.518117927346548157e+00,5.127079859548430152e-01,1.181893655655193165e-01,-1.197081070913418532e+00,-2.755531807103214437e+00
