-4.366919068392832060e+00,-2.300047604041057348e+00,-2.450560187836933745e-01,1.564976695759141556e+00,1.671854791952513519e+00,5.049644562682722992e-02,-2.288077245080999411e-02,-2.233912429316684267e-01,-6.016568860241428007e-02,-1.462206997506550810e+00
1.225342436301740889e+00,1.346149883758469556e+00,-1.657912082518070207e+00,-5.078926512236451529e+00,1.773652562419092971e-01,8.484445745097475289e-01,5.907735065268955310e-01,-4.305451623546910911e-01,-3.938484184065084825e+00,8.313160390740197414e-01
-6.495498684924239097e-02,5.781396872872740511e-01,-1.137597804712746852e+00,-2.949962702315524599e+00,-8.321987314513267231e-01,-1.202368106939122328e-01,3.444277403915188884e+00,-8.586080284838439880e-01,-3.982951031354836635e-01,1.068399651663627381e+00
-1.083782151842524577e+00,-1.850535222710934846e+00,1.353904935979072466e+00,2.040244276654207489e+00,7.780908489063953493e-01,4.595012455350681035e-01,-1.312434613163892649e+00,1.941948881666467341e-01,-8.105997786541287997e-01,-1.039969373091250038e+00
-2.558020111640041172e+00,-9.454118922320329244e-01,-1.631602977503047391e+00,-1.097172525883394423e+00,2.055925836332261447e+00,7.276385102123223980e-01,-1.539524477089808219e+00,3.955919503559723882e-03,-2.749330383939187605e+00,-9.196608777180961258e-01
1.793370966741227646e+00,7.638519414995095236e-01,7.345723794318417266e-01,-9.059845555050399790e-01,-9.080647212540389202e-01,1.368975908609409986e-02,5.648233010865405523e-01,-6.977377050523339563e-02,-1.651654279373604428e-01,5.402623777304436103e-01
-7.334474087279643228e-01,-1.216473911794903495e+00,1.513564245595003355e+00,4.010816230390952697e+00,-2.850445314965405208e-01,-5.877913720557792487e-01,-2.539014391572479434e-01,2.894834090426496864e-01,2.926452528789687424e+00,-5.735565370238157046e-01
-2.561943876985120827e+00,-1.873962433493131519e-01,-2.363090596324858295e-01,6.193341630970813583e+00,7.032010610056973476e-01,-1.642522607769498766e+00,-2.344675110272060437e+00,9.817045687965416656e-01,6.303735397041768884e+00,-1.165270637399717923e+00
-1.110584661259630623e+00,1.947409082847745831e-01,6.543343029296556645e-01,-2.346775767994430772e+00,-4.421229088881596936e-01,-2.136483486610809834e-01,2.590550096395434654e+00,-7.556446335303721451e-01,-2.835882324491002526e-01,-6.282339917316115407e-02
2.829473910633527600e-01,2.779252909018052442e+00,-6.447701000628200951e-01,-6.350246810295113065e+00,6.136040041634368558e-01,3.425038136868009397e-01,-5.311230044546458862e-01,-2.688332737229123248e-01,-3.418083581696783391e+00,-2.135140356884636659e-01
