-2.612995610589109230e+00,3.059955939922995860e+00,2.501015828379945294e+00,2.637546232637032251e+00,-1.415831555189428936e+00,5.134235934952078445e-02,9.795560915426195780e-01,-3.338303452879497257e+00,-8.109547829948807740e-01,2.345726158719194210e+00
-5.372202954740409098e+00,-3.011626985303105908e+00,-1.281000186700269383e+00,-9.306288618400817558e-01,-2.328149237918521131e+00,-1.466010811402462810e+00,2.037488123827641662e+00,-1.279527887558592203e-01,-2.184908021031739186e-02,3.669968375028188845e+00
3.332548187902437675e+00,1.564733227469490284e+00,-1.412754675215910916e-01,1.641994416314603855e-01,1.941353599504909377e+00,1.249599469573338811e-01,-9.789674757716398945e-02,-7.933921795168895619e-01,-6.488820933457378759e-01,-2.857827440586824252e+00
-3.470838817402502219e+00,3.192057998751192560e+00,2.808141370850119056e+00,1.930296274342523155e+00,-1.767356466205309395e+00,4.617268153910109030e-01,-1.206573121870504028e+00,-2.046066102508594220e+00,-6.665292970864918898e-01,1.358063164929984579e+00
-6.551779804783172345e+00,2.979334313928874156e+00,1.662412923241108009e+00,1.088400620639023098e+00,-2.079228311310466371e+00,-1.188535489794532385e+00,1.126728353345509248e+00,-3.501913114461270293e+00,-1.456641757211569077e+00,3.141842718593122363e+00
-3.496935338305604990e+00,3.022287465727913958e+00,2.192728615780084045e+00,8.209971234626125547e-01,-1.235288185655725846e+00,2.793545605551335798e-01,-3.306267119244420960e-01,-4.932089543983422808e-01,5.699171721799808354e-01,3.918719961246790451e+00
8.063211709429957130e-01,-4.845921892757798943e+00,-9.405798486970927685e-01,1.354990383894124628e+00,-1.678719714603004176e+00,7.768575647856656996e-02,9.905016749669219855e-01,-7.232977256688739587e-01,-5.546233416964573282e-01,-1.557413036420973729e+00
6.837060075974211948e+00,6.052039905711676049e+00,2.959622443624753352e+00,9.210848420972779227e-01,3.227184272716271618e+00,2.792668643280588725e+00,-4.948630479876371169e+00,1.579162396772040511e+00,7.670511005015162587e-01,-4.553659726464495350e+00
-1.254855666231627476e+00,-3.837771619420678793e+00,-1.079878748135220334e+00,-7.292529071303291976e-01,-1.502616315330403962e+00,-5.418065125215696873e-03,-8.385564395621470934e-01,1.530972968412397828e+00,1.889843886755978863e-01,-6.583219059499427761e-01
-5.845596263518885394e+00,3.160835931098978424e+00,6.707569216186641370e+00,6.568228901775678530e+00,-5.743031744815072948e+00,2.256023876771597436e+00,-1.600921395369703237e+00,-3.948720399056922403e+00,-1.732604130225972594e-01,4.841930020680487168e+00
