3.206276159150879046e+00,-1.813667663069049585e+00,-1.889057131482696494e+00,4.069035189108873851e+00,-3.981805401926186150e-01,-9.858993649438320128e-01,1.342846370912283982e+00,2.952600620782314667e-01,2.448680031145898273e+00,-5.992450397428400244e+00
-9.301843845082073958e-01,3.232884038307712427e+00,1.600997997530088757e+00,-3.517684070656836859e+00,2.679885154833735461e-01,-3.120233007263098490e-01,-1.104203299685786011e+00,7.095260898131807714e-01,-9.816406893317608517e-01,3.418404506096182516e+00
7.443291475480693364e+00,1.323827249674580431e+00,-6.649228225720873464e-01,3.080982038359435293e+00,-2.303574280449349754e+00,-7.572680525676931396e-01,1.898636088315038606e+00,1.002018506557271538e+00,-3.385158997509200240e+00,-6.046433854658387119e+00
3.736083859549010899e+00,-7.138646601573426231e-01,-1.300971772962042472e+00,2.326652299419302850e+00,9.109163815895704452e-02,-1.323846543136235621e-01,8.737299915423307750e-01,-3.251261204655306880e-01,-3.679840870474104797e-02,-3.793905748756244201e+00
-7.316802779343012375e+00,1.981472138141722628e+00,-4.262326353637402310e-01,-8.330696918133430273e+00,3.352260705839685606e+00,1.093904661680572321e+00,-3.617352070938615327e+00,-1.476102844329809649e+00,-7.473736939317632277e-01,8.511858907990744072e+00
1.476313803037861749e+00,2.805353126796821250e-01,-2.260533141853056094e+00,-1.796492422833300573e+00,-9.365041620831204838e-01,1.215061443819735354e+00,-1.353016022594799583e-01,-1.022848768523448637e+00,-6.849745798148457965e+00,-5.414476047433605110e-01
6.220214474655901604e+00,-1.317214763538064215e+00,2.124939991699049679e-01,5.018418359605444579e+00,-2.981537903755806518e+00,6.297897303146924308e-01,2.658759474403249001e+00,1.298030874205744756e-01,-4.377009119172940999e+00,-4.796369008845489113e+00
-5.566228738185235336e+00,-2.517958251264565295e+00,-1.589699469166877988e+00,-2.759493417483172895e+00,1.253497454899166419e+00,1.973906304716833926e+00,-1.378804754856206349e+00,-2.126394985115643177e+00,-2.005937950582117768e+00,4.177395976277219702e+00
3.191503015157306056e+00,-2.243459237263156325e+00,-1.041236581986546561e+00,3.715216834246593436e+00,-1.119240708943280538e+00,5.055591906439730332e-01,1.569963117215863013e+00,-5.070082361178004371e-01,-1.433743048658474573e+00,-3.825456733602510706e+00
-1.441054363775765790e+00,1.930379710973733509e+00,1.468941712743667916e+00,-1.263437727411326872e+00,1.415493508739984474e+00,-1.466472079191722955e+00,-8.835256223076721760e-01,1.121811819837487123e+00,5.065279007790797650e+00,1.409257452495423113e+00
