7.965910832883612569e-01,-7.359311102893322243e-01,4.725820675291356188e-01,-7.593591064587857931e-01,-1.056174756194676156e+00,-1.855425972486845154e+00,6.529199705443296864e+00,-1.876390031514693524e+00,3.940450945212267131e-01,-1.710126559721956818e+00
-2.309536062841950343e+00,3.407507148693774135e-01,-1.177145816996887639e-01,3.449763273915582573e-01,-2.927924747010058892e-01,9.307939150924752214e-01,-2.601250795712820363e+00,-1.336565043306446599e-01,-6.143211976623291770e-01,-2.971067331901215414e-01
1.351554133827493009e+00,-2.648868835046727543e+00,-2.024354344733388267e+00,-2.363057163939457972e+00,-5.948416474526075914e-01,-3.072818931048338364e-01,1.735393567655141522e+00,3.232057382841100890e-01,1.132770298004861287e+00,-2.794532429954288411e-01
-3.037836153263230976e+00,-9.554913274081881625e+00,-2.731987641282798585e+00,-5.209026503945897169e+00,1.974766714571915216e+00,-1.338651591940318575e+00,1.482672245613664286e-02,-5.252507372298603761e-01,4.062002502611464116e+00,-1.752180139794675906e+00
-6.155747931092557579e+00,-5.645637101749733766e+00,1.372036818089181098e+00,-1.891178906213303534e+00,8.705377717525345505e-01,-2.634077009429852012e+00,4.674473667443073133e+00,-4.161517697089074375e+00,1.765672643291703592e+00,-4.255588192665418212e+00
-1.962320855746481074e+00,-1.209247290072648973e+00,1.048370607188255033e+00,9.858870762829824441e-02,6.326999248270357423e-01,-6.719624213534726165e-01,7.582693922043971524e-01,-1.280295723467032909e+00,1.036278007721170846e-01,-1.129908627996335291e+00
2.528192662521502876e-02,-6.645645059442157887e-01,2.548573155769335408e+00,1.452527602092498649e+00,1.147327582601911811e+00,-4.453719289298786466e-01,1.039713169196819553e+00,-1.553503993598116528e+00,-1.900876254454234582e+00,-9.753565123301777273e-01
-8.937188821209113287e-01,2.311723094442067694e+00,-1.670017756328882275e+00,-1.050431523055661120e+00,-1.849684306114427690e+00,-1.092189741776147027e+00,3.006946631243964774e+00,3.673313081601253804e-01,2.954448470636395818e+00,1.745616279120891789e-01
1.214761425062675704e+00,2.954222106228129974e+00,3.631566741351893945e+00,3.093022872771086451e+00,1.024417549617213430e+00,-9.961498719015818848e-01,2.301777640405615166e+00,-1.130882203980005052e+00,-1.625236964024375563e+00,4.648601627254878021e-02
3.073313462290295228e-01,1.635724948621242403e+00,8.809526614214493456e-01,7.970486559608047639e-01,-2.623929943511379426e-01,-7.058515267742826449e-01,2.043918004930346033e+00,-4.527249081619316717e-01,8.916907178513860943e-02,-7.905448706418592708e-02
