1.482841220977086927e-01,-7.398001299624573646e-01,-9.446880443447857045e-01,3.055925816281152230e+00,-3.677482718870484391e+00,-1.711367081933788725e+00,2.397860669852239113e+00,7.588535967440307450e-01,-2.108046230815189936e+00,3.009804168824325110e+00
-3.826294599746971947e+00,3.418995144018407428e-01,-1.019871994000900672e+00,-5.795104497009467837e-01,2.131191459618379191e+00,-4.021487621865157402e-01,1.116695041560658908e+00,1.245909553274739956e+00,-2.653100732340546664e+00,5.486592953347306789e-01
1.598360359540339504e-01,-2.585691420211765124e+00,1.096486230068566492e+00,-1.268032302602324801e+00,-3.355982902395476142e+00,-3.284667721442422916e+00,-1.986142925390699698e+00,-2.283721758576448657e+00,-2.706858809900236196e+00,-8.146680420501821729e-01
-2.941471196666737065e+00,2.698875368752495230e-01,3.120171259215771542e-01,-4.702736353286205429e-01,1.025212102084411603e+00,-2.735092843249395500e+00,1.112359017503569830e-01,1.971329416794998401e+00,-2.188867536403328096e+00,-6.327743809142767628e-02
-2.786719120637148883e-01,-3.539810924441703754e+00,2.411070600856892732e+00,-1.856768699384304888e+00,-3.567249354879484802e+00,-3.276840587764282553e+00,-5.925367881829166627e+00,-7.662070570503916933e+00,-2.433025769092516555e+00,-2.791447416194615450e+00
3.828677746436466744e+00,-2.403218837633449567e+00,6.759690197978965864e-01,-2.609628212825244820e+00,-2.508789276155711345e+00,1.101546699490188796e+00,-2.029386897135325274e+00,-3.258284736757802058e+00,7.729254002351769737e-01,-1.813037097556265742e+00
7.980501606737124831e+00,-9.644456648955046507e-01,7.862353534649482167e-01,-2.814006835087043967e-01,-4.153912189256359078e+00,1.025576897505694918e+00,6.462602997606733402e-01,1.306000195168326883e+00,4.013020115606535043e+00,-2.038567531266821664e-01
1.307796979410736471e+00,-7.532590703464467907e-01,-3.348919079668702947e-01,2.533770325674584267e+00,-2.281555865225943336e+00,2.140925612056050475e+00,-1.159266420859201396e+00,-5.350870915219494428e+00,8.929134847756104998e-01,8.647988822749549387e-01
-8.656345998275362108e-01,-1.873018100385350770e-01,-5.282085369704109246e-01,-1.525320337985549335e+00,1.687724605548988954e+00,1.915321522997893489e+00,-5.199512447711707175e-01,-1.421087400230401254e+00,-1.915703142222243138e-01,-8.184952454816198930e-01
4.688401060626715022e+00,-1.428954059060526305e+00,1.766571518146604403e+00,-2.587734216976930401e+00,-1.543806114893103931e+00,9.284409753942457488e-01,-3.186127715145393502e+00,-2.840740598258792105e+00,2.924151026684951304e+00,-2.880263383529356513e+00
