2.705206530979583857e+00,3.679909633186368989e+00,-8.196018416312871313e-01,4.499764995268560885e-01,-1.956581335259337973e+00,-1.994944240541840497e+00,2.797368945874978419e-02,-3.444861465510022924e-01,-4.449677739119704434e+00,1.955208788253067098e+00
-3.891457239881833452e+00,-1.255116351184298651e+00,-3.146288261529433861e+00,-1.670290019813047255e+00,-2.273142172752001144e+00,-1.268560732274407687e+00,-1.528253717138009282e+00,5.951240777774527757e+00,-8.579684277599774589e+00,-2.428828885287616757e+00
3.170550416661509718e+00,1.142257102363195109e+00,-1.126129775898134566e+00,-3.971448260057823532e-02,-6.598839630241370990e-01,-4.366604902439233937e-01,9.808830453742599653e-01,-1.753072500640386666e+00,-1.593094677555520366e+00,-1.098531945957342687e-01
3.562631017091954178e+00,3.625765964643999251e+00,6.928041083580943615e-01,3.554452656760905827e-01,-3.886113817417721217e-01,-3.209450519478969088e-01,2.695340512586733794e+00,-3.129869389421558346e+00,4.566448192072649626e+00,4.487889413357654789e+00
3.590266378781606704e+00,1.139084374067832917e+00,3.346777890056486515e-01,4.132271263576847709e-01,7.145459748986501824e-02,1.732572117037003631e-02,8.888046229155163180e-01,-3.422036453952761015e+00,9.326883383341241229e-01,5.681845487409190598e-01
5.733595231345859133e+00,9.405059991735740255e-01,5.060021942788632821e-01,-2.985422894747135070e-01,-2.425309354537792395e-01,4.575722197421404625e-01,1.759352691746596031e+00,-6.319790576727767117e+00,1.732958385767285225e+00,7.717458242054182627e-01
1.993489407444835049e+00,2.724173940595797205e+00,3.750473723855118902e+00,2.751859134015742780e-01,-1.541299435264356088e-01,9.972863213479543631e-02,7.796165618178727552e-01,-4.871905995616991447e+00,5.809228966921078374e+00,5.333799382928878785e+00
-2.596297092790679439e+00,2.063381648193607365e+00,-5.646055066257247290e-01,-1.478381791869992079e-01,-2.203483924111936609e+00,-2.094943306360207647e+00,-1.840264379134665562e+00,4.021804320298296709e+00,-6.083328312996155063e+00,1.417880746201898523e+00
-1.789831869999488401e+00,1.085929931291394757e-02,-1.745683796826931200e+00,-4.382466972466678157e-01,-3.426979794291556969e-01,-2.340535234184480395e-01,7.648052129235767271e-01,3.280556938347235274e+00,-5.588882663059567824e-01,-5.639348570165268748e-02
7.145108675020258593e-01,-1.685773050367260328e+00,1.839291743007802848e+00,3.350904764134389757e-01,1.140164734949625336e+00,9.655166841250913956e-01,-1.028348397665139524e+00,-2.906718283043397744e+00,1.515813665649725195e+00,-1.312592700889277042e+00
