1.848314580904678373e+00,1.010834300039526595e-01,-1.796515753383885805e+00,-2.507559137947233285e+00,2.644054700978876404e+00,-3.281349088310222539e-01,-3.086550871820958886e-01,1.305275764896911550e+00,-1.071176147214745411e+00,1.059431776859349972e+00
-1.875978023029432951e+00,-4.748734644188140619e-01,5.498820616540275097e+00,9.930384051193479333e-01,-3.544601048377558072e+00,2.375945733400343318e+00,-2.102951355277100198e+00,-5.235273661535997380e-01,4.408761733448773867e-01,-2.355940251393823015e+00
-4.976252889759279263e+00,1.073813892747376597e+00,1.589486601558808943e+00,2.727021821877070873e-02,-2.688921296214592083e+00,5.880787815814433328e-01,1.389316940752012286e-01,-1.684770255460008859e-01,5.848139618848293697e-01,-2.460194691454343108e+00
6.124138667926171120e-01,-2.127188539738201989e+00,-6.502770346964795722e-01,-9.091267428924560967e-01,1.106576123036425940e+00,3.398961368808629535e-01,-1.957759263405228323e+00,-5.183246224277731073e-01,-1.864940545274781147e+00,6.426023476395995582e-01
-2.388343571241943741e-01,-4.901263879939126156e+00,-7.782436484576946145e-02,-5.824345800493895275e-01,3.618513546975007378e-01,2.060468974863400415e+00,-4.601892400115657367e+00,-1.709999404346771668e+00,-4.204934991198790328e+00,9.165691457543023724e-01
5.671461061637698142e-01,4.269929031922730545e+00,-7.407612472754528943e-01,-3.389209265935155369e+00,2.083712945341221534e+00,-1.738995556728857750e+00,2.630122808962387815e+00,3.080737122943334683e+00,2.163422638537277010e+00,-8.638443602616399097e-01
4.039130284562128637e+00,1.456923208585344964e+00,-2.063821906917704396e-01,-6.251739727848301342e+00,5.155868447513774377e+00,-2.089108336324345672e+00,-8.101707878999337975e-01,3.095872302773696738e+00,3.170779978353925888e-01,-3.490894880071435113e-01
2.269108343972662922e+00,2.137728822176694798e+00,2.143004410225012979e+00,-8.079755417769134418e-01,5.687901425326857829e-01,-1.093167423994794163e+00,1.060904079062146455e+00,1.289468729510766742e+00,2.488704690171101852e+00,-9.373346485915073911e-01
-8.004772535395430211e-01,-2.005925538383841911e+00,-2.128738162478605034e+00,5.323680824700649517e+00,-2.534203529051572534e+00,1.712751925385791907e+00,8.419793427627273452e-01,-2.477635833665391196e+00,-1.367478431435960040e+00,2.467343048513118475e+00
1.422357440687128660e-01,-1.437820604748608178e+00,1.462640698286608032e-01,2.445558407892435504e+00,-1.593272947951953178e+00,2.058706684507682461e+00,-5.910490408867048462e-01,-9.901232926850687122e-01,-1.291080630770991222e+00,1.294867603708677706e+00
