-9.161869167008491743e-01,2.112152266755764618e-01,-2.041159064983451898e+00,2.968609464563443989e+00,-1.288677743426503763e+00,-2.978635885901136593e+00,-2.993470807622411911e+00,3.794971701981855183e-01,-3.219935882853118159e+00,-1.401599560952940360e+00
1.508933327775036304e+00,-2.035706881686800696e-01,1.183633254411091906e+00,-1.887026593021725152e+00,-8.060092910146539058e-01,5.891924535108938876e-02,1.999688626185681439e+00,2.343528067264109449e+00,5.326083748506261761e-01,3.238043110463900698e-01
-1.596851017386332172e+00,-1.209547525327608675e+00,-2.570751836880776242e+00,9.322459833160899878e-01,1.126115497362521145e+00,3.459075005978487827e+00,-4.541075727422041908e+00,1.965377613666364209e-01,-3.883713960653557784e+00,7.429161072791652387e-01
-7.496008791172082963e-01,-1.680749852193490934e+00,-2.819976248264548957e+00,4.541618032725764920e-01,-1.642507986052629265e-01,-5.098505256750379466e+00,2.898788089286083558e+00,7.721617242767120359e-01,-2.158154040533061035e+00,-1.436073113421652891e+00
1.385174076314595437e+00,1.210728075400427040e+00,4.019380372575755089e+00,-5.834625682209431119e-01,-1.063738748865829864e+00,3.032733488737013428e+00,-2.219286588582113584e+00,7.494579183183438520e-01,1.282085095297382349e+00,1.481349402123572689e+00
8.821033356064520436e-01,-1.043487639954027157e+00,3.197407758081803664e+00,-1.279799349440854384e+00,-8.015473638168669757e-01,1.606870698658462437e+00,-9.834469319220240369e-01,2.026035892462712429e+00,-1.202565617446226032e+00,1.907875024149575882e+00
3.089050688773531839e+00,1.968697733135498007e+00,5.481344159453557907e+00,-1.510316855830494243e+00,-2.631675743165708514e+00,-1.768506184930493941e-01,1.309209033195377847e+00,2.215244043336820567e+00,3.239171497331483796e+00,6.172890972634019757e-01
-2.694037312475053181e+00,-2.953190093743529587e+00,-4.649032730507800970e+00,4.739465594713155872e-01,2.440748744011158156e+00,1.169976757241339538e+00,-1.466761259115266114e+00,-6.605346878071215455e-01,-4.412124281951803617e+00,3.251963167616223060e-01
-1.249679965111738067e+00,-3.858587321582344076e-01,7.672762410355921103e-01,2.476595265410316549e-01,1.700117769694195813e+00,5.693682594034053857e+00,-4.447735551551728506e+00,-1.748847543656108172e+00,-8.502613769755342776e-01,2.050953453247596592e+00
-6.950140829531739062e-01,2.165407767586475796e-01,-2.301536778101046732e+00,2.423495178139679851e+00,-1.125978611422818521e+00,-3.547349378579801815e+00,-1.417002040939593588e+00,3.703115414140645267e-01,-2.403293417281156863e+00,-1.682497530078639780e+00
