-1.482787125193214095e+00,-1.833673549016128501e-01,-1.168547833170923811e+00,3.709336939514926712e+00,-9.624328100147045983e-01,-1.428282212634579551e+00,1.631631347705272850e+00,-1.136378124050905436e+00,2.162733054353358775e-01,-1.161861279869843333e+00
-6.973084029286665819e-01,5.012172687562145290e-01,2.639795508192697593e+00,-1.163230137239861794e-01,4.231934050832300565e-01,3.447990953094187461e+00,1.645956316918936180e+00,2.067990098048740677e+00,3.295013752855339151e-01,1.012128854392908561e+00
4.141908647840845115e-01,-7.789247389485705053e-01,1.424484966537834296e+00,-9.756577943508268902e-01,6.610393047596613281e-01,1.680977456523145452e+00,7.816762359905711222e-01,2.013000358085717867e+00,-2.085604088396771250e+00,-1.486680570509005594e+00
-1.379401277278512916e+00,8.845882609564925669e-01,6.768157013665822674e+00,-2.300024574343135786e+00,-1.915192019786978950e+00,7.286105318267209086e+00,1.164181095123688836e+00,8.626692311548445069e-01,3.213671704774287985e+00,6.541461624604039571e+00
1.373267185231701548e+00,-1.314570061397046130e+00,1.684142402199312549e+00,-1.187530002647518179e+00,-1.387931586142745033e+00,-2.759087494666281892e-01,-7.828727985490390173e-01,-8.338648602229458140e-01,-1.704481656060440886e-01,-2.110549547577233120e+00
2.702583031652698420e+00,1.202486970073830541e+00,1.201781927086992496e+00,-2.834877384965644787e+00,1.372509840464766206e+00,2.701455938422014924e-02,-2.003471520131150818e+00,8.326608188841255753e-01,2.649543816775032479e+00,-1.481109614820959708e+00
-7.607454363247728724e-01,-1.467922016469039193e+00,-2.492881301355927004e-01,3.124168005402002457e+00,-4.280922863809738743e+00,-3.135414410649551176e+00,-1.513888254094711283e-01,-4.962617889228724266e+00,1.784136728235752756e+00,-8.912845906549109465e-01
1.396011183513609311e+00,2.285703909585224403e-01,-2.993776398850176879e+00,-5.519570633476317267e-01,1.757852893145385398e+00,-2.961531599661909375e+00,-1.465827180846427824e+00,1.746908618802971436e-01,-8.732404667555093702e-01,-2.298869796424315659e+00
-1.317144874648830399e-01,3.045094189272280261e+00,4.952703435517570973e+00,-3.242031840211671678e+00,2.831296226969924223e+00,7.455000321956730680e+00,1.175093499332180436e+00,4.941038562130842138e+00,2.998514501413854116e+00,4.634696451390476923e+00
1.809666494472444431e-01,-7.718264041077380622e-01,-1.872676144179613367e+00,-2.711063146298382520e-01,-1.824141517702855819e-01,-1.882134636883826984e+00,-9.157197730699383476e-01,-9.815520978690186471e-01,-1.572230864809874396e+00,-2.538489723069254356e-01
