8.547990023870710719e-01,7.632041878318180927e-01,3.519966082249773365e+00,5.579248064995092626e-01,-2.847732049686547140e-01,-2.306259427246772908e+00,1.251485221855650476e+00,-2.478368087669032604e+00,2.289161468624124396e+00,-2.124800758812792623e+00
-3.711252632107682747e-01,-3.124442365174477487e+00,9.544856383343897077e-01,-1.472521680940077626e+00,2.659020144874912894e-01,4.738497387883340850e-01,-1.647411695434800816e+00,3.231781365343972534e-01,-2.384179943759927589e+00,7.823587629360173601e-01
4.096738372047648014e-02,1.299358936356737937e+00,-4.169541430731801057e+00,8.331222964689966037e-02,1.236175523080596639e+00,1.563851863977514522e+00,-4.352944603889764563e-01,2.117488482010548623e+00,1.275781405126564794e+00,1.586518992270552708e+00
5.870223598690786915e-01,-9.153613147599978239e-01,1.101517682309989254e+00,-1.446263842869899285e-01,-1.188090882389523373e-01,-1.534960656018098391e+00,-1.125747216716884935e+00,9.075430962185071504e-02,-2.785412664579423936e+00,-2.008418509802636809e+00
2.343085501858829023e+00,-1.852348145937214863e-01,1.127638422708733490e+00,2.234310023962739589e+00,-1.051028370703996462e+00,1.569865217836065030e+00,-6.484803904761349269e-02,4.383097038400280532e+00,9.382575490488096470e-01,-2.300304302091610964e+00
-8.716807842355026037e-02,1.132283944659543851e+00,-1.522336650194154650e+00,2.620155782312539872e-01,2.952336329808036841e-01,3.296865351744274752e-01,3.059754725137304177e-01,3.029086316177319604e-01,8.396231359123289550e-01,4.707072099896347783e-01
2.132596171050853862e+00,4.277184506831266386e-01,5.093871453377671443e+00,2.215943002314111787e+00,-1.717620641976053131e+00,-1.234974128034061369e+00,1.509562898057042801e+00,1.352325243809302524e-01,2.105543116240983448e+00,-3.837311284929942445e+00
-6.769155171374839908e-01,1.152477110606651145e-01,-1.653001340282188147e+00,-1.209542417967235828e+00,1.339331066474730658e+00,-4.338908935320415772e-01,-4.982846985805146622e-01,-1.174211679600318137e+00,3.653621136193780927e-01,1.360203629594384012e+00
-2.990025179844389314e+00,3.487999548948592654e+00,-6.078840481979312926e+00,4.133069986354250824e-01,-1.006252885056466706e+00,1.889106173227690810e+00,1.361837880944988033e+00,-1.490593629523583319e-01,-2.522653335688732845e+00,3.168626300772698023e+00
-2.692946968334345992e-01,-1.144341083078154853e+00,3.097623346846519521e+00,-5.632727212534816008e-01,-4.002347856890827726e-01,-1.004973845237080887e+00,4.645270245452606805e-01,-2.258189957225675837e+00,3.653116701922257126e-01,-2.625317885435296539e-01
