-1.245009863470853517e+00,-1.956908992449163387e-02,2.557196869264557915e+00,5.689092859344878628e-01,7.448304046626575969e-01,-5.825104739951224297e-02,2.307434483813381121e+00,1.990601863974192254e+00,-2.295823421058513780e+00,-2.042848335535367710e+00
4.755407302905444861e-02,-5.241704932418075891e-02,-1.030690527194028983e+00,-1.157973064297614041e+00,-8.767748808827691143e-01,-1.411098002184002276e+00,5.731321407104741361e-01,-8.829453283611887748e-02,4.253585496680186706e-01,-5.773153435292111002e-01
-3.048712544355773879e+00,-2.304893731589955586e+00,2.308174174700559966e+00,7.858068428606868050e-02,5.036842871630614615e-01,-1.244543421665802452e-01,3.528425202848192832e+00,1.159223821498674145e-01,-6.268721405961232840e-01,2.196046304468700860e+00
2.523288833710662704e+00,-9.782776980216711937e-01,-4.834136531114275881e-01,2.414271536107013283e+00,-2.382308900093866644e+00,-1.406261368050817584e+00,-1.962510801522043602e+00,2.684870147357000802e-01,1.911750471028154319e+00,-1.494821223716783276e+00
2.328078930895129128e-01,1.700485434209757507e+00,5.797851868136292275e-01,1.310030235381231534e-01,2.074168241916080735e+00,1.699180688063924638e+00,-6.320222431991475709e-01,5.078733903405280303e-01,-1.955434702410643100e+00,-7.619748711430301968e-01
-3.275561396894433042e-02,-4.139591229414490314e+00,-1.354228072355565526e+00,1.775026142206871826e+00,9.201606705645926088e-01,-8.957205397691256898e-01,5.897142123315808337e-01,-3.610686360486756286e+00,1.693200647637596479e+00,6.507480779962568462e+00
-2.255841996306880703e-01,1.080065444417214637e+00,1.322231336583694850e+00,-6.263841373966072545e-01,-1.247610127435986760e+00,-1.479595041690555224e+00,1.599900579885372931e+00,2.765854914921111796e+00,-1.410512618537969942e+00,-4.768806125642264249e+00
2.620008515810195782e+00,2.587772754864336999e+00,-1.196180961277046872e+00,2.233505857586314813e-01,4.742182353794155425e-01,3.957338749884972140e-01,-2.603449111955793871e+00,7.134738998626110051e-01,-9.134906602719310431e-01,-3.065276026611043481e+00
-1.211736715297960121e+00,-1.469406433178668037e+00,-1.382559730024995326e-01,1.483795940242397249e-01,-1.533299759499734960e-01,1.590392790608906814e+00,-7.422031906483581576e-01,-2.017011411788982578e+00,2.278557413781387542e+00,4.523077014830515274e+00
-2.094493986291486198e+00,-8.623233674381165503e-01,2.846755004443944692e+00,1.031014250983836922e+00,9.765388342348426676e-01,1.666711231943235783e+00,1.492941644027559800e+00,6.808626174509122553e-01,-9.024075639447439734e-01,1.193291373832492397e+00
