2.200620068572270771e+00,-1.184680874718476939e+00,-8.870859047639783057e-01,-6.419260607097898585e-02,7.421411872004445298e-01,-1.129817372354748217e+00,-7.429786253123151774e-01,-2.230507198910124167e+00,-1.597962716519037540e+00,-2.686838735483902951e+00
5.044468787795741704e-03,2.412552101052670706e-01,-1.707643799886870983e-01,-3.276212146086112220e+00,1.116273383825246546e+00,-2.316269199481103769e+00,1.738186493740295768e+00,-4.918423656412950762e-01,-5.347612967894059821e-01,-5.222202699657940705e-01
2.787296641992532464e+00,9.133805472249715285e-01,8.278228461576780939e-01,3.094239551067263339e+00,8.810042126602957158e-01,-1.369499926664563327e+00,-5.730779769202685170e-01,1.351075273606057170e+00,1.841707020912057846e+00,-7.150569633927883473e-01
-3.832957606264213446e+00,4.049439556774016014e-01,1.012414694168272122e+00,-1.157501053966881077e+00,2.774248834779288408e+00,-1.052348802891490465e+00,1.973371409020245881e+00,6.002418390419731464e-01,5.684966530903315274e+00,5.378831807271284848e-01
1.086169378046723866e+00,3.473251163354504345e-01,1.890258454070562477e-01,-9.456706046827394463e-01,-1.662340858879122640e+00,4.674156073397065514e-01,-2.716418095830358537e-01,6.338456780677064195e-01,-2.862747213646361200e+00,1.098497500997597465e+00
2.265268320807941382e+00,-1.655777148562027179e+00,1.342827792989007563e-01,2.973511826197250851e+00,8.926107797351670037e-01,3.907914479387852857e-01,-2.479596167019977315e+00,-1.918644152524708879e+00,5.550902585521797494e-01,-2.703181959897322351e+00
2.996730769183352017e+00,7.503541724279496616e-01,1.051598194592819890e-01,2.203721776797410659e+00,-1.922294683103875190e+00,5.852584382774765892e-01,-1.256587154691275465e+00,1.316601130800367780e+00,-2.463722173823882144e+00,6.085597192232898855e-01
1.384050841317276959e+00,-4.419414014271813684e+00,6.676412737337031444e+00,-2.082238768564248055e+00,-1.981923147941000662e+00,5.627719904217764579e+00,-6.966543533970046553e+00,-1.797691076597585536e+00,-2.845082491522790136e+00,1.682438834976926145e+00
-1.300300804482013461e+00,3.194236912830835884e+00,-4.877031594918688207e+00,-1.620346959802657194e+00,-1.586734178007873419e+00,-2.347321372672752204e+00,4.924858351729754169e+00,1.597645098385711560e+00,-2.995033072997598023e+00,1.062997889652291805e+00
-1.296107011017407773e-01,-3.443442598830979140e-01,7.753173835738667030e-01,-2.797902749115607879e+00,9.504859671132683818e-01,-1.236556727403064881e+00,6.402735266595485086e-01,-5.882268671306105645e-01,-1.445577303884620912e-01,-2.435193547910866063e-01
