-2.403280851880665037e-01,2.837900656746710215e+00,-5.883697890299407346e-02,-1.357619155376648956e-01,-1.695043000039034853e+00,-1.360241103747025004e+00,-1.093221841271838191e+00,1.912675381268551522e+00,-6.651305937622481457e-02,9.651067200975729232e-01
1.335350007632962965e+00,1.911513520399730437e+00,2.038900730909637193e+00,-8.378300311974337111e-01,-2.801726143064496299e-01,1.037711166293664888e+00,2.092745764487490501e+00,4.814393125502014481e-01,1.323668455026466795e+00,-1.095915988099791516e+00
3.392699152497463122e-01,6.483305677902985842e+00,1.982140214386046706e+00,-2.317900986075424052e-01,-2.546175006849543010e+00,1.148639878907853573e+00,1.229530947215764503e+00,2.260230277079958050e+00,3.460633416496860626e+00,-1.114038823394887689e+00
8.070954497502560443e-01,4.159939847892370146e+00,2.195344721431398582e+00,-2.647171937449544488e-01,-1.351894126673318652e+00,1.663381190871471960e+00,1.609289490211200935e+00,1.407809004185523127e+00,2.878275782829706753e+00,-1.556873381711945115e+00
-1.599089523186834949e+00,-2.902990940833840572e-01,-3.471663211370489277e-01,2.454204281298809409e+00,-2.148213080103978656e-01,3.394916249450502299e+00,-3.574959839703607312e+00,-5.696445036350318292e-01,3.755840680458697012e+00,-1.824680905883167004e+00
-2.265606493017424228e+00,8.723035803579054503e-02,-2.444791115920180058e+00,1.576861806304240776e+00,1.348025107776265608e-01,-3.359178601038099315e-02,1.676108956987113041e+00,-1.442632143879506168e-01,-2.204500973985513423e-01,-4.175299787843152477e-01
2.361120743699265390e+00,-2.292725572208122120e+00,2.418534679868230786e+00,-5.769328196608511927e-01,8.917340974633435335e-01,2.093633415746575521e-01,-6.253513533924269785e-01,1.626324337406910514e+00,-1.382948308089448020e+00,-7.184531527414264040e-01
6.451523024650464011e-01,-3.467535253314147692e+00,2.430144508345582488e-01,5.441151963808756875e-01,1.327320568180071936e+00,-1.198825893112071828e-01,-4.867995376704368216e-01,9.402483643498805721e-01,-2.071836937932195699e+00,-5.117941526918633466e-01
-2.605171775011641877e+00,-2.055572587751261171e+00,-5.049538273220992579e+00,-8.451754373038534995e-02,5.113118375145849978e-03,-5.162712269567834689e+00,-1.435235535470237522e+00,-1.163780570423952998e+00,-4.957530202319357926e+00,4.299817223720429737e+00
3.362436491661492166e+00,-3.746927193255569222e+00,4.413033850278711867e+00,-5.394387403799587588e-01,3.113999151396289911e+00,4.805283158536425958e+00,4.061864569336735897e+00,-1.382870478146950743e+00,1.846520790738671369e+00,-4.367285342974448703e+00
