-1.575894624342669914e+00,-1.622966123130734184e+00,-1.763919594563587268e+00,-9.798969687836373010e-02,2.019665820346863983e-01,-2.269452383022594333e+00,5.017622723616184111e-01,-2.061727981347220684e+00,-1.078096605833212207e+00,-9.596643226619703260e-01
2.514333423040010729e+00,9.969237596881339591e-01,2.295611246354710144e-01,2.429657339916786896e+00,-1.767239287422696759e+00,4.539835977166770675e-01,3.712264791803785879e+00,2.939348858140927945e+00,5.829580152804731963e-01,-2.883523269924033183e+00
-4.556404934210528390e-02,-1.774859232988630797e+00,-2.418316081005721152e+00,1.160427766352817081e+00,-8.715885037271130509e-01,5.262999866887279943e+00,1.825329748419873610e+00,1.143761086299351915e-01,1.070720298826038253e+00,-2.397662158869171556e+00
-5.413191606674321754e+00,5.449015812338334541e+00,-6.426039451279614845e+00,2.320249887295504632e+00,1.699019700228390883e+00,1.050946152264903510e+00,-3.793384103584570788e+00,-1.494398068737891716e+00,4.979556571487218086e-01,8.287962177701274635e-01
5.763722927362805448e-01,6.085223667833224326e+00,-3.481314408795974646e-01,2.451523296033694788e+00,-5.808299043203638545e-01,-6.853088006322498593e-01,9.865002565605940354e-02,3.349398936424357487e+00,1.010807102298488136e+00,2.063633762080754330e-01
-3.280144219245053616e+00,3.493868056362625207e+00,-3.136723993927978071e+00,-2.687520255168771577e-01,2.245016363102078638e-01,6.957775111660753353e-01,-2.046201268432399800e+00,-7.266385743676062603e-01,7.625068082208128484e-01,1.933206378801852532e+00
-2.639664648547154879e+00,-2.034068695774187141e+00,-1.027804316223773551e+00,-3.275829300271304145e+00,6.198079373876184128e-01,2.532454673772378761e+00,-2.479909800062476855e+00,-2.894975724228611380e+00,3.581433968918927291e-01,2.730085361549735357e+00
5.942647991892039405e-01,-3.214172552461540100e+00,5.934997885727875122e-01,-1.213388858250756597e+00,-5.194152793400060864e-01,1.159348538536053130e+00,1.184595061626303902e+00,-8.217759823683039588e-01,-8.884710465659545475e-02,-5.495232385766481986e-01
-3.426034249278136823e+00,-2.800013869488401586e+00,2.506982666407360227e-01,-5.079250725348968487e+00,3.798879872333066898e-01,-7.884783194020896779e+00,-1.269832070700886550e+00,-4.905703953509580550e+00,-2.341070526983036970e+00,3.364513452226820966e+00
3.251451201353816600e+00,-9.324122443430225005e-01,2.212169448739749633e+00,1.618136563919117421e+00,-7.831715051587585519e-01,-9.923868087986021935e-01,2.729664548008123859e+00,2.079279680098018890e+00,-3.187448158743080295e-01,-2.418421386874828549e+00
