2.783957717199390114e+00,1.713077409404593299e+00,1.207224363937013045e+00,3.051789057064835831e+00,2.883296181646538781e+00,-3.915916480117589415e+00,-1.093664916797697284e+00,-2.282188496536909916e+00,6.984608009744002199e-01,-3.769194581844265812e+00
1.678048781210469409e-01,-1.116297732648857011e+00,2.523111473597370313e+00,-3.567563591735329886e+00,-2.360356259193697070e+00,1.832191796048996402e+00,-2.614723898861750939e+00,1.247991045643409347e+00,9.738027159928920318e-01,4.116050674859032199e+00
1.071958430747879526e-01,8.548921137104826817e-01,-8.580677009491257667e-01,3.775397501697490110e+00,-3.954499311807570527e-01,-9.089398728461747234e-01,6.941502776654681628e-02,-1.244890940526212519e+00,4.982737475098076296e-01,-1.664151784404006129e+00
4.338675384841145233e-01,3.744234175774611706e-01,2.020718787365625602e+00,1.035444371097368421e+00,-4.727985549334230431e-01,-1.495616329899096097e+00,-1.391621798532385101e+00,-2.602429976719883964e+00,1.195274686826733657e+00,1.215090875577508722e+00
-1.652123144587762438e+00,-6.496204095884767771e-01,-2.374315407052812743e-02,-6.481407965235386204e-01,1.762292347780534119e+00,-1.664019810696508728e+00,6.129057207707961918e-01,-5.778394057239628623e-01,4.069373459567042772e+00,-3.564468612858030738e+00
-2.401547850599978329e+00,-3.527575284867245919e-01,-1.730966555822921471e-01,-8.920264391998444786e-02,-9.778111790130655789e-02,-3.820580730531791813e-01,2.242883928104664637e+00,-3.043856393930859383e+00,-5.953694256012342922e-01,2.207428515397081625e+00
6.738177121159046878e-01,4.288164502291185176e-01,-6.433846496204955745e-01,1.410891594569821272e+00,1.885716164737919032e+00,-1.630221150098766003e+00,-2.147803383852121550e-01,6.626524967411817624e-01,2.217583362183270790e+00,-4.747168158048696185e+00
4.931964526920167291e-01,2.298619480345316934e-01,-1.657918948759325994e+00,1.570984635811858432e+00,1.407483085229434661e+00,-6.676612542909560188e-01,-2.195546841376707636e-01,2.356824701119350163e+00,2.560840904665038220e+00,-5.762661630646672251e+00
5.314844165764689432e-01,5.826234618952796929e-01,6.685249662314818320e-03,2.584820166273224196e+00,-8.167412606659215646e-01,-5.080754311658418620e-01,-9.603840344458113298e-01,-5.699323175435710986e-01,8.947043594002812572e-01,-8.729701016478362829e-01
1.544660368045382093e+00,1.035131711908678365e-01,-1.326037245395398356e-01,-7.967182827599151862e-01,1.486022019803871608e+00,-3.125751508245824262e-01,-9.485131610832672200e-01,2.450195791217476327e+00,8.730847114111504048e-01,-3.080860784249237927e+00
