2.435030481017816384e-01,-3.538042799279366601e+00,6.076400885880659519e-01,3.104303188945416458e+00,-3.095146989339179644e+00,-8.508492726445098242e-01,1.412646008886075499e+00,-1.253066849020580964e+00,5.213579849604520478e-01,3.795743106857734084e-01
-1.581457821208939629e+00,5.872683676915192663e+00,-4.619156759194978257e+00,-7.104768058157355792e-01,2.719137959689760020e+00,-1.912429493915466905e+00,-2.075643389488284640e+00,-4.814394172828875718e+00,7.962867357468981222e-01,6.750587061785707776e-01
8.261334505685886953e-02,-3.195675238143689256e-01,3.288140231134123681e+00,4.153405687224905884e-01,-5.485069782183169096e+00,5.407832797017341875e+00,2.993047209812125686e+00,7.988249441520034466e+00,-3.890065180018398738e+00,-3.020301720937128120e+00
-5.307951602679042979e-01,-2.485330413332434318e+00,-1.295782522250019220e+00,-5.948190840827014547e-01,5.519058882961230594e+00,-4.391806410503272140e+00,-2.577092562709727197e+00,-7.551662605620066415e+00,4.156329919557155250e+00,2.895168215695311797e+00
1.470344145417115556e+00,1.562231191123610197e+00,-2.210601194414454795e+00,-3.486165490216650564e-01,2.438105801193183986e+00,-3.372810287459364176e+00,-1.364100303715882978e+00,-1.800336906949574933e+00,1.466010292471277454e+00,1.480481010844887368e+00
-1.655464560413102415e+00,-6.560235208997602374e-01,7.794052924292873552e-01,-1.091729610953422025e+00,1.573633529395288999e+00,1.133691346820920653e+00,-9.184173822206070925e-02,-7.124608009715327483e-02,6.687763167059136427e-01,-2.115090656186194296e-01
-1.307010474189883809e+00,1.370345863678200438e+00,3.620326379158361974e+00,-8.357154093260980021e-01,-5.422268872096462466e+00,7.814142717858627130e+00,2.414274776648204668e+00,7.358898892709993866e+00,-5.380848401886725973e+00,-4.022533925571023516e+00
-9.495717305569828515e-01,-2.303605212879092368e-01,-1.299402494869625890e+00,2.693118293143584641e+00,-2.411797313783472063e+00,-7.308418126438251949e-01,1.788728356890171289e+00,4.274135961505609593e-01,8.578467630304447145e-01,-6.911353663634468847e-02
9.568420652054407949e-01,1.423002607445653656e+00,-8.714116769129423012e-01,6.805214684318106055e-02,-2.429193869944375472e-01,-7.089689873073803383e-01,-1.745819756777998721e-01,5.052629713278534718e-01,-3.798022080894083441e-01,8.391784489346605647e-02
5.435534356975822767e+00,-2.653582266268607603e-01,1.154379270278150793e-01,-1.806846080693778500e+00,2.704812593110033081e+00,-3.806063488602877687e+00,-3.149548886431313477e+00,-2.266713383069581145e+00,-4.141809599630942307e-01,2.031884511874480381e+00
