1.195521871602467145e+00,4.505957521398646914e-01,1.575957186759794348e+00,1.030655398423180769e+00,-2.861471594717392097e+00,-3.119069773814219904e+00,-1.808537444068015532e+00,2.543000053995774223e-01,5.416055380092393179e+00,5.453780023061318705e-01
2.512194995434413158e+00,-7.043927654249322323e+00,-2.559236684178755716e+00,2.908258272850264170e+00,8.459762584760639470e-01,1.275518712058583137e+00,2.464107702263848232e+00,6.948493519781153260e+00,-4.373926874200612325e+00,-1.608144530697748875e+00
4.126911195409164179e+00,-3.968120227125140786e+00,-2.323202527984088661e+00,3.378638668633699105e+00,8.227121714648183426e-01,-1.341074658976122436e+00,3.499789414738666338e+00,2.264675352861391655e+00,4.940630925101323179e+00,-9.013434711587535730e-01
1.258119434226782296e+00,-3.347088614164174913e+00,-1.661464146118225349e+00,1.788286018071747918e+00,5.349490613185123866e-01,7.353809034418034019e-01,1.681850300468170634e+00,3.283183623792969019e+00,-6.784226142976426122e-01,-1.069090165839438722e+00
-1.918941557028811307e+00,5.007026559653549924e+00,-1.592425783936359585e+00,4.279953895082977411e-01,1.550991848264835937e+00,9.892195389742467482e-01,-2.620018866478001307e+00,-2.206798453601245491e+00,3.232399576073558656e+00,-4.048193044711154154e-01
2.973851608005968039e+00,-7.700963505240236984e+00,1.196822505107721035e+00,7.160996037821478755e-01,-2.249451548628394359e+00,-1.180037652022885020e+00,4.381121467438369166e+00,4.232972424530217381e+00,-1.902241825866098690e+00,-2.566489681684419044e-01
1.824425126672750919e+00,-2.332088363830853606e+00,5.297194115624780375e-01,6.349558258263664490e-01,-7.736047299578214798e-01,-1.368420604334680268e+00,-3.398860010393828235e-02,1.785670660304062629e+00,-1.205937504833653140e+00,3.974874518198530660e-01
-1.807208815807157309e+00,7.191466814399134488e-01,4.160455581007193038e-01,-8.881695963411743167e-01,-5.751911696924293382e-01,1.090209887687928481e+00,7.318317758287785635e-01,-7.781608113488446277e-01,8.029565117812254016e-01,-4.372422884658196396e-01
1.468726008104651815e+00,-1.764409355109877842e+00,-1.373956091193980988e+00,1.871603809818970454e+00,4.944321606242294553e-01,-2.131638962152850314e-01,-4.250827088193428471e-01,2.705058692397905862e+00,-4.427557687756216165e-01,-4.836707387416588344e-01
6.477174979119666443e-01,-1.298143211610453651e+00,-1.356771187958272229e-02,5.420464759536129939e-01,-6.939732670205631671e-01,-3.780564602369060889e-01,2.041225834171444653e+00,1.381764419584677883e-01,3.070983515005305087e+00,-4.217884141569875900e-01
