2.773219942478201361e+00,2.775269164467105032e+00,1.142832761251771356e-01,3.127236751771792278e+00,2.490781932262590148e-01,3.193123698581081249e-01,-2.371286713583511840e+00,4.194020947531769128e-01,-2.392022750686799260e+00,-6.165670936367345645e-01
1.993608770847966838e+00,1.236422510135989361e-01,-1.582977831594285512e+00,2.113537103280880569e-01,1.755645969831044706e+00,-8.544471157574354825e-01,-2.283424534520162585e-01,1.791166039993818515e+00,1.893301960678506202e+00,5.949751025620231282e-03
9.877597423371170526e-01,2.361681778150603872e-01,-1.634126292484452403e+00,1.178420804623547369e+00,-1.421775784942959087e+00,-5.969859565466897333e-01,-3.716470673980935668e+00,-1.363237685064675020e+00,1.984525976216472420e+00,-2.276612291401743704e+00
-3.908170940810347993e+00,-1.977861627882813833e+00,-1.496987859145395117e+00,-3.376869471553377022e-01,-1.741388111194331234e+00,-1.372085473201851036e+00,-1.569044870673955039e+00,-2.402395853503411782e+00,2.568022537657034476e+00,-1.470639217478715954e+00
-1.308744399260115543e+00,-1.899342044832013743e+00,-6.485030876761000984e-01,-1.952141278392214074e+00,-6.590267252406207810e-01,-3.503771008807830545e-01,4.091715751058582207e-01,-6.787204974409031255e-01,2.525115419902498104e+00,-3.659713987338324981e-01
4.546198289140347626e+00,1.042269266594096466e+00,-2.359670627562908685e-01,6.417364682417284749e-01,1.081506379982577259e+00,8.688349802344832451e-01,2.782443535396963430e-01,2.333850635121033967e+00,6.317298168738072484e-02,4.683898020119681149e-01
8.880068432970591452e-01,-1.835716707272984083e+00,-2.193808029594187747e+00,3.047844159504085937e+00,-5.013172042947676488e+00,1.023175151139312788e+00,-3.103337216910739826e+00,-1.826557613719245410e+00,2.655061694611537071e+00,-2.271128146819062721e+00
-2.067288366667937582e-01,1.541170214103158909e+00,3.904774772561599994e-01,2.430840388553112685e+00,-6.662009241756560174e-01,1.081677068526357421e-01,-1.637622553953657079e+00,-8.008554883619124487e-01,-2.294303522900716263e+00,-4.916576510822168733e-01
4.066015605019853041e+00,5.681655234938772558e+00,3.888253215108754990e+00,3.608300830894034750e+00,-1.210999255960931054e+00,2.630103542555564111e+00,-3.157898834232590435e+00,-1.245632866409698059e+00,-7.917119502152039523e+00,-6.528416040568411072e-01
3.326314561828612071e+00,4.833906233013373743e+00,3.833419511680997704e+00,2.180610510034576954e+00,-5.008188770670196632e+00,3.008926394809728677e+00,-6.993373251510936583e+00,-5.229027148885677434e+00,-5.831811538303727893e+00,-3.687437493070529371e+00
