-7.609806809057694243e-01,5.274426781398568131e+00,-9.600495398762933785e-01,1.693963602464706897e+00,-1.784830650883410197e+00,-1.991052947849558219e+00,7.450220707965758971e-01,4.889619271605382678e-01,-6.418942792539270581e-01,-1.298423370792946230e+00
1.857208948601814402e+00,-1.289766786526718167e+00,2.020166385999789149e+00,1.459227570256944606e-01,-8.799416644307015423e-01,-3.698109720273808243e+00,7.200505535007201141e-03,-1.787302145424768618e+00,9.298399108603798702e-01,-5.104066104140476678e-01
5.064300325884814047e-01,-4.619704202049788933e+00,4.701436307838435802e+00,7.840889614769328553e-01,1.544957064893512477e+00,2.121318703419711404e+00,-5.085797399647274730e+00,-1.690316226828026291e+00,1.422453782146860135e+00,-5.547331796287811034e-01
1.565787598910398648e-01,-3.315750099664653838e-01,-1.564524975445221289e+00,-1.039207019190343306e+00,1.417491644382109506e-01,-1.554499171588460404e-01,1.856214977184444281e+00,4.244196201632180476e-01,-1.329805886959175565e-01,8.258547618645394328e-01
-2.464930230830905344e+00,2.105003130719322879e+00,-8.473345782402916804e-01,7.026647346152792295e-02,3.072214983162173230e+00,3.062584761741926620e+00,-9.369976899028835682e-01,-5.219090476810941404e-01,3.253971046192098981e+00,1.182688045498346385e+00
-8.410499892352860662e-01,4.371805293219587440e+00,-3.942915303062477506e-01,1.404650387492890395e+00,-8.820492164238357136e-01,-1.484886822548508789e+00,1.916380844203747214e-01,-8.256828219486299358e-02,2.523487678371695297e-01,-9.389661234182284932e-01
-6.742024192238155189e-01,5.552166232618549468e-01,2.741262009729454441e+00,-1.208952834558124856e+00,-1.421390803040289974e+00,1.050335239387143238e+00,-1.717907033160958719e+00,7.519807304067731568e-01,-7.987293315367442581e+00,-2.271880108521292740e+00
-2.056599241505129072e+00,1.992760059116318150e+00,3.201583802960343839e-01,3.577638720457931854e+00,6.996586745082182812e-01,4.329722572426877747e+00,-4.221533477764937814e+00,1.127516466128244632e+00,2.596512246423993808e+00,-7.793050853694168945e-01
1.530861067030447664e+00,-4.198840537097879633e+00,-1.832551280261772941e+00,-2.710588625157573373e-01,-7.851794383656730547e-01,1.178262187615729317e+00,1.114489700471279932e+00,1.777157660937506822e+00,4.329543769473523374e-02,9.882823307755860265e-01
7.048197185817830501e-01,-6.009234436262419488e-01,-2.958295314893240491e+00,3.791308415105087981e+00,-1.632011258465518422e+00,1.587481941546423192e+00,-4.938668394057607602e-01,2.580968854637583298e+00,4.085027912168347264e+00,2.742623943024846134e-01
