1.929923112790487005e+00,-3.928217144853303644e+00,1.682419610463164128e+00,1.817133160879636611e+00,-4.393546501186765596e+00,-3.867267915540124612e+00,1.926641485568385326e+00,-1.725477707896380775e+00,1.812348782863940411e+00,-1.990723217762705222e+00
1.820559619951410468e+00,-1.477057416306358117e+00,8.329534088336411346e-02,9.232198414195480485e-01,-2.340853034064455773e+00,-2.016595479742177233e+00,1.156459572907487798e+00,-7.310094841698742962e-02,2.099268603408237510e+00,-3.126971474766995218e+00
7.473488265544429021e-01,1.615961131631965808e-01,-5.561929147750871438e-01,2.124169714430758749e+00,-1.198833959422387130e+00,-8.200488296871882854e-02,2.232319762384072703e+00,8.354850212849652680e-01,2.905750888027225365e-01,-3.171087531407169369e+00
-1.202130569863120169e+00,1.474822581953287415e+00,-1.577307972144157633e+00,2.769965883918311111e-01,3.290332295022052378e+00,1.498936222587485156e+00,-7.670228458631846991e-01,1.458022272295953936e+00,-2.870885764843654209e-01,1.279077214343296909e+00
4.150016163025913585e+00,-3.367808483617461324e+00,-1.006362584583775366e-01,7.792600886904872404e-01,1.783675507008504191e+00,-5.704211857148699494e+00,6.757952615442189837e-01,3.254722649074446861e-01,7.354031598656990631e+00,-9.588318867751253194e+00
7.492373758112961246e-01,-2.575963546110779490e+00,-9.193401004762192796e-01,2.173849800478756311e+00,-2.895635781671173969e+00,-2.243982909867064723e+00,5.929539892813141533e-01,2.598536296302365045e-01,1.890223265238827111e+00,1.497981683132383335e+00
3.824118857963708096e-01,-2.128625865819424146e+00,-4.352263041397885224e-01,2.109084628038956577e+00,-8.174666269530407314e-01,-1.930204427735875861e+00,8.028086504529567957e-01,1.234840652389972426e-01,1.405836633791791801e+00,3.229600931178460144e-01
3.180011061594675503e+00,-5.592725870920935982e+00,-2.486023188903770720e+00,2.744101035107096909e+00,-4.495805341875104055e+00,-6.141500602325323577e+00,-3.525111790164804915e-01,9.989557595071139051e-01,7.268727253919123221e+00,2.826022755350499072e-01
4.279072975344511143e+00,-2.232585313771370039e+00,-5.016088659796795746e+00,2.911929777938184749e+00,-4.093522822996764177e+00,-3.964961052052874191e+00,4.856951583975784859e-01,3.802336423318259495e+00,8.312624136891681559e+00,-4.503533439657918080e+00
-2.112851030754593906e-01,6.179349408141100453e-01,-3.388271782144125499e-01,-7.079579839365821581e-01,2.183402994917329032e+00,3.164582433521110905e-01,-8.200061986063784669e-01,3.775151950196534156e-01,4.060744328075379106e-01,-3.082434145335433695e-01
