1.137716402892109624e+00,2.021519696081513828e+00,8.365428924043929459e-01,2.670395342989440479e+00,-5.313043025665898922e-01,-1.072255176067355098e+00,-3.587283985326683577e-02,2.569039766029550531e-01,-6.224011481420946845e-01,3.208369817122290080e+00
8.676687011549791273e-02,7.972128341653762496e-01,-8.129039357930959442e-01,-1.065143287241314546e-01,8.199618398396301133e-01,-5.296589583724349293e-01,8.883169997594348999e-01,2.439310422071855333e-01,-1.933959772673483346e-01,1.015661318008649561e+00
1.037604165724785310e-01,6.919808059990344429e-01,-5.954620982249499983e-01,-1.916992053852865308e+00,2.238103240669810479e+00,-7.890013888803631970e-01,-7.189387947930564460e-01,2.148155840910217051e+00,1.421309480473038622e+00,2.477028776373262908e-01
8.702422619622934841e-01,1.248534437996239532e+00,-4.266628348336528376e+00,-3.619565012045875552e-01,2.484931128406205225e+00,-3.300161409537594626e+00,6.445147119437842242e+00,8.596533236862482497e-01,-2.000030502928675791e+00,5.554515894289503208e+00
2.325269702785183412e+00,2.693099136116876013e-01,2.030638103891211799e+00,8.237233209669795331e-01,1.024366872635112280e+00,-3.929544097293490967e+00,-1.404688173222789382e+00,4.842677032708833984e+00,1.056614745747246564e+00,6.274490711960795331e+00
4.077851086377219936e+00,2.678272033445872502e+00,-1.600449837635775641e+00,3.955856177803183105e-01,7.914304224016424083e-01,-2.345209935410841773e+00,6.220475139975545353e-01,3.947693577000832121e+00,2.602834996283560187e+00,6.126228407982893254e-01
-4.783779785280206642e-01,-9.406488045253962316e-01,-2.692753367080110039e+00,6.533847151720619806e-01,-1.285219948776270549e+00,5.246906663151201800e-01,4.823481253856787276e+00,-3.214110701288019456e+00,-2.569886322484204122e+00,-4.319059253681425403e-01
3.699902901439885206e+00,1.900176141883249237e+00,2.270883036052727455e+00,1.076829201850955764e+00,2.286312280635729444e-01,-2.406376200148094835e+00,-3.762410419670785711e+00,5.253294984823151381e+00,3.399979111490018635e+00,1.854533109005242153e+00
2.121928935717555476e+00,1.822845724226633601e+00,-3.254356527480597450e+00,-7.359801765866945678e-01,2.571876108716370180e+00,-3.326837701667471503e+00,3.860492367867381258e+00,2.912572775919683998e+00,2.287620463174735996e-01,3.993420320219334130e+00
5.514559800691934965e-01,9.992799607978105625e-01,-1.424299443756271488e+00,2.556941337926068591e-01,5.001715832058480915e-01,-6.464605874423392518e-01,1.809907253292168283e+00,1.652746970554466732e-02,-3.833280381737538267e-01,9.425359279384607492e-01
