-2.622452121265472780e-02,-6.424133511309119804e+00,2.229974681696429428e-01,-9.880458804031770903e-01,1.484690248083804009e+00,7.757376700959965898e-01,9.418201423015768459e-01,-1.451108480970546122e+00,-6.979096012469974131e-01,-2.419934878847783910e+00
9.775825312482731011e-01,-1.844962437920257603e+00,6.950797731498570275e-01,-1.577588896728636225e+00,-2.034738417618794232e-02,-1.152057700033558563e+00,4.738779854776767886e-01,-1.559472459164947589e+00,-1.034843668513249160e+00,-6.245267509001270478e-02
-1.086856743674416759e+00,-1.185191741756175920e+00,1.755885704044604978e+00,5.307156430057202723e-01,3.412219320710011550e-01,-8.477125808527578021e-01,3.459136432774477132e+00,1.411352208391792873e-01,1.956592965492049530e+00,-3.641530025846135832e+00
1.822093276510832638e+00,2.153121684895208610e+00,-1.371465011279936252e+00,-1.918601278830119661e+00,-2.216837272889632615e+00,-1.105089361257000968e+00,-4.373129086469456972e+00,1.912842192144967202e+00,-4.511412142119544555e+00,5.783177642892924020e+00
4.211071501287100838e-01,-2.165348486208510947e-01,1.963343519181951269e+00,1.102287248361689898e+00,1.528455495708832268e-01,-3.781745826323662518e-01,-7.837869168947173559e-01,-1.961052485681168411e+00,4.323646315256166606e-01,1.377347146878975526e+00
-3.661790301678029547e-01,-5.246142312486820281e+00,-4.962399843077573536e+00,-3.560335978511796284e+00,1.152552786267709406e+00,2.158967767622912426e+00,9.400305048393332585e-01,2.346808199521772664e+00,-2.354646484234603321e+00,-3.649836873433638385e+00
-6.660828541415123594e-01,-8.310815426125592875e-01,1.459857335317909788e-01,1.914340969392907876e+00,8.885911843509096686e-01,1.680057629719978074e+00,-1.073601984457416503e+00,-3.896968716972583069e-01,9.579453973916657317e-01,2.578873173468249624e-01
2.445526899650764252e-01,3.608795683548726707e+00,1.086418681306897671e+00,6.167548491221632734e-01,-6.698652458646872088e-01,-1.182714029648792131e+00,4.397362637748191139e-01,-6.519515092636863907e-01,1.183118262334832416e+00,8.331804807925675682e-01
1.004360363580231619e+00,2.506410038336191359e+00,-1.632428171884034551e+00,-2.333919279514847123e+00,-1.211949280295266052e+00,-1.246646277934872815e+00,-1.984571054668921031e-01,9.820142497524189107e-01,-1.642020075279893909e+00,1.102906026398729589e+00
-1.644496410786602247e-01,-1.308919669783636941e-01,6.284382589148643783e-01,1.393260049359782871e+00,-7.189825528695562018e-02,6.116706646523890623e-01,-1.769674187377985541e+00,2.654602846470908162e-01,-2.664702839173239135e-01,1.741165575309743030e+00
