5.047332027469837445e-01,-9.577143808243948619e-01,-1.103875516064004803e+00,-7.342082420632284334e-01,-5.696571099718558129e-01,1.609663264093988078e+00,2.088080443463748992e+00,-4.548575933346906686e-01,-1.151261304142180641e+00,9.325152457746430090e-02
8.380591590550195980e-01,-1.109731867710677555e+00,6.394856748201023233e-01,5.487616832929813615e-01,2.573147203554866369e-01,5.186092113962842198e+00,6.548404247450236859e-01,2.887653114326174109e+00,-2.140035193626272925e+00,4.648747080650312391e+00
1.159636765762863675e-01,-2.030358478329099547e-01,4.071835917616145828e+00,2.335722325943761835e+00,1.511434357013455632e+00,2.442007603516644032e+00,-4.929183125403401533e+00,2.778422615285628172e+00,-1.611108820133378750e+00,3.404619183800558169e+00
-1.673478258457572698e+00,3.554153376743789838e+00,-2.268148247507555837e+00,-1.573593304243374069e+00,-1.049316855639814694e+00,-3.017789418130524481e+00,4.335370094659086959e+00,-5.190547069684248171e-01,2.419266816809962695e+00,-6.214830043608163823e-01
-2.209714610336045215e+00,8.186317455916218844e-01,4.541318139247643160e+00,-1.466740996966499067e+00,-2.563465212555143813e-01,-4.407837267133734471e+00,3.433699766801170394e-01,-1.526797777171637893e+00,6.721178147487744114e-01,-1.497825002737573463e+00
-1.996853521629244677e+00,1.794866095605074929e-01,8.013566659770512857e+00,-3.479429629325542228e-02,8.737569409095240491e-01,-2.063149792393766946e-01,-1.722114745069986741e+00,2.728918055835199752e+00,-6.086716274722290265e-01,4.434260491114342173e+00
-6.486964267331617462e-01,-2.139949025217256828e+00,4.011426700720557292e+00,-1.526757156779340541e+00,-2.870518813791413382e-01,-5.138123172672646177e-01,1.003841841307178129e+00,-7.455864335114905650e-01,-1.093540263433841364e+00,1.652353917410618322e-01
-9.133896313331283379e-01,4.644708117639828604e-01,4.055155668344823994e+00,6.027253090478790210e-01,8.719227588556519581e-01,5.738520349074525129e-01,-1.582096051235114320e+00,2.967102312470180525e+00,4.570084337085845161e-01,3.958742844257862714e+00
1.340949738589069407e+00,-6.017982690641106303e-02,-1.843486101795925425e+00,1.861149421046257579e+00,8.827657193960637416e-01,3.706177474667656124e+00,-1.655602013233109737e+00,3.310141448764913452e+00,3.580390704855989092e-01,3.616843701470073835e+00
5.755536601679820397e-01,-1.052942171066000299e-01,-4.055313159422007985e+00,-1.006903904556702312e+00,-9.052465939626452851e-01,-1.023339887330244835e+00,2.549065034399418117e+00,-2.106039776858589896e+00,8.210442163739408716e-01,-2.907162605005211731e+00
