2.592243336871592252e+00,1.319386461898959695e+00,1.320394012402780426e+00,-1.834874165841268390e+00,-3.860794093729645882e-01,-3.124903019691144257e-01,-2.283545312480965261e+00,1.314029839774672581e+00,-2.359627442451922796e+00,-1.117002058019603616e+00
4.212048202520749740e+00,2.127884405049642602e+00,3.289640207686999052e+00,-3.018636068389757288e+00,1.120558578930164639e+00,5.078329866055392161e-02,-3.163442206283757052e+00,5.626317084773703181e-01,-3.169889670312441510e+00,-3.447271125192356012e-01
-1.460458522483861321e+00,-9.357217648642175423e-01,-1.803859377827557786e+00,1.772244528195209501e+00,-3.709448385597786668e-01,5.151469278099738425e-01,1.438512314325800734e+00,-4.644167955067446396e-01,1.738058530899962539e+00,2.321576217377663287e-02
-1.153625947923410555e+00,-2.415223003917879030e+00,-3.334128560588258683e+00,2.406202252315470691e+00,-2.047414263522414402e+00,-1.116115315716885270e+00,1.447699546306229434e+00,7.469251765162066015e-01,-1.255539264300845614e-01,-6.125360369830564755e-01
4.211285176766462968e+00,-6.615328257303960680e-01,-2.748341491286725891e+00,2.602631741116873121e-01,3.097649918236695665e-01,-4.119265390168072027e-01,-1.689491072742124844e+00,2.825867537086246273e-03,-2.814438305996291412e+00,-2.014316927902810583e+00
1.401865914009891467e+00,8.854739351650263712e-01,-1.093920474754604077e+00,-1.721394879539018374e+00,3.038145131643176899e+00,-1.754605622538744081e-01,-1.099268727290939385e+00,-1.946558091501645826e+00,-4.865239625767613374e-01,-8.861951871247761847e-01
-3.345739051471164238e+00,1.418198215309701471e+00,4.211038505523349684e+00,-9.810908364934801673e-01,-1.358768710955922110e-01,7.685377841604328353e-01,9.855039074153003620e-01,2.195101508684862424e-01,2.377183357467172797e+00,2.225734723013311100e+00
-1.591514251684255310e+00,-4.589309282606585660e-01,-1.627104237467520642e+00,3.832336693336205191e-01,-4.316086226690927230e-01,-5.489828710939987921e-01,6.682122748728007711e-01,7.900346435894102515e-02,7.222426248369504531e-01,-5.862939275287928353e-01
-3.719157932860417959e-01,-8.159976591199410434e-01,1.330596134655070317e+00,1.282925475437175944e+00,8.138341806153164271e-01,8.991425899346227046e-01,1.386336689911153108e+00,-1.275971801535628281e+00,1.087628717244256471e+00,2.206464547797267528e+00
-2.024151026013395249e+00,-9.046743280717797209e-01,-1.258647757667670231e+00,9.860656826132205843e-01,2.320094163193685333e+00,3.861083743389763789e-01,1.977768709427266014e+00,-2.684802167864777545e+00,2.342228404475418024e+00,1.298402495004350676e+00
