7.334759864928999118e-01,5.790567812671291170e-01,-6.027816193472306239e-01,1.496861037203000011e+00,6.910489257262046880e-01,3.846713284487146556e-01,-3.441910732227173586e-01,-1.027258744332151474e+00,2.737011374440242450e-01,-1.034710273882819331e+00
-1.356883372885341554e+00,8.208554872292794791e-01,-1.902803547489239300e+00,1.683637004321099973e+00,-1.211138267981807903e+00,3.306137446877284169e-01,-9.711479169307529746e-02,1.390644455573958993e+00,4.982954155130792095e-01,-5.102078624625054903e-01
1.427715522395993641e+00,-3.403146314564006847e+00,3.508270179060940297e+00,5.268394248801901991e-01,6.758135170850492202e+00,-2.895032777779386279e+00,-2.763760473266774209e+00,8.110451528808877431e-01,4.083216381251656202e+00,2.532034445027567138e+00
-1.428122845430610521e+00,-9.203284952695751642e-01,1.088404052370043562e+00,1.861138663611624944e+00,3.222066180236851096e+00,-3.800937517725598624e+00,-2.999211013069184695e+00,-1.796210077536606331e-01,1.478578127006953125e+00,-2.172092843150072117e+00
-1.159117748339811405e+00,-4.364856216598335115e-01,1.793220267787113631e+00,7.823711081822356528e-01,1.749343968908408264e+00,-3.758586392903042750e+00,-2.056440594872013250e+00,9.309083882925413000e-01,1.526833551757672547e+00,-9.526503407019886183e-01
1.681341006528367599e+00,3.869374649689224732e+00,-2.679595311108415312e-01,-2.061250273017406709e+00,-7.126932293295683785e+00,2.797597842300054261e+00,4.341026147670520530e+00,1.661010131643399834e+00,-1.555812093844373578e+00,1.890011813843272659e+00
-2.854863526814534591e+00,-1.660633020669316506e-01,-9.017099440679514633e-01,-9.273717614772373219e-01,-2.458750123477436489e+00,-5.208080832609326416e-01,3.851955074422127590e-01,2.991216580403906367e+00,-2.024732792982356921e-01,9.200998742956435494e-01
-5.900949553550042248e-01,-3.144844590038739618e+00,2.771096979230553536e+00,-1.309777839534688404e+00,3.419948198656949323e+00,-2.502114911616343917e+00,-1.470736436327518382e+00,2.957020671593874717e+00,2.919524803950335645e+00,3.551075753539961077e+00
-2.767512965742882081e+00,-2.913636973511152028e+00,-1.613142667592305735e+00,-4.474423837952449245e-01,1.084923909580383761e+00,7.413818753271246287e-01,-5.506880782062139046e-01,3.179836396617664818e+00,1.156329498988035720e+00,2.780015945978524972e+00
5.508240907015778121e-02,-2.874068929997426469e-01,4.906648248371919818e-01,1.896160567639394445e-01,8.998994029543698758e-01,-7.143444175030738696e-01,-5.663846330519719530e-01,-3.107850413373690057e-01,2.698020342275890826e-01,-3.288216348943797662e-01
