-1.596509346628849801e+00,-6.467378403067252535e+00,5.370015266218408634e+00,-1.105177934722710198e+00,-1.178837937906077382e+00,4.565634275285927579e+00,-3.926357797856105059e+00,-1.542319339550348278e+00,5.863749954133079534e+00,-1.033499949609137269e+00
-2.928462601687707334e+00,2.101926033283351813e+00,-2.596833719077993319e+00,-5.616456645735418363e+00,1.984469846044058183e+00,-6.503155010923123980e-01,1.186575177863719688e+00,1.923757019933456158e+00,-1.368330715707373191e+00,2.590324198335616668e+00
-1.313068713393199749e+00,4.274900783546381255e+00,-5.613374037890087820e+00,-3.008487363632414535e+00,1.677570522244175022e+00,3.370805353047564346e+00,-1.335417002657481866e+00,2.285995671387830441e+00,-2.150840731628893110e+00,2.690145106001073039e+00
-2.428713408914431326e+00,-9.559678083322613595e-01,-1.065447930884116268e+00,-2.010647355457391594e+00,-1.274738046629168564e-01,-3.168498233193637326e+00,3.052398473136098911e+00,-1.098310633632745503e+00,5.085227219235294527e+00,-8.535310220302954054e-01
-1.413264220743581268e+00,1.036873352338957943e+00,-2.943483695682475254e+00,-1.960814256490006846e+00,5.669704993253621428e-01,4.095804572309202030e+00,-2.167602021756457553e+00,8.202051031474851817e-01,1.428969150923706577e+00,1.209646721977441830e+00
8.569098911942238939e-01,-3.320366291178607376e+00,-1.013586556008770900e-01,-3.697757827178829615e+00,3.049045415716299945e-01,3.330608426092498853e+00,3.442041900615704808e+00,1.847097777707228605e+00,9.180525217179453801e-01,-1.572908554339216503e+00
-1.142283911817307596e+00,-9.722879227744738451e-01,2.982615462756542879e+00,4.002715422483872132e+00,-1.546635675305432445e+00,-4.075936420446197417e+00,-2.013040122800772380e+00,-3.513076092162355391e+00,4.049631931864436929e+00,-8.099951418216584376e-01
8.348642056578520210e-01,-2.954475224203948702e+00,2.856841237296036784e+00,2.739729073194177911e+00,-1.373562399602457740e+00,4.993814800013036681e+00,-4.893801649968916756e+00,-1.286310486435132017e+00,2.494628964473526889e+00,-8.716208694744541630e-01
1.236899147713817815e+00,5.560855669113544675e-01,9.411388976815825425e-01,1.712112675199341183e+00,-2.630526383625548248e-01,-5.584688255021811543e+00,3.737663588059210618e+00,-5.914120428219330483e-01,-1.661769009013623233e+00,-1.086304733520263799e+00
2.640461246370122694e-01,-1.742237074004889807e+00,3.452159527453727783e+00,1.558845548008989113e-01,-6.446203223128754711e-02,3.421377346649222773e+00,-4.210210547510206958e+00,1.974442702096436131e-01,-1.664697095613705047e+00,9.292019169964453873e-01
