3.071211481848671543e+00,-5.759921174973348101e-01,-2.421783851313758618e+00,8.107972295483077962e-01,-1.624889168234771697e+00,3.582749057028896900e+00,-3.640069306834075924e+00,2.725720175810097068e+00,1.149093494800315973e+00,7.468802142530618360e-01
-1.317577802231259199e+00,2.224629271635199856e+00,-1.189797457327098185e+00,-2.509415553203669935e-01,-2.131292467375542898e+00,-4.352166907128313333e+00,1.446777793115165078e+00,-3.438657465104438149e+00,-1.869704338879314698e-01,-9.747637155764155015e-01
5.182415552707571038e+00,3.029689888444506707e+00,1.634141238767157001e+00,1.166367986281367619e+00,-8.373018433672348992e-01,-3.232359771729043096e+00,1.422571250694472322e+00,-1.932817270871067583e+00,-9.628858798963058074e-02,-1.282999297298761610e+00
3.939797959022615981e+00,1.898237211357440390e+00,1.368165507583708695e+00,3.698646214649978781e-01,-1.287914480859539079e+00,-1.401256045005052409e+00,3.367139751527357117e-01,-1.354637553346739631e+00,-5.093201921207903826e-01,-1.386276415242248206e+00
6.209368353700024379e+00,1.239808748431788121e+00,4.162219987672455268e-02,3.545031835657296071e+00,-1.611930722337376665e+00,-1.174744997638792476e-01,6.427829848434996052e-01,5.490151671639235120e-01,-2.955436319135811285e-01,1.054165612780153305e+00
-2.948752930023892826e+00,6.193547702406952959e-01,-2.836113735887941356e+00,5.940174455104649809e-01,-1.728290162845513622e+00,-2.507848080443352057e+00,8.731707773965085018e-01,-1.659165612232316844e+00,2.429470501092750312e-01,7.994916311460150693e-01
6.058727439532984427e+00,3.562200712958921933e+00,-5.300099284792630927e-02,1.056990163323463516e+00,-2.699867526811538632e+00,-2.879316134902240698e+00,-2.266234261133748262e-01,-1.963512960308970712e+00,3.580257131309145802e-01,-1.592406079866324431e+00
9.447176392861222904e-01,2.124983654045038417e-01,-2.803442301107205825e+00,1.171208775093241394e+00,-1.123610558150144767e+00,5.386300555574842219e-01,-1.505154116440253542e+00,1.124308791054063894e+00,1.290243374982482871e+00,1.137720949991733566e+00
-6.485491559310787579e+00,-2.122754784285515672e+00,7.445629262424949824e-01,-2.642599196013368790e-01,1.172691823908293074e+00,-7.189441882422065166e-01,3.145384046923774601e+00,-1.168588850463626816e+00,-1.835817935241493171e+00,1.124858646701717202e+00
-5.782183566396793317e+00,-1.983611248586931719e+00,-2.799414486184991002e+00,-1.378468571690880662e+00,-2.182357235143201013e+00,1.561343411537536863e+00,-1.278421781394134538e+00,-3.612809340650364742e-01,-7.722664619815766684e-01,4.300272821067786522e-01
