-1.650439457804707466e+00,2.309172840778755398e-01,-8.437612388225932403e-01,3.464846071612339706e+00,-2.712569753285347662e-01,-2.526191621316397296e+00,-2.052969718991471293e+00,-7.828882613346284103e-01,1.521104745785585965e+00,2.462843795341123965e+00
1.403814161004069749e+00,-4.189355204545504030e-01,3.427303871950808101e-01,-3.057308665347203469e+00,3.812397650299789165e-01,3.123348885416340259e+00,1.934350141306684812e+00,7.069028919857627269e-01,-1.693901066648449305e+00,-2.215269504283090107e+00
-1.774088241233834351e+00,4.968312124892881182e-02,1.483428290218081758e-01,-2.293150918024932372e-01,-1.198929992571666547e+00,-3.261087314921162772e-02,-1.725208661286537382e+00,-3.567740175009683767e-01,-2.441425826475311367e-01,2.073908962269850331e+00
6.989988527604773516e-01,4.278634407081217672e-01,5.000817900764906732e-01,-1.767311212098171991e+00,5.827159528777948738e-01,-4.125060099562508631e-01,1.888223513129507314e+00,1.397214175161580973e+00,-1.640266262190998581e-01,-2.009160886959322934e+00
3.803792921323482012e+00,1.281208741754272795e+00,7.060285462053196959e+00,-9.471113269015246416e+00,-2.377204447653242347e+00,-2.135101858375358042e+00,1.824661940983459463e+00,4.353181402379339149e-01,-4.994227922341698545e-01,-3.395675725955801916e+00
-1.300602391794547952e+00,2.691261442141558158e-01,-8.717347676443369942e-01,-7.357034237033246438e-01,-1.900198646645401279e-02,2.107390579488583882e+00,-1.490567289423816444e-03,1.293860949897417623e+00,-2.099168692210974463e+00,-8.296970453157244130e-01
2.892358425927082921e-01,4.727864326586453947e-01,8.398514857816804513e-01,-8.896887235212707079e-01,5.535618205332035191e-02,-1.826810788811995545e+00,7.862494005861531132e-01,6.246106127633486160e-01,7.808591084760698742e-01,-5.813909663448512122e-01
-5.547436030193680923e-02,-2.888222198634444737e-01,-1.614084697030665261e+00,-1.484139368122512348e-01,1.410372695595043524e+00,1.586807388336141766e+00,2.073997511289361384e+00,1.419426617162864446e+00,-5.140119649099643695e-01,-1.436730237920692321e+00
1.314999294379712858e+00,4.300172333501212085e-01,3.053631550161688857e+00,5.719276167700426683e-02,-8.877236922984015344e-01,-7.019561115885501579e+00,-3.752695866496397192e-01,-1.660325315868825147e+00,4.840534519957056858e+00,2.244492434315402463e+00
-1.887769643915799822e+00,3.645595576169212704e-01,2.697748243907533983e-01,-2.888563019525351994e-01,-1.496712590541935395e+00,8.103667809435664005e-01,-2.354687053193175394e+00,-2.028163421882560602e-01,-1.514808521029810118e+00,1.385886220201294705e+00
