3.719395292711500378e-01,-2.065181146683732205e+00,-8.818846307951888619e-01,-3.105296732782383273e-01,3.421542439994410323e+00,4.245374923557495350e+00,7.207129005012891554e+00,7.264447355009024943e-01,2.908077776983775120e+00,-1.757379695002647679e-01
-3.006019867962423375e-01,-9.400518719475415841e-01,3.779123026847840405e-01,-1.713870562671208075e-01,1.235647083086095055e+00,9.784767723475524814e-01,1.990903995891454059e+00,4.904141109343622684e-01,1.673850238798818904e-02,-1.923916740642138690e+00
1.413080873641591850e+00,-1.014717232356801224e+00,-1.488372447399149534e+00,-7.467750274819111578e-01,5.147498987873415643e-01,-4.488142803149188231e-01,-2.561784520195438564e+00,7.011432373739334700e-01,6.196890243212307414e-01,3.617735025157210238e+00
-1.648404473755889166e+00,-2.539489456441482496e+00,2.572934479929288809e+00,3.002952538868954857e-01,3.616703434205569001e-02,-2.958565657815711347e+00,-2.451523161127182160e+00,2.417200555945456131e+00,-5.773433267215200893e+00,-9.205405288257166418e+00
4.724197212689605907e-01,2.098877448958181291e-01,7.761330715370223787e-02,-1.731571655266953336e+00,1.619049557321847299e+00,8.146665573949678496e-01,-1.349992129830999588e+00,-2.808717930519744055e-02,1.266804451440344703e+00,1.300456773685511713e+00
-9.626559297971190587e-02,-1.180850870988628731e+00,1.974947799321236097e-02,3.556785839056630927e-02,3.840841035056560271e-01,-9.721934761395516489e-01,-1.418182414093191346e+00,-1.394302701214934936e+00,-1.977635598645605397e-01,6.643879078374149705e-01
6.204030580373225412e-01,1.867188486534854697e+00,-6.728048717617183261e-01,-6.266887157140893505e-02,-8.943768253222507125e-01,1.108823264607768921e+00,1.054920103715664137e+00,1.636948244386409179e+00,8.079746684467086215e-01,1.162168208355600196e+00
1.642353669448372022e+00,3.927134315712759172e+00,4.837868111046577102e-01,-4.176472062941085639e+00,3.425833504032070875e-01,6.230071865558778343e-01,-6.110956903215795322e+00,5.994206569085381631e+00,-4.908359262606766249e-01,-2.001469014744832187e-01
-1.210753217628558476e+00,-4.341522860340972123e+00,-1.273205373617949610e+00,5.586062380715714148e+00,-2.620718531869698609e+00,-2.480512566019716481e+00,4.840741009142932150e+00,-3.633900695392217717e+00,-2.001974742227955240e+00,-5.614658156166334457e-01
1.588941888553464077e+00,2.220328446040598092e+00,-1.144342261557461882e+00,-3.066138917954324583e+00,3.081024358769539173e+00,4.617614343930249277e+00,2.032407158113394896e+00,1.178830795938572429e-01,5.613738058276807052e+00,5.524672940058546367e+00
