1.878098643381075350e+00,-3.074229462302162652e+00,5.632495116605102936e-01,2.251590384743407114e+00,-9.339683184759011159e-01,-3.955339455009236893e-01,-1.509070716793429412e+00,-4.951617676335725027e-01,1.197499747836737072e+00,3.874119859145058742e-01
2.388473698896820707e+00,-4.556278366848832029e+00,2.351538326492859099e+00,2.830563807921930408e+00,1.334580323312503536e+00,-3.219355436028824791e+00,-1.475648344124111944e+00,2.599822245091817363e-01,1.246003836447276303e+00,-1.885642823196250095e+00
3.229461486385540869e+00,-3.085066020514547702e+00,7.387264109022696479e-01,1.220724848115912309e+00,3.848366462663064258e-01,-1.118605679014012200e+00,-4.809065073891244380e-01,-2.385119465286371199e+00,1.953808330655139924e+00,1.236076948367978545e+00
-4.448924053172536031e-01,2.128072961772295990e+00,-2.264097535727047195e+00,-2.233141048631073655e+00,-7.948223856783862562e-01,-4.056598396785553895e+00,-1.327863189315468428e+00,4.793156002772440694e+00,-5.530267211498901547e-01,8.333695560963713111e-01
1.710872393247611534e+00,-2.648879963769683155e+00,1.266634378927238513e+00,1.618682413201487202e+00,5.028871122967474294e-01,-6.911642542151299473e-01,-5.124144299554476145e-01,-1.252173152753633278e+00,9.782205671060900665e-01,-3.651455323745219639e-01
4.621251192484247206e+00,-2.498990029738346497e+00,-3.580957914841784273e+00,6.054530317262758476e-01,-6.138119901831467828e+00,-1.467429071659401174e+00,-4.580093476056054769e+00,2.526005996208989801e-01,2.176708763206929742e+00,6.265359146129121370e+00
-1.045253218738023460e+00,-4.392952768688002108e-01,1.544704898133458570e+00,1.016652550629500329e+00,1.945351226618167395e+00,1.060533842646322444e+00,1.338988818410038473e+00,-5.607552893405012284e-01,-7.136832076396189273e-02,-2.064243830367630483e+00
3.261142490710969177e+00,-6.094903389563274265e-01,-2.045502825512730549e+00,-1.363164056183964634e+00,-2.224599250078931778e+00,-2.884763087495931799e+00,-2.028390831761155866e+00,-2.314420468037126088e-02,1.167957356528141144e+00,3.713072405030340750e+00
-9.554103025167348662e-02,1.631545878038098918e+00,-2.206311095744768025e+00,-1.914989788335823340e+00,-2.694585670596986393e+00,-3.565272569190556240e+00,-2.716826033545066910e+00,4.191657539604592309e+00,-1.281906460497063804e+00,1.129408479937258125e+00
-8.850016006125461798e-01,1.150827509119040304e+00,7.396069505642166586e-01,-1.621503713524221402e+00,5.769366766355303877e-01,-3.602096973512110445e+00,-9.506210610940462047e-01,2.412800722943577725e+00,-2.137828961185283205e+00,-2.259298223615320289e+00
