-1.012804177931837524e+00,-6.539544448476523719e+00,-1.307415657287671618e+00,2.516688152620105257e+00,3.012782676046120045e+00,-3.797936323646289747e+00,-3.578286412300335506e-02,2.887953023067920011e+00,5.495832437119234193e+00,-2.166781592176124871e+00
1.247567432428330569e+00,-7.767955356620781515e-01,-2.054904843185088925e+00,-3.498313419578502614e-02,3.316148921018687190e+00,-1.732711177490251053e+00,1.098222777651308935e+00,5.544823050997025327e-01,-2.332066408930040691e+00,-4.790794511892314311e+00
2.713530465417855364e+00,1.190823075465642367e+00,-1.396401086437212058e+00,6.971909400025524395e-01,1.401129007211624700e+00,-7.768445338953351431e-01,-8.681625148023603966e-01,-2.950757262241479051e+00,-5.202839866600782237e+00,-2.407021846912515972e+00
3.081813950073412300e+00,3.387644923080648240e-01,-1.030435517476376406e+00,-8.829707195052063362e-01,2.023972184285157461e+00,-2.513901193426664182e+00,2.465360626023802570e-01,-2.866372336124344056e+00,-6.793280749288475917e+00,-2.282182390883445322e+00
-3.857795775551926987e+00,2.825518235828305080e+00,-7.944897795180372313e+00,2.738039812780448390e+00,-1.737070443523295538e+00,-8.267620485091153881e-01,-1.885683167741013300e+00,-2.695642805928938124e+00,-1.143293413853004648e+00,-4.146257588595570809e+00
2.795925775215652997e-01,6.168935519666456813e+00,1.602815041696964204e+00,-3.993915992979989227e+00,-1.211349354241483489e+00,4.358192725458263084e+00,2.350084320398737603e+00,6.270546859100122328e-01,-3.658639071992083380e+00,-1.366575260522573387e-01
6.746772013446926675e-01,-4.196933160545300190e+00,6.799014575442227759e+00,1.941583369567128958e+00,-1.521124165339427847e+00,2.205093872709069647e+00,-1.746860067255395554e+00,2.312873336495344656e+00,8.364378263874725050e+00,7.185937646969917658e+00
1.038702937398431558e+00,-1.088198320823889009e+00,-2.009960149149485176e+00,1.319051410580459160e+00,2.271139744670030325e+00,-1.506723937612442166e+00,-2.697140940958732691e-01,-3.934456672569916491e-01,-1.272240001364229434e+00,-3.397233987008878131e+00
-6.643934332680843546e+00,7.744833393652452713e-01,-8.033604158615343493e+00,1.931573784195739218e+00,4.167697501648304215e-02,-3.547986032885815932e-01,7.164905020740777175e-01,3.117708591500336190e+00,4.977597867645092045e+00,-6.517949268781745076e+00
6.979103009369054256e-01,2.325298025101275368e+00,6.497068180876091059e-01,-3.284065846116047682e-01,-1.222820862719466328e+00,1.615419164919155159e+00,-5.365588545234607487e-01,-1.466950052295959095e+00,-1.871600822064739766e+00,1.087468192465002037e+00
