-1.287973772789736460e+00,-1.012246818686069139e+00,3.208831443803835448e+00,-4.035657283018737829e+00,9.754525691748147653e-02,-6.901697822637209434e-01,1.165905696246939405e+00,-3.918829224378177489e-01,2.097900552702971488e+00,1.915233626103191700e+00
9.325781678709152978e-01,9.069272246421521411e-01,-1.194702622891472554e+00,1.895006843645306249e+00,5.579715544254775644e-02,-8.604640907233102043e-02,-1.133795376703098379e+00,-1.352714767429099796e+00,-7.924964769637622419e-01,-1.452684300164015230e-01
1.556890081240912327e+00,2.101366747929377166e+00,-3.726801122462888305e+00,5.532442811885661449e+00,2.925371473636791730e+00,4.797446926807825918e+00,-1.577064818717286876e+00,2.086739063156414442e+00,-2.694498486704333562e+00,-1.011471359097611433e+00
-2.852569883630382108e+00,-3.029467341323315299e+00,3.404606207630297199e+00,-5.715922368521580310e+00,-3.278311964744164086e+00,-1.129981720163565490e-01,1.485157841923150368e+00,3.878172078067010808e+00,3.297844617570302006e+00,-1.089810915174896477e+00
1.084964778905598559e-01,-7.456877021285137630e-01,1.214738434257623068e+00,-2.160735403526472975e+00,-1.558876919161989338e+00,-4.975072334077678682e-01,-8.757730328134677444e-01,-1.403425621751711150e+00,1.463426729972025164e+00,4.660994116045781843e-01
3.241260237828935131e-01,1.718434454221624996e+00,-7.431079711108365959e-01,2.503079118657704605e+00,3.167507119477137145e+00,1.812595465792903593e-01,7.609146803830111327e-01,-6.594683021730566308e-01,-1.660859291503004265e+00,1.275746963347527574e+00
2.516970867328186534e-01,1.495301260115359687e+00,-1.137489738533872918e+00,2.764589266456426664e+00,-1.222891449564657895e+00,3.783942857534792648e+00,-3.839073668512317461e+00,1.114537804590017833e+00,4.120038126119567323e-01,-1.278357835783573204e+00
2.471698794775790464e+00,-2.823888228720998761e+00,-4.801342300142012465e-01,-3.859420327244816651e+00,2.361854290822523073e+00,-1.119821448916869938e-01,2.940753467447130731e+00,-1.487012972091139140e+00,-7.522440128451743924e-01,1.630961527907741626e+00
3.018656758174766974e+00,-1.759198417265856129e+00,-1.693167818638260158e+00,-1.604620392271433715e+00,2.982558925664093863e+00,-2.136926179288249072e-01,2.438855311786074509e+00,-2.110429032403149385e+00,-1.854911980599678989e+00,1.439193559165798053e+00
7.118287640568448094e-01,4.069268504485060944e+00,-4.808049031391711248e-01,4.708161587857847330e+00,1.321398117255105031e+00,1.572784692289516340e+00,-4.129231374043004443e+00,-3.370778553308226400e+00,-3.873584140150700961e-01,1.642166706779654595e+00
