1.978086102163565396e+00,-2.233597965338592617e-01,-1.131375607147200091e+00,-1.181475416330130868e+00,-2.207277213649399883e+00,-7.591258543903913747e-01,1.505558467061189010e+00,8.629375962115645171e-01,8.420242580680552535e-01,3.425112704403498132e+00
1.045118269721701187e+00,-5.454666326186847769e-01,2.804376855716690375e-01,-1.673798389552656696e+00,1.633791077089274124e-01,-1.022012013600190894e+00,3.324291987203881193e-01,-1.378107143090243625e-01,-7.239506582569136262e-01,-9.027819727204111633e-02
-5.220618338057165797e-01,-2.569641378537983467e-01,-9.852684434563956373e-01,1.999894005399820429e+00,-9.242235373021014944e-01,2.117274145132892915e+00,-7.944245801372251670e-02,1.006525644785004392e+00,-9.418219228415652955e-03,-8.344039582103217612e-01
-5.882588101231291944e-01,3.845394195754777145e-01,-2.837544004090327476e+00,-6.753255860293497781e-01,-4.343538752556044713e+00,4.081237027922573368e+00,-5.828513649174715816e-01,4.140168888653010804e-01,5.008030344193001859e-01,7.186182028755212059e+00
-3.085214508213856566e-01,-6.913555261261418172e-01,-7.768675879359061565e-01,-1.304368000528474791e+00,-1.091017644395130937e+00,1.790319099141128190e+00,-5.719175829703910807e-01,-3.093418631171495070e-01,-5.072192210840916760e-01,1.944408318654080370e+00
1.371311739205851810e+00,-5.099029721802997850e-01,4.975098095934717968e-01,-7.587512203397323018e-02,7.317540487748763756e-01,-1.497662867070338688e+00,7.920517622430567339e-01,6.784266065707884596e-01,-8.840919468667908232e-01,-2.767339021492773110e+00
9.178791651104838412e-01,-6.802356904609252464e-01,2.174664337220632238e+00,6.480502408350130583e-01,3.365809354550709287e+00,-3.498688238593993027e+00,9.180298958857563418e-01,-1.913072862218245795e-02,-2.070639034012406732e-01,-6.089587134712589389e+00
-4.271403707301201225e-01,-8.894587299845990724e-01,-2.432286989893742701e-01,2.864467404663799122e-01,7.425935396297178581e-02,1.438319208743574107e+00,-4.051483115440449589e-01,1.560859545221177647e-01,-6.977628036945277001e-01,-1.416362217005743718e+00
5.388209646433996802e-01,-9.511243052897681016e-01,7.601691353007702379e-01,-3.865272444171542254e+00,8.120923070507064523e-01,-5.124468680113298813e-01,-8.460126527679420194e-01,-1.283341745931644962e+00,-2.277697690295517496e+00,2.238425804954369269e-02
7.185040316964614870e-01,1.170236081849967968e-01,-1.237548911851308109e+00,9.132330910354331532e-01,-2.052993341593583487e+00,-4.594271959517681747e-02,1.449466738967599699e+00,8.462936400845539886e-01,2.555122052470224059e+00,3.510761547236433522e+00
