5.565853306338653939e-01,4.206145195990926289e-01,4.618298691846648651e+00,-1.905540103586771394e-01,-7.493831486754435334e-01,-1.230515226502903792e+00,1.040313135013396284e+00,1.188617166216156207e+00,-1.809507189406852401e+00,-2.618295601206378720e+00
-1.758539370739490515e+00,-3.276747781789202119e+00,2.076435455551879361e-01,-4.253067565587748788e+00,-6.040823914353388169e-01,-2.186783848077059389e+00,1.301091725152542455e+00,-1.235597274108597876e+00,8.754018077331749970e-01,8.984691653706975423e-01
9.993255002871261894e-01,1.235335367381321436e+00,5.737126047446809096e+00,4.770252818563025521e-01,-4.799014237640936709e-01,-1.395473576824566964e+00,5.088798470029641807e-01,2.298750490874914121e+00,-2.903417118807087860e+00,-3.440754435274753220e+00
-1.049709005537395434e+00,5.831034514779970951e-02,-2.209876057348950873e+00,-5.583268235953344760e-01,8.714140284851622509e-01,-1.013890541273115620e+00,-6.471339915387128716e-01,3.617965654048216906e-01,1.265381497231804042e+00,2.066751702442015670e+00
-1.269586010368425777e+00,5.909454497200054002e-01,1.311559315526895642e+00,-1.793313102284105565e+00,3.575711040513307459e-01,-4.010236150100454644e+00,6.581995133854929847e-01,2.823800621295666780e+00,-1.018239231916443499e-01,6.786757669119919401e-01
-6.107929023603906327e-01,4.079110120304661358e+00,1.361839495326737870e+00,3.773945304018365476e+00,2.346564119535295756e+00,-8.971388243659977890e-01,-2.056448273200087495e+00,1.231255246957055238e+00,1.779144703559636387e+00,1.096919964118822755e+00
-2.671989518904464234e+00,-1.452877812132780111e-02,-3.949483794083074706e+00,1.865345410224803713e+00,2.960139795652418027e+00,1.843136359773990041e+00,-2.968797692881811390e+00,-5.334933533347385293e+00,6.472934872467474676e+00,4.972287302902456574e+00
-2.978504102987366564e-01,-2.410707977673698821e+00,1.173983015070511726e+00,-4.174996960387638012e+00,-1.809644087844676008e+00,-2.688835718815604903e+00,2.515356431064415421e+00,1.570387841410743723e+00,-1.847802926732205586e+00,-1.028881388772743710e+00
-1.502350299290533764e+00,-3.681103757213685768e+00,-1.460819012898490143e+00,-5.702836154790132284e+00,-2.242778053507440195e+00,-3.190016114761208499e+00,3.789496199311563451e+00,1.089901422088823679e-02,6.755553438097861019e-01,1.178229523549076729e+00
-3.608798209714063066e-01,-6.902541748376699315e-01,-5.578169618649360118e-01,1.154300874159754464e+00,7.998861407931366907e-01,2.390159043044223885e+00,-1.351204320372650480e+00,-3.477938887676990110e+00,1.914351028857827375e+00,7.034470557366496735e-01
