-2.073229217061203222e+00,-5.760327382912472372e-02,-3.652136051559314867e-01,-5.211245649798692536e-01,-6.455812355087404697e-01,2.004561242218827477e-01,1.991008368030852349e+00,1.355965656582676759e+00,-2.843092197608483307e+00,1.098986547336221697e+00
-1.084977559657720914e+00,-9.390520324263005314e-01,-2.203751070385053357e+00,-1.087929935611795074e+00,-2.106978038946348608e+00,1.533390560323509622e+00,-6.022686578212312902e+00,-1.154187251581984819e-01,-7.409571950473802238e-01,-1.696708249696063930e+00
2.287162541842709729e+00,-2.948794820359510904e+00,1.927536961563732110e+00,-3.343124614824946050e+00,2.297219255244531855e+00,4.911353332914366376e+00,-4.648943368072542270e+00,-2.136292252273983117e+00,2.903552242389167315e+00,1.207708696158617423e+00
-5.184264592404734806e+00,-1.919425736199471544e+00,-1.161060746967547352e+00,-3.246474916461753235e+00,-1.833705563903654578e+00,2.612114738204440734e+00,1.135394000982041796e+00,2.742951495267324180e+00,-6.699083031111396913e+00,2.885154669904905766e+00
9.633742130693278005e-01,1.496940069588066136e+00,1.165668263654342951e+00,1.440549289126448196e+00,2.182533890977527147e+00,-1.012028799227873810e+00,3.930677619159759217e+00,-3.260898042672875641e-01,1.219982436364674294e+00,8.908747742578090323e-01
1.254833055659514418e+00,3.510920172530861416e-01,1.240425289784358176e+00,2.809163299982448958e-01,6.022684011496169942e-01,1.102580051952503304e+00,8.584999095952479120e-01,-6.631796550531668388e-02,3.378695584965459853e-01,-3.673764031183586187e-01
4.824617733972843547e-01,-1.107365121213337744e+00,-5.087030316861638202e-01,-2.163614463593324988e+00,3.071289897890075338e+00,4.473031346948505238e+00,-5.511349264409279414e+00,-2.350490661385231217e+00,2.700003440113078579e+00,1.161623266669730370e+00
-7.447795117116023933e-01,3.457485126139950626e+00,-8.082065037772127036e-01,2.178877955278117451e+00,1.455826256085433812e+00,2.109000123063069054e+00,1.637540214084053591e+00,5.872047485113329746e-01,-1.543617976689467097e+00,-9.180418126122324995e-01
4.252042738729969740e-01,3.707824453975536283e+00,-1.304299077918796179e+00,4.991138120104662512e+00,-1.810613423587972726e+00,-6.753182084791871986e+00,4.067849002450844687e+00,8.272454244639367849e-01,5.035472592323876340e-01,-2.832160716169684456e+00
-2.030785115739036084e-01,5.896848328541692830e-01,-1.582194139923421394e+00,4.172623690513419525e-01,4.718751125447234740e-02,3.199135904456096857e-01,-3.137461725441931026e+00,-7.424538378304821329e-01,9.346605666486511588e-01,-1.029968798323876555e+00
