-1.487369379878247022e+00,3.229390543913010614e+00,1.585839198722362120e+00,7.092138218427720790e-03,-2.056846723228078933e+00,-4.257089423685402330e-01,2.585391516969565373e+00,-4.478887058875026250e-01,2.063419799416441325e-01,1.211374264992931549e+00
1.721100395339168407e-02,2.939927987468356485e-01,1.633053478705469574e+00,-1.312423027322457747e+00,1.784449119722196553e+00,1.654337216264557098e+00,-5.285477725183590492e-01,-1.260080437852793486e-02,2.533467819044307401e+00,-2.664427386056992919e+00
-3.954182432179952911e-01,1.075609485212771332e+00,1.118635040879793596e+00,3.123188908259233454e+00,-2.788951339949373498e+00,-8.009819612581108306e-01,1.717658229719263074e+00,-1.901543837025532646e+00,5.125353707072377585e-01,1.557552764315792426e-01
3.689595282401245818e-02,1.626474694967708023e+00,1.052208727669680099e+00,-3.124717471691728088e-01,2.190737262999711485e-02,5.601384438063928828e-01,2.852967413623900272e-01,2.569431401702132467e-01,2.282942994355253941e+00,-8.470531291493843540e-01
-9.315153471103091443e-01,-1.606274711670132582e+00,2.497574114316194915e+00,-7.076386535717622550e-01,2.032048452469825239e+00,1.799026741546138508e+00,-8.093953134481630951e-02,-2.456048351251326256e+00,9.903557124524975386e-01,-4.167808765499891877e+00
-2.930681904088701106e-01,4.643666683316531874e+00,-1.664771218232615535e+00,-3.436424902887621702e+00,-7.810245924436498566e-01,-1.109253229401859997e+00,9.697743953981673437e-01,4.242435425500281632e+00,-2.870194571842444309e-01,4.816444592555596316e+00
1.329989176440915799e-01,1.818127010978993763e+00,-7.681218978737813785e-01,7.975464053527925312e-02,-1.081301687588963611e+00,-1.142624991967285064e+00,4.200470307438001205e-01,2.697976263348286219e-01,9.217143964224451258e-01,1.208623593002711605e+00
-2.174552501397734872e-01,-5.739871428612002724e+00,-7.246907772221158339e-01,-1.151170214352595256e+00,3.900282812843489211e+00,3.207071300308778627e-01,-2.469476997055678247e+00,-3.961554868948210739e+00,-1.323908977718060376e+00,-4.703752170655866927e+00
-9.899309057564109615e-01,2.977751927038311042e+00,1.232523805195214539e+00,-4.196396985004854585e+00,1.966289002064679936e+00,9.074116896905147778e-01,3.703421672938329023e-01,7.906718161211266915e-01,2.666554906188746354e+00,-1.249428168888447876e+00
-4.455291225407977396e-01,-3.403470831238630367e+00,-2.415594014809291590e+00,-1.112879312156368705e+00,1.322831496635377579e+00,-1.310460892055428594e+00,-1.029833719166271866e+00,-1.329554561730118101e+00,-4.062139371271934252e+00,5.659903924809792652e-01
