1.528406198537914706e+00,2.986358542392495430e-01,-7.062572099309482043e-01,-1.491611561426206878e+00,-1.545250254867671869e+00,1.560642334245598173e+00,-1.976928303828912881e-01,-1.049197141769917518e+00,-3.061358197891477784e-01,-1.087847331526673011e+00
-4.017121661883500394e+00,-1.314800814347137026e+00,6.322375184509636092e+00,2.436952769238369398e-01,-2.013525945846441179e+00,-1.851143895322764132e+00,-4.223673993944347060e+00,-9.279918068040975132e-02,1.195372851974951134e+00,-2.439610839943962439e+00
7.622291902804909647e-01,-1.259685332716359962e+00,1.351040239111450436e+00,-1.779761342265633040e-01,-2.203915129040726395e+00,1.177349308084649548e+00,7.308659324632971188e-01,1.281545119736405169e+00,1.080487080401063116e+00,3.746262387260165805e-01
2.097963011282493184e+00,1.604412744930319823e+00,-9.407761412495344588e-01,1.660220225660869353e+00,-4.855509283605751181e-01,1.791119888548778238e+00,1.148146075790177356e+00,7.053992918188534134e-01,1.111124311988533453e+00,1.963052175280929068e-01
1.166536368642474786e+00,8.751873752551325714e-01,-2.572210117328822321e+00,1.118958940140106995e+00,2.088613808399492289e+00,-1.984737215893249418e-01,1.967824640369533196e+00,3.340753459607117420e-02,-6.661276115850545132e-02,1.248891065673139789e+00
-1.407952222787647534e+00,2.661563416089756551e+00,-1.476437401437776575e+00,1.019644875066501921e+00,8.916471016948307460e-01,1.683563660806268736e+00,-1.342355011328744130e+00,4.022928285772991330e+00,-2.705570351567342602e+00,2.569259958482098316e+00
3.139666864709085292e+00,-1.683859869354718652e+00,-6.031595510363058077e-01,-2.520945468671230039e+00,-2.003158650539688335e+00,6.416685123115003497e-01,1.493494593034620621e+00,-3.865733836576793259e+00,1.365522316762474153e+00,-2.456838704649108696e+00
1.582175730284539061e-01,1.142627936202726957e+00,-3.504235124269156731e+00,-5.545766513295144473e-02,2.599690999191876628e+00,-1.062035629286113697e-01,1.081120645562448468e+00,6.842897878489496710e-01,-2.082111395670398490e+00,1.983139542414577461e+00
-1.998802121254837916e+00,1.078766740989456352e+00,-6.883413886764515599e-01,1.432956400407098541e-01,1.368192228503485319e+00,-1.851656387746621613e-01,-1.309192791331097672e+00,1.957474834654503448e+00,-2.200162499636531432e+00,1.526569873900681440e+00
2.372675897548890855e+00,2.478988319316779432e+00,-3.240340858169174609e+00,4.460886689075909683e-01,-3.319707630154521971e-01,3.283343229095033955e+00,1.128882678529091077e+00,2.144928700833843127e+00,-1.220429141170757292e+00,1.672257529619462391e+00
