-4.123852083299135440e-01,2.154788090631994113e-01,-6.976081708333384812e-01,1.410113880562414490e+00,-4.381556749216589886e+00,-6.685342050657222535e-02,-8.620148771451091596e-01,1.433871005344880545e-01,1.294403391009790960e+00,-3.332457724731430204e-01
1.867706173330882624e+00,-1.832618410714641488e+00,5.979135509124515746e-01,-1.870745005908194480e+00,9.556767892355648719e-01,1.771264297886367078e+00,-1.197733176762027618e+00,3.027679550435113942e+00,-1.435593607789326098e+00,-8.903893943356902541e-03
-1.649965360044281848e+00,-4.932150945712244550e+00,-2.358599723641856549e+00,-1.631989666122643790e-01,3.372081068836731976e+00,1.501574018939741517e+00,-2.634001966329342803e+00,-1.705351023862766935e+00,-5.134779630419545882e-01,3.242672179017267897e+00
3.006246538352817854e+00,-2.631142959200183817e+00,-7.332410002807303595e-01,1.669695463186365580e-01,-1.624659875307178591e+00,2.050775708402480912e+00,-2.232388663705007215e+00,4.833864247504300771e+00,-1.458111278255169729e+00,-2.146879796372294091e+00
6.983842418700464405e-01,1.544381706731476678e+00,4.079511633126914893e-01,5.722106489756383363e-01,-3.491779864303755865e+00,-5.782970563381104601e-01,-1.672448441540918818e-01,1.413858855456193941e+00,6.966434257011847597e-01,-1.787544043758795720e+00
3.039611793108273896e-01,1.751809708251669484e+00,1.836469916337667208e+00,-1.881175373431677622e+00,1.741610671441849556e+00,-4.707212105228986698e-01,1.341812313336454565e+00,6.152569628066967278e-02,-3.868116324755527247e-01,1.230332871107381876e-01
3.323516239216911528e-01,1.187737265257250208e+00,1.133523760726194762e+00,-1.104670181429884712e+00,-2.067618166328434093e+00,-2.274350420317652055e-01,-3.547702930874694349e-01,1.135082075213130537e+00,4.868032211863103087e-01,-3.512196923642887381e-01
-1.543532865199617410e+00,-3.757582140469159504e-01,-1.543450686630360114e+00,1.611565553437755982e+00,-3.668597035591028455e+00,-9.859957888862751485e-01,-2.112550978394354573e+00,-9.168498605979413796e-01,1.761836145939309928e+00,-1.739362738672186881e-01
-1.313799402546018125e-01,-7.293135767831768757e-01,9.497349202462423978e-01,-3.072447208249315054e+00,6.982771659521072927e+00,-6.455447635500363157e-01,-3.615369429381043997e-01,-3.378166146073999232e-01,-1.564835499846221278e+00,7.096956744795985816e-01
-2.705039090729730589e-01,-1.658535511038543131e+00,-2.694933315865834178e+00,3.369070803465035624e+00,1.918576479277696922e+00,-3.085927967227384827e-01,1.809508190831605468e-01,-1.411701960074039697e+00,-4.817261292286075802e-01,-1.158254326366302767e+00
