3.855532742696105020e-01,-4.162544281578289818e-01,-9.503969308336875921e-01,6.591374112912042893e-01,1.249325528148119924e+00,1.587807240397266784e-01,8.722519932038945434e-02,1.703377248072111438e+00,-5.774629206942883952e-01,-1.007901546101490187e+00
-1.081437819679960333e+00,-1.533094094256897577e+00,3.092655028442277132e+00,1.351883980178260947e+00,2.497505421683907212e+00,1.030192968290899902e+00,-1.430358628165949719e-01,-2.992240174863133539e+00,3.424666980917893344e+00,1.295011178504856586e+00
9.980059889588582811e-02,-2.072103921460789699e+00,1.333828455058448936e+00,6.617648362078116797e-01,3.230605912999762186e+00,-4.113762434060226347e-01,-1.160702016469884690e+00,-6.113635116180664575e+00,4.339286252499414687e+00,-4.493081580775398071e-02
-1.445891013497136335e+00,1.000324916488137150e+00,1.695909089571444817e+00,1.255931586510870890e+00,1.273329562349524435e+00,1.840443181501797865e+00,-1.491105699463599388e+00,-6.594385143323631127e-01,6.427176639222935695e-01,-6.574865322146399294e-01
-2.612724020252213286e+00,3.665412872587395787e-01,-3.016685996491352384e+00,1.051802563068850782e+00,1.434577376626677392e+00,-2.988175897061558506e-01,-2.388029370521649764e+00,-1.618026019334015242e+00,-9.789314941585451901e-01,-1.678106412367378342e+00
1.711519775800777632e+00,-8.068063071148703913e-02,9.910616954653642119e-02,-6.017605120178902700e-01,4.045089183132248301e-01,-4.253979019136588935e-01,-4.367531204226812735e-01,-1.765578870796093325e+00,1.066462566075997431e+00,-9.411981429822559031e-01
-9.444276205405064406e-01,8.036022399263826888e-01,-3.699831421542869037e-01,3.408670893168776472e-01,2.283146610383280650e-01,4.100825478350668130e-01,-1.194648192380624474e+00,-6.638896971674999037e-01,-3.288498957236150599e-01,-7.573712681676089131e-01
-1.125859202612839782e+00,6.949900190807682954e-01,-6.023506410807116573e+00,1.601224378915024005e+00,2.673107365019426584e+00,-2.632612422898838456e-01,-2.574993810329549770e+00,2.601185949344925863e+00,-3.529697705772380179e+00,-4.635334445397791825e+00
-3.479188715667294041e+00,3.222287708637942671e+00,-7.693031416253945931e-01,9.921897682174514455e-02,-2.141384095695744172e+00,1.027334082636816914e+00,-2.497014279794774083e+00,-4.791421057633790115e-01,-2.383555143935575771e+00,-5.200867999621134885e-01
7.788223451995354152e-01,-2.079705960572672652e+00,6.833397619419899760e-01,2.361807847125487470e-01,1.525731669167309734e+00,-6.076775226885198222e-01,9.613118803487921138e-01,-1.356456956557871907e+00,2.048614644241975036e+00,8.470604989352785719e-01
