2.954423088264418684e+00,1.605612679077065286e+00,-2.381532123245368560e+00,2.022757130678108917e-01,2.128602152605018727e+00,2.446142641375730342e+00,-2.811980098036668263e-01,1.802819187697955794e+00,-6.560241276808608246e-01,-1.994448443872973042e+00
-3.182275697851347562e+00,5.292351063949656265e-01,2.687873591615232427e-01,-1.619313488996882322e+00,-2.425944786859768332e+00,-2.985664637275663225e+00,4.580580261000267939e+00,-3.467297297521263033e+00,-2.464663063245444707e-01,-1.633517255481867214e-01
-8.824673122942947590e-01,-1.575975043080928506e+00,2.136261511639333310e+00,1.598169764507709756e-01,-2.357950327840653504e+00,4.280116195121151379e-01,-4.352004704036477323e-01,-2.915045981052856394e+00,1.222685297951210170e+00,6.185360567446218649e-01
1.818970781622682997e-01,-1.267900873799421069e+00,2.949886160525677092e-01,4.957049329697400530e-01,-5.507367097492462671e-01,1.075427958004279372e+00,-4.722639567592682441e-01,-1.171223428658337395e+00,6.592176649460226301e-01,-5.315504439655037716e-01
3.373843326625705075e-01,-2.220679133131600924e+00,-4.966101490732283130e-02,1.498014956101834327e+00,8.539988979040985528e-01,7.991922233355454042e-01,-1.601142227346195934e+00,6.537244112142206465e-01,7.469307280861775533e-01,-3.052422854594185608e-01
4.143143965796293848e+00,-9.944164879525485556e-03,1.184336133437474403e-01,2.012960118874088433e+00,-4.179378642785932518e-01,4.592384660450425926e+00,4.917074633064818512e-01,-3.196684234364968624e+00,2.318458774243943310e+00,-3.006653871489942897e+00
-2.205803121925181021e+00,-2.953478191017148813e+00,1.262598607732003053e+00,6.940722847377448490e-01,-9.373028463181235503e-01,-1.228126623079990765e+00,-6.946645861695643909e-01,-9.357568205805237849e-01,7.771772981966210692e-01,9.277926976223664912e-01
-5.832324661440451141e-01,9.317948819546446604e-01,-3.402450534704342111e-01,6.094601795879079909e-01,2.641246345577901611e+00,-3.080526847458597839e+00,-5.454520418968534790e-01,4.473168775629130955e+00,-8.345477262789362527e-01,1.878407841475935092e+00
-6.383047155594930022e-02,2.931681141104209409e+00,-1.813828613915553056e+00,-2.936572788278623669e+00,-1.353637924661561520e+00,6.789605477930336086e-01,2.983796496941293785e+00,-1.989174049494431662e+00,-1.689043141714303031e+00,-1.664202350082052195e+00
9.620513033755551113e-01,-9.662556156612496228e-01,1.174105057136721975e+00,1.264533967676517712e+00,-2.135619611617285862e+00,1.761091917017067354e+00,2.272270978138323905e+00,-4.924995979623759013e+00,2.325487427125836337e+00,-1.929032089092807212e+00
