9.794846493478699401e-01,-2.455861962763927764e+00,2.103015504803461555e-01,7.964029314152908379e-01,-5.543194555228254661e-01,2.203122861101298735e+00,2.676654605126412179e+00,3.145209498360102440e+00,-5.691762142709267946e-01,-2.604581358938640179e+00
7.498189271364801733e+00,5.060068460840635218e+00,2.030885858098625540e+00,-4.145256831997770064e+00,-1.145974334805690109e+00,-4.813068948756562548e+00,-1.038983976248138985e+00,-9.018394026353359072e-01,-4.761390785581822271e+00,-2.885729057386131835e+00
-3.898438059980772419e+00,-3.625454526400633259e+00,-1.255601833707651771e+00,1.061201009104330684e+00,9.135500216979460797e-01,3.054000515201855226e+00,3.026894919266078787e+00,8.691957490504642614e-01,1.728855352752792784e+00,2.614428001835474191e+00
-1.902359872622605641e+00,1.396802297198297182e+00,-4.193831336050223846e-01,-1.012722894741093782e+00,6.310294717917050988e-01,-1.038882101270171665e+00,-1.392551238439994510e+00,-1.775424544961476725e+00,-9.154430642552278952e-02,4.566967869781331402e+00
-2.656461815446486963e+00,-1.914668267321884221e+00,5.164657509088697029e-01,3.034425842045539223e+00,8.333679398509922231e-01,8.169420197670497208e-01,1.174627974691109245e+00,5.215902079869400021e-01,-7.184064244955729039e-01,-1.740569630470802487e+00
1.309355010134275243e+00,1.101267946671238729e+00,8.029174838392314495e-01,7.380500241351016510e-02,6.559669324672094681e-02,-1.573492409712914153e+00,-3.001898177067602869e-01,-8.600141179030985628e-01,-1.230182644103986478e+00,-2.193615377626610741e+00
4.394689263855403816e+00,-9.083672842243997181e-01,-6.634311380824174653e-02,-1.170466060377906903e+00,-1.539507492370473463e+00,1.378318189160161022e+00,1.469428161081355544e+00,2.490753403399863064e+00,8.614503813781921870e-01,-4.150881954698060206e+00
6.252476989445262534e-01,1.900269358098080730e+00,-2.767315621171618778e-01,-1.054272890039593236e+00,1.824759208450462411e-01,-1.823155073516114832e+00,-1.750727645485731232e+00,-2.817301844570910152e+00,1.286140571064372518e+00,2.266831611615695019e-01
1.317226066634927528e-01,9.663963179414791771e-01,-3.805628391014982403e-01,-7.089949473275479752e-01,-3.389691017765451009e-01,-1.821019384011321740e-01,-1.627058724397028699e+00,-2.942157096906986014e-01,8.361264969572601569e-01,1.614768169567828204e+00
2.167946282967742277e+00,2.313212977882928456e+00,3.810296005145685228e-01,-2.624806478844389890e+00,-2.874729970060376782e-01,-1.858699120614326628e+00,-5.512612487590954347e-01,-6.173111248388243322e-01,-1.877648772065748872e+00,1.819500015922555614e+00
