-2.088466305758254205e+00,-1.372130877645687530e+00,-2.640127236980315928e+00,-1.791886575399291859e+00,7.409979675638703744e-01,-1.040612114148482981e+00,-1.765786165127490204e+00,-6.785159723896426742e-01,-7.573503070916043356e-01,-6.342186129900058145e-01
-1.287601705808639307e+00,3.604368946511969374e-01,-1.443987977649332288e+00,-2.143074870981203084e-01,-1.184537223288978591e+00,-1.421645554131714784e+00,1.104086837365767959e+00,-1.239969678803203301e+00,-4.177716671835794982e-01,-2.209582790200158797e+00
-1.896918868703498351e+00,-2.129817361744152038e+00,1.207311229554808074e+00,2.785167566215647650e+00,1.520353322637962634e+00,-4.963239939091582009e+00,4.250999799360773324e+00,-1.333388860116557328e+00,4.004542090721487035e+00,-4.140941355468265028e-01
3.324202368416936171e+00,-6.805037323108863445e-01,4.053745366357540902e+00,1.353602974056776542e+00,1.466646913991716428e+00,4.787790840878050957e+00,-1.352732715261989016e+00,5.265270016748289095e-01,-3.683686669203515285e-01,8.128175594104358748e-01
-7.661815975053418715e-01,2.097368581305513402e+00,-6.473865704773784202e+00,-4.930748187245709957e+00,-2.435991378161222354e+00,1.777437042819989266e+00,-4.837681809686237067e+00,-6.734001024567387583e-01,-4.590518799674175199e+00,1.414662246391489298e-01
-4.872520446503744829e+00,1.025361217789492185e-01,-5.192063522033531164e+00,-1.631029150514480053e+00,-1.877694640195719522e+00,-5.809572787732872001e+00,1.901033986799973707e+00,-1.929409422785267392e+00,-1.511186353485483025e-01,-3.508418422724164376e+00
-1.708710157195945378e-01,-1.454580494535540058e+00,-3.941477580324159735e-01,5.388447924885120255e-01,1.531665574241412697e+00,-1.368783337438419068e+00,1.249033874047525416e-01,-9.216854471198087095e-01,1.640731568768488913e+00,1.939986250099347220e+00
-7.885410142094217978e-01,4.105867701078046994e-01,1.312027971428066486e+00,-3.264930808022312281e+00,-8.064673650415059569e-01,5.926926659937226560e+00,-4.626146377883080696e+00,3.300953913312781207e+00,-5.700847807554118241e+00,-5.811239096266473503e+00
3.364518835661767682e+00,-3.266487405609471151e-01,2.076366937825477876e+00,7.139100445562847064e-01,1.693967501359482153e+00,3.223428791485516420e+00,-1.873807032902522707e+00,6.495733993168393283e-01,6.002577482853405089e-01,4.333245424402220713e+00
-7.122429734221196185e-01,-2.381997690590867300e+00,-2.264525738221872864e+00,1.491792916162614002e+00,2.669608754041212340e+00,-5.494906873536200997e+00,1.756076568413939221e+00,-2.481708873697474615e+00,4.893674234041520243e+00,5.865350294178315771e+00
