3.854178792373325724e+00,-1.651462616233315028e+00,-1.789802805056886381e+00,-2.975211355949644698e+00,4.406598365264812855e+00,3.056238482482726004e-02,-3.307015963384445367e+00,3.586184912897354415e+00,1.944997022348800453e+00,2.154825340721045368e+00
-2.028897732582358948e+00,4.705353760566907795e+00,-2.946360965791874786e+00,2.307209692557599945e-01,-2.126601247836504838e-01,2.708453358434366187e-01,-1.194746605258910854e+00,-1.269429837963902852e+00,2.991932096277581277e+00,-2.526905281096605727e+00
-2.241839107331432768e+00,-3.554505642476009974e+00,-7.628854811431924787e+00,5.947306702485444241e+00,-6.846036411425417079e+00,1.074272780781288628e+00,-1.604163215549877952e+00,-1.852253037751077080e+00,1.706988327339180156e+00,-4.546120156689908431e-01
-1.357302834804066771e+00,9.333323543563054603e-01,-2.057653017800705086e+00,2.320279146858070796e+00,-2.507110025272043075e+00,-2.187803909197513441e+00,9.645237142327952595e-01,-2.171610127701916415e+00,1.038383150623778617e+00,-6.902031804022000783e-01
1.910297201662936484e+00,-8.030897916785454171e+00,-3.010046303367302833e+00,-1.875546427494324542e+00,3.095074334588062026e+00,5.297883512991024446e+00,-4.474657751163872987e+00,6.479477783656506951e+00,-1.405242346007172571e+00,2.494159557610273303e+00
-1.433805159577690169e+00,-5.423313604001958943e+00,-3.214924914246246157e+00,3.139904787050586510e+00,-3.949764537353054994e+00,2.172490096693912243e+00,1.018619378573430989e+00,-5.794812846508977655e-01,4.554879663438067272e-01,2.398500144028911651e-01
5.026720719746223809e-01,-2.426360674442225918e+00,-2.368182896812752458e-03,-1.340112830125961718e+00,-4.184791678951374827e+00,-1.276894465164553516e+00,1.024149233199527442e+00,-2.265791549497980117e+00,-3.523085195901371591e+00,1.793293478040206779e+00
-3.211638306313342461e+00,1.077781642760862857e+00,-3.612263342735898775e+00,5.405382614459520951e+00,7.570522692396191022e-01,3.362790288221586543e+00,1.190322287214112817e-01,6.014029078512725945e-01,6.643334033733575339e+00,-3.643727295811765909e+00
-1.411510988406367018e+00,5.409343315933087482e+00,-4.106870189498768475e+00,-1.718575999678876531e+00,3.752646070911982989e-01,-1.425123007839108169e+00,-2.367334527799141330e+00,-1.017144595564417608e+00,2.246248445667966553e+00,-1.826990976517675502e+00
-7.115107701800819306e+00,3.998887290303869690e+00,-5.125660655293621915e+00,6.613870427011811159e+00,1.357938369446248128e+00,5.181515982662414643e+00,-9.650114632345341281e-01,1.288695853838205618e+00,6.735849860500784381e+00,-6.572698924640461016e+00
