1.936572916879777617e+00,-5.799592067944308482e+00,-2.019029508136702677e+00,3.236808916422798110e-01,-7.219887047907176392e-01,1.371163689928374396e-01,-6.579060273591003094e-01,-8.890608882016723946e-01,-1.271117084728485280e-01,6.527448657429618883e+00
-1.350323370794296984e+00,-1.466757323469869867e+00,5.649718709998743371e+00,-4.983204047082767651e-01,-2.794284892306612811e+00,-4.512915221118887210e-01,2.598833104825088114e+00,-2.333649058245653232e-02,-5.786738930512796975e-02,-5.794189366231393912e+00
1.970039132850505137e+00,8.696656323283958878e-01,-2.078723184766515075e+00,1.043487253272948223e+00,2.704786673195204383e+00,6.063232124558638469e-01,-2.702646388186905058e-01,2.737750202809392963e+00,-1.373216659068807077e+00,2.529870808580878538e+00
-4.054270731676330008e+00,1.500572309993050135e-01,2.610594001220441829e+00,3.122658802054429472e+00,-8.486774890900479207e-01,-4.376197889626708637e+00,4.779686868572970843e-02,-1.995414574951641873e+00,1.054537851405377591e+00,1.460006246027528154e-01
-2.280806652105409782e+00,-2.627522540913306059e+00,1.371130472894298569e+00,-3.153182850971868678e+00,-3.977583201896031539e+00,-4.604798247531942668e-01,2.352765616521117487e-01,-1.688450754366798812e+00,4.801127911217659139e-01,1.098839042160721091e-01
-3.337991420413816357e+00,-2.259533306746556655e-02,-2.173479406717453877e+00,-1.529160384202884249e+00,-7.932509309873645442e-01,-1.963203470601587064e+00,-2.283555320664540922e+00,-3.226572465569839121e+00,1.211394278466903840e+00,4.051078862420457227e+00
-1.453928662101075853e+00,-4.962115029914451192e+00,-5.221165111032021189e-01,4.165956405867808632e-02,-3.656710813348416078e+00,-7.574947125440928408e-01,-3.142801946052629081e-01,-5.352212504671999938e+00,1.732560383980042085e+00,1.548413320943130556e+00
-1.612058966239812430e-01,-5.518002620671360603e+00,1.273902863917415473e+00,2.890966094144677978e-01,-1.494343686227364465e+00,4.426738749631767833e-01,1.487318627511677427e+00,-3.763127213198758092e+00,-7.724706095791054883e-02,-1.270273194134241335e+00
-1.232901401090855886e+00,-2.518659547607292382e+00,1.753566972309753003e-01,-3.554956845858561754e-01,-6.611225664330778740e-01,-2.168952758794836289e+00,-1.274214016621553203e+00,-5.266772480309575011e-01,4.892529243878269707e-01,5.509847314400357021e+00
8.812256780435187009e-01,3.043961289807932402e-02,1.211384389338898471e+00,1.382545524419899197e+00,2.750025081847720543e+00,-1.616923528810613464e-01,3.472913425149740108e-01,6.425671592318000780e-01,-5.854324218788679035e-01,-3.314614767505075776e-01
