2.201602012981186185e+00,4.217110576591557525e+00,-3.568944702729276219e+00,3.283851016943761358e+00,-1.092305938463937531e+00,6.441074650851512651e-01,1.675352959640992401e+00,-2.659234205492630565e+00,-1.188795619116322477e+00,-2.837651677937618189e+00
-3.787151399574523403e+00,-7.739681274545041845e+00,-3.143152842726743224e+00,1.174096791569106291e+00,-3.669346580570629790e+00,2.493944334941190721e+00,-2.484926404981154580e+00,-9.160071024715027432e-01,2.064355936380952716e-01,1.735073915574140813e+00
1.111985891951546401e+00,3.455724470712933538e+00,1.390416116655412093e+00,-4.278402586450580358e+00,1.644926614545472177e+00,-7.744948982110201607e-02,4.452561669983126968e+00,1.217867039878765212e+00,-6.677804395489592704e-01,-2.161996054114734722e+00
1.611171174842831677e+00,-1.896062103030743184e+00,-7.205471602076258364e+00,2.502418282162779839e+00,-5.218142353863684413e+00,3.247562869509247996e+00,3.975409496192700232e+00,-2.929352414831101648e+00,-2.912161586883104114e+00,-3.644894309004888644e+00
-1.704784509318886032e+00,-4.127775488078126997e+00,2.815451397248314613e+00,-5.634460771183803729e+00,-1.467567386685997288e-01,-2.116274081090025128e+00,3.864121981055403054e+00,4.862422472565739007e+00,-1.968506991009163265e+00,3.573315516285608950e+00
-2.841659678994447713e+00,2.979467680790452100e+00,-1.663260928277402684e+00,-2.448533773706051075e+00,7.293968210958483578e-01,2.046735137245457192e+00,3.823913260080654464e+00,-5.386977042987042275e-01,-1.658142916045284521e+00,-1.043201471294780802e+00
1.978703698649485920e+00,-4.447342579584310229e+00,-1.838434605873281225e+00,-5.737124119159696667e-01,-2.907070754436230864e+00,1.132132778231898396e+00,3.470728273082059001e+00,1.236787764499526432e+00,-3.328928105720163622e+00,-3.353578330610007541e-01
-2.127309768124908018e+00,5.187914796558772412e-01,-3.277814218959164805e+00,3.125507014344364176e-01,-4.449066739984515628e+00,-7.429175554458207209e+00,4.005827346092054597e+00,1.230629793451898601e+00,1.429499103344495925e-01,4.124221484355053313e+00
2.868796389888136567e+00,4.435711954063946472e+00,6.206897901131477324e-01,-4.892086489441767938e+00,1.828845083088221468e+00,2.436614341413740004e+00,5.393986403211591174e+00,-3.289836950456914710e-01,-3.696681104823927866e-01,-5.634222878775583254e+00
-1.700185430518460716e+00,3.898775085342253366e+00,8.943521616726847201e-01,-2.061326777078359651e+00,2.702188933778064239e+00,2.717049167697663581e+00,-1.017096532213162874e+00,-5.264384622815867498e-01,1.106304037814253460e+00,-3.110625075491435076e+00
