2.014898014403858184e+00,-7.772263398783463284e-02,3.918207975635864537e-01,3.124645791097303560e-01,3.470056912209370292e+00,-1.039163371364790089e+00,-5.434164199167159648e-01,-5.535172686374071338e-01,-9.774632781936586357e-01,-2.208733452579359380e+00
-6.449534195112061497e+00,3.122791392272903810e+00,-4.743155326803742078e+00,2.718308184013897844e+00,-8.192363674991435474e+00,1.348625027857699665e+00,8.846034068769403902e+00,6.494741054715371664e-01,1.957660848705794265e+00,-1.635944670665277378e+00
3.453630179455709381e+00,-3.299644844939894739e+00,2.386575668839950204e+00,-4.462612516142410612e+00,5.154509337105870337e+00,4.425211460440147127e-01,-8.076987860744196723e+00,4.905333227546768704e-01,-2.391458416281469823e+00,5.206900013896907931e-01
-2.587579437930138671e+00,4.417897054047210670e-01,5.424286460896703410e-01,1.316490174838582883e+00,-4.085036992031093384e+00,1.340175843438466519e+00,4.421980353197985103e-02,-7.634555814877697077e-02,1.078305236608954276e+00,-2.681322351082403799e+00
3.414052665751337035e+00,1.100109729023947436e+00,1.365821918542011959e+00,2.841913935051109785e+00,8.397440313236984366e+00,-3.423817099886992565e+00,2.426473788148125088e+00,-1.093745267261545528e-01,2.560786985732410592e+00,-9.455535742978200542e-01
-5.074586076965706738e+00,4.497189047369775095e-01,-1.890198801749112700e+00,-1.160371158484051257e+00,-7.160188354945544731e+00,4.487772960124265964e+00,2.338869543685198948e+00,3.311957221916418392e-01,-9.305096005298338913e-01,5.717117833860076992e-01
-2.409509155857623430e-01,-1.405216697786869195e+00,-9.223804464727999308e-01,-2.115777942435705050e+00,-5.475538290902960625e+00,4.772021580971929078e-01,-3.331104915455819881e+00,-3.183354687366506397e-01,-2.852177004153858775e+00,1.969134910231680413e+00
4.105471413716756501e+00,-7.967558751900474245e-01,3.205381108071059248e-01,5.577608116077688027e-01,-1.011767538891394924e-02,-5.924478016753953469e+00,-3.327100153150766904e+00,-1.702315244969943020e-02,1.086097806347060102e+00,4.286533739116896058e+00
-2.372245559706953166e+00,-1.386790259726960350e+00,1.174346088536345201e-01,-2.947942249184698049e+00,5.534085048176439869e+00,6.418237192443721817e+00,5.388550080952503318e-01,1.165136995196666359e+00,-2.550335163129951344e+00,-4.663568804571600168e+00
-9.496513644788536768e-01,1.791521806688071816e+00,-3.653079346436478581e+00,2.688327390553795659e+00,-3.274672782827271256e+00,-1.732548006675566521e+00,5.179318920667655313e+00,-8.185571131824973534e-01,-1.456168371858971078e+00,-2.976221987915841805e+00
