1.330449519963719629e+00,-3.300831190858007691e+00,2.728436862317094924e+00,-1.953460496385403866e+00,2.997574518141607469e-01,1.952144720110479348e+00,6.695570796321517193e-01,8.396257664744960492e-01,2.352989692512093889e+00,6.083067759271012509e-01
5.239979900765887599e-01,-2.093006425806658299e+00,8.031782649279469721e-01,-1.655324860684921573e+00,-3.847565386604681947e+00,1.640460383527118371e-01,-1.331816639715087958e-01,1.108951563938590734e+00,-6.131675256810595442e+00,6.848202774959483152e-02
1.496978399764489209e+00,-2.295683884594430513e+00,-1.712638823716844394e+00,-2.263839523501488316e+00,5.421066041772555633e-02,2.258311809291387195e+00,-2.460935997830774102e+00,-2.309540635481795778e+00,-4.764704170188063692e+00,2.968239303601900025e-01
-2.906812813937883266e+00,-4.285928146131954719e+00,2.700220708083297394e-01,-1.600829500359122748e-01,4.073455260851641668e+00,1.586972858718665114e+00,-4.955256238589603179e-01,5.141742017266588860e+00,2.221683811791371976e+00,-1.877700203356860387e+00
9.712748900757330051e-02,-4.859471131438949598e+00,-2.470357898221406390e-01,-2.879621732846904703e+00,2.203513811525255051e+00,4.118466171603847314e+00,-1.629658225669825544e+00,1.713820371878703508e+00,-9.783582786642250340e-02,-2.556043190685697297e+00
-2.637412511363857792e+00,-2.321748820739473196e+00,2.636255847480095227e+00,2.257916408589002888e+00,4.515953972770268443e+00,3.236170672711233376e+00,6.690028934750865686e-01,-4.257741691181628485e-01,3.340632798115859448e+00,5.716774764473687293e-02
-3.559758605089601069e+00,2.802839159861234997e+00,-1.591492609962284810e+00,1.942995965856620932e+00,3.209104950582565507e+00,-3.462551113207698261e+00,7.777791811068331951e-01,4.006513587026097056e+00,4.004298851079625798e+00,-1.121259251675946977e+00
1.840613778835482606e+00,-2.838210280576957789e+00,-1.239635180335226350e+00,-2.965293420581734729e+00,-3.118403643513290580e-01,5.956423961575568748e-01,-1.566294940326638407e+00,1.465228906553349919e+00,-1.238195587131213138e+00,-1.517705929453258828e-01
2.112250387528370688e+00,-5.907658727053298087e+00,1.317805124255245985e+00,-1.838498289489977289e+00,5.440058870744179487e+00,3.501836928193987841e+00,-1.648465169595138446e+00,-1.091565535396319397e+00,4.682947317956514866e+00,3.251244759407979856e+00
1.320081923049799988e+00,-6.463124016110390002e+00,8.533797297221993317e-01,-2.414501922380749566e+00,5.300502522932695193e+00,3.190098386852557422e+00,-1.896640548244660662e+00,4.490542101123415342e-01,3.144129332866285154e+00,2.583665912200828529e+00
