1.358021110334133752e+00,-1.915585685466491661e+00,1.524328170795526072e+00,1.055425035489316876e+00,1.216184649422755726e+00,-2.314143552753217925e+00,-3.997272667868829732e-01,5.565597431336775092e-01,-1.076348023029111811e+00,-1.201576151546108751e-01
-2.683239483568191641e+00,-1.005386309488985219e+00,-8.158990694577351599e-01,1.596482835453320703e+00,-3.121439272453051306e+00,-2.321236712102234812e+00,5.273597945678100807e+00,1.773290747324051786e+00,2.059554831233096017e+00,-2.329932242963457245e+00
-3.370443549520027116e+00,6.843559489014442443e-01,4.070484771030374205e+00,-1.731148830318422149e+00,5.238431678590496965e+00,4.920225812610736327e+00,2.141763387393420093e+00,-8.986100747433911629e-01,-3.008632339534809574e+00,1.446360901811923672e+00
-4.770789199923510804e-01,1.150990674450686202e-01,-2.344728374451957031e-02,1.458569012147467259e+00,-3.377014617388214734e+00,3.050055844635974012e+00,1.694558447432484849e+00,-3.199861837699914169e+00,4.898381306276337055e-01,-1.273246551570905272e+00
-3.424081029134035781e+00,2.523126848629626551e+00,1.065328478402755907e+00,-6.105927007948919183e-01,-7.648245309848690221e-01,5.941626303452999025e+00,2.141610707504602917e+00,-2.616522154033324554e+00,9.079585759590591554e-02,2.430110500002232943e+00
-2.347473939500839268e+00,3.336955973963992017e-01,-2.751462979259370112e+00,-3.749850352709259038e+00,4.448548425390128180e+00,-5.802350148622412718e-01,2.661883778406302081e+00,4.492367902679567315e+00,2.268252664623570669e-01,-7.541776766301380164e+00
-9.437878553593912478e-01,1.944230083605895887e+00,1.965885189701608582e-01,-7.234914569175878718e-01,-3.117665597601939176e+00,4.408917769225756622e+00,1.314016128354118740e+00,-7.260209194559819057e-01,8.772704294084862076e-01,9.358491153687660269e-01
3.452419798037300147e+00,1.402901386523638161e+00,-6.837245305579731092e-01,-1.613712757518434682e+00,3.668375556624935419e-01,-1.832552265191315755e+00,-4.059923615441371147e+00,4.804521449163672742e+00,1.407567506864768614e+00,2.794242057452952288e+00
2.159668954707565813e+00,9.001358111220435498e-01,9.261262678336158460e-01,-2.975887121069758390e+00,-1.167392623715827638e+00,2.214240023323116979e+00,-4.408694366204560788e-01,4.108051148698523392e+00,-1.642084845266454929e-01,-8.357422770275815260e-01
-3.340600721598249168e-01,1.586764971177812567e-01,-4.711853133488347889e-01,-1.726431374282917597e+00,2.833102910260365981e+00,2.051962382550985176e+00,-4.859508785676009968e-01,-1.160909825524013783e+00,-1.512501392243487341e+00,-3.073699498928830209e+00
