-5.777699411897750714e+00,-4.519527729293972840e+00,1.969198393777596756e+00,2.558456658582734189e+00,-4.130740214545687294e+00,3.199788088139691733e-01,1.191029110300024119e+00,-2.256538620056229849e+00,-3.859469092158183123e+00,-9.178384804671200214e-01
-1.832782956859293932e+00,-4.542081781127960127e+00,-1.778158978950094671e+00,1.052437849884743315e+00,-2.393512494275702451e+00,1.332791473594140186e+00,5.001106531685044487e+00,-2.087077302209696672e+00,-7.556038180478749089e-01,-3.725047538991482221e-01
-3.970934293170155449e+00,-8.051277203022039197e-01,5.475053106020666860e+00,2.679281088532174504e+00,-9.383693214857289355e-01,1.762386151354883523e+00,1.538217524224684274e+00,-1.551438113574002298e+00,-8.995484273010299070e-01,-6.254299543744475942e-01
-3.089548337624759000e-02,-9.847158144432832660e-01,-6.286653545410049171e-01,-3.724776513199103967e+00,-3.340644333887274442e+00,1.235027638295842278e+00,-1.517903245681273994e+00,9.998988487590119156e-01,1.483180981732482140e+00,-1.114975484767571690e+00
-4.528330844884984607e+00,2.423582721213665359e+00,2.100096555636569828e+00,-9.588773174911419117e-01,-3.509698318772243475e+00,2.336538799126595567e+00,2.661143887195518420e+00,-3.090793582408977613e+00,-3.682236334687829515e+00,6.675583989255496897e-01
-3.118416403867907860e+00,-6.036170301451953435e+00,-3.260839411051409620e+00,6.423604917138819204e+00,-3.594372937801575407e+00,9.675661901648038299e-01,5.732455595463914477e-01,-5.949433056005410947e-01,-2.013987699374283125e+00,6.672816806635051279e-01
4.036013853944310226e-01,2.547261413862807355e+00,9.222904412962987797e-01,1.121809089985545516e+00,2.585675281692027205e+00,1.659105145386433611e+00,1.547390318264810549e+00,-1.981659060366953717e+00,4.031094545162770437e+00,-2.507294103383460038e-01
-2.848788231005482618e+00,-5.406841442040261070e-01,1.150075317140012210e+00,1.965811601671072051e+00,-2.183707007974319492e+00,7.267239592634411327e-01,2.840639440372801916e-01,-6.127895952216204645e-01,-3.090578166077740718e+00,6.724011280876923680e-01
3.222981623856426392e+00,1.313175023476054193e+00,-2.776928626058588812e+00,-2.960940684552919144e+00,-6.058388875918536698e-01,-1.624000623114275621e-01,-3.410432135031856937e+00,2.947677638900269237e+00,1.590212114107547148e+00,3.745538180831776143e-01
-3.331216425272656156e-01,2.271234928962874378e+00,-4.114955503298609152e+00,-1.966368770824259204e+00,-3.878369451611183294e+00,1.755918063809407847e+00,1.256324669058993981e+00,-1.259956702848450405e-01,-3.601222394266200943e+00,2.357772397769551276e+00
