-2.972943826725950700e+00,-6.448964802097574278e+00,-1.449839790454258814e+00,-2.168467742083864946e-01,-8.321237454264024391e-01,9.481141900238587716e-01,3.039144471302823280e+00,-1.850744306921671134e-01,-3.460633840498028135e+00,9.852717976189102611e-01
-1.881679349848020877e+00,-5.012791784066228828e+00,2.825783454059189737e+00,2.883681430048565808e-01,1.651080365375292347e+00,-1.577176275162073038e+00,1.375719796894772751e+00,-1.757031370017326788e+00,-7.373631936899810668e+00,-6.317816508320296398e-01
-1.449243837024405401e-01,4.555077327446734436e+00,1.733868363949997438e-02,4.517400068495069920e-01,1.117803867554057584e+00,-9.533883080968030832e-02,-1.939662744396384086e+00,1.522126341334721245e+00,3.457565632965725055e-01,-6.004166099185481720e-01
-1.117307430836085302e-01,-9.027194601821822983e-01,3.918113077219383733e+00,-2.238768430424968869e+00,6.094546768948402082e+00,-2.830140853951132129e+00,7.868508795947550816e-01,3.684909456603473465e-01,-3.517031656553208485e+00,2.226174833150403209e+00
2.812956475819801128e+00,-3.961674691971207807e+00,9.165046710979211086e-01,2.500133758821228014e-01,-1.501646819890547713e+00,-2.942604840119119824e+00,-2.270267317782087790e+00,-2.300794652820344233e+00,-6.784042806590677710e-01,4.980964830668622723e-01
-1.895270336493134700e+00,5.619511615366612034e+00,1.245513705679738292e+00,-6.741752683983540662e-01,3.177340282518180015e+00,-5.173062152794525304e-01,1.287774811879691006e+00,9.757990153131951283e-01,-3.583929775853296196e-01,-2.003759073411119918e+00
2.175137501616860369e+00,-4.603720860640967416e+00,2.116922263163889539e+00,-3.769279756821090288e+00,4.143994676153200274e+00,-3.687916873845587418e+00,1.183850951157375153e+00,-5.153623417893490322e-01,-3.566385874269314638e+00,2.175039916805912465e+00
4.028345797687834740e+00,3.678796888518229835e+00,-2.599378868628929418e+00,-9.920750655733714396e-01,-4.397666427488826635e-01,2.158695773087817127e+00,-4.009369905120083288e+00,3.505950117018414858e+00,1.127308284955342632e+00,1.118558287472795953e+00
8.887945810412599457e+00,2.399938546123089989e+00,-3.247771000345450965e+00,2.889249118492408286e+00,-8.687748922475744706e+00,-7.247732715460932784e-01,-9.272250490485225427e+00,-1.661602990317224027e+00,9.088074298144935170e+00,-3.231920197925335914e-01
-2.375332740768609785e+00,-3.239131384641290579e-01,1.511114794613747092e+00,1.307082065882730459e+00,-4.728944338379166279e-01,-6.424255214509266843e-01,1.955188804303098937e+00,-2.174681826520727945e+00,-6.201374009166529255e-01,-2.070783849565700052e+00
