-1.597609423115564642e-01,2.688222741953278483e+00,-9.521644295960296489e-01,-1.024784609875041941e+00,-1.762866788158213405e+00,6.672330384513776913e+00,-3.606917858705226188e+00,2.414347295696256168e+00,-3.195821986321978891e-01,-2.420886440426570196e+00
-2.484748572511863429e-01,5.191593625651693689e-01,1.099841141612576623e+00,8.711447356668999831e-02,2.911359299003091206e+00,-1.098503720666753392e+00,1.242735507395643424e+00,-1.969195392923489774e+00,-7.685782586530095495e-01,2.255120810526268504e-01
-2.269593826263183178e+00,-2.818943158823534745e+00,1.658217705982929502e+00,6.874906227951360194e+00,9.376850812093050491e-01,-2.281971195433530220e+00,-1.951997589635440011e+00,6.261879643960832631e-01,-5.593649964566040467e+00,-2.719037466012069082e+00
-7.168716364524672091e-01,-2.476956553380468495e+00,-1.192371735844965697e+00,-2.839243245806674310e+00,-3.153464788325155865e+00,-2.017745195345169051e+00,1.288797574501760135e+00,-1.240475739858774018e-01,2.491802572042741915e+00,1.044032405042029321e+00
-2.126999246011872735e+00,-5.348952958877443820e+00,4.316246981537761318e-01,-2.462190167228471616e+00,1.894178912744103771e+00,-2.771865920288620888e+00,-4.317923347086377595e-01,-5.259253743653394153e+00,-1.321503524817551067e+00,-5.489570396040371669e+00
-5.741786176652764473e-01,-9.291927876392984675e-01,-2.623603861762828338e+00,1.986683898782626301e-02,-9.615253381878979821e-02,1.436727277645983847e+00,8.580846928909531268e-01,-7.457799434404055461e-03,-2.043883772355553408e+00,1.471565030322249390e+00
-1.453509405718695691e+00,-5.101648929614291283e+00,-1.133828636542407509e+00,-3.809122348520481705e+00,-9.840716043611096309e-01,-7.386681000075855152e+00,4.209350872267109800e+00,-3.649004745271577921e+00,2.915268169622303507e+00,3.126544104490194709e+00
-3.320779979097432388e+00,-4.932297840733173011e+00,1.355030589066332558e+00,-4.789189835797854400e+00,-2.568769322374520048e-01,-4.966613004423742872e+00,7.456578747057896805e+00,-4.333794808823525635e+00,4.459015685369959181e-01,-3.738123136650984835e-01
1.802947692759023557e+00,4.484425833213258272e+00,-2.220495316090178584e+00,6.468992788905897351e-01,8.967244417296678094e-01,4.952763321427172905e+00,-3.153491199723668093e+00,2.048567045327206237e+00,1.547756643450393099e-02,2.348486533951898547e+00
-8.362739695344296731e-01,-7.067252693724387136e+00,-3.028921882543463173e+00,3.842061860395579842e+00,-1.338139399663839546e+00,-6.940161118840979526e+00,-5.595987265870158822e+00,-1.277925367210855034e+00,-9.099628842225696568e-01,-2.089295193831199882e-01
