7.178585365889491587e-01,7.257592513780306565e-01,-2.122008579559005348e+00,2.515930952107305885e+00,3.173624650335557185e+00,6.545172138030995512e+00,-5.511003641475230808e+00,-5.300880987694484681e+00,-6.380583930559985184e+00,-1.278658931403893462e+01
-2.500589668288649037e+00,-7.186910523544483009e-01,6.970387272924207789e-01,-3.426230649298570574e-01,-1.737806672378915618e+00,9.877964372677430216e-01,1.907634861660868264e+00,2.887515034868552988e+00,2.382439818279509791e-01,4.234326756699557937e-01
-2.762847011967925481e-01,-1.203180237006889197e-01,1.165393029298157579e+00,-5.063876067587201879e-01,-1.535513297595972215e+00,3.650551083691001342e+00,2.348968309560961754e-01,4.546186230807253148e-01,5.308349225528380400e-01,-4.214613906700096280e+00
1.755865179816383126e+00,7.507578575400972731e-01,-3.987258387304832397e+00,-7.509212083885569156e-01,4.218073596443945306e+00,2.615301907442541207e+00,-3.623347916006998126e-01,-4.387833500104322937e+00,-2.878755439106738923e+00,-1.037507225203738770e+01
1.049535040405512598e+00,1.390318833060460446e-01,3.072694185805674993e-01,3.130065899868041956e-01,9.763135752921954236e-01,-1.920059371217343935e+00,-6.506896427282120587e-01,-1.552719127340173033e-01,-6.772838467320707601e-02,3.319663361929858336e+00
3.083143439978958344e+00,1.186605590686331535e+00,1.941678457507565181e-01,-1.145787098307929019e+00,3.443457027799091463e+00,-3.695245260587780578e+00,-3.706264693106338104e+00,1.466933096284096294e+00,3.561490128166677760e+00,1.971011997067761978e+00
-1.786110092945585315e-01,7.064825998711090627e-01,1.229728015274785813e-01,1.477760679471398442e+00,2.815352649322287348e+00,3.169633329792754139e+00,-3.037234228367234667e+00,-1.129992717698409255e-01,-3.280343030696686313e+00,-5.051640201675374975e+00
-3.020863834896736044e+00,-1.126253881179264837e+00,2.100723457210975642e-01,3.519198101596946460e-01,-1.790175810461950068e+00,5.303690155262164030e-01,5.293046601197159085e+00,1.334485488749507898e+00,-2.543899184038571626e+00,3.151892076063488091e+00
9.696273778111542674e-01,-1.042003094495611015e-02,1.554673610041321208e+00,-1.751593785252901103e+00,-4.364519390282136646e-01,1.376823691117520454e+00,2.271291408493310460e+00,1.577388868273478462e+00,1.976629653436872358e+00,-5.985269092697187432e-01
-2.814067856497351361e+00,-7.160661199093133478e-01,2.488518983105384663e+00,5.810691558462406370e-01,-4.375169496482142151e+00,1.312353944141161799e+00,2.879590582879442806e+00,2.299167684358207620e+00,6.105393201760528354e-01,3.343862348184271305e+00
