-7.240432242688267239e-01,3.961707958083899861e-01,1.540537108046895698e+00,2.782380110112220306e-02,1.286080097033615477e+00,-2.736921432473494065e+00,-1.739820537095416730e-01,-3.157886725725392862e-01,2.467938755604142997e+00,-1.266291983653808906e+00
-1.352438504082634330e+00,1.598373327815605816e+00,2.236085852938530516e-01,-4.667163898704670189e+00,-4.374457486865848677e-01,3.144723369552230530e+00,-3.311279218988001816e+00,-1.811351335257959549e+00,4.936929372344445177e-02,6.181460180306395102e-01
-9.015053185325039298e-01,3.361986773463894629e+00,-1.660271758533594655e+00,1.515684812295164940e-01,-8.941564935421165705e-01,-3.707532430888126562e+00,-3.952801634840597877e+00,5.093247582846523791e+00,2.984186296763518431e+00,3.325013757991604813e+00
1.226867494839997685e-01,8.584587651532105124e-01,2.522048376894141519e-01,-1.380535856090300939e+00,2.520806754752924483e-01,5.030071715818198896e+00,-1.824876637576786198e+00,-1.826645233041012117e+00,-1.730891058743693645e+00,1.034993198427753835e+00
-7.150908147138888005e-01,-4.465701546388838317e-01,-1.116724133321079115e+00,1.005076438682737106e+00,-5.631491495375049450e-01,-3.236604650108310999e+00,-8.278802918189648308e-01,2.837845246998100812e+00,6.626114952600512531e-01,2.573524532964493794e+00
-1.194110930091018208e+00,2.108194992874502738e+00,-2.027257331882401092e-03,-1.074281681051210580e+00,-1.659114375830893939e+00,-9.946337674618432878e-01,-2.981161742611875720e+00,-1.117585336622290315e+00,-9.442566154900144948e-02,6.196726517375847898e-01
3.623866908465076531e+00,1.767664596964624302e+00,-6.258836093518458377e-01,3.728793426041551173e-01,-2.815870229224174182e+00,2.286775938089931515e+00,-1.226813255334520125e+00,-5.135396692788505746e+00,-4.152695758253457825e+00,2.495602322764814307e+00
-1.252269742863004742e-01,1.885172413679391257e+00,9.837670521455309514e-01,1.208237727031213488e-01,2.258334367063969061e+00,-5.220481730967357903e-01,-1.424239050247985361e+00,1.990857396459523754e+00,3.304517894032578784e+00,1.660357402924611814e-01
-1.565482395624112621e-01,1.737383786280614739e+00,9.159066615846034320e-01,-1.098453842412942638e+00,-2.523885704609379887e-01,-7.001329204157464847e-01,-1.855858148611672309e+00,-1.933201857249961630e+00,7.566010736036735684e-01,-1.124879611681233182e-01
-8.368643997768170362e-01,1.275044351030516498e-01,-1.289129488857739814e+00,-3.335653263629266618e+00,1.404534026655658741e+00,4.726214474103018759e+00,-6.662698373639914795e-01,3.812290308129430816e+00,1.246997348634390379e+00,5.033606977752866918e-01
