1.696474505887018980e-01,-8.416205000258505375e-01,4.154637361565286291e+00,-3.233087275211627976e+00,1.486339985000702857e+00,-1.244523825148526441e+00,3.701221024036795093e+00,2.658986765644746342e+00,1.178564419977657707e+00,-1.244381733005528901e+00
1.383131715426917374e+00,2.112063250405566528e+00,-2.999840372451725301e+00,8.626107589248429575e-01,-2.251725998250295527e-02,-1.700725149506893130e+00,-1.214174604226234022e+00,-6.987862358993789380e-01,-1.941279955722387873e+00,-1.778125062459896988e+00
-1.287346328529337169e+00,3.274857634858799882e-01,6.378934567592765781e+00,5.583942123941104674e-01,-5.885054012783016431e-01,-2.288203123530508254e+00,1.572544524229859408e-01,4.846026311007396892e+00,-1.096108745863091816e+00,1.243659168750105737e+00
2.968486722555922608e+00,-9.843929624725949318e-03,-9.561076815855082955e-01,-2.162126983204184061e+00,3.156720206793647510e+00,-1.047491683958423403e+00,8.745980102056397643e-01,3.242289176834403541e+00,-9.668141898434011727e-01,-3.364560651149826498e+00
1.496946437923765361e+00,4.152120041805708262e+00,1.489668469631901582e+00,1.386964591126431445e+00,4.509791847907726137e+00,-8.523967187644739818e-01,8.502521844872266976e-02,3.597437790003801261e+00,-4.749743795632950238e+00,-2.538343318059338216e+00
1.310015554335514310e+00,2.889690027866899324e+00,-2.516126566794117281e+00,-1.125057764213463818e+00,6.394371189650138732e-01,-2.339242243597010606e+00,9.783310913486867877e-01,-2.651708929180975893e+00,-1.632231160365070100e+00,-2.465023126306959966e+00
2.926834071811522664e-01,-8.936560818845193932e-01,3.722546996585219592e+00,-1.762483653958130558e+00,1.374178085070852262e+00,-5.568633607504016592e-01,1.359048847518796510e+00,3.046551627844867660e+00,1.023136200581213351e-01,-2.346285276826244603e-01
1.250734753439768809e+00,3.762275881515775300e+00,-1.662578042234837961e+00,-3.362877158729937754e+00,6.607926139223455619e-01,-3.281061936933793888e+00,3.480864956425067991e+00,-5.720979964914033822e+00,-1.191436344052361873e+00,-3.256586111308174658e+00
-7.671497387788788203e-01,-7.376344232146857527e-01,-6.194708184633644921e-01,-6.201581879354967075e-01,-3.725406938136726964e+00,-3.524305456459297048e+00,5.337093632627212259e-01,7.482039649401692749e-01,1.940068607083405450e+00,-8.420652831747028888e-02
-3.204997293686008497e+00,6.345953688576111418e-01,3.476246252155573702e-01,-9.289111184654175180e-01,-4.583554918595275751e+00,-2.616850434441647444e+00,4.210144161644360672e+00,-3.990120213563078444e+00,3.599983865974526687e+00,4.282899861130866070e-01
