-2.454078272406187367e+00,8.001079505517458834e-01,-3.299924575465689736e-01,3.323358136572215904e-01,1.935152176531843571e-01,-4.076749516533710427e+00,-2.154757698426679191e+00,-3.983491249734469331e-01,-8.440043514086112975e-01,-5.696508708668281962e-01
-1.421882012129146722e-01,6.127795879286330738e-01,-9.340261415393594779e-01,-1.873357105845905451e-02,-2.748484783848487378e+00,-6.133488567315927842e-01,2.351418527814060244e+00,-2.362309122827089602e+00,1.743808946318733399e+00,3.188682332262832375e+00
9.802191234710000423e-01,-2.033306005205426370e+00,1.275981033861863789e+00,-2.423532133565639679e+00,-5.431650746791983231e+00,-8.814157832093507672e-01,4.809129535824090418e+00,-9.280582555270170175e+00,2.010428518157895361e+00,-6.225363813045442507e-01
5.477596036891242415e-01,-1.939701841615043776e+00,-1.758708033091020972e+00,1.057509112592614375e+00,6.487572173859825764e-01,6.896665994778635733e-01,3.636490464794482236e+00,-9.471584888661798152e-01,2.655456699896507455e+00,7.729115086477249541e-01
-3.134755013265030588e+00,-1.284082960892392267e+00,3.798788049862925398e+00,-4.192326962586725436e+00,-4.372152113182491640e+00,-3.274136247798606902e+00,-5.433817239473172078e-01,-6.466034468436900440e+00,5.108374510944279079e-01,3.115363681029583720e-01
2.185960732405384022e+00,-4.649336914914292684e+00,5.560727083008734084e+00,4.611018923065174357e-01,7.605449374672020646e+00,5.100268378441200845e+00,-5.193091981431321891e+00,2.076281968694447144e+00,-2.257889667088025742e+00,-8.534878128769149974e-01
3.195741465427919703e+00,-2.166075417393920954e+00,-4.005219249712265173e-01,4.937595238618097127e-01,-1.175445137482796776e+00,4.587843612196876641e+00,6.791626617179506997e-01,1.079897462768253824e+00,-1.564692206536931751e+00,2.467909963586076838e+00
2.960918913705165689e+00,2.116270483157134397e+00,-3.887719870510796927e+00,2.458272145642722784e+00,-6.733971147183107631e-01,1.586921288745094749e+00,4.028047085311126096e+00,8.797767618608269835e-01,1.263365889986022506e+00,2.234676406490291312e-01
-2.923493719404511193e+00,-2.132012838086226603e-02,2.495634843025757554e+00,-3.937128229568607640e+00,-1.875702456410454078e+00,-2.556605050350378328e+00,2.898559346076978738e+00,-4.934281786574868711e+00,3.823837061555645622e+00,-3.307632179301500219e+00
9.352056258116048237e-01,3.020439721070617978e+00,-1.970588796491790529e+00,1.352548896815187529e+00,-2.868317817632002331e-01,-4.608370317374543834e-01,-1.059034938565633022e+00,2.545345653215084880e+00,-1.944737032034076218e+00,-1.110781362720355769e+00
