-1.285547934267498027e+00,2.275328600852757788e+00,1.202795729279695580e+00,-1.891268975046030310e+00,-3.468493667868389529e+00,2.898266131308246063e+00,2.541097204549382482e+00,1.727945197133675448e+00,2.279061956552296264e-01,1.197579959453917375e+00
2.898986440266423603e+00,-1.525297850064237126e+00,-3.153953265375724069e+00,4.140031945348590092e+00,2.799117458019118931e+00,-1.327444472544447640e+00,-1.496066812295498316e+00,-2.846509735622967385e-01,-1.764152076948427128e+00,-8.615137628272549364e+00
1.825542309625038939e+00,3.966992303483893867e-01,-7.383214132751593217e-01,2.111513787756372995e+00,-1.202962611632050427e+00,2.415762020987456335e-02,-2.376001256841988152e+00,-2.995502526707186086e-01,-1.037781452327382503e+00,-2.012346494075885950e+00
-1.680389024934568099e+00,-1.881092178481786004e+00,-1.140528787960212398e+00,1.753550843064733300e+00,-2.111406199105623216e+00,-2.789046299411385821e+00,-2.699471090582586719e+00,5.658648458437394169e-01,1.691281605814084488e+00,3.564251216107517717e+00
-2.707579384908577191e-01,-2.390242739335641797e+00,-1.537970097919692629e-02,4.753963080093534521e-01,-1.483645839527208965e+00,-4.002015155535241675e+00,-2.319989886031037063e+00,5.016941866291780627e+00,2.471292841647603655e+00,2.221570905675260388e+00
-3.621630140186456348e+00,-4.065644103338476256e+00,-2.088262050685893545e+00,3.374286582467284301e+00,-1.148066436377384258e+00,-8.833841285259741438e-01,6.561755769068698951e-01,-8.786225379115901291e+00,3.941764606631254608e+00,3.362411813000205196e+00
4.988097907010369814e-01,3.735878697761619183e+00,-1.535195089406347080e+00,3.343272364803698604e+00,-1.413491019939070892e+00,1.124090135335314850e-01,-3.459029272092440710e+00,-1.695984550492963816e+00,-2.497226604778072456e+00,-5.511856256477800642e-01
7.372026335056728330e-01,1.402047941330653913e+00,-4.273179534101695931e-01,2.490167771039337452e-01,3.108909623708595582e+00,-2.656490218534020009e+00,-2.791384295395660242e+00,2.196689047116879845e+00,-1.998495624282423444e+00,2.273909084917533630e-01
1.240216741771007269e+00,2.936604933811932217e+00,2.046395276123988138e-01,1.413632473530398448e+00,-1.263239630051987250e+00,8.226321719705453894e-01,-1.393670241160745338e+00,-7.565961842297327378e-01,-1.084679232016773520e+00,-7.922772279172198839e-01
4.294939032691211245e-01,5.288677871440701672e+00,1.705133231240613556e+00,3.870929724869380251e-01,2.969045037395905862e+00,-1.092163340944933558e-01,1.685546625452962077e+00,-2.539820089656574797e+00,4.778817033499698774e-01,-3.334267418657929083e-01
