1.907511443192750233e+00,-1.392649345576880249e+00,-2.399830462189260327e+00,-4.542335509516817055e-02,-4.041379456865797359e-01,-5.599695166136893221e-01,-4.335057447823103871e+00,-4.395635769077953725e+00,-2.129517593716915957e+00,-1.694646704328869324e+00
7.141422408110553732e-01,-2.447994816634376569e+00,5.140281045842579610e-01,1.368461635045228775e+00,2.245016762266358157e+00,9.591441342749028598e-01,4.011941324759103478e-01,-1.060674501200003395e+00,-1.561371494620067635e+00,-1.935078590878914540e+00
1.715415394294909968e+00,9.524827038168243165e-01,-1.098797364532759557e+00,2.787907181900776965e-02,-4.903668097705449203e-01,1.264403667091938743e+00,-3.738585680780987519e-01,-9.056680163805762573e-01,-1.423701199948720575e+00,-7.506778091841357359e-01
-1.362333422863888144e+00,1.914815473895103148e-01,3.306607757629310029e+00,8.965594257548890056e-01,9.258509380601296357e-01,1.572592959938837742e+00,5.276884532865529387e+00,5.577541366457014149e+00,9.564574719204034237e-01,8.465771942127831018e-01
2.848227810322899511e+00,1.512899770100242902e+00,-3.977394628877277238e+00,-2.170181620618229612e+00,-2.198832583000690288e+00,-9.867919904861470748e-01,-1.019867270670611115e+00,3.647552843868374861e+00,1.515880191185728476e+00,3.975057468144014727e+00
-2.839999761677232115e+00,-8.493229174145735527e-01,3.686016570455127872e-01,9.120313010292112610e-01,1.378600802496670941e+00,8.565844114915018848e-01,1.072904331657128285e+00,2.536627841077547352e+00,1.606201392657969906e+00,9.190101990180695735e-01
-2.851039768165102850e-01,6.261800434679031468e+00,-3.787996957803914988e+00,-1.175816680638479328e+00,-2.985105462565575962e+00,3.169945294159572047e+00,9.950222298576248958e-01,4.262125254291152743e+00,1.218854929112113794e+00,3.215466736468959752e+00
-3.510653344817743271e+00,-1.040688229196716108e+00,4.936530310633576724e-01,1.785765763651961935e+00,3.753469856857646114e+00,2.929904074419834803e+00,4.633060610348389119e+00,6.407988358729482137e+00,3.132037439652612054e+00,2.193821255811845727e+00
-1.310464048837941986e+00,5.741001302793322658e-01,-1.189197486489781852e+00,1.269449717576265568e+00,1.210415426122047666e+00,2.044090430012966753e+00,-9.130078005244979256e-01,-2.787324406145882172e+00,-1.699745641458739964e+00,-2.179558446504517022e+00
4.440473016219813052e-01,1.685727283148614308e+00,-6.873745914608869745e-01,-1.066945524623956754e+00,-2.200837561379102691e+00,-8.883657119090344612e-01,-6.906574467583301846e-01,6.969689454436585052e-01,-2.547580780900156605e-01,8.752651911399688123e-01
