1.208680790226241530e+00,3.026145676426386544e+00,-2.473330655425029168e+00,-9.649850751208972621e-01,8.511661149578755303e-01,1.118471517955775374e+00,9.592373124407674867e-01,-2.688525838404097534e+00,1.933353390093146995e+00,3.741340040397940214e+00
4.265554635583393428e-01,2.010483430772814106e+00,-2.909175166111065192e+00,-1.034664875078977087e+00,-2.980439481401678803e-01,8.515449687415969082e-01,-1.122750167517703179e-01,7.332764218544387536e-01,2.325664362521754125e+00,2.062633047459041968e+00
1.310487889644182502e+00,-4.935961719831456485e-01,1.397937278698847097e+00,2.507237675749081074e+00,-3.624370256936646939e+00,-6.462624153809736205e-01,-3.583281705967173103e+00,1.696416677296320730e+00,-1.290710203075042584e+00,-5.535173476897148781e+00
2.658010409684770536e+00,1.338365135604173473e+00,8.276579282342219068e-01,-1.404339793060534136e+00,-2.436217600448104204e+00,-1.554310422581274942e+00,-5.097746057558074639e-01,2.110577498718690936e-02,2.903564581159213454e+00,-3.674612685829296232e+00
-1.351460857724636977e+00,-4.579815135397444781e-01,-6.729972825227539257e-01,-2.003923243714279323e+00,1.152053148831719387e+00,1.464559712371699352e+00,1.031472825100922641e+00,-1.419053446337571467e+00,1.370516742005722932e+00,2.406626658303674393e+00
1.051394137995409039e+00,1.446899137008744951e+00,-9.266919904436420330e-01,1.375210575476516262e+00,2.120136669195514578e+00,-4.636920825883901198e-01,9.749728921137519322e-01,-1.242888753778038868e+00,-2.224438288460866886e+00,2.978704454656809553e+00
-2.975047357199924747e+00,-1.046499625998505323e+00,-8.195418043421537346e-01,-8.716378970677265414e-01,-2.245735858545531816e+00,8.662394381588435222e-01,-2.833737954360726174e+00,5.741370992704001530e+00,1.775363199338784614e+00,-1.924108963527623173e+00
1.379611999477775353e+00,9.874645951203080418e-01,-2.079589106024091194e+00,2.576300394135995764e-01,-1.203372461805551685e+00,8.041804875134521691e-01,-2.573014507595018152e+00,6.903849964140590378e-01,-2.648480500164339668e-01,-4.382368200877537201e-02
-7.579485592978429942e-02,1.932684993692259212e+00,-2.538792773280843296e+00,-2.017067239114812338e+00,-1.908461848028804031e+00,-4.362205476722336162e-01,6.350916576241434353e-01,3.959549206305824409e+00,5.319684624257210004e+00,-4.793098398277615413e-01
3.509951875715270120e+00,5.690799214129592443e+00,-4.781203011319075102e+00,4.284540890607047570e-01,-1.703040096727843622e-01,-4.694180088554184005e-01,-1.750218282571537554e+00,1.516490510987777984e+00,8.700792580174632196e-01,3.241178363356680414e+00
