-2.614522421273264730e+00,4.050296760604914503e+00,1.164818451184273629e+00,3.983628374901378333e+00,-9.572671891558210966e-01,-3.568528162592101260e+00,2.518573718340862744e+00,7.534134009528210829e-02,-2.125881089286700831e+00,-1.653460080378708064e+00
-3.630603144147418471e-01,1.459296567569919434e+00,2.725381165013739615e+00,9.247974242870774519e-01,-6.929833992826837097e-01,-2.795435623540913461e+00,-3.945704735126660534e-01,5.759289875036482931e-01,-3.137429762236943809e+00,1.145347961927791536e+00
-1.804705666055861579e+00,-1.993242571490130510e+00,1.725136696711266904e-01,3.816834656327645070e-01,-7.125432954487422865e-01,-1.723149112794301052e+00,-2.687997031812237592e-01,-1.953824294461647515e+00,-3.826706555826712375e+00,-3.237469104587360480e+00
1.249570438243770898e+00,-1.556560523296868448e+00,6.825462503627826027e-01,-1.244477649313546763e-01,7.243338673259080984e-02,1.026414671744651841e+00,-8.843229371145261419e-01,-2.342121030588143193e-01,-2.004284088459009627e+00,1.511524612072257190e+00
2.899440620874409458e+00,-3.993004671343261869e+00,2.257401395286886547e+00,-4.525281291210137002e-01,2.780558123792912451e+00,2.007468423792738932e+00,-1.814272744293749628e+00,-1.983233178981097522e+00,-3.611354927535325388e+00,1.076939847289108076e+00
-2.278505900813708518e+00,-3.183782730284286377e-01,-2.103402388151133229e-01,-2.964798515270146595e+00,1.683757854347184502e+00,-2.753247426254793684e+00,-9.795535650442228626e-01,-6.735261466204298664e-01,1.641782818464239124e-01,-1.123550635379255702e+00
-1.507773006964666096e-02,1.008230907416467037e+00,-9.791274543389408835e-01,-2.160404493539038739e+00,9.562715458192358464e-02,-3.054906889111647095e-01,-3.139057684713812968e-01,1.190314095240985415e+00,3.450870733038023275e+00,6.238545166923405993e-01
-2.472605462008754085e+00,2.777139182731870548e+00,1.214639411217650844e+00,1.138828402500402071e+00,-3.414049523995533075e+00,-2.921384647078137498e+00,9.755529943748920962e-02,1.808638936730670332e+00,-9.343069921384367094e-01,1.912677161025064243e-01
-6.664107619622390288e-01,-2.995789320722304083e-01,1.333104273766889669e+00,-4.632091761085503911e-01,7.340439777292184775e-01,-1.875425203594845769e+00,-6.855121276331761493e-01,-5.403751459584767991e-01,-2.554904731738911750e+00,2.395648624477183519e-01
-5.777991407281406477e-01,-8.050506081627384347e-02,-3.075577092000393975e+00,-3.678955351418897735e-01,-1.904529329771966761e+00,-3.123945485562464874e+00,1.387725049034150837e+00,-8.226659612528561816e-01,-4.170353246053892349e+00,-7.989550080654781450e-01
