1.352631475309677977e-01,2.967334538361553475e-01,1.423295352192186503e+00,-1.678332327504533872e+00,3.743733696671427968e-01,-1.238047106040593981e-01,-2.532348266866271569e+00,-1.930859969725968739e-01,1.211831943662617928e+00,2.144676135423255303e+00
-4.693243044602756209e-01,1.891815030636454786e-01,1.644493751355901923e+00,3.085374225176655383e+00,2.462627034247069358e-01,-3.393144569954043011e+00,-3.639213386550589124e+00,2.094706092460041358e+00,-2.156597156052515896e+00,-4.608802971215332778e-01
-3.292440300067132508e+00,3.108228461515422758e+00,1.505164078590989885e+00,-1.016842105076901648e+00,1.897004815008599410e+00,-2.654929683126113105e+00,-5.789333148426880626e+00,4.509735274777446179e+00,2.730244693673653522e+00,2.331682297399673587e+00
-3.759111712820788487e+00,-1.610184320140242153e+00,2.059055895537310832e+00,4.718195001636384056e+00,-1.532770417115704387e+00,-1.231816159784681730e+00,-1.469614130222459680e+00,3.142021636722544198e+00,-5.790726027706149637e+00,-3.931243818191611172e+00
-1.117221170332884039e+00,-2.616240512186095213e+00,-6.137035707726896661e-01,-3.977690459477631002e+00,-4.319484240576002554e-01,-2.084992948237879951e+00,-7.141240434523328240e-01,1.490995575499717063e+00,1.863537566710174787e+00,2.542642164468925881e+00
3.196109608226297416e-01,2.274575828298076363e+00,-1.918404997776622656e+00,5.799340877888731205e-01,5.813663077166781878e-01,-1.335691269482538468e-01,1.392237424432144488e+00,-8.077259035468842274e-02,2.435121129206775592e+00,-2.463537773101042161e-01
-1.801927415807436317e+00,-3.752557084988621838e+00,2.318919013244675753e+00,-1.303798585724572634e-01,-2.823572045324121316e+00,3.033632757064017582e+00,9.189542878411004478e-01,-1.485680934220094507e+00,-3.959920902966937106e+00,-1.516810917750277543e+00
-6.615525596945339704e-01,-2.419546273862021035e+00,-3.510455616918119581e+00,-3.990707185005749058e-01,7.826169220397525272e-01,-6.334584338436176632e-01,2.451351013287180525e+00,-6.080638311900418147e-01,3.236391689094190838e+00,-2.295281006955766756e+00
-8.593763294838510092e-01,3.627636823493422535e-01,-3.963091035079292279e+00,-6.202622317997689150e-01,-1.955465814462655771e-01,-3.793026410810484972e-02,4.317780681117510788e+00,4.559329104914392472e-01,2.838888836669346993e+00,-1.183164213804187792e+00
1.762575266897136395e+00,-3.399506952068450882e+00,6.619034525425940840e-01,4.674848870163376136e-01,-3.064368698082873821e-01,-4.132491499261061740e-01,-1.218379300540970434e-01,-1.815985380048669384e+00,-2.063880049852694576e+00,-7.425009263652179170e-01
