3.987221225027914873e-01,6.953596036241593836e+00,3.824730108955239238e+00,4.540738232556611464e+00,4.696760747486359300e-01,4.423267841423530911e+00,-5.370384756539623439e+00,-1.561084620911285636e+00,-1.979317890281150794e+00,-2.269680160760076060e+00
7.550592893574838982e+00,2.007536408496148006e+00,-4.737812617337708310e-01,-6.805895026591177732e-01,1.769018387111351398e+00,2.380999335063261668e+00,-1.954311086428665467e+00,2.745803309945194837e+00,1.488407846283280822e+00,9.059616823778400274e-01
-1.168722721061242975e+00,5.161170968797011760e+00,5.209828277795214291e-02,3.370090279079215101e+00,-4.178280722131892944e-01,1.729755642432188267e+00,-8.472553710057750820e-01,-2.807353923187805744e+00,-1.960895865703102592e+00,-8.421404539146948309e-01
-3.384136882785641731e+00,-2.514564569153917351e+00,-8.856130852492827277e-01,8.022158787539424019e-02,-2.732573860523014098e+00,-6.120592037753653791e-01,7.838256814858406418e-01,9.048641898817627593e-01,-5.149244298539338294e-01,3.464799761407814316e+00
-2.309853165915859652e+00,-2.090445866473406689e+00,1.311558082861463248e+00,-9.745115939005952743e-01,-1.349277133406559859e+00,-2.733998001651651855e+00,-2.298138571535403241e+00,-3.728209776943758769e+00,-3.265381336098031717e+00,2.968472002101526730e+00
1.006912249871436060e+01,-4.227790735123465815e+00,-1.035619350654138593e+01,-1.364580613862054648e+00,-3.239570145211027707e+00,4.035300314123998255e+00,6.851897022821145100e+00,4.439970590256855587e+00,7.356354787283274632e+00,2.930789101647170991e+00
1.210357648119677831e+00,1.785274456508554541e+00,-3.353964640068657577e+00,1.749131538214126147e+00,-1.489457622600977027e+00,2.641958136352825282e+00,2.403658230465098633e+00,1.459012911371193599e+00,1.375489148506802595e+00,8.062129094273405849e-01
-3.411676363374271048e+00,-2.389196191503401234e+00,2.572802917632468933e+00,-3.822556406201342849e+00,2.786113650004426123e+00,-7.142426202478596053e+00,-1.708944596478626510e-01,-2.717084688816338911e+00,-3.241406303298573821e+00,6.079382297729503115e-01
4.212284487582953929e+00,-9.085740876149279721e-01,-2.608149521155868733e+00,5.552958982957617584e-02,-1.400255850374211741e+00,4.982419468901853499e+00,8.977415154572269129e-01,1.428015284234049331e-02,1.987757940612013829e+00,-2.495064713528565736e+00
-1.901825860096576504e-01,3.020712633864228724e+00,-3.127108892656335293e+00,1.282934375510610181e+00,-8.474047576277123905e-01,3.756213986440926966e+00,3.043986167218348360e+00,3.483559332058500324e+00,1.518716943695609944e-01,5.475253728986310131e-01
