-3.497578822249344466e+00,3.543414968001145748e+00,-9.523300213778170820e-01,-2.781603599255380477e+00,2.337427876228145518e+00,-3.722896111108327410e+00,-3.418395970618569368e+00,2.357770268918669476e+00,2.893003092878201343e+00,-2.558614150136758969e+00
1.042859396418266638e+00,-2.588217706395917972e+00,-1.601078684297989607e-01,4.257777125512926530e-01,-3.001047741665728630e+00,7.323163233118124005e+00,7.434803466995451027e-01,1.710850518245248475e+00,-3.969327423724293702e+00,4.981117538103077003e-01
5.850719532812346912e+00,-3.143963181997144307e+00,-1.762760465149945110e+00,4.207715008725137484e-01,-1.366055197837669377e+00,-4.759283294317062207e+00,2.568384230047126238e+00,-1.409498937709736888e+00,4.862180109153899643e+00,2.244682845835907159e+00
1.919832115742973855e+00,2.306697795141069707e-01,-9.657685508137188179e-01,1.519794740559661794e-01,-1.366886167943772989e-01,-2.555804973581335737e+00,4.186946965250277208e-01,5.578030642891568247e-01,2.940326022538231054e+00,3.099131840592170839e-01
3.639590973270390717e-01,-1.065202940477348648e+00,-4.803384219073651706e-02,1.537158623958142067e+00,-2.664050944044770830e+00,6.285363399584178445e+00,7.708255298266432076e-01,1.927669548582674697e+00,-4.162510315251180870e+00,1.761875885634435479e-01
7.046371897950238328e+00,-3.831603350792324836e+00,1.165566135612029264e+00,2.154772448311251143e+00,-3.275054345759837116e+00,-3.803455329002913388e+00,1.847062474322716641e+00,-2.178627761035914379e+00,3.694115427154741838e+00,3.515712003345312642e+00
-4.619779208735127263e+00,5.547834617769865639e-01,4.668692389422144928e-01,-1.496935649028874771e+00,1.745119301497392472e+00,-2.780674880835594998e+00,1.773324889877573973e+00,1.464136668167541622e+00,6.787596355883961374e-01,-1.813619429638822167e+00
1.840602862494138403e+00,1.458297620973054154e-01,-1.096438618068731552e+00,1.052603629986984535e+00,1.815662151751010533e+00,-2.310070450820742138e+00,2.685413963987814512e+00,-2.382800212568378928e+00,1.873575103859570712e+00,9.349341542890095003e-01
3.666564227743221327e+00,-1.704488440365797164e+00,-3.921899689973188163e+00,-3.129646867978173486e+00,-7.080117349605715704e-01,-8.444581091051094335e-01,-1.694241755033940366e+00,1.369421930233347018e+00,3.979728715553051188e+00,6.794058108106063032e-02
-3.170167333231733164e-01,3.777893340760738461e-01,-1.876071426060436642e-01,1.227566965982500147e+00,1.036761129227639522e+00,6.502334495666162173e-01,1.480861780446792508e+00,-1.684054150032860075e+00,-1.580975638259870086e+00,2.840397636130662096e-01
