-1.890105900318310939e+00,4.397154327612680547e+00,1.156096948728550372e-01,9.605943783903111988e-02,-3.187649644648376523e-01,1.070107606270995548e+00,1.279302559889154978e+00,1.801681597141075786e+00,-1.339709305766975389e-01,4.757566787961744481e+00
4.467188343759833202e+00,-2.189607118514031558e+00,-1.282654422307286435e+00,4.156025846376092403e+00,1.951168974410968093e-01,-3.955212616092778521e+00,4.884763252357354091e+00,-1.436632470893849822e+00,-1.276543390251474897e+00,-9.051828074739274754e+00
2.279269237052233166e+00,6.656388350476012405e+00,2.605206111943304759e+00,-3.968223078870138476e+00,6.320880559690041089e-02,2.059777895932293212e-01,1.209090359877218468e+00,6.487246200145189157e+00,-2.254224837070264442e+00,7.515168138479307203e+00
-1.412594585475208886e+00,-4.466161868839599869e+00,-3.163030974786651850e+00,4.246473285130191400e+00,1.778258384363971212e+00,-2.284500338238859216e-02,-7.883187911695426209e-01,-4.771663650337903739e+00,2.093416052658714666e+00,-7.207696468864758010e+00
3.301823397945832794e-01,-6.733197022045273705e+00,-1.967729336553660113e+00,2.166608323880172549e+00,7.266663506970399977e-01,-3.231754892020301195e+00,4.108448565008103182e-01,-5.985545103816175327e+00,1.436438414817464482e+00,-8.273609518137503116e+00
-8.728707102232298176e-01,-3.344959734139417495e+00,-1.218859508702254235e+00,1.928464478747020205e+00,3.552782411769244697e-01,2.007672079052436942e+00,-2.587372579982045728e+00,-2.304024591286492285e+00,1.916090107935403575e+00,-3.941685162415766719e+00
-1.044570825323835467e-01,-2.789958036473031422e-01,5.688578413354558050e-01,8.620742450642125965e-01,-2.561839148215134809e+00,-2.556740453607048158e-01,2.614477540275709000e+00,-3.896417055152752162e-01,-7.108444058325601445e-01,5.870943014641104574e-01
1.719013717934529062e+00,-2.204722495542220440e+00,1.241699811289333155e+00,-1.566726603456108036e+00,-1.168640154393441710e+00,2.228722588413573347e-01,-8.194668915355189931e-01,4.033733944766532131e-02,3.814357466448108358e-01,-8.562570547067774873e-01
-1.815743795543337327e-02,2.111889519142919447e+00,-9.820813092907487718e-01,-1.539783648073041744e-01,2.762548030536534416e+00,-2.570955382615945362e-01,-1.608543006168123568e-01,1.228932701895002699e+00,-2.906012253919936228e-01,9.646071512749067045e-01
-1.931449582083256677e+00,1.343933914107138472e+00,8.072365286218454727e-01,-2.655417261978200827e+00,-2.089427499730306739e-02,-1.093240271757827120e+00,-1.221518058392305539e+00,-6.427795480967573027e-01,9.662611360754743695e-01,3.409734198470866673e+00
