1.445929708658167945e+00,-3.138467269998931108e+00,-2.946375130639089068e+00,-3.652618487731321140e-01,-3.727849823221787595e+00,2.151069489311383531e+00,2.570857979300366303e+00,-3.698515253297427918e+00,2.867540976357621507e-01,-4.710449382330132551e+00
-5.313948198452987937e-01,-7.704343091123160292e+00,-3.682778340515881599e+00,-2.908484016860950039e+00,-2.228405378929549374e-01,4.260605811890582628e-01,-1.777251376498051538e+00,1.533872462381968838e+00,4.368142564478818546e-01,-2.439257036483712504e+00
3.510454819280001804e+00,-2.291249559224332710e+00,-1.333676749890726043e+00,-5.186972671103664556e-01,-1.680576315518024444e+00,3.788576197318714645e+00,3.052963559920595316e+00,-2.728699950997464541e+00,-4.898810238775383463e-01,-3.409961769992775782e+00
-4.108020830716044181e+00,3.044488973654101205e+00,-4.640607394257014739e+00,-4.318014886963462695e-01,-4.837775199947693672e+00,-2.940517298006823044e+00,-3.862416664808928091e-01,-2.380509313874259458e+00,-5.861362892981857031e-02,-4.421588526732731950e+00
-7.730083367844444581e-03,5.029300254530254755e+00,3.833084023871188517e+00,1.577816261951804355e+00,3.132861738016688324e+00,-3.688490456244406968e+00,-8.588156211647517413e-01,3.231957163275264722e-01,-1.455604382320609069e+00,1.944964845391760955e+00
2.094541499280130115e+00,1.334762665909629664e+00,7.650687470262101941e-01,4.712973215085711903e-03,1.788310594489002758e+00,1.052217302429657941e+00,8.268654444556315930e-01,-2.837827164571372629e-01,2.078991174604399861e-01,5.377572638809348105e-01
2.464544016381200020e+00,6.484885265785160335e+00,5.184973258182295375e+00,2.587817817780575957e+00,2.822334533039521975e+00,6.853206792064118202e-01,1.965383134357134187e+00,-1.052141552905549338e+00,-3.575863407631669211e-01,3.270732644728258531e+00
2.772669933496754724e-02,4.557581903339062990e+00,9.394650597355629351e-01,-2.862865462138209249e+00,7.180706243964877444e+00,-2.838550842809593799e+00,-2.046550097114498534e+00,1.179262322023037629e-01,-1.757526830448927546e+00,-2.921355117096939402e+00
6.676821873708411736e+00,-5.672392291107674289e+00,-4.819177204630246791e+00,-2.125538330848553592e+00,4.062464661227639939e-01,9.900004509027681143e-01,2.514542773219880623e+00,-3.937222169860548071e+00,4.626249943700687650e-01,-6.574838792768225915e+00
-1.083540045807027674e+00,-6.113741033324693319e+00,-2.025030518487419773e+00,-5.419467969573876331e+00,3.664665320870129861e+00,8.731476908336462728e+00,3.680260516911159629e-01,-4.473200467227254062e-01,3.197362343615440583e+00,-3.647825882640315154e+00
