4.848777649353811725e+00,-7.863011623465733235e-01,2.851684488149189622e+00,7.846995482715500847e-01,-1.703773174551570291e+00,-2.804856521883344556e+00,-3.299509774013664187e-01,-2.579294753644643667e-01,-3.857523569142347508e+00,-8.526786967824474317e+00
6.253108854308627729e-01,-6.380653592373035643e-01,1.402603755791415496e+00,-9.707475260843775322e-01,3.378278306603262893e-01,-3.451975880758517246e+00,-2.520750516877338754e+00,4.927903952079502048e-01,-3.119987026443288514e+00,-1.574484353872249498e+00
1.603543753488937962e-01,1.891249657178132038e-01,-1.863597990081981459e+00,1.294730298083644815e+00,3.971604779341280089e-01,-7.733251613032574023e-02,1.290312294205405941e+00,-3.309060320472847483e-01,-2.447638688042641952e+00,2.038987486564067808e+00
-1.232732865873774619e+00,-1.769889193064009270e+00,4.129718905109299953e+00,-1.037643473249151738e+00,-1.089990937216628458e-01,-1.167836724773844592e+00,-3.392786707350730957e+00,1.350605448020680388e+00,2.037784877600439692e+00,-1.444166762887386879e+00
4.531365985575433797e+00,-2.212863021838383126e+00,-4.531979266586362520e+00,8.101166200254040772e-01,1.210735675758516150e+00,-2.436450017951086622e+00,4.978388739954865194e+00,-3.766845937660788124e+00,-5.702395527165167621e+00,1.687672674884215240e-01
3.319100741752690098e+00,-5.198349278626170467e+00,-3.176328814527474620e+00,1.117431411424722396e-02,4.626619249544501322e+00,-2.957395826085936541e+00,3.692023214251054952e+00,-3.453876669736411387e+00,-3.836069630948465647e+00,2.745643470515382489e+00
-2.509053206756645338e+00,-4.962238422334943055e-01,-1.868518684928604179e+00,-2.729688358953694660e+00,4.526062518937120083e-01,2.654047455965336533e-01,-5.433108271457511851e-01,-4.649849378174313319e-01,3.087960462784149485e+00,3.436108340880478007e+00
-4.256120859018416525e+00,2.708426178343614321e+00,-4.780937793192495455e+00,-3.595125138503454831e+00,1.808738662994568314e+00,-1.136958015076778988e-01,-1.028562395982890898e+00,-2.677333290530493071e-01,1.182428470728111858e+00,7.710403111182861480e+00
2.338208094332539400e+00,-2.132902831900302942e+00,-2.292000229338301054e+00,1.578443082634539474e+00,2.154863738891405589e+00,-8.396432267675651984e-01,3.367989643751687634e+00,-2.087983773278478505e+00,-3.239733499667483141e+00,1.876756851110086943e+00
2.814800228390792469e+00,5.080235298170808100e+00,-4.301388337752174884e+00,5.581509478453535067e+00,-1.999055088212970288e+00,3.283673366798288029e+00,4.732776439466268137e+00,3.715546434858384983e-01,-5.839751158286607513e+00,-1.436392004746075868e+00
