3.119811396414058913e-01,-6.661878941497694218e-01,-5.894834679588526472e-01,-2.127643910734413057e-01,-5.387087847304817601e+00,-5.929750323554878300e+00,1.077233044737185175e+00,-2.761734213809350358e-01,1.969671476480934658e+00,3.834454050607283726e+00
1.414405461718179158e+00,-5.138352826309615651e-01,-1.172033173251825655e+00,6.334502832938059269e-01,1.246867844831724970e+00,3.450213141960721153e+00,5.653213224005096960e-01,1.720256165064378617e+00,1.221928849595954159e+00,-8.693506591354605018e-02
8.128086045322640008e-01,6.265402578781361642e-01,8.122723569182506154e-01,4.490293829507621681e-01,3.037031682679708355e-01,3.353336467934389553e+00,3.348924889730830134e+00,-5.941530688860856557e-01,-2.017770992091555193e+00,-7.917802285485999736e-01
-9.149847992738799896e-01,-1.531241701088590368e+00,-2.236239518166842188e+00,-3.082674309902864729e-01,-1.074642355387587900e+00,-7.567492530734507561e-01,2.432020479411454161e+00,1.985519040866999818e-01,-2.777805351157578428e+00,4.812485537694545235e-01
6.036291569421092795e-01,1.628188246023638985e+00,1.864649283632494825e+00,-1.456178676578429379e-02,1.074050044217994326e+00,3.339704664767582987e+00,3.535778698648361029e+00,-2.972821221646620771e+00,-3.773110340375794625e+00,-2.410614870506543550e+00
-2.324000575769122445e+00,-2.063748812542974598e+00,-4.395750326871443292e+00,-1.457902190140502263e+00,-3.727002405979548794e+00,-2.764280677028251088e+00,-2.025819215124699202e+00,-1.300925640495569358e-01,6.243883406561239191e+00,2.465851269714025129e+00
4.149921135856450505e+00,2.279054086248603728e+00,-2.558140533479581702e+00,-3.440671656339441054e+00,-1.923461720962485577e+00,3.007893374126373143e+00,7.429432002763879161e+00,-1.018101472617507497e+00,2.237836146554334160e+00,-7.278805934107274167e-02
-6.797932822886170179e-01,1.008569035430948668e+00,-1.548440362983272145e+00,-3.108075802155668477e+00,-1.605778297868703186e+00,-2.158399643357497677e+00,8.208626511459021780e-01,-6.717096723698264826e-01,2.264511321698162938e+00,2.091065028232064471e-01
-3.660220544008590426e+00,-1.648325380612340574e+00,-1.608381024886055721e+00,-2.101510042282095370e-03,8.958382596359879546e-01,-1.086979991054460415e+00,-6.695838927783749561e+00,2.953045580103865753e-01,4.392868285509446302e+00,-1.398554419312645902e-01
-2.456742013205404973e+00,-2.479193283853219132e+00,-4.667483154205063656e+00,-1.046635211512183306e+00,-1.589972845807648083e+00,-2.617479152774911944e-01,-1.104738791916076490e+00,9.064596973362990528e-01,3.503986631556656572e+00,1.218971684033557157e+00
