5.383298372366507323e-03,6.502764676853477477e-01,6.529723943388715535e-01,-1.228985851800611595e+00,-3.236311661074426471e+00,-2.008964685898447566e+00,1.334667815556471182e-01,-8.442120190770008303e-02,1.814398190325315241e+00,-6.516103162651099012e+00
3.788535773597000667e+00,3.946372604555935748e+00,-5.557324068680011830e-01,1.526744621073888197e+00,3.089922840416635452e+00,-5.044424940706990768e-01,1.397899052939378883e+00,1.928736067776581020e+00,-1.818263979718676815e+00,-1.617464166164084283e-02
-6.021070235470991072e-01,-2.200493287175609325e+00,2.033401903729487259e+00,1.266911031159302592e+00,-3.456533467819451033e+00,-2.754761409802350514e+00,-5.999928701529589903e-01,-1.786358687293608583e+00,-8.080858883235365608e-01,-2.932722048623823241e+00
-2.859229884200641170e+00,7.231517641772065019e-01,-1.043061625117033708e+00,1.388767364624126310e+00,-1.517212685465831434e+00,1.308902831890645269e+00,1.824921771797156644e+00,1.538645490428327822e-01,-1.623571279378921428e+00,-1.582949948713280763e+00
6.109798273913608746e+00,1.270312613080972319e+00,3.163933389670304575e+00,-2.956785620802869996e+00,2.076464426174547739e+00,-1.144377963494701556e+00,-1.113243246927935637e+00,8.620046851047888925e-01,3.952564339107128344e+00,-1.693591268183450849e+00
-4.964976365294399230e+00,2.984380527666729566e-01,-1.125448835552281146e+00,2.277256487042510713e+00,-2.503581045197884603e+00,-4.446354663325143619e+00,5.971579807815567964e-01,1.773015430076121168e+00,3.615859376728890462e-01,2.525615667141855258e+00
-2.167939900228097461e-01,-2.868666242072563932e+00,1.060264636250835002e+00,-4.137682381920667618e-01,1.210203128734643085e+00,-3.965851275566192324e-01,-1.347644405465818540e+00,-6.175229772670547401e-01,1.084928841442705849e+00,5.172343006933450837e+00
2.667940111422754779e+00,4.049438003215108939e-01,1.141238024841005894e+00,-1.379685587322734497e+00,-2.443175428233917312e+00,-4.965327380743971730e+00,-6.231613909710387311e-02,8.510177426349219143e-02,2.349280372443246723e+00,-7.151779023946253311e+00
-4.146462094826297573e-01,-2.628019772021018330e+00,-6.545404250003823421e-01,2.414036950745717114e+00,-1.049477805293760335e+00,9.057659155024166964e-02,-1.139947104141371792e+00,-2.949037207407977590e+00,-4.680451402203420486e+00,4.588708869209701113e-03
4.716304113517317376e+00,2.708153198170093034e+00,3.244559874412227263e-01,-1.456892922914298838e+00,1.633059354036547672e+00,-5.715368790251794451e+00,1.543041161134835582e+00,2.903596278292654542e+00,3.556723669939693799e+00,-3.353271718315747663e+00
