2.072143868665861532e+00,-1.324075550015414660e+00,2.165730615433948181e+00,-9.834021199100013988e-02,-1.103504707427043208e+00,-2.899701832218097852e+00,1.138757079199917976e+00,-1.646781115900535886e+00,-1.658788909934561309e-02,-7.563762019500895883e-01
9.692771365528526362e-01,-1.117215896678722231e+00,5.591795135677609885e+00,4.625198731211468406e+00,5.112496207349485067e-01,-7.567210530323252859e-01,-7.213292139767704114e+00,-9.706204480847316907e-01,-4.420029921400150386e-01,7.478299037103891322e+00
-3.147356207389674587e+00,3.279495428155406955e+00,2.866215267565957792e+00,2.585181219054033086e+00,-2.204797415201599220e-01,8.967186242292369824e-01,-9.534301767543498229e-01,3.173961462990822213e-02,-3.683973925541033090e+00,8.467837964728110123e+00
9.008301380462130359e-01,-1.512315547139616800e+00,3.627193620828250253e+00,1.606689875004190027e+00,2.460785587301159982e-01,8.457589598981763990e-01,-8.438814624559659805e+00,-1.945276219888431912e+00,2.492631591167237204e+00,4.167929290410587129e+00
-2.332778142015835776e+00,5.420912162949847790e+00,-1.915832286439242305e+00,-3.133464731648775370e+00,2.439742280336617414e-02,-7.043351698447649412e+00,1.836169026325983555e+00,3.264526520548687305e+00,-5.286018730866914872e+00,2.357809472507784054e+00
-1.795473177542067145e+00,2.451291071735414995e-01,2.577809374459440583e+00,1.912921252974094211e+00,-5.229203177271821157e-02,1.829504925676544547e+00,3.020220388434358583e+00,2.417617825603609827e+00,-1.290323749972716039e+00,-1.469510399377952137e+00
1.162956286597090633e-01,-1.035691518911147080e+00,1.013687003300495659e+00,-5.497567300831468495e-01,-1.365425730826389961e+00,1.933714734637435928e+00,-5.088371506163241520e+00,-1.793553825781022182e+00,2.383134903681108696e+00,2.784326043854848720e+00
-5.166264770878150614e+00,1.470336107868178255e+00,9.004059272456059748e-01,-3.202866001957109354e+00,-4.018460425381922718e+00,4.286448965460541771e+00,3.829179820122988520e+00,5.167678747814837159e+00,-1.417741709714760989e-01,-4.048322594526363893e+00
1.664998897882157269e+00,8.586961369621286255e-02,2.969877993974677111e+00,3.861309792771151272e+00,4.280788983270946702e-01,-3.084811611933057307e+00,3.673978475237477337e+00,-2.140046857462094998e+00,-3.624474668421156398e+00,4.168230604854744392e+00
-1.041584124471297335e+00,7.060712126686440326e-01,1.220790905719562724e+00,-2.853494404855392297e+00,-4.257331222870347709e+00,-2.152917592915375877e+00,6.573276362217201907e+00,1.187440219446733947e+00,-2.051294288469219573e+00,-2.218831716996814141e+00
