1.769549973515520458e+00,-2.006929934688581607e+00,1.117584898324271769e+00,-1.751756639117674208e+00,7.184201387097458591e-01,4.045676325844997478e+00,3.249590371300434821e+00,3.749617341200685683e+00,-2.111710443790489666e+00,2.780770737944251891e+00
1.329815279286930829e-01,1.300580286830185894e+00,6.343441491130128895e+00,-1.887454689488057724e+00,2.526877138104934861e-01,2.419004508293408406e+00,3.553625299146217387e+00,3.325759966248998278e+00,-3.335600492890467450e+00,6.085997317180411592e-01
-5.638645082272248032e+00,-1.114757088998476586e+00,5.596269976571624838e+00,7.253219209528721789e-01,-1.173318206361139371e+00,-1.045083934240027324e+00,-8.534253769727455641e-01,1.624532989906315894e+00,1.303224425386376506e+00,-3.089261920399732908e-02
1.309509656364142183e+00,1.849618280834840256e+00,-3.181609473479046990e+00,-2.775379709695153352e+00,-2.217898639421433504e+00,9.768541033023048215e-03,-4.691445813967045630e+00,-4.403111657198504503e+00,1.451634175421342210e+00,-1.053444883538612320e+00
-1.679326883174437013e+00,-2.644955726035004284e-01,2.722777470420547630e+00,1.123433658816661129e+00,6.039835323100072317e-01,-1.395021942550738858e+00,1.478092574736734832e+00,2.931119493539755538e+00,-8.014734298580019622e-01,-1.403646106233882529e+00
-3.420304493649373168e-01,-7.263478378522147949e-01,4.019893513669776652e+00,-2.199273943760648553e+00,-2.810205915572823621e+00,-3.195926618321190960e-01,-6.434013417594974804e-01,4.578941586030193633e+00,1.227817644837348343e+00,-1.110446888282629718e+00
-1.697864585986658126e+00,9.434770976847952628e-01,5.796294728486227621e-01,5.596017953186145366e-01,1.197749152197880473e+00,-9.545424023874992114e-01,-3.016204232946756436e-01,-6.735503560758075992e-01,-7.513547611091561107e-01,-1.017807416263269982e+00
-1.478496591253335213e+00,-3.189851091511499148e-01,5.761573158018746810e-01,-1.405853060427746604e+00,1.691227772680387265e+00,3.543707519260914207e+00,5.514117437195211746e-01,-1.305619204041353676e+00,-2.035277563510824006e+00,2.706525238980394210e+00
-7.714215973688140160e+00,3.210411974927632750e-01,6.806232670772861759e+00,-4.723366407416775381e+00,8.850909084897471413e-01,7.052750830782517077e+00,-1.458892688412579020e+00,-3.172674868383366320e+00,-3.962510733009910524e+00,4.366466191474154712e+00
1.723266876296922212e-01,-1.103600956551345158e+00,-2.219150935027993654e+00,1.148857249810355530e+00,2.016504896508056977e+00,1.646210182173821091e+00,1.453091960918896586e+00,-1.235727001028998240e+00,-9.719479248989441045e-01,2.152584699604044527e+00
