-3.859097200808999428e+00,1.485664047290407241e+00,-1.115401740623237492e+00,8.931119386369755775e-01,1.355976125027089862e+00,-8.282485068481170165e-01,-2.003456539735489095e+00,-1.881330689277054491e+00,-1.566206247278774555e+00,8.197334908116770125e-01
-2.473101538031412527e+00,1.241942491013889871e+00,-8.885527294267915321e-01,-3.186926271727779536e+00,1.467998229496275897e+00,-8.410470794199828015e-01,-1.915683088336233686e+00,-2.398594213757904381e+00,8.875590480907505700e-03,1.011198116035175454e-01
2.530631873174547408e+00,1.536416493516149506e-01,-7.202527719954869567e-02,2.088443285992111154e+00,-2.167809584379165599e+00,-9.585230757678446789e-01,2.211517644523968595e+00,-1.596563232330019122e-01,-3.260512950341477589e-01,8.273141667145859079e-01
3.853865820079926063e+00,-2.416460259164816549e+00,-1.109394365034688912e+00,3.308336178191840560e+00,-1.866705297381820561e+00,-1.753988750738008306e+00,-2.985726679830371655e+00,1.417471701954584384e+00,8.119350783204587474e-02,1.794156754056280612e+00
-2.070763739335851561e+00,3.755212091483599579e-01,7.973148244227993287e-01,6.284827541833909459e-01,1.313160385877845782e+00,2.007015585629103427e+00,5.792342777991136282e-01,4.995147157393625692e-01,-1.149042377674635462e+00,-9.691890522512238218e-03
2.361442176281038918e+00,-1.923721114922907649e+00,1.228376572640405673e+00,3.632359276718636565e+00,-5.392098254109011224e-01,-2.053504568411804954e+00,-1.602243034458663562e-01,3.067029856979869851e-01,-2.032395201154745479e+00,3.264678921329557060e+00
-3.411888193383643575e+00,2.737271813939886389e+00,-1.680266260077854623e+00,-3.893111473549941248e+00,1.649948153088951264e+00,-2.258944173869935845e+00,-2.102043182208184202e+00,-3.477772608604896565e+00,-5.344625822528048520e-01,1.749163235443933262e+00
3.785031546545932546e+00,-2.239102070891055174e+00,1.193168024060714538e+00,2.778349104331307995e+00,-1.112464068782022197e+00,1.267037264671451169e+00,8.222857147909373721e-01,3.230562831774040689e+00,-3.465699682200531484e-01,1.450323894783959622e+00
3.470724594505649296e+00,-9.087296723472966242e-01,-1.268691443154744691e+00,2.984012528969990502e-02,-8.371469096463525217e-01,-4.161293766327738730e+00,-3.228305567197043757e+00,4.053697260215944342e-01,-3.113896338487762150e-01,5.136887146065368448e+00
-8.087152299132313260e+00,3.221169065410402155e+00,-3.096730917541797634e+00,1.504518466049018954e+00,2.104441384963443351e+00,1.256270289934353634e+00,-3.768447731850830262e+00,-2.530996526628923160e+00,-1.458312083338210163e+00,-1.774065983741945907e+00
