-1.500433558280340751e+00,-3.453305730121032369e-01,-2.014230137891817596e-01,-8.618285256344943024e-01,6.763600515133956215e-01,-2.920275279699879878e+00,1.414479241390237618e+00,-1.150067260142032088e+00,-1.822819967066886315e+00,-2.260371438034726399e+00
-9.886940059751463394e-01,5.240092339446031922e-01,-1.124510319134488512e+00,2.788425690209707652e-01,1.736997829319181008e+00,-4.804638572621679593e+00,9.650642140239468203e-01,8.991693787651241498e-01,5.493248105668339099e-01,-1.923608945838995110e+00
2.674873003480092493e+00,-4.483029512272521444e+00,3.053582998592342168e+00,1.050913894531165793e+00,-4.546631938268718365e+00,3.158689118650713112e+00,-3.791777937055424097e+00,5.212378039440409339e+00,1.397916243112519608e+00,1.296332018021545629e+00
-9.189501581708948708e-01,3.422770070529390196e+00,-2.028965601256031703e-01,-1.820871432269105528e+00,1.079959627808007694e+00,1.668185424777860471e+00,-3.109005404182428212e+00,-5.813888372136164495e-01,1.679881166063237563e+00,3.958569883984992988e+00
5.402149356645862266e-01,5.755157305921415833e+00,-3.636045092105637977e+00,9.154344294963171480e-01,-5.467728486828353496e-02,-3.715311824619442316e+00,-6.102223575686474000e+00,1.642428902263803225e+00,4.590088598849034085e+00,3.140988981197333274e+00
1.476892901971881500e+00,-3.938002942658223926e+00,3.938772163505537272e+00,-5.446886741959958839e-02,-4.699918301724834713e+00,9.922876804560057939e-01,-2.941351404952190052e+00,5.720953038298450366e+00,1.475243461364312836e+00,1.755362212578479575e+00
-3.684574966957586462e+00,-5.369681741898560956e-01,2.181616200476177436e+00,-3.401504619750983949e+00,3.885117020359438178e-01,1.512331690229347103e+00,9.426872750305352877e-01,-1.884489597424829244e+00,-3.047663167134687434e+00,-4.433563245280265908e-01
-7.893942692684471352e-01,-2.980661546099303560e+00,3.617314821056956120e+00,-1.436055104628074286e+00,-3.385366364694066821e+00,3.137704585652522304e+00,-3.791336843590328964e+00,4.032898695398293931e+00,2.768157626958868134e-01,1.441448376111751362e+00
6.298919042080254604e-02,-1.861389304472841344e+00,2.445650856712608512e+00,-7.905087557561780720e-01,-7.014613563375958760e-01,3.245837491181947865e+00,-1.551583354847329899e+00,2.425309383299862009e+00,7.978977534224424017e-01,1.758723703663492399e+00
-3.765075641762119507e-01,-3.156072947500187631e+00,2.004864718227914011e+00,9.753125713793230345e-01,-4.947342281167942390e-01,1.636605959269080035e+00,7.220656262104801826e+00,-5.671046034719610107e-01,-2.260421608528820681e+00,-2.704409191375122035e+00
