-2.161737506188530666e+00,1.766457557898402642e-01,2.685775448154398060e+00,-2.522195643737246584e+00,-2.062823175010141341e+00,4.496098907694950908e-01,1.090361393780690413e+00,9.769204409974723280e-01,-2.017096244854584608e+00,2.542988250888644775e-01
-3.542118447758349831e+00,1.664263118537302688e+00,7.621201756051032561e-01,-2.144464192967616256e+00,-3.307051025418810131e-01,2.506508598300476454e-01,2.054591114685814013e+00,-2.070315020852085297e+00,9.882858704209074308e-01,-2.306660452238424419e+00
4.746865257828004836e+00,-2.382848509286586758e+00,-2.155945849599356645e-01,6.895615981348567347e-01,-1.518408230535948311e+00,-5.944853420751917694e-01,-1.973268232218989393e+00,2.874055542333037394e+00,-5.419287118655272129e-02,2.395917693912388291e+00
9.247622059905338254e-01,-1.237875353673506762e+00,-1.186394889951390530e+00,2.019372161929659626e+00,4.198080003043980213e-01,1.231333558031183939e+00,-9.762607270199267218e-01,1.566787696977041122e-01,2.486479529251918841e+00,-2.550291133343869365e+00
-3.374936444380838285e+00,3.680830884198341924e+00,8.147269568431769748e-01,1.131908191990378398e-01,2.612430526468815906e+00,3.015514654360791802e+00,-1.164205851733604913e+00,-1.146038558460870993e+00,-1.399003889235237885e+00,-3.844386189666425757e+00
3.056706894109801453e+00,-1.361616237611298796e+00,-1.905795983019598738e+00,-1.327642289820763821e+00,-1.239440989036558971e+00,-4.934619731814592347e-01,-1.233252607784259158e+00,1.726424335056187420e+00,3.867484684756444802e-01,-5.649822485276976280e-01
8.678809355898504663e-01,-7.673432395245597171e+00,-2.760387324778630358e+00,4.088545067350290996e-01,-2.263243909410306287e+00,-2.744893887607578797e+00,-1.020576241759946878e+00,1.536364356512708751e+00,1.108542738362674251e+00,3.308025868726982122e+00
-3.484716545550650135e+00,-3.943710598584155402e+00,-2.681910455130492643e+00,1.974978861623995163e+00,6.056553067055694406e-01,-1.000481720678015662e+00,1.978252932483734572e+00,-9.351457127224815924e-01,-1.494752043956648069e-01,-3.415785341230657135e-01
6.260077352299119546e+00,-4.477563823332022075e+00,1.041630347837328996e+00,-2.583041139084564008e+00,-5.982236445002432568e+00,-2.719837704000312772e+00,4.284116666572790333e-01,3.823302314102746458e+00,1.746785316573523872e+00,4.015482745363526007e+00
-1.184040257074421731e+00,-5.086994937851787579e-01,1.495032534545262526e-01,-1.923210901722813171e+00,-9.379849817304477533e-01,-1.428666216774849840e+00,1.401704708722315118e+00,6.651526697331542337e-01,-3.183196179181652319e+00,2.214813789791243881e+00
