4.058208185442986893e-01,1.703577291199338539e-01,-2.502831320259094383e+00,-4.008619529627151401e+00,1.237207671530416775e+00,4.093290989028789184e+00,-1.581643396178310512e+00,-1.647293961029685949e+00,-2.483648641436928983e+00,1.890983330806391027e+00
-5.039374669069506263e-01,-3.782334219214368076e+00,-5.977149672623927046e-01,-2.797509023176894871e+00,1.727702157327326127e+00,2.124561830178198218e-01,-1.376498789956124291e-01,-2.306679972449326987e-01,-1.275745394273090971e+00,-1.330179472544577912e+00
2.296987711810710042e+00,2.074965808946125811e+00,2.603507358777394032e+00,4.426816341065518579e+00,-1.065098972151324042e-01,-3.166289440181634607e+00,1.122444696695142019e+00,2.299319205719184911e+00,2.073537931450128102e+00,-7.114520567688686903e-02
4.262279563556689577e-01,-1.618765325254343468e+00,-2.364274273098548040e-01,7.668383723565233012e-01,1.019002518390089262e+00,-9.149293823486186472e-01,-2.249994477912144575e+00,-6.754365549764631410e-03,5.012811141694120121e-01,-1.537726505667769583e+00
7.988761969142802455e-01,4.226983341776413994e+00,4.951071459745887138e-02,1.489690435779266409e+00,-4.652316742153538853e-01,-1.916285975409348641e+00,3.917005900859191758e+00,2.549731130285462388e+00,1.135557534037511029e+00,-8.647397597710292372e-01
5.802540353266130158e-01,2.427732571088383473e+00,1.323222301739818807e+00,-5.117650344580680910e-01,2.312289708987823600e-01,-2.480743667905530581e-01,6.254059074730342616e-01,2.417565713214244738e+00,-7.195485135914080344e-01,2.573993271570782948e+00
1.653371129071661727e+00,-2.565082218107847201e+00,5.965637405035761454e+00,-1.861640556773386024e+00,6.956944227611969733e-01,8.694010121227000454e-01,1.970240335929569486e-01,2.162703418646092501e+00,-2.247268091967364434e+00,7.606047947992483849e+00
-1.781375245416945807e+00,-2.658191175391434236e+00,-1.257401377218177352e+00,1.214434096847657907e+00,-1.938214054902833938e+00,-1.053358314087202929e+00,2.762536424963490056e+00,-2.073395538370577995e+00,2.541076689326187132e+00,-4.357269263366673862e+00
3.405898882610148615e+00,4.522880089130579151e+00,3.791641036394427733e+00,-9.530712613381553400e-01,-2.445002423179172824e-01,3.892891892688023603e+00,-7.893768844012771790e-02,1.229865789907746310e+00,-2.606841499571356024e+00,1.018044766366363874e+01
-1.264062612754550452e+00,5.714309756551814168e+00,-2.866148406216071365e-01,2.366024784301247852e+00,-3.656707610864377678e+00,-1.078056240911820840e+00,9.754607890782630575e-01,2.790494016369710284e+00,3.619967707556403624e+00,9.153977469175140769e-01
