-3.444268564775757047e-01,-2.118996448460691795e+00,4.955717252950954665e-01,2.126412208834460582e-01,1.167025702518715180e+00,-1.329283287406829439e+00,4.579904949402407333e+00,-6.686541078004593963e+00,-3.681047035224048525e+00,5.300062625586233755e-01
-2.951207053151914561e+00,-3.635078927140052429e-01,1.296052673569570157e-01,-2.284758981886369167e+00,-4.908371834254794841e+00,-2.963073520245586678e+00,1.288211367204011637e+00,-3.255359192685937098e-01,-4.456576591672782861e-01,-6.374206234879539745e-02
7.678688069899876067e-01,-1.307404522015329418e+00,2.712075846004863067e+00,3.704621271007430661e+00,-2.729848463844575690e+00,5.763344010404444218e-01,-3.403325119119317232e+00,-6.338897564379707417e-01,-2.429952818880364018e-01,1.219048375958607933e+00
-6.131212407635092676e-01,9.745878326513657264e-02,1.135374823206514838e+00,2.531428459049221757e+00,-3.617149565760611640e+00,-2.658129590089088445e+00,-2.802871662252624407e+00,1.876270554143682157e+00,3.499869383567379533e+00,2.671305763267654232e+00
5.447586204334375903e-01,-3.865746083035909830e+00,1.729532776037531416e+00,-5.517811022941402355e-01,-2.345823456837312637e+00,4.958285481404460793e-01,1.465317675287000521e+00,-1.741848699078375473e+00,-3.419609459072308955e+00,-6.992336634144670215e-01
-4.590125985106568440e-01,-1.965843760476768232e+00,1.782491707826832306e+00,-3.237682665122090242e-01,-3.897190475516079111e+00,1.035373463180813136e-01,-9.861799705914072733e-01,-2.486423340223643308e+00,-3.045210337687803026e+00,1.148528159347833033e-01
-1.834354341053378246e+00,-1.194411456781589775e+00,2.150017953515233504e+00,1.989498376850903139e+00,-5.368810668330518787e+00,2.966449906103524881e-01,-2.316081109439593000e+00,1.579850538676957683e+00,-3.795388957163863680e-02,-2.230592737979188112e+00
-1.116152670015182036e+00,6.175934311130956145e-01,5.304324701001564280e-02,-1.122065985241458508e+00,-1.168913352508464287e+00,-2.580547886053508932e+00,1.445890640843336516e+00,-2.670075693852472565e+00,-8.265071799807433006e-01,2.379157129012849481e+00
-1.316315764648194664e+00,1.119381162071551472e+00,-2.597889625073089626e+00,-6.884178650161942858e-01,-5.993955262732660882e-01,-1.986390260274911945e+00,-2.012649603120322706e+00,-3.095083230529573459e+00,2.132180671257280835e+00,8.282879030362609862e-01
-1.728054736656039481e-01,-7.737847476737670371e-01,1.464968283033093233e+00,3.345419408615050827e+00,-2.503185454281295907e+00,1.644754890050849960e+00,-3.964325119187555035e+00,2.531545767103171030e-01,5.205762378043090610e-01,-1.619870534945791585e+00
