-1.096424423379818158e+00,3.213964336811752975e+00,-1.651033291953976967e+00,-2.396871178226529064e+00,8.125021921269561798e-01,-1.495587759627238889e+00,7.458133684203719582e+00,2.368794564242163503e+00,-5.521584336644240310e+00,2.041712561592874842e+00
-4.136824673769338157e-01,-1.076512472315116709e+00,-4.540748996061235943e+00,-1.448370179881300013e+00,-1.338989555199091130e+00,2.353003299697650874e+00,2.088002216255890442e+00,3.769898425522870689e+00,-3.323664384948773476e-01,-1.936850944586540502e+00
8.055444462395624505e-01,4.336765831621735678e+00,-1.953882402161530196e+00,-4.100758383578738453e+00,1.155096949239056148e+00,7.468837616343235730e-01,2.894076703347212121e+00,3.745297587959987684e+00,-4.214596617665505640e+00,2.173756091574697180e+00
4.057126841064459200e+00,6.524892665879556963e-01,4.745812130781534299e-01,5.582147087448253719e-01,1.695673130729829711e-02,-2.917118217150962423e+00,2.562041482635347700e-01,-2.593631881169980335e+00,3.014642327085311990e+00,3.499394904313117394e+00
-2.230421181980005940e+00,-2.609493289073254729e+00,-4.026251298758267705e-01,-1.746530812785624054e+00,-3.489331339279642563e+00,2.074580436369526826e+00,-2.635223233512120178e+00,4.028165566598682190e+00,-6.932351973197200756e+00,-4.459415735629797872e+00
-1.772571875677837916e+00,-5.508915352603321658e+00,2.208353376936140755e+00,1.430564496743999880e+00,-4.359732130588926502e+00,9.886333946598935274e-01,-2.382225634702234807e+00,8.804930525083226600e-01,-1.547631640719945745e+00,-5.332167503676635834e-01
3.214962005611771700e-01,-2.478656668054081802e+00,1.204188659246256954e+00,3.491576937881343934e+00,7.524914062186761621e-01,-1.887270862392121051e+00,-9.859954463909771372e-01,-4.024059298323350298e+00,3.395051604529577993e+00,-1.888268374120552373e+00
-6.333280713638260728e-01,7.314535252939186050e-02,-3.233196775720092453e-01,-7.180004088101663018e-02,-1.126281045943639647e+00,-2.152992922605288517e-01,-8.920957392619105475e-02,1.935867833242308281e-02,-3.798529087027863738e-01,-6.999867847178666835e-01
-3.960076556866771735e+00,-7.126633577029520827e-01,-3.420481033876254795e+00,-3.080409481360759094e-01,7.807134185217066147e-01,2.518225913088700807e+00,4.141912618846764538e+00,3.065618822309108538e+00,-1.957005578133790280e+00,-3.787177700637815558e+00
-2.214093766180301959e+00,3.091773759132484534e-01,8.736134018428817205e-01,8.226015514555145014e-01,-5.540300572203050722e-01,-1.573498677013648317e+00,3.680301853633977327e+00,-9.159796713940392410e-01,-1.186777637396927432e+00,1.143623756555350646e+00
