-6.687821009387127980e+00,5.916688212520612167e-01,3.812229310078123490e+00,3.819948903634569959e+00,-1.183572174099919883e+00,-7.789169677005974846e-01,-2.408043960026933661e+00,-2.612345751473172051e+00,2.065449295011343445e+00,1.208576119186667075e+00
-2.846562727302808238e+00,2.195691833018797112e+00,3.390131993288578283e+00,1.077335796658072553e+00,-1.046670597599485442e+00,-2.372142668741313631e+00,-1.769185620617564014e+00,-3.130242746592862835e-01,-1.912027204547928294e+00,4.351105574713982627e-01
3.820460464505774478e+00,-3.055743651003540950e+00,-5.396057248756052971e+00,-3.867756367075377621e+00,1.663003719017162929e+00,1.608408510530408897e+00,3.538708667675440012e+00,2.076031287152793059e+00,3.928248030788604517e+00,2.095129658698900998e-01
3.384793661738972226e+00,-4.037723356846716349e+00,-3.249900196358024296e+00,-1.920187506624073004e+00,-1.001056320388666876e-01,1.498780560109186810e+00,4.842976561076244302e+00,3.641240850367779558e+00,2.573972970134626781e+00,1.326980746503004127e+00
-8.699574709211950196e-01,-2.931193472760943441e-01,1.790554793544629764e+00,-6.499385628779892343e-01,-2.676468465714851419e+00,-1.004134752080150239e+00,3.171296271876260064e+00,1.694190665845882071e+00,-3.589682480303628243e+00,-6.896841791763277385e-01
-4.207704982315078612e-01,7.706066943611051823e-01,1.847840022741972676e+00,-3.979645920674858006e-01,-1.177893434835074249e+00,-1.713537731227612770e+00,-2.861598921839286991e+00,-7.095683796021606815e-02,-1.031879542621981116e+00,-5.233519303041911375e-02
-4.091118955293682191e-03,-2.256735165041716673e+00,-4.128631400797394768e+00,-9.501808317732444997e-02,6.605064773500548547e-01,1.810549514009666128e+00,3.603543512025684681e+00,9.397781298372428482e-01,3.551577525014700587e+00,3.428157654567159929e-01
1.603286660247655426e+00,4.090485228071335300e+00,4.334014983371195839e+00,1.136018513860836743e+00,9.164287440107383720e-01,1.367702986809072319e-01,-3.046031257466464970e-01,-1.821795329634972926e+00,-8.023877633942532839e+00,-1.912738995149813714e+00
4.010790850022227794e+00,4.057998280193356067e+00,2.505036826886118728e+00,-2.075759541081268811e+00,1.653430533943339276e+00,-3.851897320964306370e+00,-3.505279204395625126e+00,2.281028566877631114e+00,-3.953206716388476316e+00,1.226800226920321535e+00
1.268307780373248983e-01,6.999359689518177552e-01,1.917029837863979402e+00,2.798137562384477750e+00,2.824855421321739168e-01,2.058112579006712295e+00,-2.436165769533258363e-01,-2.136114411097151056e+00,-2.757993820011340080e+00,-9.749694052728296034e-01
