-1.143290640600684416e+00,-3.333683632017801379e+00,2.713987687163950113e+00,-1.597757743737290514e+00,-1.249938836552006993e-01,2.366373860560196718e+00,-4.292506366584301958e+00,-6.814433885877158037e-01,-9.247272096126191165e-04,-1.966655735507407243e+00
-2.752862866661234698e+00,-4.221309914731261603e-01,-1.277575752232340545e-01,-3.433735827239156713e+00,-5.418857850050919911e-01,3.725426420269533967e+00,-1.470984198133250764e+00,-2.642668741742968397e-01,2.214352012312006845e+00,-2.019776091102296167e+00
2.519609790844318464e+00,3.225482086862363484e-01,-1.577566329162591874e-01,3.323232706378579149e+00,7.528015083491707005e-01,-1.675155211167543845e-01,1.752760409432332134e+00,3.704103076439489994e-01,-3.268595045111264419e-01,3.211383371154844291e+00
3.907734071807623888e+00,-2.439643470574647921e+00,-1.425980120450010435e+00,2.412052351212810475e+00,3.450583985453157254e+00,1.637990643717410766e+00,-9.896590201978233692e-01,-4.581969326577118196e+00,2.474043199107323510e+00,-2.577126403350487927e+00
4.473075107003361417e+00,8.813055832387042265e-01,-9.528605271169388047e-02,3.435504414068461632e+00,7.931108844062422225e-01,-2.416588477284693504e+00,2.388496665810011077e+00,4.635444721717443262e-01,5.106622944856984425e-01,2.276623822370472894e+00
-2.092475723388557363e+00,-1.222599055435982685e+00,-2.255929540889652696e+00,-9.227317082419902450e-01,-2.005054783625411119e+00,5.955792854633855882e+00,7.528111739914929990e-01,5.925550490462997422e-01,3.421774457022620730e+00,-1.859431997232225298e+00
2.696024562248448220e+00,3.905978029347387803e+00,-2.392729702382898616e+00,1.523561724216483948e-01,4.755082556251663206e+00,-1.213778468041980529e+00,3.581124899304546361e-01,-3.792473721144098420e+00,2.888767392158578140e+00,9.940185963745105102e-01
1.013483272894004417e+00,6.980954941410950632e-01,-2.281471809692171338e+00,4.103743712465884319e-01,6.867691611787116734e-01,-1.778494634716530465e+00,8.064891733818853048e-01,-1.642095751914805835e+00,8.597641057717989588e-01,-2.442253109792726917e+00
-2.076159750455975228e+00,3.093879513111459367e-01,5.358118145173320634e+00,-2.089767799187627784e+00,-1.968365866474605097e+00,1.553273947818376355e+00,-2.387237041611935062e+00,4.457349397228435706e+00,-1.206453666591531748e+00,5.093666393360298805e+00
4.824033678766087019e-01,-1.892826615850653482e+00,6.998441297294258900e-01,1.250347599083535766e+00,-1.804179080041675931e+00,-7.745058032392737601e-02,2.454320408751731186e-02,1.335767401408580746e+00,-6.321230118838059298e-01,-6.315363216902436516e-01
