6.640292388194658502e-01,2.583416244588649935e-01,-2.423401147954298729e+00,-9.659920901182418307e-01,-6.036185883863342205e+00,-6.222382749562952453e-01,3.390092391853172682e+00,-3.282376669814162096e+00,2.747681645099802950e+00,-5.182104790077434409e+00
-9.242068562726006853e-01,-9.933324969367619550e-01,1.682696121362898534e-01,2.522739432126797077e+00,-2.824303042924788620e+00,2.609579037297840909e+00,4.945299634576870496e+00,-9.717527374440114718e-01,-7.365262188945809196e-02,3.164970071429429876e-01
-7.838382457463388686e-01,-4.085910456193911244e+00,2.583149442251750472e+00,4.223622419751325907e+00,-2.813876477437342150e+00,9.803978043868352144e-01,2.257881812539792032e-01,5.117031952871217149e-01,-1.218992590803508635e+00,7.434304569003526098e+00
8.731430871519005876e-01,2.392733117377265628e-01,-7.784836962950580919e-01,2.029176711168516167e+00,2.020613563759626086e+00,-1.638531799045352733e+00,-2.915232747958985016e+00,1.280117263051857357e+00,-3.737449411277801836e+00,7.014872486732448564e-01
1.386647901716061559e+00,3.166138458397653732e+00,3.324861812080511791e-01,-8.966026142774578822e-02,3.917261608400736117e-01,7.195453888432935541e-01,3.517061107484238835e+00,-6.565880699661395814e-02,-1.010756303863933114e+00,-2.333572332376445235e+00
-4.998761834718554731e-01,6.937113792454379091e-01,4.076768830919987735e-02,-2.900204758143744566e-01,2.046470160052915155e+00,-3.053523579500017626e-01,-7.980347842817483439e-01,2.637913737661832791e-01,-9.415545887600232366e-02,-5.780876046894135589e-01
5.350596973285109970e-01,3.850442037819352237e+00,6.030692138348268116e-01,-3.956895623771344628e+00,-9.238712941171852711e-01,-3.504933246516355183e+00,2.232520080661411388e+00,-8.620740584424450015e-01,-1.035978194828163446e+00,-2.696783084322724289e+00
-2.102200407605974222e-02,1.355254645187050633e+00,8.910531494645590467e-01,1.076710043166838160e+00,2.582469495491774403e+00,8.943508579151105975e-01,2.620433684534664506e-02,-3.981652927651376794e-01,1.942280894369023736e+00,-1.185499629159074253e+00
3.081621638929395779e+00,-1.644577032990591325e+00,-1.664477368538780588e+00,3.177012560228687832e+00,2.467795716265627437e+00,2.356839505230282850e+00,-4.301538198481608788e+00,3.437512007944251824e+00,-3.823175358926008016e+00,2.570304616119893026e+00
-2.715834326445456526e+00,-1.982997919786549934e+00,2.160189653276191279e+00,3.327068031447562024e+00,-1.129349131972339881e+00,2.816487437472122157e-01,2.419798502081925928e+00,-5.659232366902159361e-01,-1.126839398369952727e+00,4.007471343755535820e+00
