1.608395839504402069e-02,-9.805143745452761239e-01,-3.576638977339260173e+00,-1.170674266935389785e-01,4.796318928615263211e+00,-1.764156370923319006e+00,8.426264938345559008e-01,-1.287186534125339454e+00,3.405318832818473584e-01,-3.272538920546896879e+00
2.069605959779944881e-01,1.338932876581427900e+00,-9.465458097250369907e-01,2.321786107923910769e-01,1.916704925147428185e+00,-1.867458011943259610e-01,-6.007988934919218371e-01,-1.390605119284730407e+00,1.315804197209491155e+00,-9.035282335736853909e-01
8.478068016405841678e-02,-5.258966469695343093e+00,-3.415532816038743480e+00,1.744428908199881167e+00,-4.212981110173756427e+00,-3.914640140503296895e+00,-5.175238377370222409e+00,3.331282020865298232e+00,-7.027579879794015882e-02,-1.058309330573359963e+00
4.993973727307846056e-01,5.565029055043807737e+00,-2.056120280153592716e+00,6.060829747079866658e-01,-2.891856850980215388e+00,1.267506054576583718e-02,3.933852287567280115e+00,1.732368375689341544e+00,3.054103518233103887e-01,2.273047080173484433e-03
8.656487903450901800e-02,-3.857710763784630625e+00,9.614318520069249363e-01,-1.371429003634840216e+00,2.378696428830435750e+00,5.227040174286748386e-02,-2.152462261714165326e+00,-1.488559448290153187e+00,-1.772763591998889887e-01,7.616254854337431435e-02
1.996082031729771999e-01,1.505556717407566802e+00,-2.622809684986074252e+00,2.348761556091896630e+00,2.789637719329439491e+00,-8.696160587308806589e-01,1.624712239813747017e+00,2.339469327845848490e+00,5.448798872439574170e-01,-1.328072193926947309e+00
-3.822445375002732348e-02,-7.996166396525256070e-01,-2.600224894204839821e+00,1.249200866731552395e+00,-4.316792995462789051e+00,-2.324786616507040105e+00,-1.905574602944669182e+00,1.088627522076782927e+00,2.955890705903925220e-01,-3.604592858663544508e-01
6.536739184192578156e-01,4.986897317881274105e+00,-1.744734196525764114e+00,1.624673364783089990e+00,-6.968287656709452271e+00,5.121477666896675357e-02,4.240897667733215748e+00,3.172865242598869706e+00,-1.764339698148592595e-01,2.996640081194216876e+00
7.286670848760010699e-01,1.846126396645457968e+00,-2.539694220726938845e+00,1.656620189331244400e-02,1.198224415016376332e+00,-6.756273150623418600e-01,1.157846301603183248e+00,3.194469052821006239e-01,9.075197759969592104e-01,-9.866237389384115986e-01
-1.038910534108190786e+00,-5.154882111913297926e+00,6.362088946107801846e+00,-1.066025083850142385e+00,5.805393428193886818e-01,2.158342348089448137e+00,-4.468156112980299355e+00,-2.666219733355002397e+00,-8.312301722117105829e-01,2.493798048066660833e+00
