-1.805585470128142633e-01,1.153318451608793094e+00,6.386925483369503276e+00,1.683291285693196526e+00,-2.013969747870779425e+00,5.176303113998519834e+00,-1.064700958442621692e+00,-6.083109173898075817e+00,1.548934758443616833e+00,-1.393369401409301211e+00
1.892505594247467116e+00,2.561114340479932139e+00,-4.999730550534267515e+00,-3.326356296960647274e+00,2.704865182646325916e+00,-2.421825742377506696e+00,-2.043282982227412337e+00,4.806110730767454431e-01,3.384856876773544965e+00,3.267729428790616897e+00
2.019796597043431508e+00,4.449071963964836840e+00,3.806269242993233437e+00,-1.808908796860452806e-01,-9.169130767242514857e-01,4.689506404769986148e+00,-1.452975229691436942e-01,-4.560703938058908058e+00,4.472305964430270286e+00,8.277525334268598378e-01
-9.399491234159675912e-01,-1.267042827012244910e+00,6.455080567521601864e+00,3.976486060644567111e+00,-3.803419148284230999e+00,4.792750854115753967e+00,7.239610838425027950e-01,-8.178616119594518397e-01,-2.881691586278425365e+00,-1.996771850571634976e+00
2.988319270207919764e+00,4.929719659506462293e+00,2.757571494900790121e-01,-1.283304720544006905e+00,1.291987255024086068e+00,1.780657730109140635e+00,-2.087661189795494643e+00,-4.329116454744872833e+00,5.473335157845772514e+00,-3.934463117927111231e+00
1.078848920987652393e+00,1.727448490514931656e+00,3.285868554729088231e+00,1.922009956525920993e+00,-2.090022890428667068e+00,4.397283328669669089e+00,-1.225928171896013996e+00,-1.616987487729651285e+00,1.789488628956922955e+00,4.836541929418574082e-01
1.272282827697552410e+00,9.704084190796765652e-01,1.975227912999055202e-01,3.560946274880825158e-01,-1.582782152723563318e-01,-8.672827363270868561e-02,-9.085651058847188377e-01,1.269213971817858333e+00,-1.140005614853657034e+00,-4.686701622811104251e+00
-2.342851624014524736e-01,-4.988464040022362322e-01,-2.528706865159509931e+00,-8.199490968207198138e-01,1.028797829379666906e+00,-1.524400289925968988e+00,2.515242787593791052e-01,1.193031973630833242e+00,-1.233975084696982805e+00,3.258576192661376769e+00
1.989659239505823907e+00,3.110807588503376131e+00,1.298433431435654706e+00,1.984701320224433019e+00,-1.083390075398171337e+00,4.619217787966544364e+00,3.825615449771601062e-01,-1.230146440493708582e+00,-6.644916531848186203e-01,3.300935033972728139e+00
-1.009371300001310034e+00,-1.461039706819398099e+00,2.293809773030318910e-01,8.004132259274819861e-01,-1.911019845544109919e-01,-6.414032192566767598e-01,3.623303977368221851e-01,-5.093257374004239724e-01,2.460557875424677299e+00,-2.991968002142340932e+00
