1.143010924293658137e+00,-3.140883204596622402e+00,7.857095013973144360e-01,-1.524087591494678318e+00,1.209111162055261035e+00,-1.818611918036709407e-01,-1.095735489025882581e+00,-6.810485718166632285e-01,-1.878259123814967291e+00,2.624433415665010649e+00
-1.926282258843929007e+00,-4.319448539653187424e+00,1.112220347833965395e+00,-4.133912827773005838e-01,-7.720504265878568306e-01,-1.569214083099594426e+00,-2.383357501690062552e+00,-8.337605711942261966e-01,-1.443657207015622390e+00,3.896970221109868238e+00
2.676259298860162339e+00,4.771675775182337986e+00,3.178757988656266242e+00,4.280573687050451825e-01,-2.080056150392423309e+00,4.810626566067761622e+00,5.277908405610553189e+00,-9.236727961381780982e-01,-5.703069367151734070e-01,-3.130780587562210115e+00
-2.365994401492997223e+00,4.197273591270945126e+00,8.452313504668219624e-01,6.552358111543429287e-01,2.089411032475377183e+00,-1.892049953687694908e+00,1.492370990981839229e+00,-5.962843428623324504e-01,3.192646934946150039e-02,-2.435596138870771643e+00
-3.114483984874888978e-01,2.025609330558262755e+00,-1.568056101136171832e-01,1.300543587469527695e+00,-1.747645794315502599e+00,5.757599636986972941e-02,7.083444124929162422e-01,7.515324383742961745e-01,8.720019779089124290e-01,-1.295438917078937102e+00
1.906758146394477160e+00,-1.242516404694040455e+00,-2.643434616662314607e+00,7.464355161540966455e-01,-6.928656081443422821e-01,1.046176408181468620e+00,-1.447537845018336489e+00,2.488143930237241008e+00,1.633406073034945116e+00,-2.686265214842742832e+00
-1.026601594181479893e+00,-3.728104205622674527e+00,2.873314693351200155e+00,-8.012507538789208628e-01,-1.493637439840313608e+00,-2.334535066996163422e-01,-3.393780239298002099e-01,-2.184646209759884883e+00,-2.592073722907361599e+00,4.528961919403934999e+00
-8.520846901755239899e-02,4.118200570196477450e+00,-1.752754227530361586e+00,2.089627713149799781e+00,-1.564107566317175735e+00,-3.269716982604222166e-01,1.319097218375927971e+00,1.587416897592069942e+00,2.185438279776648063e+00,-3.577990047414589370e+00
-2.631440645635272357e+00,-2.514109587495423348e+00,2.639337476854267894e+00,7.166762573531497704e-01,-3.265209142333582726e+00,2.206995459412622651e+00,-3.037058087702704690e+00,1.254489746081892676e+00,4.348054607831036700e-01,1.632431345201232231e+00
-2.381388675782338815e+00,-1.843632933196610146e+00,1.581942744754431862e+00,1.355901154228711603e+00,-1.038160931887949889e+00,-3.833173526832907907e+00,5.444689996100193774e-01,-1.653127308084607394e+00,-2.677044633939642093e+00,4.085137802871757762e-01
