-1.721346616015769326e+00,-6.802550627812267159e-01,-3.074896649069843946e+00,5.249634820318210826e-02,3.210170676162811709e+00,1.219627290587525170e+00,-7.679140163380728801e-01,-2.883032108291457618e+00,3.099547665406639840e+00,2.257139510363819657e+00
2.835103989779697020e-01,2.147770955385102987e+00,1.985339711675859542e+00,-3.725064040208804883e+00,-3.751658633361202866e-01,-2.478339826201130247e+00,-2.812275486212050257e+00,1.026470948853760889e+00,-2.765226016335264880e-01,-1.179974000991000915e+00
3.873312023747308985e-01,-4.267122706061199366e+00,1.937964614117897000e+00,8.125054817860957179e-01,-2.287698566115691889e+00,-1.173700995145693815e+00,1.578248503981940498e-01,1.202039257816297280e+00,-2.450274387993146785e+00,-2.445353558735690935e+00
7.390568236827963489e-01,5.388989067006199285e+00,-4.046387640528313234e+00,1.280755710664724489e+00,7.070349015312102914e-01,3.380716722686396114e+00,-9.868422882928826745e-01,8.589286705192584748e-01,-3.897985517026507640e-01,3.208297577520735189e+00
1.349872797190155849e+00,3.410196731220290101e+00,-2.752417176099248408e+00,-7.833941983057688407e-01,-6.149510010892050182e+00,3.644931691172259569e-01,-5.621037040886833758e-02,1.427080121224588272e+00,-9.236829927693812614e-01,-6.745608344311578852e-01
2.361235963338136568e+00,4.884980730717452424e+00,5.476058947793421616e+00,-1.573801903119600665e+00,2.384296591589613268e+00,-3.709283139762506565e+00,-1.011669532107934977e+00,-2.118379814927576765e-01,-4.230617618380652090e-01,-1.817873251738479912e+00
-2.993176499235444155e+00,5.066756414028929179e+00,-3.818576610123527448e+00,4.166020695370417637e-01,3.716347014045492170e+00,4.684042296058812838e+00,-7.998240185419036585e-01,1.085864558414066705e+00,1.777798517835023073e-01,7.536435828008261950e+00
-7.220615326057907568e-01,-2.069091095404182568e+00,-3.117076907045003509e+00,3.485604933394416127e-01,-7.558646094398809856e-01,2.004815929463835911e+00,-1.229638304966177209e+00,8.573580162181877462e-01,-5.259102736354656082e-01,7.130425637697013208e-01
1.523533586664611361e+00,9.449112569006606899e-02,-1.923287141953851531e+00,1.477277418789710417e+00,1.152253035809969850e+00,-4.380863910072096967e-01,-2.429661514630254704e-02,-3.564925124997438743e+00,2.461460820885289280e+00,-1.223505287779223405e+00
2.142339011444220453e+00,4.296327297541393087e+00,-1.246126481138132291e-02,-1.849372508090076472e+00,-1.009943209851536849e+00,-1.889813682517250459e+00,-1.849619103313948854e+00,-6.664721790179810590e-01,7.614194465600965245e-01,-1.648537936888102129e+00
