-5.018185020767846005e+00,-7.350459803364378653e-01,3.656411418838981131e+00,1.520085513425714963e+00,4.146875686489690516e+00,1.013061079691341543e-01,6.117110649517658594e+00,9.869824490606541323e-01,4.499087094638702489e+00,-1.693488032900157148e+00
1.194607653076045356e-01,7.771682092534668573e-01,-7.526108949769308998e-01,-6.393732358414895289e-01,-2.585475903937397568e-01,-1.209091064097710833e+00,-6.908867385982613296e-01,-1.728925032374806214e-01,-1.425961861783769047e+00,5.432084557050749218e-01
2.222189581320356044e+00,-2.523037125802225944e+00,1.421969502842044930e+00,-5.742216937585714609e-01,4.299351914185319257e-01,2.259805411317131529e+00,8.442120332672317096e-01,-1.006299367828496827e+00,-1.466764511390415970e+00,5.444626603678754950e-01
1.613579803583714556e+00,-1.179099422197975588e-01,1.911750896965417112e+00,7.096790184521204470e-01,-7.987290431057142426e-01,3.342358562451684278e+00,-7.074687797375530662e-01,6.591628766213585289e-01,9.064461801038800060e-01,3.594724295829980765e+00
7.527600616560475189e+00,-1.343223865036224929e+00,5.028627095931504920e-01,1.676405428572615541e+00,-5.320755332563912532e+00,2.919389417417427968e+00,-1.616396902919134737e+00,-6.829067363008791691e-01,-3.364916386463214781e+00,3.282157579625182287e+00
1.726293281448955663e-01,-2.100401132299202778e-01,2.158446777829763352e+00,2.688791712335683037e-01,-6.091301250765792652e-01,4.165765709146733720e+00,1.361611163884877129e-01,2.597214914607578251e+00,2.683585737145610217e+00,-1.046813571604557014e+00
-8.216424398252930583e-01,2.774288135902337693e+00,-6.520323976203564520e+00,-2.749041282070800563e+00,-8.007964393213753418e-01,-2.551807958152559230e+00,-7.657641746714371145e+00,-1.461127348266947124e+00,4.143348981746094450e-01,2.868137110607141826e-01
9.813272018572842814e-01,-1.882017937750302572e+00,7.233146512687786966e-01,-1.732053558397924853e+00,9.990205118158128617e-01,-1.311927538127729553e+00,2.515383301783498560e+00,-7.406599670880985586e-01,-4.453145243254948760e+00,-2.495191028568904290e+00
-1.863051214578906212e+00,1.295705842828503096e+00,-8.803236726905674381e-01,-1.681844977071870417e+00,1.170140315921058383e+00,-2.616612565433398263e+00,1.313998845841378271e+00,-1.643472739724088916e-01,-5.135416071099034863e-01,-1.166289773905752281e+00
-1.041221613601303941e+00,-1.210103041864248885e+00,-5.386369515049459267e+00,-4.538638776235852101e-01,1.421016289624656148e-01,-5.217801441909252880e+00,-3.340429892305578186e+00,-1.912412469330003084e+00,-3.128947031196282591e+00,-6.866282307172008714e+00
