-2.817656155535305018e+00,4.027270425832461420e+00,9.521879820179375287e-01,1.081825043548263476e+00,-1.379134561866010911e+00,1.640752309697216083e+00,-2.274679165367970324e+00,-1.603877394494374498e+00,-1.846371819308233020e+00,-2.485751262519287685e+00
-3.915084062586240865e+00,5.351298731820024024e+00,1.891689534207890100e+00,1.413203720987520562e+00,-1.853567827906171139e+00,8.863331363017814546e-01,-2.522657283191654276e+00,-1.875983587533873287e+00,-2.811705451723855997e+00,-3.349704821950967748e+00
-1.692106042505624908e+00,-3.468196015187181125e+00,-1.882495275678375268e+00,4.302478636539001755e+00,-1.014374329114392514e+00,1.455981398998382748e+00,3.667381408137994292e+00,5.466422274059016262e-01,3.542664423281586816e-01,1.348538084253880553e+00
3.885059470772533885e+00,1.220856041531798608e+00,-8.461176567141590610e-01,-3.724406421162663960e+00,-2.745034721080707452e-01,-3.225443511038993627e+00,-6.566814761588929628e+00,1.512403055183153322e+00,-1.239612448175633652e+00,-2.610554902102371955e+00
1.545433281939776915e+00,-6.619687633025786333e+00,-1.046566132839533925e+00,3.346231906114486065e+00,2.677366062707209338e-01,-3.107039934685200233e+00,4.139138558967229820e+00,3.017389238371007032e+00,2.009968022542807375e-01,2.158154535050556433e+00
3.660287018705961071e+00,-2.150711003539886423e+00,1.984376035839781061e+00,-1.804597819135572268e+00,-1.013959873638272668e+00,-4.017266142141859397e+00,3.599150806889055865e+00,4.076937411010921331e+00,-3.165693030166562671e+00,2.794253015423513453e+00
4.124206836682668409e-01,7.416882906416851995e+00,2.830565471949067380e+00,1.890642152974569168e+00,3.274431656199585650e+00,6.091068697614312022e+00,7.268871689378734402e+00,1.020333412552187458e+00,-8.088272974720911446e-01,2.249027137489703954e+00
2.017620581812183733e+00,5.813706978303060602e+00,4.160618305553180463e+00,-1.385634746069549506e+00,-7.926338395335974507e-01,-1.381711966007997283e+00,-7.903615881303506230e-01,2.508366643727545586e+00,-5.616319722269174086e+00,-1.251279776566089463e+00
5.092093562255556982e+00,-6.633994317313599787e+00,-5.933077614055089377e+00,-3.711172111038703481e+00,9.325813334290872225e-01,-4.242220135121868907e+00,-9.773006808115214383e+00,4.150914297585873158e-01,4.276216092807256786e+00,-2.459489402111875833e+00
2.668976823006705246e+00,-1.317430120920562109e+00,1.570808852821674151e+00,-1.534276295810775625e+00,-2.172759166562109989e+00,-3.331095467183059267e+00,1.382270595278845438e+00,3.333660421650386674e+00,-3.885983499183518042e+00,1.455995156692335923e+00
