7.081216304163041819e+00,9.611217979482045148e-01,8.040087946293960064e-01,2.403824988587168310e+00,2.527961239190382958e+00,-2.511535022573000653e+00,-3.985601213502160678e-01,-5.688725593609642583e-01,-2.195311799481865223e-01,-1.733993506295209430e+00
3.274859303054879156e+00,3.620824933094566878e-01,2.124232397774148406e+00,1.130607847687475687e+00,-1.015542575712723217e+00,-1.797306120513497474e+00,-2.459132166242535167e+00,-7.125986414369264166e-01,3.348160169099662631e-01,-5.194099642766900615e-01
5.234169463804081879e+00,1.737933635880474226e+00,4.175863621243136592e+00,1.038143877984919028e+00,-1.556684105714047694e+00,-1.426481628975996951e+00,-1.685278093260246690e+00,1.389439424277423729e+00,1.227919731520441537e+00,1.005882047661347256e+00
-1.489454681775930212e-01,5.161413934137318194e+00,2.836382722560763181e+00,-2.581879793924702238e+00,-4.252592796761826222e+00,2.912594636369406076e-01,-3.302081289721107371e+00,-1.961399870982932114e+00,1.215402900919250628e+00,6.916244415616921160e-01
-3.804085005682109166e+00,2.453012926049727760e+00,5.207161324381761602e+00,-3.814922626783709525e+00,-5.183051898218411502e-01,2.668844167289546654e+00,-7.839178980276325648e-01,-3.363980398599256905e+00,-1.990267841225430434e+00,5.661157687798822558e+00
-9.215767151448897021e-01,-1.417517212421407713e+00,-2.729536626420895118e+00,7.046133797835397727e-01,5.524165385598336364e-01,2.548395161795629082e-01,2.365316545860649100e+00,2.710808586118470309e+00,8.358928777120228082e-01,-1.101212487097228410e+00
2.808060920969889462e+00,-2.446306047591171762e+00,1.151327668674903659e+00,1.256252245688007640e+00,5.871426621031394788e-01,-2.046485665901478512e+00,-1.033359941006843252e+00,1.706920209434875380e-01,5.572216728022963972e-01,-1.389022350569521835e+00
1.055811880182530249e+00,-3.371437589137714852e+00,-4.874670614938936275e+00,1.484810995232505704e+00,-1.035942762598794697e+00,-1.322905143047183207e+00,-2.445707151258479928e-01,2.860875156942198405e+00,2.760739008417184337e+00,-5.738401780965112664e+00
-7.985095022167429057e+00,-5.238913102874066530e-01,1.638342961493589378e+00,-2.435366827550377256e+00,6.239468695580507873e-02,4.216694756157647994e+00,1.692434450472314333e+00,-1.003761169038013490e+00,-2.882336302847617659e+00,6.328861071148979001e+00
-2.166405172479560548e+00,2.201337761027490458e+00,1.770046188190751213e+00,-1.898406189489162843e+00,-1.809820469198447856e+00,7.075510103537547835e-01,-5.678402570238993974e-02,-1.959099025626507562e-01,4.423393454244884948e-01,1.825705957356146047e+00
