-7.060646048492446036e-01,-5.560966113182100878e-01,6.462301028896433319e-01,1.332854126121880034e+00,-4.121768475005728183e-01,1.611675205856530901e+00,3.293077923350805847e+00,1.297143610751254839e+00,6.772444354621558471e-01,6.905279724966714161e-01
-1.430883188555872598e+00,4.676984929591455398e+00,2.854500122073027057e+00,-2.204186592362576691e-01,5.603254417542954946e-02,3.709475996272206366e+00,3.661580429667161241e+00,2.398963758494644605e+00,2.409702579274702217e+00,-6.041760453584372748e-01
3.340546906378511149e+00,5.306505641513658000e-01,-8.051481058013315595e-01,1.655719058383198439e+00,7.382529825089283460e-01,5.901219325312774266e-01,7.294787097950493626e-01,-3.516457983205100390e+00,-2.293717924088966686e+00,-2.412377810997840655e+00
-3.999490321067582954e+00,2.872051950558616618e+00,6.830291656430809155e+00,3.064003046684204534e+00,2.159673636075413405e+00,-3.257621593608066135e+00,-2.989533881682660432e+00,-4.581162516660309159e+00,-5.571248863702420451e-01,-1.063832698513584640e+00
1.889307110395172179e-03,-8.365090202387551743e-01,1.132598870555669990e+00,5.263408408945545069e+00,5.626343413571285312e-01,1.408368284534438741e+00,1.872719481089974103e+00,-3.087561505368505266e+00,-1.188242036866506313e+00,-1.051880516247209574e+00
1.237931307984272644e+00,4.439610017226528704e+00,1.915130896970875352e+00,1.345965105291877073e+00,1.436022631265106542e+00,1.107026251790473426e+00,-1.119615269237066224e+00,-2.803522812679001053e+00,-1.036703974195371636e+00,-1.498410451476721805e+00
-3.029109980521591527e+00,-9.475122333100777228e-01,1.432548675884508738e+00,2.393165523980643972e+00,9.999905155270969459e-01,-1.998601036350332150e+00,-1.113240105750125997e+00,-1.958507266931468260e+00,-1.208533799423201049e+00,-5.146718234407918757e-01
-3.102348716991027988e+00,-2.572968213812105276e+00,-4.050792718523277713e+00,1.673729555974919903e+00,2.507486630952604045e+00,-4.255848791337948356e+00,-2.908623751287198189e+00,-2.318199436839264216e+00,-6.315814595964130973e+00,-2.729547459145623134e-01
-5.545295064305921784e+00,4.474001109099062790e-01,2.008268312218506324e+00,2.073787628931932636e-01,-2.575457526705070277e-02,3.954705399832807999e-01,1.821498664883358209e+00,3.350790271911916474e+00,1.877432434965059738e+00,1.143673486669505523e+00
-3.457845169266045460e+00,6.397679403874565018e+00,9.582291367261548398e-01,2.486073476223899181e+00,2.618273308379385877e+00,3.573647934003040039e+00,3.598578526810277900e+00,2.398017938257704651e-01,-2.239981534172516664e+00,-2.321157497496257882e+00
