1.849471809437638337e+00,2.998450938708402180e+00,1.097408515760253778e+00,3.866339676309329398e+00,-5.491677707916920781e+00,-9.115563443000008759e-01,-2.617880857902366465e+00,-3.191617596962234238e+00,1.006212374316970193e+00,-2.092824216948127314e-01
1.564571248644144985e+00,1.351669907926706715e+00,-2.965583696560536442e-01,1.215201602113230805e+00,2.327857061928485738e+00,-8.604699869473098062e-01,2.249479973464826532e+00,3.183589217661148552e-01,1.273628809097623049e-01,5.176457141529851036e-01
4.449840297835823577e+00,2.051130653624389399e+00,-5.932783374934218479e-01,9.067665439981700271e-01,-3.826165199036730136e-01,3.424084236983984564e+00,-4.752591312752429964e+00,-2.624446975411145022e+00,-2.127790315533062415e+00,3.305799740149285793e+00
5.501942210466161942e-01,1.467050940943284587e+00,1.381883468561591943e+00,2.506124939775776106e+00,1.431281757869915239e-01,1.721026338990411020e+00,5.040045195506508424e-01,-1.901987752848994129e+00,-5.804345516894351409e-01,2.816608413591249249e+00
-3.261751600864489564e+00,3.901329851460215437e-02,1.782066411727165622e+00,1.774499156744049788e+00,-4.595047734552789032e-01,3.922096757408130019e-01,2.077940577140445222e-01,1.359475366496557536e+00,2.558827533870279058e+00,-1.057742942514221296e+00
6.007948801389479954e-01,-3.129496008522749229e+00,9.077236356608773260e-01,-3.070845680543272671e+00,-9.085516357575992297e-01,2.334771809021045641e+00,-5.073065529671856311e+00,2.182757481299832492e+00,4.144430095138695869e-01,-7.821266717741275354e-01
-2.847045413228870725e+00,1.013716599654105044e-01,-1.908346434326184893e+00,-1.506432074330953830e+00,-7.378533063609853393e-01,3.133547888359061173e-01,-2.473934739717998710e+00,2.720258130451581047e-01,3.429925894968386402e-01,-1.928439740026557381e+00
2.188950349642553750e+00,-1.387165268314196176e+00,3.175682988984731558e+00,-3.504997062100840832e+00,1.470489646206448953e+00,-1.713686571551584215e-01,-8.129181892776216500e+00,4.463441265064622243e+00,5.095540946816782046e+00,-4.435545811149944839e+00
-1.136170314070016563e+00,-3.098124030364836301e+00,2.780061691451967132e+00,-3.033666267148514617e+00,1.096781371336147531e-01,-2.778840864897877516e+00,-9.295444951900084796e-01,3.890165065592528837e+00,3.769876501676141967e+00,-4.433642409519324090e+00
8.245885544155847624e-01,-1.316969917263763001e+00,-4.300495773267286048e-01,-5.757540408937075194e-01,1.045664477008504401e+00,8.217171380043846174e-01,1.467360867344787101e+00,6.508775216880784420e-01,-1.371962800617134492e+00,1.282200177819624587e+00
