-2.454443450666745630e+00,3.282344638690558369e+00,1.505043805750956754e+00,1.530036215372311048e+00,1.031676050932591959e+00,1.332704524051171457e+00,6.184638468086287588e-01,-3.094618348959125242e+00,6.623287511370333114e+00,2.708661996857513632e+00
5.289646262469520632e-01,6.909227372963498981e-01,2.137246798455094243e+00,-3.107304129286152516e+00,-3.114455233693858460e+00,-1.021750244879078506e+00,-9.982095165025937078e-01,-2.506023130322835968e+00,3.899490238496372108e+00,2.937578220978015686e+00
-8.599620101847124110e-01,2.762814287387834966e+00,-1.024293454181889107e+00,-3.495897357707193898e-01,9.787237065910787681e-01,-2.239769707011072697e+00,-2.084889580075633297e+00,-1.335761367168791347e+00,9.566841680379004620e-01,8.193615048701186065e-01
1.494122089063886216e+00,1.414819899440895146e+00,-1.779974221262520251e+00,-4.442727671515205756e+00,-4.227747432794290106e+00,-4.784411684098224704e+00,-8.587301844917113458e-01,2.875390855125926848e+00,-4.027782708754839014e+00,-2.627714932986073837e-01
-1.282390011390223350e+00,-2.248620645940424545e+00,1.563387127044832514e+00,5.613727541343078720e+00,4.861876998778902781e+00,3.939222209358999471e+00,-1.358575784405388287e+00,-2.478285684913128506e-02,2.215304639863885594e+00,-2.085236356629295296e-01
5.202811838465258854e-01,-9.011457041509104426e-01,4.912338381503290385e+00,-4.898298944421562773e+00,-6.934930879898201894e+00,4.488044721237633539e+00,6.930155504640449493e+00,-4.390026343074111992e+00,3.514070189330659844e+00,4.007323860888729605e+00
-1.955519459260174120e+00,6.005736258296788810e-01,7.110988287257001828e-01,-1.519678901845497032e+00,-2.406906780476992136e+00,6.426421771998350740e-01,-1.716263281556606790e+00,3.684546081723679922e+00,2.493345097793915333e+00,9.440695399611429006e-02
3.922559928452979405e-01,-6.039695540564500309e-01,-9.089879700210264923e-01,2.262758169571526867e+00,4.149953619107600744e+00,-6.733872338986202077e-01,-2.786133993872971004e+00,-2.719311897192404626e+00,2.280795586987218737e+00,-9.203360764944630290e-01
1.085326693208925608e+00,-8.020233235555166429e-01,-9.515278827475368573e-01,1.261474025795254139e+00,-3.170683979472465053e-01,-7.200890510303677994e-01,1.833823406545342261e+00,2.330666719752064964e+00,1.023223652341874512e+00,-1.795351614840122956e+00
-1.169158073907496043e+00,7.781167849302068618e-01,-3.258363208373200592e+00,-6.408667090454470916e+00,-6.269703750726776548e+00,-1.693953952144813924e+00,5.326161467363448310e-01,8.125746839282840028e+00,-3.786446515166119742e+00,-4.180938080760969733e+00
