-3.566611291790159122e+00,1.310336832826592524e+00,7.015599628314171943e-01,-2.427416847428616631e+00,-1.189989123324285858e+00,8.509795155778632214e-01,-2.514298799932644934e-01,5.541874788603127211e-01,2.761204553821043906e+00,-2.845801734352634491e-02
-1.451765474104087073e+00,1.413558546466499699e+00,1.546630084961429175e+00,8.909974288958071309e-01,8.407547646926609719e-01,-7.540946615063640612e-01,-1.529793147048964075e+00,1.402817215404514650e+00,-2.726774509626402221e+00,-1.376263853889190925e+00
-6.431683951895543760e-01,4.935865641418259564e+00,2.405886610752705934e+00,-3.960592858154624585e-01,-1.139341033442240025e+00,-5.960701689559126937e-01,2.176441500746028809e-02,2.207044736359488724e+00,-1.665100167119234253e+00,-9.693609098049135175e-01
-8.409882538328194990e-01,3.484796266862085545e+00,3.891428975524683143e+00,-3.478942104780017974e+00,-4.881593768762418684e+00,-5.638715733514735540e+00,-1.059101680623128816e+00,3.058132066810313354e+00,2.458618574207718677e+00,2.403157369586881753e+00
2.755896784351784534e-01,1.560891152505746948e+00,4.918892644994841135e-01,-2.139514993535398535e+00,-5.126782753690965144e+00,-6.210213905094951414e+00,5.232022486694543062e-01,2.492304560557769832e+00,1.205897966524947407e+00,1.134796273123293231e+00
6.564736731594190466e+00,-3.941703078517047931e+00,-4.870702093515991926e+00,3.834068884829563650e+00,2.427729668968446664e+00,2.581924043242224354e+00,4.027299550357994917e+00,-1.545262780664664604e+00,-2.405640703763588739e+00,1.029770124417867194e+00
-3.528214997565795930e+00,1.518356847301781221e+00,2.549195489366658407e+00,9.736913447215846951e-01,-2.254929835461179977e+00,-5.858628235409686802e+00,-2.070977653361711912e+00,1.368245178801407391e+00,-2.125206172796513471e+00,-6.672252235890252514e-01
6.364363046240181232e-01,7.665290958579340952e+00,5.935374075326422805e+00,-4.414798052166291065e-01,-1.457488696571683340e+00,-1.411102141924518660e+00,-7.432690125382255264e-01,2.679589892908693205e+00,-1.884778582810475722e+00,5.794419516098531231e-01
-2.814609465173211866e+00,-6.504412844824903672e+00,-2.901795363607123424e+00,5.963442085382576474e-01,3.294619349138234288e+00,2.881697480689945579e+00,-1.463979409746057003e+00,-3.030864633272721598e+00,1.649364758647863916e+00,-5.844775755960018859e-01
2.265377676102670046e-01,2.876325313901806791e+00,1.635975437967333246e+00,1.580552648286848383e+00,5.947626819479726601e-01,1.700672981867815681e+00,1.412329284772801063e+00,1.439929999024921470e-01,-1.144192753188471245e+00,8.129079842110840115e-01
