-4.414113631179301223e+00,-6.452542986131817315e+00,-1.981958675653133328e+00,1.921095807801901589e+00,-1.886953521492086061e+00,-2.495237246271866383e+00,-6.480993241517098546e+00,-2.623330684696872694e+00,9.921209009730780348e-01,-7.313986006030487319e-01
2.434996916800760580e+00,5.735936408374795903e+00,1.325460136883762408e+00,-3.400568562507627846e+00,1.341369519850857950e+00,2.518070741020955960e+00,6.671895607100319481e+00,3.130035544694618199e+00,1.227265120740138382e+00,1.354260128877089020e+00
-3.577527109966075702e+00,-2.889604384498685175e+00,3.291872968771058616e+00,1.515258021566844748e+00,-7.824031246585593236e-01,-6.964470375980029715e-01,-7.573296035078405097e+00,-2.362351719678304374e+00,-5.191452789520301536e+00,-3.205148513374170172e+00
3.902508479787938356e-01,-7.647209165695307842e-01,-1.469285760607560665e+00,-3.537346761231800141e+00,3.274349359901525536e-01,-1.425571598180352950e-03,2.980174085607568912e+00,-4.302394222073773200e-01,1.126021125937104184e-01,-4.364200502801995896e-02
-1.560510441419122651e+00,1.933172750264860351e+00,2.492388794222977211e+00,3.535259132066418619e+00,-1.499495858230571077e+00,1.512842358099164342e+00,-4.715099487591594141e+00,9.174558869699471764e-01,-1.964598644001005479e+00,5.685900855942971344e-01
3.509633487472340718e+00,-1.004657515349093755e+00,-3.844319226670134704e+00,-1.616876999574612617e+00,3.830893495323213216e+00,-7.855458984225067720e-01,3.417906939961664392e+00,1.907579537267021230e-01,-5.417112446045509178e-02,1.467312381121951503e+00
-4.086013259475170578e+00,-5.660237560180664929e+00,-4.025605780500835174e+00,3.216891955291607985e+00,-3.537493960938665749e-01,-1.742794085362369128e+00,-1.051251812883075232e+00,1.789545025859295535e+00,1.030768450301249972e+00,-1.625102372853728605e+00
2.573617598381046090e+00,4.240934874201761851e+00,2.444506536031279431e+00,-2.692074358043935689e+00,6.417405237273121621e-02,1.265102763420168142e+00,3.237842862660382348e+00,-1.147842587828522554e-01,6.939372942739661099e-01,6.964298291326117551e-01
7.797035020463741972e+00,2.435773024937939901e+00,-3.294373522235833462e+00,-2.166630532425822153e+00,2.326092781134016185e+00,-6.019069464023567573e-01,5.303508108198797366e+00,-1.931026038671137313e+00,3.409353426270240739e+00,4.292992820201843251e+00
1.461247323102706108e+00,1.542298193145021479e+00,-1.101851209356488059e+00,-3.081488659399989061e-01,-2.407359905639743225e-01,9.444748675515179936e-01,1.579003571405271922e+00,6.040680885625649976e-01,5.356233990918073395e-01,1.817745693356831227e+00
