2.253122638373967312e+00,-2.329516890144079089e-01,-1.067891641149747439e+00,-1.854250077062442603e-01,1.798908540327384953e-01,-1.292270737523451229e+00,-3.467575399643121781e+00,1.105319677572319526e+00,-5.485526500378301584e-01,-1.695894042977407645e+00
-8.133823380861805452e-01,-1.789763890492606535e+00,-1.196829807343214647e+00,-2.368179046316018166e+00,5.112123127395422628e-01,-2.939790808756426177e-02,2.467353165744237575e+00,-4.465249389081553111e-01,1.236906642021070812e+00,1.634556821586589992e+00
1.864198030030427500e+00,8.659595959186002778e-01,-2.090487790612562069e+00,-2.117316068753801517e+00,5.466373007369387249e-01,-2.154468437827314897e+00,-1.642197490791634351e+00,-3.630762744023945388e-01,-7.555133152010007347e-02,-4.595714101736994017e-01
-1.349648954041414273e+00,-1.545336852422905638e+00,5.267817836031896128e-01,2.273920446327556633e+00,1.208271095315658794e+00,3.770336022325091907e+00,-1.532903469537655994e+00,3.118004452402344473e+00,-2.664404641573018040e+00,1.065286104257687549e+00
-1.321248727440938131e+00,-8.726103269833013210e-01,-4.161528384729599850e+00,2.760871341611636609e+00,1.472176092903973998e+00,-2.073096109251973296e+00,-1.822929123071306723e+00,5.631837575099423177e+00,-1.858364708541978327e+00,2.545618875975289797e+00
9.202594921550009133e-01,1.975776875860396853e+00,-5.465940758821979273e+00,-1.370288039572955086e+00,4.473704097994631645e+00,1.917866247238334987e+00,-5.051497530074442466e+00,5.232426626211131193e+00,-4.901556982487094594e+00,4.169961995216901585e+00
2.472896345359965609e-01,2.479972441415014384e+00,1.323066335496668744e-01,-2.145387430175979659e+00,1.555383838782893546e+00,3.137157435623496138e+00,4.879004970403066466e+00,-4.420409940154247375e-01,-9.875453578461490522e-01,3.317320383104347847e+00
-2.779055837393356487e+00,-1.363785944162646535e+00,-1.232876134539207635e+00,4.188970711329973451e-01,2.312849990314556625e-01,-8.768360226500677701e-01,-9.022054866515190064e-01,4.632082215404077774e-02,-3.207938845310459586e-01,8.194717829595753456e-01
1.527705044440432314e+00,1.979608813138632017e+00,-8.874161670473623698e-01,-6.641868434589077719e-01,1.740473087744881964e+00,1.847162959560290751e+00,-1.856426226667296397e+00,1.222130848933890679e+00,-2.910391159858683352e+00,6.850660497779834657e-01
1.942402803801915212e+00,6.978276144549680482e-02,-1.364214949804531285e+00,7.352988982188314315e-01,1.439922728663384222e-01,-1.965724286920314201e+00,-1.634499814229586123e+00,1.853051034486730808e+00,-9.410533318260400071e-01,-1.147220791489872438e+00
