1.367898075157691906e+00,-1.450103529490770038e+00,-4.285454209088902289e+00,-1.228509887993622929e+00,-2.705701156457886447e-01,3.522946133698913407e+00,-4.808856838129739408e+00,-1.052932973692130569e-01,1.125456286769231262e+00,4.645830673238123154e+00
-8.616074366517426641e-01,-1.791536095150541574e-01,-2.404552390698116771e+00,-2.762479132390757375e+00,-1.937212825706449371e+00,1.141755110216965408e+00,4.577436757895910757e-01,3.709601144534883654e-01,-9.997430355750995812e-01,3.681551340149610052e+00
-4.098261822159842360e+00,2.088493455719734992e+00,2.255975643573312261e+00,-1.352881320993455372e+00,5.328380278715070695e+00,2.114047784332206525e+00,-3.200363791905579181e+00,1.938187501846103666e+00,9.162468336672913161e-01,-2.608715811945170771e+00
-1.428800680634226161e+00,2.257415066608552956e-01,-6.141010720338068829e+00,-4.546755942064682365e+00,-2.846077001287855790e+00,6.103044809521236402e+00,-5.634540971442547619e-01,2.117553369829410226e+00,5.921395147978241180e-01,5.694037872723937355e+00
-1.984084045637840132e+00,4.778683085188193402e+00,2.638556832733711666e+00,4.104327215146035712e+00,1.494751729114515704e-02,2.309307347326857052e+00,7.231997924092111951e+00,2.456015363922603889e+00,2.132009239614173435e+00,-6.178717484416933026e+00
-3.646717761242364908e+00,-2.471455701153139728e+00,3.918771727012785089e+00,-3.408118387769576874e+00,4.708575535832972392e+00,4.391523365165937443e-01,-1.994358279521655675e+00,4.186121724416784318e+00,2.274151551523257542e+00,-3.995566471883275739e+00
3.248774990801468476e+00,-5.491558570881296397e+00,-2.395874055707922778e+00,-5.250297964158343600e-01,-1.527885414691849020e+00,1.253040308671524938e+00,-3.616838444597056945e+00,7.887063007478203325e-01,2.115238001963936743e+00,4.568102308926061284e+00
-2.822138805463474398e+00,1.204999098550996184e+00,-2.841777716149194610e+00,-4.597672321799844752e+00,-3.059084625419741243e+00,-8.662756464484031582e-01,6.558577895226828325e+00,9.685011495237813017e-01,-1.465567458822342850e+00,4.762830024603757373e+00
1.343043602967237904e+00,1.978586229667692820e+00,-1.469279794782659243e+00,1.274611363211676007e+00,-7.601134792000396878e+00,-4.832482494644778193e+00,1.193105103295890679e+01,-2.248592669314612102e+00,-3.229640734290069481e+00,3.782292093403857969e+00
1.765542006289217314e+00,-3.949670799427443590e+00,2.206368709826135532e+00,-8.845080534528602101e-01,1.846170825415066385e+00,-5.053131732299828371e+00,-3.353481777981807799e+00,-1.730647540193616107e+00,-8.556911168085389319e-01,-8.879678902913383798e-01
