5.849903762064360357e+00,4.722543526258361268e+00,7.953063219785833082e-01,4.555411501866739599e+00,1.657114069029875125e+00,3.304681673951646026e+00,-7.980469404568502512e+00,5.183681461806123991e+00,2.092051615230346329e+00,2.699740868349405964e+00
2.742247450409364795e+00,5.377978324114441655e+00,1.064893755389776375e+00,5.745485033916747142e+00,1.109405414597894657e+00,4.467745107873922095e+00,-6.605981910072487029e-01,-6.506335034646837379e-01,1.323519790722499589e+00,-2.166284984680928449e+00
-1.579616959143785859e+00,9.252426289742181620e-01,-2.791626273312236006e-01,-1.639956054543803443e+00,2.286249083669035009e+00,-9.639661947988180657e-01,-1.683377174764199236e+00,2.135777414865157375e+00,-3.521709950734798755e-01,-1.078210950193072337e+00
-4.492931188181328306e-01,1.355500815554132599e+00,-1.497309738102533261e-01,-1.446699172471649364e-01,2.143991164571154240e+00,3.901344425532596305e-01,-1.940177473564967725e+00,-6.927451762544327429e-02,-1.494159133331292022e+00,-1.772508498441705438e+00
4.165384573796715451e+00,-2.372650275458088931e+00,2.684854827247792119e+00,-1.203354589396567365e+00,-3.135036175355907506e+00,-7.924105469139027802e-01,1.900381626642908550e+00,-1.766511898219779164e+00,-1.356044907214730144e-01,2.406128965766813455e+00
-9.082253152221104742e-01,-6.499280500021807683e+00,-1.298882619976734931e+00,-3.309874504524783934e+00,-2.610293966493014151e-01,-1.693805254490528434e+00,-3.681672891557758565e+00,-5.051703741893567745e+00,-4.045536914813074425e+00,7.935079589751573570e-01
1.822790903084705594e+00,-1.660163392406813987e+00,1.414389675440562710e-01,-8.455754153481161994e-01,-2.768775955906542796e-01,2.792820279960105956e-01,-4.022620986113380148e+00,-3.735520686107632216e+00,-2.527722567463587922e+00,-9.017408418393336733e-01
-2.780458986141105093e+00,9.061832464830219536e-01,-5.238359435157757815e-01,6.702639048805479893e-01,-7.908385799855071063e-01,-4.478429665114061486e-01,6.034568741474891418e+00,1.805480737678002212e+00,2.157065120283232940e+00,8.671365360465695116e-02
6.037666309702087730e+00,2.292331555566551327e-01,3.828513920985836538e+00,1.343609196095942426e+00,-3.229253181410383533e+00,2.088392964740227509e+00,-1.074742328203907915e+00,-5.527361284282386933e+00,1.335246357210375212e+00,-1.652244585667129062e+00
-3.717023766337671731e+00,1.394262844755751685e+00,-1.581430032997677149e+00,3.141134517507921942e-01,2.051712206867727151e+00,-3.079703415641499298e-01,1.501493052304245568e+00,2.969825039048249238e+00,9.093269040802520742e-01,-5.402519595845955980e-01
