-2.254271233849480804e+00,2.686920787855655135e+00,1.993769710230294923e+00,-1.148293572362232978e-01,4.378199863886672816e+00,1.719887447790943602e+00,-1.601201601236889260e+00,-5.736522473385874399e+00,6.667594440647545140e-02,9.995393877293957674e-01
1.129698406375894276e-01,3.092390875917467308e-01,-1.357124623659780482e+00,-1.484733188009622173e+00,6.694041843250568835e-01,-8.491303845022241115e-01,1.816614543622750988e+00,-1.257655519672702615e+00,-3.991395988632598923e-01,2.816048414190919225e-01
2.934601852502356945e+00,-4.415818659656760126e+00,1.684417524899841201e+00,-1.857493121815678494e+00,3.166158277283199762e-01,3.046451459981830201e+00,2.185838729473963848e+00,2.543856358534923867e-01,-1.443394519171381729e+00,1.742755900131711666e+00
2.085118342288505566e+00,-1.816921260746571232e+00,1.046509064984329163e+00,1.347641011375842357e+00,-1.299110375168515574e+00,4.042445673910794457e-01,4.880276122451528975e-01,3.703054690805785309e+00,2.279647633522977612e-01,2.679346592486533840e+00
-6.751836200082391715e-01,3.012880845862860202e+00,-4.486751307568005998e-01,-2.357113914086378603e+00,1.511495474863895794e+00,-3.861351619403869395e-01,-7.640238221871676894e-01,-6.108199812650019211e+00,-3.448701935334761437e-01,-1.498235795141109827e+00
1.184324461124789174e+00,2.412136821762943251e-01,2.841240866601592030e-01,-1.373566625097402127e+00,-4.391447517136823908e-01,1.017551836071101112e+00,-4.485731595306439723e-01,-2.565784002112887485e+00,-4.107445996156647849e-01,-2.563369101147766269e-02
1.498206264727997450e+00,-4.316882023035362170e-01,-2.366258446800645121e+00,-1.522594033106648537e+00,-8.058108020826832973e-01,2.336268002614741324e+00,1.305064268740576461e+00,-2.961209171603458312e+00,-7.776525899955283316e-01,9.414639462114173796e-01
-4.204237505492468552e-01,3.469428654675251078e+00,3.837983389843382387e-01,6.155687295977251700e-02,1.136092376155975581e+00,3.730930744843836133e-01,-3.113039700088336303e+00,-5.011858635261246420e+00,1.501377748820031943e-01,-2.452935012130497583e+00
9.604658972392751681e-03,3.120370494892014346e+00,-6.394657694986863872e-01,5.895162282546307253e+00,3.151994586576516988e-01,-1.192548551826702941e+00,-2.718386794183182964e+00,3.310251855353687933e+00,1.682515582999410952e+00,5.911395234821390510e-01
1.759511325645136237e+00,-2.435106106111781799e+00,3.944171403846986834e+00,-7.376602946045922593e-01,-4.716188175500067636e+00,5.950971446981505597e-01,-8.536480106453689931e-01,3.975014390396364838e+00,8.101461964069887056e-01,5.346856301473549067e+00
