-3.067575454936131152e-01,8.151757857248032035e-01,3.934194078737741386e-03,-7.332264216499310150e-01,-1.169820244751243576e+00,-2.259697275870640731e-01,1.720268816560361624e-01,-9.537343229493971952e-01,6.523729385766697808e-01,1.622482367271338433e+00
-2.509705929262530777e+00,3.121852454706086633e+00,-5.463246318892018838e-01,6.073613701112834384e+00,6.586070727455588525e+00,-7.677320626791575009e+00,-1.915098250318448825e+00,-1.998672901801306911e-01,-2.013315120913964640e-01,-5.260127237272261835e-01
-5.725548689553355830e-01,-1.941277310806832634e+00,-2.594542192101761735e+00,5.581880633812811965e+00,7.617008556006133801e+00,-4.946572291439487401e+00,-2.547820925504848510e+00,2.295572945961467770e+00,-2.274340522441918200e+00,-5.144199533340993113e+00
-2.100190465967692877e+00,8.735621797527913512e-02,-1.334148872502740835e+00,1.142022377036060243e+00,1.513662462135517250e+00,2.473923932326554276e+00,-2.725680646709904398e+00,6.428146339455979685e+00,-6.179691733240023632e-01,-5.863149039606965207e-01
-3.698064490679861649e+00,3.121947377850701866e+00,-2.477378560796202667e+00,-3.632290299731952832e-01,1.065982786872278348e-01,3.052763702420189240e+00,2.920119530381081407e+00,7.058210629738742803e+00,-1.332247715882801886e+00,1.340319306504044405e+00
-2.068208533635306490e-01,2.710309973043779630e-01,1.015441995620172122e-01,1.678879547379343418e+00,4.117552400712630956e+00,-2.456801289909764652e+00,-1.921389069753335788e+00,-2.328575941753805445e+00,-1.507385121367481595e+00,4.187931001541689291e-01
-1.162766593500298207e+00,1.996702979827056801e+00,-8.505772672340563556e-01,3.333927270638809559e-01,3.101590963086554020e-01,-1.345762349489192822e+00,2.093686226068027789e+00,5.366880017950934612e-01,1.484387568126070049e-03,5.156396299028006558e-01
3.071445212875835828e+00,-1.511638267233439192e+00,2.738522801300994569e+00,1.582773212839918564e+00,2.877794007898891060e+00,-5.709329617551299307e+00,-3.400742042829383749e+00,-9.452325986185016404e+00,4.568291811787087986e-01,-1.281673867561449187e-01
2.114820664494651226e+00,-1.879587317243465838e+00,2.700892513040859644e+00,1.742040168980537151e+00,6.121017090904583569e-01,-2.927908740122683984e+00,-2.196177831854927209e+00,-5.742786085044262911e+00,7.180251183667090142e-01,-3.795641627857717498e-02
-1.138673081625452888e+00,1.771645368327684489e+00,-1.454779361092582157e-01,1.610059043861833405e+00,1.242895055520016001e+00,2.571129927377868163e-01,3.380034604620171024e+00,4.536164009643494310e+00,-5.799770125768046736e-01,-2.863024668414333451e+00
