-2.406425376538209537e+00,2.145707488352967818e-01,-3.682925119166453598e+00,8.142381712196641530e+00,-2.923392877957176506e+00,2.851461188662528512e-01,1.325056466613207196e+00,5.499604387911504411e+00,3.035372446337753605e+00,-5.949637293036659003e+00
9.792674163901031459e-02,-1.943824697969185056e-01,-3.908211339921806360e+00,8.546822930651956085e-01,-2.580053110396252070e+00,3.720893322612018328e-01,-1.032521792367507185e+00,2.903246203351819599e+00,1.658138211010665053e+00,-3.505189714917964494e+00
-5.491387626151253976e+00,-1.586061400355432305e+00,-4.865718676167104739e+00,1.340492841764820087e+00,-4.662812718792069155e+00,-1.508508914377942212e+00,3.855506235102344470e-01,-6.975314441253534226e-02,3.384741688453036357e+00,-3.031141317317283534e-01
2.644038629173564026e+00,-8.173239317830183204e-01,2.287261583104125862e+00,-4.221372614443023252e+00,5.346186423976030389e-01,3.845993805631462426e+00,-1.141241980937755640e+00,-4.892741784366978486e+00,-1.705380023913017837e-02,4.742222746147257695e+00
-2.680955695944562400e+00,1.777679573244381528e+00,3.172560870796636845e+00,-1.845635882585883847e+00,-1.091842443608229685e+00,2.488837518300424989e+00,3.193217381728406412e+00,-5.309647083508287402e+00,6.761728587527478240e-02,2.803229874481874440e+00
-5.919417465944706302e-01,-5.963644706982004773e-02,9.677559804955009337e-01,-5.774343024887230058e+00,3.121622314835361234e+00,-1.939412638281598378e+00,-1.825400418644085088e+00,-1.507397271105212377e+00,-1.868662409384751699e+00,-1.253449740255793587e+00
-1.155661144000219576e+00,-1.168818104511245792e+00,-4.806031089865878236e+00,2.368802123370445489e+00,-2.309856782522071939e+00,-6.535205139628112114e+00,1.181141074881136177e+00,5.173827308326812258e+00,-1.118599054664176223e-01,-2.515550415955781105e+00
-4.291902946485218528e+00,1.065927611613365578e+00,-3.888959280484413639e-01,8.938565821721453641e-01,-3.667403811959065951e+00,-1.909755637442108966e+00,4.850465548624008250e+00,-1.855828258525278995e+00,5.085896610212279345e-01,1.425226181518049806e+00
-1.275775954414270386e+00,-1.216755336093697126e+00,-1.554491215949741933e+00,4.980004639209745787e-01,-3.163720730636241374e+00,-1.867036856496857578e+00,9.155437383886296798e-01,-1.511246382372160024e+00,7.118862999941206748e-01,5.707225853439158669e+00
-2.907093209967158032e+00,-9.419011096706564334e-01,-2.038694258570359352e+00,2.569227813159023821e+00,-1.430687875790393804e+00,-1.902558758831204511e+00,9.043346466274702067e-01,1.229367489350600584e+00,1.378816570993391277e+00,-1.135582225614914842e+00
