3.006668172446363752e+00,8.592382371078195469e-01,4.352507445901644401e-01,3.020800765134310506e-01,2.223827546792381149e+00,2.729982958730757803e-01,-4.562565710284476328e-01,-1.359155287731879103e+00,-7.323037570927876105e-01,-1.153513659195157359e+00
-1.951328726572702843e+00,3.824221512975293447e+00,2.094417018266740094e+00,-2.048557463992875860e+00,-4.279285960593558258e+00,-2.858481677431160328e+00,8.101343937369019921e-01,2.586091151529206211e+00,-7.304630797116189178e-02,3.008753280913688322e+00
-4.530371669295881754e-01,-1.773209236415937973e+00,2.362177366353073182e+00,-1.693673345304953726e+00,-5.775097591055303736e-01,-1.064574964398128376e+00,-3.056988610005103801e+00,2.541775698924409466e-01,-1.683602283094502550e+00,4.387630692141221367e+00
-1.330478048543779934e+00,-2.726099660689111026e+00,2.348586638840556073e+00,3.791391597459876195e+00,-6.861343578261252851e+00,4.798268751430050827e+00,-1.513058913837183939e+00,3.935347098464854199e+00,4.369946027228113206e-01,-6.145308037148768499e+00
3.293756486811434847e+00,-2.078155784912093740e+00,-3.077241818367554504e+00,3.525460677782253693e+00,3.459735211824150891e+00,1.055624811592029033e+00,-4.524607191870459566e+00,-4.049314336965650796e+00,-1.012073003021727979e+00,1.711292258696875068e+00
2.508170008881590363e+00,-2.116220204878969557e+00,-2.191533261142273314e+00,-1.561238991510614182e+00,6.120020154107764121e+00,1.943187107200596619e+00,-1.301747452744519418e+00,-3.566763342921973390e+00,1.360458942239548774e+00,-9.508881867407323329e-02
-1.989714067622258664e+00,-2.010315264116608436e+00,-1.775822149606014477e-01,-3.690575516079533380e-01,6.744567373281122880e-01,-2.720733005868329446e+00,-3.499522385322447526e+00,5.611594855237795887e-01,-2.909793601956236930e+00,2.507417492172253848e+00
1.466828939096987749e+00,-1.138742848955110354e+00,-5.766651008170500248e+00,1.121990551763476729e+00,5.912355283676760997e+00,3.345158237559558767e+00,2.325827772824818229e+00,-3.408082874835725917e+00,3.554598178974037292e+00,-5.161659400392959895e+00
2.358882185306344414e+00,-9.887703411108643703e-01,2.627955741399554124e-01,3.178873935373185855e+00,-1.101026222540394173e+00,3.476323496563486604e+00,-3.238075218954104550e-01,-6.209701058590739731e-01,6.815668409392375837e-01,-3.005141639056313707e+00
-1.286589579677234862e+00,-3.963832248909967548e-01,-6.656176915311851072e-01,3.898249305848687229e-01,-6.757073721421178458e-01,-6.187799128883789690e-01,-6.281218728059435596e-01,4.983890362397714324e-01,-3.140228388763093847e-01,4.391650897895290062e-01
