1.902972237217276819e+00,3.832708835452209417e+00,1.762983096915062831e+00,6.786560669479541064e-01,-2.207640937881502730e+00,-4.004939809705563292e+00,4.456708208683747285e-01,2.490340329169466571e+00,2.177224695448976011e+00,-2.482900950202539647e+00
-1.594781683159306462e+00,1.974859204688135916e+00,5.373447232903821202e+00,-4.753703245658285059e-01,2.364332963990663838e+00,-3.827260645109480941e-01,-2.787333256606672194e+00,-2.224757693191965480e+00,6.830346672350060544e-01,-2.984438205274720257e+00
-1.703867307816081089e+00,1.346261409369233109e+00,5.262386729889654724e+00,-2.175219553034984377e-01,-1.355232125600438264e+00,9.049007608415856607e-01,-3.647103287368866908e+00,-1.620382903585839918e+00,2.249939690849838136e+00,-1.947447954929141911e+00
7.410778296349156413e-01,2.895978495667296482e+00,5.032473919404163887e+00,-2.329802951447851878e-01,5.388786102309384596e+00,-4.197977183427795467e+00,-2.998136831960249715e-01,-6.059662842796452731e-01,-1.444598930481973964e+00,-2.729209210296123622e+00
1.670194802741699069e+00,-5.147831799354448679e-01,-5.149624742918716080e+00,-1.483415479756557409e-01,-1.251471975560092542e-01,-1.848794685880648103e+00,3.155996004477064520e+00,2.040543672448416945e+00,-1.319431418057768868e+00,6.992371898769038641e-01
-9.996375779950171792e-01,2.734378566210419748e-01,2.912053115717389673e+00,-7.698653184877221056e-01,1.390810892533101528e+00,-1.353462576529609551e+00,-9.755444303124899408e-01,-1.369890117642654559e+00,-1.969654222981821690e+00,7.776602313001134137e-01
-1.101501345169035029e-01,9.200839009188152007e-01,1.450184837467111132e+00,-8.705203464460911089e-01,-1.275147631342268495e+00,-2.633119530426355048e+00,-6.253460757970229489e-01,2.300328565944352588e-02,-8.851075513650968896e-01,1.215546054327878572e-01
1.771624308418708216e+00,3.492453647859682930e-01,2.016262074727648568e-01,-2.524501581067517542e-01,-2.975371774541814673e+00,-1.733256167015575944e+00,-1.038348009960660345e+00,1.021413738270551486e+00,1.401664244787090841e+00,-9.490862921460733181e-01
-1.446697746905631465e+00,9.818958009247112928e-01,4.583801170015568971e-01,1.300367145027328641e+00,-2.670536816973234640e+00,4.020633909604015344e+00,-1.347619383748754229e+00,-8.602018352941674939e-01,3.339297882114799609e+00,-8.290552435970375278e-01
-1.868663816268631983e-01,2.673071181605955804e+00,8.162137466037918676e-01,-2.545195304664608749e+00,-5.918800351569438511e+00,-8.802505690676889927e+00,8.564882877968444941e-01,3.610144525283708550e+00,-1.676101583921665306e+00,5.564276486636533514e-01
