1.980397970315780132e+00,-5.487858459419961976e-01,-1.829898865394866903e+00,-4.995768578300420204e-01,-1.791199884018475630e-01,6.856965914288838393e-01,-3.300961077582303727e+00,-1.723616869789517558e+00,1.851387818107091077e+00,-1.244347089164759002e+00
1.029577252520058606e+00,2.584474918657191367e+00,-5.495694463057963830e+00,3.890010701716247521e+00,-4.236048933835652619e+00,8.705331458916312215e-01,-2.966797031068915125e+00,-2.125302044598370924e-02,8.126855110093860191e-01,3.462786669780058890e+00
-1.447142840434461952e+00,5.097645001960725786e+00,-8.640886234819358691e+00,-9.544622385294786460e-01,-1.483546515115255371e+00,3.935212227422703601e-01,-1.438512492115078034e+00,-4.433851006661867489e-01,-3.763453653674950328e+00,-9.608503389337067491e-01
-1.490617360032307159e+00,2.577623837977346177e+00,-4.891140404291126842e+00,-1.925796632359003002e+00,-1.975045990259018280e+00,-8.800780005537991446e-01,3.989743765595803460e-01,-3.338282815086728306e-01,-4.295947222648075048e+00,-5.913482512197263535e-02
2.506216706443233910e+00,7.510479837324463004e-01,-1.332522644357371666e+00,5.492254255522600381e+00,-2.500913780420999100e+00,3.077878031120640401e+00,-2.371521839900047723e+00,-9.462076605619939018e-01,1.249415422430884437e+00,2.619036847794074419e+00
-2.321710700069502309e+00,3.145111412738879508e+00,-2.109756782054413637e+00,-5.802151673910099561e+00,2.809623512952416746e+00,1.802806976093169311e+00,-2.311557653750150099e+00,8.310828157352001533e-01,-5.863712776002199867e+00,-3.011459368057191277e+00
-3.158254986285613963e+00,-1.102213821323456910e+00,-8.714168760089593402e-01,-6.198306077730074470e+00,-2.790459936820448572e+00,-5.019400161581550002e+00,3.608988586563611989e+00,-8.823611668707365130e-02,-4.404800860432961152e+00,4.040670361234928176e-01
-1.320110899748512479e+00,-3.967730132892589578e-01,1.238404229155319669e+00,-1.866803715347354897e+00,2.013733599858816004e-01,-6.309798351123939719e-01,-1.010860552773603205e+00,1.260913017888672494e+00,1.231320303943878036e+00,7.728579285145341649e-01
-1.534709465199602718e+00,1.637004769466103404e+00,-1.210831855103627452e+00,-7.155488391849482710e-01,1.046365877125691624e+00,3.148702606843753582e+00,-1.457803779378030518e+00,-1.217232313103054908e+00,9.017596969916923111e-02,-1.617107999434117538e+00
-9.888899224349498862e-01,2.607084890883807127e+00,-4.671334843594143749e+00,-2.867451731526584613e-01,-1.838595666143336249e+00,-3.627815841037067002e-01,-6.968712600082856978e-01,1.360244839711881870e-01,-1.854723259296157334e+00,6.466849945619764783e-01
