6.146715997404942122e+00,8.822958504466207330e+00,-3.319906836803699690e+00,-2.476984294086677973e+00,-2.357600824866721734e+00,1.737673023246817383e+00,-1.047073333755984326e+00,1.749988558659951954e+00,5.833238652954265469e+00,-3.855388677662747732e-01
5.448782423728354418e-01,1.995115293042352134e+00,2.750141153803211225e+00,3.562897445038119670e+00,1.631318011524804934e+00,-3.230673244803692334e-01,6.925887803296929768e+00,2.682191998437555847e-01,4.369689739471898982e+00,-2.195716345483994303e+00
4.375666726605421886e+00,3.891225520837817253e+00,-2.017296833715264803e+00,-9.403670950231730608e-01,-2.112620304502295543e+00,3.087215445139571024e+00,-1.516270467583939130e+00,-6.450861202243139969e-01,3.664666575186321107e-01,-2.382012329313705656e+00
9.089856615063737211e-01,1.907775379820181971e+00,-3.536209433679302627e+00,-2.210616562563457510e+00,-1.907747225866877727e+00,3.983918570264621817e-01,-5.681219470737275401e+00,-9.148866690181772787e-02,-1.742724853973063537e+00,3.762485153279863770e+00
-3.574039382285405075e+00,-4.104747028161200184e+00,6.036016808770727771e-01,-6.860408068830077255e-01,2.092302379953776548e-01,-3.266524726680984259e+00,-1.322567213813510278e+00,7.082211150642663267e-01,-1.421335676317561969e+00,3.966238589156979355e+00
-5.072224253323968313e+00,3.185643674381698265e+00,-6.137234947341993596e+00,2.400935301204459638e+00,-2.532477044513663955e+00,1.355903266674972407e+00,-3.763086350904965904e+00,1.535266000549838861e+00,7.869332505397342858e-01,5.691466797335509753e+00
5.050499940416863787e+00,-3.163107092944638765e+00,4.240544382165738924e+00,-1.860351340343628701e+00,-9.605113997759792133e-01,-4.557423152834436664e-01,2.274985934019940537e+00,-1.954332028474697669e+00,-1.246336918940187832e+00,-3.835198706493549992e+00
-1.936578677168963036e+00,-1.601691119123758389e+00,-9.500236919642580657e-01,-4.866935752754600331e-01,-1.234606573573463484e+00,-1.830654418974354769e+00,-2.084652801490067375e+00,4.506306628986221363e-01,-8.249957583200645539e-01,4.042380764539784010e+00
3.225966421575494625e+00,-1.022089435078734621e+00,4.869792095892946371e-01,-1.707832819829606885e+00,-1.802851390719784064e+00,-3.739699193390590093e+00,-2.249486669923965287e+00,-1.238185277595709177e-01,-1.684901351822565507e+00,4.147962833215292910e+00
-1.206089719905627966e+00,-5.946370238146886145e+00,7.815066395575817060e-01,5.515432132126123488e-01,-3.712595390728630651e+00,1.520614820539835099e+00,-1.615318803302502881e-01,-1.632937158924743448e+00,-3.621138597657813651e+00,-2.175364176051064469e+00
