-2.327316130162525365e+00,-6.079129246201649295e+00,-3.682893271441221472e+00,5.197633885369887352e+00,3.728681000586472116e+00,1.326428951219706942e+00,1.498652659558321609e+00,4.037331513709689013e+00,-2.277644820044412377e+00,-2.717457891402291992e+00
1.281010885012145550e+00,-6.037373269556919553e+00,-5.358235464390005198e+00,-1.037134966617517140e+00,4.165955782554132014e+00,-2.560079564129466689e+00,4.772211109184849143e+00,1.582262065081255553e+00,-8.659478712583190685e-01,-2.227573357599823556e+00
3.584709270902553535e-01,3.683957892970336767e-02,-1.750330767291174094e+00,-1.740323977478767103e-01,2.413939934596225356e+00,-2.605463458421334533e+00,1.426289158836379967e+00,-2.351136758402152527e+00,4.250381556595069221e-01,-1.280728396891581022e+00
1.756334852302073868e+00,4.404326055356987957e-01,-4.066799565697469809e+00,3.296580445127587300e+00,7.551409650629291370e+00,1.137053887057363433e+00,1.473044672326577320e+00,8.959875687725217253e-01,-2.172007723183660755e+00,-2.717962704185289180e+00
1.656493650153348707e+00,2.337075549865590851e+00,1.243632892108885724e+00,3.571768718166346002e-02,1.265785458226669880e+00,9.586397022343605689e-01,-5.624815718274838172e-01,-2.585447235054217696e+00,-1.411822200747391842e-01,-2.046014535355725528e+00
-1.301864701730539808e+00,-2.927117993149994213e+00,1.313158684100010243e+00,-1.799736323095437740e-01,-3.301849576802840858e+00,-3.957424682317688625e+00,1.231240736884122722e+00,-2.321325984469497339e+00,1.308542386591612150e+00,5.097880661757664633e+00
2.208397156537416972e+00,7.063597986079445334e+00,2.132272498167960606e+00,-4.102539009302827999e-01,-2.793619281032722057e-03,1.581452780722745755e-01,-1.719409694047979720e+00,-2.758074767413362771e+00,2.647780902473649167e+00,3.797459679485393202e+00
-5.255937121268505763e-02,-8.954826390670536096e-01,-3.780481916389989649e+00,1.585068887120784975e+00,3.380766721082004267e+00,-8.420128084969172866e-01,1.642145187391222949e+00,2.292674583030080093e+00,1.003076561843535552e+00,6.522941926483860620e-01
1.968701725208578335e+00,2.698799882087179469e+00,4.682397173645559407e-01,2.982438954871391434e-02,3.746033152657510801e+00,-3.153071388589289814e+00,6.836655737417802747e-01,-6.709997714969825999e+00,-3.741791794930892756e+00,-8.882940985275800116e-02
-3.160457105529432376e+00,-2.724331263747977960e+00,1.408058874634268154e-01,-1.826733053816499419e-01,-3.928114088652597147e+00,9.069535237486836543e-02,-7.923398357719884100e-01,4.064923120838285442e+00,-4.289543636432339713e-01,2.597441888010841637e+00
