-2.798731429376325686e+00,-2.750300092954740094e+00,-6.544222887184893978e-01,-1.296047625099269851e+00,-2.096960055116458665e+00,-9.327339347980754258e-01,5.514772940919530075e-01,-1.394074756308552772e-02,3.344722709440437036e+00,-2.616528850185823596e-01
-2.472096651608568951e+00,-4.720988777568364547e+00,4.647841351227626761e-01,-2.173607871382223777e+00,-3.501859963649912366e+00,-3.821320217692708021e-01,5.129935051638467858e-01,9.083068289429666597e-01,4.230636255321150507e+00,2.909499318813115298e+00
-2.581144410343410023e+00,1.096167680218284035e+00,1.419548020892220430e+00,7.642422738786973646e-01,-3.300666324671498231e+00,1.780583073380919590e+00,2.588981171714121565e+00,-3.981465514181576903e+00,1.164732026470153975e-01,5.819538068877042614e-01
-3.337083655466498988e-01,-1.108738909481169710e+00,-3.204268800197908718e+00,1.661427996742157909e+00,1.530610873849598041e+00,-8.953173737202702043e-01,-1.392122719592946201e+00,3.119943569581088649e+00,3.199597983775081644e+00,-3.928774534908265004e+00
-1.261898932968897435e+00,-4.692779123918677797e-02,-1.306461913636361549e+00,-1.237637927375325964e+00,1.800122186857085582e+00,8.933072911275731220e-01,-1.074725146236607642e+00,3.377726152644313640e+00,5.876140371377072125e-01,2.269897703891702534e+00
-7.338005583421665534e+00,6.497416061464393877e-01,-5.789115314954362823e+00,-3.352746531985593137e+00,2.727370778847068022e-01,2.320936574417378662e+00,-6.346788547584533147e-01,5.066148573068229410e+00,2.371231676390591403e+00,3.081307284093767862e+00
2.663861121353249484e+00,-1.091845286624667719e-02,-8.042354741343281654e-01,5.073913775314718322e+00,-5.693118738152103120e-01,1.611736083129093444e+00,-3.727687303975114608e-01,1.374884608729320501e+00,1.623719158397756157e+00,-2.492575590616164405e+00
-1.771313018698245312e+00,4.327234451852808306e-01,1.698696317426428237e+00,2.979818609703121512e-01,4.828464185056846603e-01,-1.159484679177724548e-01,1.871453775355760851e-01,1.508844254253614015e+00,-3.009505968694491607e+00,2.517046025236378881e+00
3.392432610093548018e+00,5.638189550010080930e-02,-6.866576042476886695e-03,3.866703419912911777e+00,-2.793546116601946377e-02,3.591724836715581848e+00,-3.442014843473424346e-01,1.233710561341191614e+00,3.101462222728417650e+00,2.668886206124859717e-01
-2.651953430511722054e+00,1.541929147858222215e+00,-4.291984380982849956e+00,-1.796061857401352713e+00,9.278763323514500616e-01,-2.047015241585503187e+00,-1.692199574417617258e+00,4.298650915758916113e+00,-5.018401429069185404e+00,6.960408935898380889e-02
