1.219007254307087340e-01,-2.395777485895592473e+00,-1.804009403044618987e+00,2.066264108318112691e-01,7.212295274169356896e-01,-4.069435671757590800e-01,1.936636457664981048e+00,1.365565845702852110e+00,2.960014218936453556e+00,-6.288596441128846415e-01
1.651848911268158027e+00,6.568121142074262453e-01,7.776719606154410824e-01,-3.935402310097091405e+00,-5.034429215469509167e-01,1.313122664824826424e+00,1.291542617531442394e+00,-1.963467332853009228e+00,7.612720024695746046e-01,4.428702832578335524e+00
-4.194885917801984831e+00,8.014077036849481805e-01,2.184916916582218871e+00,3.299487490269593648e-01,-5.127786038786797951e-01,7.300459335624226442e-01,-1.407630122557218311e+00,3.729928183849259837e-01,-4.751816556416378345e-01,3.633941838553018666e-01
3.656512124825692656e-01,2.444447539653757939e+00,2.887778368499855475e+00,1.760442934291316097e-01,7.360497185833063671e-01,-1.369481220812145628e+00,-4.058282992600743100e+00,2.826113502299153257e+00,-1.243681789257855552e+00,2.906040284265144713e+00
1.831410031008200434e+00,6.740377697194292139e+00,-4.582435312102433045e+00,-4.290573565264047318e+00,-3.436169855044107990e+00,-1.419688005014312360e+00,-8.936991099454657528e-01,4.160636981814127111e+00,-3.578623027902224862e+00,-2.239345727416361953e+00
7.672269622497559505e-01,3.844090585553947559e+00,7.856724221288996501e-01,-1.708799565818704513e+00,-1.477881606706366924e+00,3.596698408720481240e-03,3.434534150417139386e+00,6.459775288303928331e-01,-2.585558402454775084e+00,-3.090029774081625380e+00
2.827546556885272899e+00,-4.565366310297537922e+00,7.561135482918235340e-01,2.047355134761635664e+00,4.727368413109664380e-01,-1.130136831473750103e+00,1.100946180631430016e+00,7.924828270671426811e-01,3.338914288888971349e+00,1.696932097924464200e+00
-1.826365931586181324e+00,-3.037695056065813359e-01,1.991514004866368426e+00,3.536205977004835077e+00,2.708113492486685092e-01,3.394119575963659985e-01,3.383905543861818632e+00,-1.422503749538932993e+00,-1.829036332636024387e+00,-6.151822886137595425e+00
3.684337226334641002e+00,3.061429036898531297e+00,-3.191113843871329347e+00,-5.104170370470915152e-01,3.536733781870538551e-01,-4.961361599821683677e-01,4.411751069418642146e+00,-7.749513034484235563e-01,-3.069607441004793102e+00,-6.590799857738265821e+00
-2.189257377713544617e-01,-1.320043382336739679e+00,-8.695812252481173177e-01,-1.467612758999651545e-01,3.972165248008769356e-01,3.717395337444364123e-01,-1.291941211639103138e+00,-8.732147442256442682e-01,9.939707627596978678e-01,1.686739346676463303e+00
