1.107546379672410819e-01,5.551422846622647844e-01,2.676908009280054013e-01,-6.563728399395836188e-01,-3.502516836819595525e-02,-1.007830964191592349e+00,1.541178036101144455e+00,1.233005192978285258e+00,2.307594510919765085e+00,2.006227535881505819e+00
-6.851838286844244008e-01,-3.462956883922165385e+00,-3.315911875844930634e+00,1.496652200916438691e+00,-5.138744702071813830e-02,1.919906399620923132e+00,-1.199145626192932967e+00,1.724335869991696857e+00,-1.166140580260902476e-01,-1.166781862073504428e+00
8.347062693206561690e+00,-1.509393511292827839e+00,-2.313751727468047026e+00,-1.208011930331992279e+00,1.460354918798050683e+00,-2.240237075716971227e-01,-4.813969622822517058e-01,-3.022298746811138859e+00,2.863231738256521997e+00,1.340324447434900756e+00
-3.677729415454838335e+00,-6.345730433130782444e+00,-4.795351031438102929e+00,-3.452195243699345717e+00,-1.625022601862549765e+00,1.787654776438733162e+00,-1.814969830864929135e+00,-1.056820249594460970e+00,-4.030492701179631432e+00,-5.741639117150869609e+00
2.524087655725509638e+00,9.070972611992290657e-01,1.484142265168883999e-02,2.017707702615485932e+00,9.803962006724284972e-01,-7.576248307638044910e-01,-3.443984593356155699e+00,1.088999338205993428e-01,-1.194318174050418069e+00,6.903430701237368794e+00
1.197652054173009573e+00,1.741518021161805096e+00,1.248440024364285472e+00,2.643966249128571810e+00,1.180353783752071006e+00,6.407335480036470410e-02,-1.852226909869293170e+00,-3.774522201192142545e-01,-8.158741993554516903e-01,3.137486201777178074e+00
-2.476837369751788032e+00,1.332498894828622937e+00,-4.905399397844449894e-01,4.171040015423754355e+00,2.011076608789006848e+00,1.331464026832619885e+00,-4.454627252587829211e+00,-3.146913771911322932e+00,-6.397756809915043696e+00,1.403843231812468728e+00
-6.141287799215449539e+00,1.061177939778722434e+00,9.115651356542794348e-01,-1.319207308400500711e+00,1.767880827786587616e-01,-5.884996336324411770e-01,1.577599903144405236e+00,-1.205676667117403733e+00,-1.839906810842870000e+00,-1.497712657805665648e+00
-1.288471488851914426e+00,-3.585046326848900122e+00,-1.611799029972608821e+00,-1.647803721795950027e+00,-1.060830452506094090e+00,1.271408014893738114e+00,-2.099480459188974787e-02,7.411442610728954383e-01,-7.993293526777434099e-02,-3.809998975257806730e+00
-1.733624703337000694e+00,-1.382805790770127219e+00,-2.797123914763742225e-01,-1.340642153932995351e+00,4.894098020935820914e-01,6.950556754763281830e-01,-3.322083594182521082e-01,-2.478840544089671472e+00,-1.619434028102151313e+00,-2.931009346922744729e+00
