-1.012140522483969463e+00,-6.557549102100042937e+00,4.165604963164922236e-01,2.481657805910481240e+00,1.412224034453556154e+00,4.603800286570041145e-01,2.073305215483532304e+00,3.609864306953596724e+00,4.053299504909636752e+00,-3.712382734611588742e+00
-6.919798886638051094e-02,-7.914979066584126866e-01,-2.882196686098468796e-01,-5.953051123822001856e-01,3.510128044041028961e+00,8.589769045874189046e-02,-1.359943527626285113e-02,3.070548621474568640e-01,-5.493446442926332995e-01,-1.486187287435529969e+00
-1.995953339716733055e+00,-2.202467769330834102e+00,9.370233077390931475e-01,2.554126937412396270e+00,5.166586047001251458e-01,-1.484354833470869828e+00,-2.362572036700394840e+00,2.247673645656371288e+00,2.060361736573451452e+00,-1.715748726031113058e+00
4.062838751035506846e-01,1.526078523136533027e+00,3.018747320758746966e+00,-1.458791497913536350e+00,-7.960383225290896370e+00,2.768206866109709452e+00,1.429728868903166861e+00,-1.225439472491337278e-01,-2.243278550403688065e+00,1.891039889448385344e-02
4.271931703599359587e+00,1.211328604053345748e+00,1.523000384183603062e+00,1.083310219077399550e+00,-1.662941733210739903e+00,-1.476895021538805697e+00,-5.435382642691384270e-01,-1.647674717689000534e-01,2.296401057946239721e+00,5.981453471079902329e+00
-1.106034634572084396e+00,6.340003772810425264e-01,-1.987877588515790217e+00,1.509765749167461646e+00,1.998771148835865485e+00,-2.132613183700888371e+00,-1.651498819848806310e+00,5.410240608800862105e+00,2.243691818428932283e+00,-7.209142658444801510e-01
-4.994931780294953327e+00,-5.432611517671132040e-01,-3.595989065345848168e+00,-4.064926969424664804e+00,1.117853326817773407e+01,-2.396107655779831980e+00,-2.642487848779023984e+00,1.223722137119513276e+00,1.323511557144472439e+00,3.090273930445411654e+00
7.585775691362049988e-01,-1.944168402782793237e+00,2.116599650579169101e+00,1.744364889561593079e+00,-3.822287386756300975e+00,1.711039919516570418e+00,1.419319725548862099e+00,-2.253117067435710108e-01,-5.876509804538255777e-01,-3.671132247684932626e+00
-2.361081534137179361e-01,3.203615789422795679e+00,1.577967584680508129e+00,2.745928722685066159e+00,-7.693992522273850554e+00,3.821186170923868142e-01,-1.738451336316102491e+00,2.318809780422353695e-01,-2.743604133547779433e+00,-3.873859994254533756e+00
-6.065951052929070109e+00,-3.910184929679398902e+00,-1.013763736107645030e+00,-3.176330177688424072e+00,3.591811604334109287e+00,-1.411818421634501552e+00,-9.169514613680754822e-01,2.658851426181690680e+00,5.465812395779894750e+00,6.400552970720986501e+00
