3.244673299940183941e+00,-2.347685793744419325e+00,3.918975670257719007e-02,2.597497228635736288e+00,7.203596460284596992e-01,-1.978518452601449595e-01,2.698222549925394009e+00,-2.636301374337675085e+00,8.613928565324807662e-01,3.477616137358498616e+00
9.262374304751302967e-01,2.186969196200729382e+00,-1.786133846944552850e-01,-1.100374978605655585e+00,8.468409521618553981e-01,-1.645254061201729456e+00,-1.540582174218039779e-01,-1.979699256481777692e+00,3.857675177381480580e+00,8.478615858665945471e-01
-4.953513190925710186e-01,-9.183304986181466401e-01,-5.806623922856266606e-01,1.891541225743494481e+00,-1.352469566738206064e+00,-6.133278235256890198e+00,4.313156789133101299e+00,-7.862152865655958056e-02,-9.330863296957514139e-03,4.690779254106671736e+00
3.030146342925938097e+00,-4.077565144463796143e-01,1.617254038872976363e+00,-1.344520096129031783e+00,1.653843916340283160e+00,1.602319382280818605e+00,-8.103514158378895271e-02,3.563637887508606550e+00,-1.826094065371941799e-01,5.104378351660922242e+00
1.759019305316693593e+00,6.699617708828753404e-01,1.941160624167750592e+00,-1.037925114998743403e+00,2.388770337685945488e+00,5.506431750221301158e+00,-1.488785396233729630e+00,3.125234990313142447e+00,-3.536543666572959488e+00,-5.107595964504850095e+00
-3.045850040583879537e-01,-3.538800580060287526e+00,6.321408788612743745e-02,3.650254287973395240e+00,-4.119737348694997581e-02,1.630813242789260542e+00,-1.995784375895141571e-01,1.888881979162369218e+00,-3.066677549604131414e+00,3.504462994741901899e-02
-4.010609110859938653e+00,-3.463370399117411846e+00,-1.276340668372049070e+00,2.686274911067236815e+00,-1.006582671780798854e+00,9.504621759803633108e-01,-5.989458508547972349e-01,8.904421342249613236e-01,-2.891348606807717658e+00,1.484784168288158845e+00
1.575570616835070270e+00,-2.373277631075771943e+00,8.705439126885733403e-01,9.004093091046184716e-01,-1.411400963716159973e+00,-1.205711346615381263e+00,7.358468430637784552e-01,4.065518865903179346e+00,-2.029613272272289048e+00,4.185938377224320384e+00
2.136447568244672190e+00,3.123256185258410866e+00,6.660377239623623824e-01,-2.731502325530059672e+00,1.855282725059164806e+00,-1.050766758905035569e+00,-2.237538764167241734e-01,-4.109894982639834549e-01,4.083442878131756437e+00,2.467010642298566481e+00
-5.016934836930312391e-01,5.489034527035105970e-01,-1.711462873075662305e-01,8.667863255437565639e-01,1.369199244911697866e+00,2.107074468875055562e+00,-2.829874264570399145e+00,-5.055265130993478184e-01,1.395568180997608598e+00,-3.135685795164387279e+00
