4.003023731461364809e-01,8.161589794624692917e-01,4.438476887003481863e+00,-1.521129423461124452e-01,5.522166950037241673e-01,1.762365350492041793e+00,4.689206765852241610e+00,9.838740150858921174e-01,-2.357077151336190557e+00,2.321291977781601013e+00
1.037445967567935057e+00,-1.478663977287731912e-01,2.267015799693697264e+00,-1.731057387398106773e+00,4.836858186158730533e+00,6.009707517363949592e+00,1.413410372704122508e+00,-2.458052310419100994e-01,-1.153495693777255804e+00,6.140853750351051854e-01
-1.577635231641262070e+00,2.098262123527044665e+00,2.564068394162649867e+00,1.081043587222382252e+00,-6.550815265396268128e-01,4.067401740299892987e-01,2.834334619114033504e+00,-5.577276464327534100e-01,-4.431795930434408171e-02,7.124340756082436776e-02
2.956790537553457554e+00,-1.218780719131650203e+00,1.142103191250029681e+00,-3.895807981431445022e+00,1.331193695483162687e-02,3.094946902891864582e+00,-7.567909706848834350e-01,1.262451648638183821e+00,3.428946135195729550e-01,5.562134689117539388e-01
-1.701519244265742303e+00,-2.056110071080426496e-02,-1.023800480485085040e-01,2.095757418804162775e+00,4.941714468685991513e-01,2.553614337116063004e-01,-1.215223676735507352e+00,-1.469544057966378547e+00,1.242502729386455673e+00,-1.858411201748634722e+00
-3.702166264792516870e+00,9.085350368330252779e-01,-1.954375074532783252e+00,5.160579871600758928e+00,2.024125978690827221e+00,-9.174901153053756087e-01,-5.315224245607276243e-01,-9.231507843293653703e-01,-6.278748797791311453e-01,-2.232673773227200620e+00
-1.209305763280322576e+00,-3.254434373153036741e-01,2.596200371999450418e+00,1.586260060220205270e+00,3.467619426897257107e+00,2.140327667344878559e+00,1.469452564998170452e+00,2.824037558716447016e+00,-2.309957134816819746e+00,8.381158879735668421e-01
-2.531146292027727007e+00,-1.456780231579410723e+00,2.107993453163037767e+00,8.340543330725186166e+00,2.948846288117654701e+00,-7.818804906330329096e+00,5.198891239156621324e+00,-1.746476820959590448e+00,-4.578871539512822331e+00,4.518266471262707640e+00
-7.575537926254992671e-01,1.236649210236413637e-01,2.143027225285777160e+00,2.833872437052008308e+00,1.111027027641260156e+00,3.867014374879707006e-01,2.166279407076198815e+00,-4.000099089160052968e-01,-1.335114718488191077e+00,1.411397032823981657e-01
1.646023431157193739e+00,-2.674922007574682237e+00,-3.531942693949104761e+00,-1.740268988768437275e+00,2.500839674223003239e+00,8.673387317555182330e-01,-3.323255494096952312e+00,2.322970895946089853e-01,-5.458124245389189833e-01,1.604477862331045168e-01
