-2.657378893824543287e+00,1.524329571562782704e+00,-4.669550245908025143e-01,1.046965904407142878e+00,-2.441383305703526130e-01,2.423947546693770161e-01,7.893669668166802822e-01,-4.166067351314474365e+00,8.594512028093661549e-01,-4.458225972099873147e+00
1.182279502831472939e+01,-1.866593448526643995e+00,-2.766998638949413891e-02,-1.277788170818926705e+00,4.379854003531832518e+00,-2.903896835331343240e-01,-5.793189541138406007e-01,-6.359045323170374964e+00,-1.099869271687913930e+00,7.304359127099363747e+00
-5.225025913495798591e+00,-2.112971646753309396e-01,1.455819931917141652e+00,-1.096622708132057866e+00,-1.052178909033294918e+00,6.590341867584794677e-01,-1.226236469725448419e+00,2.960861504900565766e+00,-9.060731021130554730e-01,-1.908721038569494155e+00
-2.127643663012064035e-01,-1.360924974926975173e+00,-6.853242750885505608e+00,-1.883015782724178910e+00,-2.949876936166512476e+00,1.216507411859275134e+00,-2.745414468913088157e+00,-6.840545637454906291e+00,-3.383410470889459010e+00,-2.288471136303495967e-01
4.334309854282949459e+00,9.378493711323413473e-01,2.576996903484670476e+00,-5.448142688535747569e-01,2.832613777286291379e-01,-8.637677291643258704e-02,2.503031306663284994e+00,1.026578355642098206e+00,-5.140029549509583795e-01,4.146194872590604596e+00
1.061171581660138100e-02,-3.032691493935797844e+00,-3.166412392360899108e+00,-4.238341123401806243e+00,-9.405674777868848757e-01,-2.819593752156035471e+00,-2.713093008224361835e+00,3.885853851668444658e+00,1.501062684595140917e+00,1.569424118295924542e+00
1.197414709294586377e+00,-4.799958035690746194e-01,6.784683583883166502e-01,-1.158317009984368484e+00,1.120260686764957825e-01,1.039116928578358356e+00,-2.093918557261456037e-01,-8.340042138065310029e-01,-1.875795146521690215e+00,2.075901198999388519e+00
2.974663459016392286e-01,-1.317707609916193068e+00,-3.304897434923184996e+00,-5.038264728199755016e-01,-7.036953176751312711e-01,-6.473459639312004743e-01,-1.502135113037594172e+00,2.342870456842520710e+00,8.918691940233755000e-01,-1.550946889067158496e-01
-4.325012227919675212e+00,-1.208446366364203550e+00,-1.585351018558314617e+00,1.662002806013349598e-01,-2.428239112479979145e+00,1.579847975275744609e+00,-1.488650769698900422e+00,1.087795655975143383e+00,-2.974574358921830086e+00,4.290711133536435629e-01
-7.600021507799665788e-01,-3.618621676630231487e+00,-4.198235956121693313e+00,-6.988882411786049076e+00,-3.592482305776356633e+00,-2.522104260405506615e+00,-7.797280194890603866e+00,1.871561742722170685e+00,-4.233843471459080909e+00,4.757484516889555870e+00
