-2.111626660003609324e+00,8.271371758671659524e-01,-2.492834522147393539e+00,-2.837042524986109537e+00,1.468606204083210631e+00,-1.850050249679734859e+00,-1.714901717228836109e+00,4.474263993892028779e+00,-2.391646424933909554e+00,-6.592940914745970105e+00
-3.129159065098284564e+00,-2.833680928319089354e+00,1.428629299157822663e+00,-3.439956430153904066e+00,-1.352353920594255632e+00,-3.699048006253466525e+00,-6.682654703051274403e+00,2.736505868507618011e+00,-9.320685412939746506e-01,-6.577342484349152363e-01
-9.217358627390354053e-01,-2.090251605348297126e+00,1.315759319516436765e+00,7.146963485903898849e-01,-1.615259202556670104e+00,9.083682025756770750e-01,-1.873224551615435995e+00,-1.893031944566868185e+00,6.341383751148575998e-01,4.079600943084867204e+00
2.288364721697064397e+00,-9.208992373710774837e-01,3.829337966272219340e+00,3.740452662622264945e+00,-4.259841299350464183e+00,2.218223320346292216e+00,-3.630530806839422198e+00,1.892231624389390188e+00,-1.131575727751466642e+00,1.563382605566775219e+00
1.881100067037659418e+00,3.194860502821776471e+00,-6.893534534132679248e-01,-1.887615561798476893e+00,-9.392102730507663200e-01,1.839401179183995261e+00,1.890681444129838740e+00,-3.217748751642442784e+00,-2.273929970897576869e-01,7.404015941902166720e-01
-3.102255627002134641e+00,-1.970692112445113997e+00,-4.849154390747048016e-01,-1.279945872348812630e+00,2.076077208917634920e-01,-3.260978586567492954e+00,-4.573580522917068514e+00,5.755274253033217491e+00,-1.498545272234399928e+00,-4.586987337221550831e+00
-4.007335554588281390e+00,-1.381125629754262452e+00,2.049930662112825264e+00,4.169436802910054141e+00,-5.034127858938783895e+00,2.453940849236362354e+00,-5.681703019185799786e-01,7.289320953978730699e-01,-2.001716180783015275e+00,-3.637343504495162971e-01
-4.925181600781657565e+00,-4.404769892900484152e+00,1.326579990269718623e+00,6.509870884145854575e+00,-4.216739465437251866e+00,1.707513847119177086e+00,-4.736658630103491419e+00,6.814859787472883568e+00,-2.315809664780456689e+00,-2.388127933232162992e+00
1.908804117696228042e+00,-7.015701113721758975e-02,2.023325481750347876e+00,-3.927422489409273521e+00,-1.315738021197166985e-01,-1.979320672383471758e+00,-2.446548651425860310e+00,-2.681181528825953286e+00,8.540853553152371047e-01,3.242659797858467474e+00
4.375139920377620228e+00,1.825256208885508880e+00,3.968685778131096631e-02,2.179920511760987445e+00,1.726399947226022524e+00,9.221065689917422314e-03,1.033054162804173393e+00,3.609228012136103558e+00,-4.799673454545168028e-01,-3.622302442542947087e+00
