-1.124123503104381028e+00,-4.491546309038604079e+00,-2.325356555981767048e+00,1.293002622418045533e+00,3.337395805708683216e+00,1.002585926720580556e+00,8.072985507926958348e+00,1.593334451721150513e+00,-8.538846334826953210e+00,6.661240294179807675e-01
-1.096154655890968499e+00,1.646152792494822936e+00,1.706199223248984209e+00,-3.025299558470476491e+00,-1.583372476358355652e+00,-2.547523042424421291e+00,-6.224476933912325372e+00,1.490051717178430879e+00,3.579397391583135857e+00,4.791323403960344507e+00
-4.964430737903553492e+00,-1.977096863789783443e+00,-2.803248095266189566e+00,1.095736913546717872e+00,2.722389633998648417e+00,4.592592278311795617e+00,-2.239052993246653855e+00,1.000119987900764951e+00,-1.938059345059874650e+00,2.101700323589971831e+00
-2.378271744134706100e+00,1.311643497551298498e+00,-4.657714807251029931e+00,2.743944423964733703e-01,-1.949196308891941287e+00,-2.467146541093127254e+00,5.254536892862283537e+00,-1.816255891316967686e-01,1.910838070386404075e+00,-2.024220559830104182e+00
1.870766347766672943e+00,-2.592204243349453652e+00,-1.581724459826437945e+00,-6.919573942316966653e-01,-2.314740081886834222e+00,-3.540100721933829853e+00,-2.612260598721315663e+00,4.091944832493917272e-01,2.147625579819885111e+00,1.091113921704292444e+00
2.878756911538839613e+00,-3.318745739242072723e+00,3.092030200987337718e+00,2.924123792661124988e+00,-7.622082497096297482e-01,2.388474500555588964e+00,-1.470342816381325024e+00,-1.802477379153997639e+00,-2.003256547017029376e-01,-2.650695624960781149e+00
-4.995535413610008302e-01,1.399868979376478473e+00,8.519808957741505928e-01,-1.090797410967444758e+00,1.242115184868063382e-01,1.099906151934877840e+00,2.428290818978171117e+00,1.326042901730140722e+00,-4.691163374265318042e-01,-1.701286515059389659e+00
-1.898454714085163753e+00,2.395918692887304136e-02,-2.833613697342988846e+00,1.240649555749787414e+00,-1.118311982141164451e+00,5.166357984402785597e+00,-1.756387167076181921e+00,7.215951529573710665e+00,7.814050580407504443e-01,-1.213176367065842642e+00
9.020670960641794522e-01,-1.277364663776896503e+00,8.342836250629752370e-02,1.506013031025077220e+00,-4.208104550780025210e-01,-5.466139481656661081e-01,-6.215863478723437474e+00,-1.912662562256149723e+00,2.066410669156860891e+00,2.528976546597133890e+00
-8.633680336408725564e-01,1.854494057253428529e+00,-2.310515742551971563e+00,4.643330003899345249e-01,8.896661184450409543e-01,5.300930783110600064e-01,-4.057949240998734441e-01,-2.164404715622397113e+00,1.400014020398225423e+00,-1.271053340320073000e+00
