1.444589861766437222e+00,-1.070024521834062936e+00,-5.712187960512369322e-01,-1.456004140600434926e+00,-1.033472795170155223e+00,7.044181624243322837e+00,1.977565457972214169e+00,-1.029522883050768139e-01,-3.515556836881648994e+00,6.479896873978003846e+00
1.976040894028991413e-01,7.469246631792921809e-01,1.319869405822165387e+00,-4.567573133459982060e+00,8.065958219712926480e-01,1.649315514023114382e+00,2.808938756721155894e+00,5.098100772095544464e+00,-1.942658280742813437e+00,2.955898461386474718e-01
1.645325507830364797e+00,-5.305109691339346956e-01,-4.513941899626885856e+00,5.779509270038892588e+00,-6.039041630281898776e+00,2.536506321346316373e+00,-3.652403441386628202e+00,-9.140368475364515355e-01,-7.509800388445828645e-01,6.531387416133724422e+00
1.150575521871163076e+00,3.428729204817423937e-01,4.190373013397494240e-01,-1.618999961233966278e+00,1.950276753836460264e+00,8.556772657579939656e-01,1.514670674035643927e+00,1.221787117830011038e+00,-2.203030098132549686e+00,1.568253861373746449e+00
2.128435713642377713e+00,1.499957387539291087e+00,-1.514908645150036426e+00,1.706291050563314426e+00,1.034759579680262442e+00,1.595801114027526557e+00,2.015142707794308929e+00,-8.512810650864441886e-01,-2.986591872542271986e+00,3.776394609304396521e+00
-1.648233900555540421e+00,2.513930773496186433e+00,1.329140128873864679e+00,-1.627316601995726641e-01,-4.441589272114700448e-01,-7.586392793666081324e+00,-1.575030436343179963e+00,4.013282425471648374e+00,4.511437482335996840e+00,-7.016521933821317170e+00
-1.299736689853104199e+00,-1.377405341311945586e+00,1.441331476540017142e+00,-2.176001834482281350e+00,8.335083591248153567e-01,-1.639496385026366632e+00,-4.118319100199797633e-01,8.387524955247315228e-01,8.709023346633610885e-01,-3.427566569702707344e+00
1.102673147462357228e+00,1.393446681938167897e+00,1.244649595841397449e+00,-5.046553836439644503e-01,-1.892023665587489134e+00,3.684320533916942253e+00,3.725029190352524111e+00,-2.993560840867715012e+00,8.756251506432995990e-01,3.204922325626418100e+00
1.924880049571058738e+00,1.441640128770154350e+00,1.850047096225229337e+00,-1.984261853023936983e-01,1.414009528885453060e+00,-2.953700244307902789e+00,2.675313648257671151e+00,-1.410699994375063326e+00,-1.022120374439082768e-01,-5.235170479109915176e-01
-6.044985838788654586e-01,2.763547860953380564e+00,9.115771747884705567e-01,-3.064529336104290458e+00,-3.239540798403676369e+00,2.307786583987929685e+00,2.745788748002092827e+00,5.978772258924426986e+00,9.445923511052922716e-01,4.091907721921116958e-01
