7.255178403269799681e-01,2.082409660529179529e+00,-3.502432511606215493e-01,-1.625229629529476805e+00,2.321460836878082024e+00,-1.881106385586238661e-01,-3.083274145216634121e+00,9.958922948365600547e-01,3.981129469726559234e-01,2.064364697234095214e+00
4.026710624172594066e+00,-1.121236695979520359e+00,-1.237492639703006825e+00,3.218376020157339923e+00,-7.234414389925895028e-01,-9.004052252295270620e+00,6.942910725478421696e+00,-5.413163073332169617e+00,-4.223540528801485117e+00,-5.987360639321259725e+00
4.558673527133001002e+00,4.355786951230656845e-01,-1.402133168530682150e+00,-3.361301174143760839e+00,-2.915741359858383674e+00,-8.003922700375813548e+00,2.590604855016764407e+00,-6.268312136757133723e-01,-5.614939204607402701e+00,-6.364626230535209928e+00
-5.542358397878333065e+00,-4.100737105810460803e-01,-5.562782888594867137e-01,3.916269826534924725e+00,3.361770486973850947e+00,2.602702723172413801e+00,-4.207364591032812129e+00,3.556284997859298969e+00,4.275179629310309259e+00,6.624810538839112972e+00
6.834078250125552589e-01,-4.560870123635369922e-01,-5.233912189849553975e+00,1.631830254606759123e+00,3.764120887212236255e+00,-4.435822744611021662e+00,1.306589084387192123e+00,-3.938420457182006729e+00,-6.295841170675748888e-01,-3.261159238957151096e+00
1.589024497434025962e+00,3.628360201989617173e-01,-2.505360113293376711e-01,-1.858955941118969113e+00,1.436496852852689576e+00,3.594589366446390710e-01,-1.127490774413990732e-01,-1.980987963631704707e+00,-6.176390790331173219e-01,-1.353886206857358276e+00
2.412075715794298691e+00,-5.047665143917773323e-01,1.978430592494946128e+00,-3.551087403107643592e+00,-4.740164160593929310e+00,-1.167488610980314201e+00,2.830650639426836701e+00,-1.396693665902375425e-01,-3.278100005044820353e+00,-3.681014616356484304e+00
1.628580946615155955e+00,2.766399108850682520e+00,-3.978777970714058587e-01,1.964641982027435896e+00,1.421804018170601536e-01,-7.034940448519205525e+00,1.568158521140253558e+00,1.615710304394410324e+00,-5.403400951599938162e-01,2.462274531292746538e+00
2.201059526152184365e+00,-8.936782613703154743e-01,2.182496419185757208e+00,-2.012748318367267863e+00,-3.254844719566937439e+00,1.537862122916548335e+00,8.048336182879276546e-01,-1.208690659285162949e+00,-2.566877577293635415e+00,-3.710978282945058382e+00
-3.541643762054276778e-01,2.729751900808194076e+00,1.748101632510040693e+00,-8.532706430698054900e-01,-2.143100034777194463e+00,2.324588574190336931e+00,-3.250609590544721872e+00,4.043654202529690878e+00,1.222684481734166662e+00,4.264604197320047696e+00
