-5.572484380230551260e-01,-9.696090801351873179e-01,2.715012169594916536e+00,4.953493516157055354e-01,-3.603396005623978215e+00,-1.510651250529081668e+00,-3.564961893626887424e+00,6.119427797950793835e-01,1.894721476209690669e+00,-2.606860307859138359e+00
-5.665751770022705580e-01,4.097054124450163037e+00,3.185728783980611989e-01,6.080551387438944966e-01,2.385637369790402307e+00,-8.968592319031672977e-01,1.135930680957615957e+00,5.312816708014923783e+00,6.333191328314165425e+00,8.471594843142159492e-01
-3.561108562920025644e+00,2.136097837243009223e-01,-7.927435383777411415e-01,2.399792955567054964e+00,6.559648310920474401e+00,-2.293852762243326460e+00,4.073506771099403956e+00,4.279695620784248256e+00,5.568586569868090586e-03,2.053349376271516036e+00
-1.079769091703590034e+00,-1.451879395186566946e+00,-2.528114258548777471e+00,-3.179365357854066154e+00,-4.693742445696537091e-01,6.847618096767377205e-01,-2.260478187080060819e-01,-1.208008672542341122e+00,4.968338822435471869e-01,3.889476005952248183e-01
3.630203843701595989e+00,1.743286740876739183e+00,-2.708730209981067727e+00,-2.805752978058764224e+00,-1.208487372833998652e+00,1.451722363399530646e+00,-3.221417011170617517e+00,-2.141311548596306569e+00,2.290173206119962224e+00,8.430742144433386875e-03
-4.323168237079896947e+00,-1.213453916278887101e+00,2.430229183142370353e+00,3.540616386994009268e+00,1.962090755896969796e+00,3.354622339693725142e+00,1.771163595651479739e+00,2.403105769342250397e+00,2.828650018510547870e+00,-2.974610848187702938e+00
-3.660891774694400969e+00,-7.629454350888731362e+00,4.882352007691134865e+00,1.358058382272916642e+00,-2.168387638907507853e+00,-1.816897824558717442e-02,-3.449413810203337816e-01,-5.390398463011456087e+00,-4.870726179241970932e+00,-2.500955082517416272e+00
4.979932576108663689e+00,1.983674670014186736e+00,1.709827890238071024e+00,2.215248060091620452e+00,-2.371827812630387999e+00,7.027397693888224328e-01,-3.759833088046376393e+00,-3.329611641810624967e+00,-6.502806294602975434e+00,-6.581174074353106640e-01
1.145503889211771265e+00,-4.048825301761318052e+00,-1.774873656694269108e+00,-4.486608567859283747e-01,-1.775153518626989557e+00,-2.801146119724732042e+00,6.505762241409625002e-01,-1.289559025157120509e+00,1.614923986511701770e+00,-7.542822284795249743e-01
1.107075768868186261e+00,-2.348735637412008970e+00,4.558658123315381339e+00,6.402024264878143356e+00,2.183721282714581768e+00,-2.574865417944644630e+00,-3.176083740754667595e+00,-1.542450048936434781e+00,-2.223482938653325469e+00,-2.658331873865553696e+00
