-5.063400559187853034e+00,8.787646711153794143e+00,4.276506538968261495e+00,7.196805186303776303e-01,8.640043759917100274e+00,9.791921799500142853e-01,4.303285650130557194e-01,-9.889183261082286069e-01,-3.414955531523144572e+00,-3.890951624489193073e+00
9.894657396687044359e-01,-1.759849330708787907e+00,-2.158644256691719665e+00,-3.144413928305803907e+00,-4.491336015149898664e+00,-5.627245976494605895e-01,-5.598450755428117098e-01,2.281556778893391702e+00,1.954388951806830255e-01,2.858245380005738578e+00
4.509715499374088665e+00,-5.267311546802476485e+00,-2.108383410342171693e+00,-1.568633033186523917e-01,-7.435576867194617634e+00,4.520231286924207836e-01,-3.563600577880676745e+00,2.503122532715423176e+00,5.928011418379166564e-01,4.824737024238169525e+00
-1.770262639212536238e+00,-8.885332847490907682e-01,2.923658786026591683e-01,-1.538606181154382746e-01,-6.609422945597129839e-01,3.562792111493831015e+00,-1.084052867289784228e+00,-2.412618781435072801e+00,-5.252787658542263038e+00,2.850179685558603015e+00
-1.800566601867487959e+00,1.352905421314902767e-01,7.236031833595537588e-01,3.800302144673370908e-01,3.725432523995151790e+00,-9.713653724760488162e-01,-1.022866434321340889e-01,-5.553534864920606218e-01,3.149629914061871538e+00,-9.374420604749591490e-01
3.009975101286623822e+00,-1.704208571052566068e+00,4.973174154995584351e-01,-1.040002601049334618e+00,-3.680416082707232306e+00,-1.936055427058816614e+00,-3.725262030266345281e-01,-3.308886488944577930e-01,1.519747705111849090e+00,-1.236912592137622280e-01
1.179615155706629670e+00,-4.182556539580201793e+00,-6.257834072435879413e-01,-1.119166130400705228e+00,-3.136351185532223251e+00,1.269530874999611259e+00,1.565200629465612225e+00,-3.578904359811803104e+00,-3.372663643532082478e+00,2.748651583878519045e+00
-1.361876744679680895e+00,-4.362769909193109363e-01,2.277793407724695296e+00,-2.873926548694133221e+00,-2.202096867063742525e-01,-1.011973330640351554e+00,-1.881057807653922387e+00,-1.975334532065533333e+00,2.715804184449185366e-01,2.326238229451006223e+00
-2.109488767019007227e+00,1.459598195873483606e+00,-6.757380004033842757e-01,2.238214275531781983e+00,1.864610136553508379e-01,4.349437593108644862e+00,-2.244332678910720524e+00,-3.478263772678664711e-01,-2.057606356216346910e+00,-3.777928143904913494e+00
3.028227948848334794e+00,-1.335264898528308652e+00,-2.355156148017533368e+00,-1.868511541235249873e-01,-2.061332351569059362e+00,1.134345329973040384e+00,2.295042863547875900e+00,2.890515592497209685e+00,-5.804630547975893506e+00,6.676670206971810906e+00
