3.387682042673717309e+00,-4.198863850164741507e+00,-2.809915999998452651e+00,8.344651006583891917e-01,3.915076620015837339e+00,1.432776435393126324e-01,-1.145673351787519945e+00,-1.520207748852847152e+00,4.453716827968977610e-01,-4.739913783149520832e-01
-2.224903197549592537e+00,2.362114044620172493e+00,3.258504508615888362e+00,-3.948607214523895959e-01,-3.238006418276579090e+00,1.835760069733689548e+00,1.309059725891616566e+00,4.543771481140705504e+00,2.419871498248043817e+00,1.599612259531655534e+00
-6.699426349771737677e+00,5.172831301023371076e+00,-1.336110865362013289e+00,-2.344201029185285723e+00,-3.520107054118280399e+00,-5.380947971960510223e-01,-5.490833766214203493e+00,5.695526578455269551e+00,2.612814985247597477e+00,-2.651164502934471590e-01
6.830212213765527451e+00,-3.984196785967728083e+00,2.350205330558486683e+00,2.840375142229428107e+00,-1.231887343698492066e+00,7.544798299614696724e+00,8.304098064209630703e-01,-1.855013724847694556e+00,4.416423790361553081e+00,-3.088837903618543157e-01
1.051585712979611120e+00,6.046653521655102059e-01,1.048286923045475660e+00,1.440867604471734120e+00,-5.136930796245924302e-01,4.827981735392786966e+00,-3.926807378814199723e+00,-2.041564398814554426e+00,1.488111109459844039e+00,-2.904806505218530788e+00
5.478691110385589091e+00,-1.827958228230066595e+00,-3.997435584790430152e+00,2.092397975046744740e+00,-1.094861179294715159e+00,6.854584383174379125e-01,-3.840333311564268381e+00,-9.898170238913545305e+00,8.349087474854578472e-01,-2.632282453159564550e+00
1.590130592331364889e+00,4.795160183483753724e-01,3.247377987511155695e+00,4.067594656310057566e+00,-1.337356039617151993e+00,2.154547064923500788e+00,-2.723846148368401998e+00,-2.898764881110805103e+00,9.728419146881897017e-01,5.419263906306870382e-01
9.257956946550239818e-01,-2.431123232951134749e+00,4.451008944698283898e+00,-1.131566762326731812e+00,-9.514718181519797868e-01,2.715678110995993766e+00,4.635884979178197085e+00,5.555899610400522270e+00,-3.764651199364646983e-01,3.406877191522812431e+00
-3.737529682344835624e-01,2.472957924746525649e+00,2.579952080569028805e+00,4.041101721200055508e+00,-4.006330406698496160e-01,4.403404599615176274e+00,-4.971747210830697483e+00,-1.465307587587440841e+00,2.709948015230195573e+00,-2.473819160553241581e+00
-1.128311776266719635e+00,1.038162079038807417e-01,1.356097868971944509e+00,-1.050625352584857897e+00,-9.061105752779475830e-01,1.500575130163809945e+00,1.918390057865367870e+00,5.169056278027930773e+00,2.090079734848868220e+00,1.357878362459178589e+00
