-5.438142352199095697e+00,-1.301547458785279776e+00,4.296699385755117895e+00,-5.250734558118512751e-01,-3.177235024975333388e+00,-2.495610214901421209e+00,4.823900899454824476e+00,-3.363957793743276969e+00,-6.575719420698287188e-01,2.384374505932047583e+00
-2.386904828113736166e+00,8.791122157140571769e-01,4.944558434162712679e+00,5.781099784000915953e+00,-5.122826463831382071e+00,-3.134349054456352590e+00,6.861397006737719018e+00,8.795722823988871841e-01,-3.935718934534242042e+00,-1.474477799732594629e+00
2.502262158515264012e+00,-2.569982462122871514e+00,-1.785355048295239833e+00,-5.022675726200012569e+00,1.856776748385317921e+00,4.733570750684197748e+00,-3.061748016051164978e+00,2.198717252353298512e+00,8.641303042104134802e-01,-6.218932725882619916e-01
2.153523031298719470e+00,2.563393008372452098e+00,3.837383230934181544e-01,4.637272379712555015e+00,5.057240470178554492e-01,-4.167411487110883606e+00,-9.154262886723222303e-01,8.128495756304342512e-01,2.066800787387323979e-02,5.524311177924332572e-01
7.863710403312335062e-01,-1.044604358944019040e+00,1.950906558431979798e+00,-3.667451731361241141e+00,1.080541279273639965e+00,2.293350330247646784e+00,-2.351482291940965919e+00,-9.794651360353604508e-01,4.712918849183556635e-01,-2.081968127987473327e+00
1.393556710387864328e+00,-4.548767575240934141e-02,3.311178759778503178e+00,4.141347960395943772e+00,2.309256896468136144e+00,-9.650997035512677291e-01,2.016196124769602971e+00,1.552689140247609734e+00,5.489244476311835541e+00,-6.053577168835158950e+00
-1.935048520932664884e+00,-1.352587626242398811e+00,4.658857585794484168e-01,1.732796904087205325e+00,-3.922576367620395632e-01,1.513948445396533948e+00,4.124414739536145902e+00,1.263862366410899440e+00,-5.131246773868826105e-01,-1.324006646335973869e+00
1.710783244926001867e+00,-1.074136345973838447e+00,-2.225890295230113392e+00,-5.870046304125088987e+00,8.238095613138627371e-01,6.183227861317308616e+00,-4.342673285591938992e+00,5.258049811748780611e-01,-2.501913846062426838e+00,-1.791958751256706783e+00
-2.870999483280492370e+00,1.478404108296475394e+00,2.511271215080063346e+00,-1.699602218105395579e+00,-4.373224576579426426e+00,-2.257848986011314008e+00,-2.400116035185150487e+00,-1.139323939736181623e+00,-3.555442801274799614e+00,2.269459449158937492e+00
-1.335722602824607419e+00,-2.790045049530236909e+00,3.565443411847855071e+00,-2.595002088294126041e-01,-2.355877612639660335e+00,2.618761912279356618e+00,3.573469332464168868e+00,3.731686563807786072e+00,2.290230343608023134e+00,-4.922780100712116358e+00
