5.591050970658082875e+00,-1.095339005227791374e+00,4.829429461617609776e-01,1.363201253776314514e+00,-1.797412363901339294e+00,3.369317953043940328e+00,1.689716558104472854e+00,-2.775311146617309266e+00,3.023330885897236531e+00,-1.695284319817555341e+00
2.562895874442201016e+00,-9.432799844227282016e-01,2.888864395098076354e+00,-1.160666521421381825e+00,-2.209180630026235548e+00,2.562967714893782389e+00,-9.969433258671099862e-01,-2.158911143648198472e+00,2.922570723604752452e+00,-9.956768353217483325e-01
1.513299968947670493e+00,-8.923574330896545392e-01,-1.961290349619705609e+00,1.389893831460059515e+00,2.013679413415381703e+00,-3.603051599579080166e-01,7.744791405781461524e-01,-1.502105270081526500e+00,-7.705273397516704259e-01,-4.130200819635934106e-01
8.298218894549259650e-01,2.598137415823280616e+00,9.867337657188753886e-01,1.460690816367246292e+00,-3.180025529433298637e+00,-2.853338766409163618e+00,-1.091292802932686934e+00,-3.983700010293459437e-01,1.270913671004715084e+00,4.526098361233141798e-01
1.279410998783498510e+00,-3.155971281288757257e+00,-1.271573506762309735e+00,1.502625676612235450e+00,-5.183281980983148740e-01,-1.185724479430425582e+00,2.593578740569558061e+00,7.252439686230861549e-01,2.299937044216874060e+00,-7.924923053301571318e-01
-2.078055283261913022e+00,2.237155418148709440e+00,-3.262988611973008379e-01,1.534003938102445508e+00,-1.089899168073162006e+00,-5.006930171236539273e+00,-1.442560356909353692e+00,2.175799334352429781e+00,-1.424653050550986011e+00,9.599689731122773573e-01
-3.903100841171679658e+00,3.394871411098201452e+00,-1.273122562924736023e+00,-2.381605318749565381e+00,3.459123587937769528e+00,1.107970144938498880e+00,-1.280437893880826294e+00,-3.369044263634385361e-02,-4.713001377330011898e+00,1.723149241869753823e+00
4.742084957357760033e-01,2.069609517409379595e+00,-2.362051832200723123e+00,-1.009123260243687259e+00,-1.164104253323460236e+00,-8.020561030103556810e-01,-1.430955019744502232e+00,-2.203205374812411854e+00,-7.593125122284483108e-01,-2.164354406533402830e+00
-9.280105842642461411e+00,5.938221163724024088e+00,3.481049152620527831e-01,-8.472468015555532084e-01,6.275981870997037193e-01,-6.400071477187828428e+00,-5.827139669481904427e+00,2.714686281245255906e+00,-4.333642627576697492e+00,2.950967084091985271e+00
3.687337572621701920e+00,-4.356735840146444438e+00,-2.467251670455599566e+00,2.010392648942120886e+00,-2.155767110832227385e+00,1.688521500273517384e-01,4.217315390462754721e+00,-1.263482503744436602e+00,5.293274859233739527e+00,-2.560889197616425861e+00
