1.866198440039562145e+00,-1.353031301834148437e+00,-2.929864900558323715e+00,-7.475721981452905229e-01,2.316805590753857835e+00,3.296859877323514709e+00,-3.809721269523930198e-01,4.429457611405460682e+00,1.139873827043584864e+00,1.124875838469377554e+00
1.319632534903418253e-01,-1.296517655236846700e+00,1.098211580202640425e+00,-2.306227488986770435e+00,-2.352823842473812932e-01,-2.142540257257159020e+00,-2.655650233492210965e+00,-3.411925769835691735e+00,2.749708381019994263e+00,-3.004249305641738310e+00
-5.492165159965347598e-01,-1.950003089971930059e-01,3.195908151751230442e+00,-1.602584727957667710e+00,-9.771513020169184660e-01,2.624138076297549027e+00,3.013073667893191310e+00,-1.498177064551495796e+00,-5.741107286564164358e-01,7.283696343180672272e-01
-3.133207456735555674e+00,1.914946131214882552e+00,-4.493217855528595095e+00,-1.529985556759048126e+00,-2.238942624551187865e+00,3.522656723649108201e+00,-7.964755339984258775e+00,-1.772662719780791818e+00,5.821406664226914662e-01,2.361355662739693884e+00
-1.794785030461237163e+00,-4.209908075035461161e-01,1.250529696329022888e+00,1.424223648080106486e+00,-2.836235973147391842e+00,4.179859263892804488e-01,-1.480241882261181807e+00,-2.999617016770703692e+00,4.975849662124806061e-01,-4.013751133241726166e+00
-5.878847983766677388e-01,-1.640915437724793868e+00,1.201928163623497303e+00,7.582434502636019591e-01,1.246981000471480305e+00,4.379038138116730927e-02,1.002874295972258523e+00,-1.638689817531546522e+00,-3.125927391421856605e-02,-4.913987863741486883e-02
1.135496046698431405e+00,-1.613274881833181684e+00,5.793716240121498551e+00,2.612955966854696443e-01,-3.104816207288952357e-01,-1.454475035898495694e+00,5.085039748059475784e+00,-3.428553179528674111e+00,-5.805165829826554047e-01,-2.831953463030383311e+00
7.591744199950019034e-01,-1.126911543484024003e+00,1.146417907653018542e+00,4.448897021780633398e-01,9.140936336316548561e-01,-2.657261901304995622e+00,4.056831000126492448e+00,4.012342196567671770e+00,1.625963303389404091e+00,-2.925201859520339731e+00
-3.427803590893980790e+00,-2.143040018520520729e+00,-1.218014448514373044e-01,-2.253538382445601229e+00,7.086449838773176690e-01,5.697975613298783548e-01,2.656398937129700766e+00,6.289573772560305698e-02,-1.201252715349201555e-01,8.737139509230577028e-01
-3.095246482391261988e+00,-2.902999730329481887e-01,2.340425735579422906e+00,2.051780492180381277e+00,-1.927804226638155427e+00,-8.381682389540707767e-01,-3.008107786690441543e+00,-7.133878125763439826e+00,-8.225412938832549203e-02,-1.836608223909193871e+00
