-4.461092029790090785e-01,-1.883109325201162365e+00,-1.987358824215773589e+00,4.526662038004066524e+00,4.537519191878491398e+00,-2.479392659876145544e+00,1.192969282966395816e+00,3.575454157912806519e+00,-2.966282662296844674e-01,3.956800032876711892e+00
4.179971172620428277e+00,3.588719070707852232e+00,-4.885539641132718436e-01,1.264459380382141562e+00,-5.318353913613260708e+00,8.098377361068838098e-01,1.058274124728355359e+00,-2.775482479718240469e+00,-6.224169061175702788e-01,2.746326923924875540e+00
-7.164749605855699199e-01,5.006609357081485356e+00,-1.586304694631858414e+00,-1.264649945803453468e+00,-3.266469820183908634e+00,-1.418695414951216982e+00,-3.296160733934542897e+00,-1.794550147590690425e+00,-2.700936417733547312e+00,1.861364891743281458e+00
-2.077146323583245913e+00,1.934502720810745702e+00,8.841014478082642736e-01,3.350026394130223739e+00,1.543109862377191277e+00,-3.971635278063325281e+00,4.603989778231764696e+00,1.609531845961120977e+00,9.092961938603100203e-01,9.514620123986217148e-02
2.571206364183039828e+00,-2.823689447231087168e+00,-1.702135568390569009e+00,3.942979474081331759e-01,1.297604848079443984e+00,-9.183805452222639776e-01,-3.875002715364557648e+00,1.381229928958711994e+00,2.180678979908462711e+00,6.794430351254113210e-02
-1.519202947217843658e+00,1.553155810157346162e+00,2.431184953027370366e+00,-6.509294085591328383e-01,3.539583499377731979e+00,3.161207875068466233e+00,2.715837948506283794e+00,6.030126472542506333e-01,2.493716388145222673e+00,-2.487113105881312070e+00
-4.621003885739433104e-01,9.716289130163604515e-01,1.775819517335748277e-01,-5.167157094519850835e-01,1.311786752162554137e+00,7.988705494985866296e-02,-2.876077956286975379e+00,2.984916778418810868e+00,-3.700631885378850239e+00,6.396248764114352170e+00
-1.306366062354598734e+00,-5.175798506295644863e+00,-3.617170866882835067e+00,-2.866353071182564438e+00,-2.242400056515628126e+00,-5.353894008276627758e+00,-9.271873386341495049e+00,-8.188716326789938771e-01,-1.580722514775104504e+00,-2.329225987421782218e+00
4.079204246500274245e+00,-4.259359718713856546e-01,3.816557353167403299e+00,1.209524717272225214e+00,-8.093487332413851210e-01,5.749176367366574780e+00,1.060020023067394135e+01,2.074740199080596259e+00,-1.468534116827430736e-01,2.156328854121511984e+00
-1.140710499443848280e-01,-2.411968647647789954e+00,-3.771662329012423487e-02,-9.473189609264107691e-01,2.765090954906427090e+00,-2.431636591701163308e+00,-2.387195841707750787e+00,3.883009055699156331e+00,1.599304673985672220e+00,-9.832090657192998906e-01
