1.389096579988757796e-03,-4.034749509735701345e+00,7.330004073081094695e+00,-2.316954235834145504e-01,2.295099992680545764e+00,5.348224998753904558e+00,-7.943198400357549538e-01,-1.409533855664627300e+00,4.868982703907720477e+00,-2.247305352443506266e+00
1.970924971762540334e+00,1.675159073028729129e+00,1.914112506363077948e+00,1.340477955636731888e+00,2.747713509251518360e+00,-6.974571614761364557e-01,9.773869028770301171e-01,-4.068055601379851893e-01,1.896485313294242303e+00,5.634086753888652765e+00
-6.915661048810780587e-01,1.236084894280716551e+00,8.012253974481968744e-01,1.189279185220233348e+00,1.362294365873170321e+00,6.950795759105935501e-01,-2.981555925877997559e+00,-1.929020424952466062e+00,3.334615235804121447e+00,-1.944519727064662806e+00
-4.715876752412352380e-01,2.226555326146334668e+00,5.122529858030476113e+00,8.332124713575824737e-01,3.621758871402600555e-01,-6.225729595315417086e-02,-5.293345810315782662e-01,-3.835340307556290629e+00,-2.383104694784838884e+00,4.337467641489777925e+00
-1.459451235396577840e+00,-1.730992828865938638e+00,2.481270094026050366e+00,-1.489707312151623553e+00,-1.923470864667875091e+00,5.936688514329766519e-01,-2.245700291732322662e-01,5.920903776625215109e-02,-1.230517878673933474e-01,-2.009239994151093445e+00
2.262240701568628332e+00,-1.273269946218636983e+00,-5.008585334533949052e+00,2.165852390159836993e+00,3.707166658398358905e+00,-9.869026549781675373e-01,1.820022943443536434e+00,-5.512419421967120758e-01,-1.365314640167001103e+00,3.172134347578168700e+00
-5.303623290732079276e+00,-3.117834954740130726e+00,6.877237260390454132e+00,-4.076309046790489887e+00,-6.460699923353534047e+00,-4.783225072534742495e-01,-3.208956274201543835e+00,9.831251670854108671e-01,3.805815781307133605e+00,-2.567442656549885793e+00
2.538204217520310113e+00,7.546893236769147695e-01,-3.357374325266678561e+00,2.080024146134890728e+00,5.618806442965421866e+00,2.210568572785194696e+00,1.425338498861710601e+00,-9.986689475852404962e-01,-3.786452140128535149e+00,-2.047037459946256632e+00
-1.092711566781237265e+00,-3.659953311069691351e-01,5.261285497145489209e-01,-1.228035934337251556e+00,-3.488957342715170995e-01,2.164210831808796032e-01,3.292735442834928139e-01,-4.556460339799045522e-01,-3.301622372565242713e+00,-5.569776802527720783e+00
1.899133282202171147e+00,-4.818161127628513007e+00,-3.406307553565179003e+00,2.129539106938972193e+00,2.889339518070034085e+00,6.282384845877829749e-01,2.447830578751884367e+00,-1.763768593867329315e+00,-2.431325130968831960e+00,6.090605761717823086e+00
