9.137417574686701460e-02,-1.103799560902727794e+00,2.589926418986748580e+00,-2.692298005678417816e+00,3.787262664349714925e+00,-3.528441396800617191e+00,-1.530809982395172630e+00,1.715927921582764970e-01,-2.347589030270548882e+00,2.895354068068200615e+00
-8.777017175199890442e-01,1.629161359225438588e+00,3.176780867378532491e+00,-5.698523622531355137e-01,4.045093158032477376e+00,-4.163746969778533646e+00,-7.260581521600155686e-01,4.817516855597076209e+00,-1.409295616366364134e+00,2.440603559810348600e+00
-9.927801758088329320e-01,-6.405875515910423701e+00,3.017066668933091833e+00,-1.981032155067145029e-01,2.823886910420581042e+00,-1.931088173425868360e-01,-3.771776283767851456e-01,-3.534507229407649387e+00,9.035032505273963288e-01,1.966847502156415572e+00
2.204168341064731251e+00,-2.061387405968578168e+00,-2.629053346423833037e+00,-3.979248102863607528e+00,2.904826777787382408e+00,-3.783376829848777323e+00,-2.106546522034581148e+00,6.304681148375831379e-01,1.145168902244508846e+00,1.290135565904689363e+00
2.170957231672864030e+00,2.336245226770594097e-01,-1.453677957020843792e+00,-3.208491096979975143e+00,1.049167966744615210e+00,-1.918095466280840933e+00,-2.885115843273822200e+00,-2.415642818521363200e+00,-7.319915106731789134e-01,2.487716153749491843e-01
-1.565149568716506678e+00,3.279499056736130846e+00,-4.201229052405895281e+00,3.646960341191058053e+00,-5.257339487893637475e+00,3.107516509929684645e+00,3.511898964921817967e+00,-3.175805779309177623e-01,1.547094470890583384e+00,-2.684216381161130371e+00
5.206121873033783265e-01,7.907986542480173187e-01,2.726271670828421811e+00,1.110003011633582171e+00,-3.252363061968174485e+00,2.806957429735602361e+00,-6.917502291977066786e-01,2.965467290133519285e+00,-1.444365863659945681e+00,4.067436057369308022e-01
-1.277118239525671384e-01,-1.011776420521921516e+00,5.060324132048870105e-01,-2.773509643785553092e+00,5.399056063347180690e+00,-5.251211795548111461e+00,-5.709140856442260770e-01,6.545949158176915361e+00,5.251641462388765280e-01,3.496393451366190508e+00
6.947729770091937151e-01,-2.352434112543730915e+00,5.208451752926495537e+00,8.500056992980272730e-01,-1.404595108883781140e+00,1.119312361477375894e+00,-1.767671644142299714e+00,2.787476670979526894e+00,-1.321484832858687675e+00,1.872455567439804014e+00
-5.410523188767938363e-01,-3.819562122336943588e+00,2.491779983771313489e+00,3.571334777845474040e-01,1.803537894844681189e+00,-9.486435978688640969e-01,2.098191955881976711e-01,2.033081532376860956e+00,8.832784706541965125e-01,1.800638650551320774e+00
