6.873173344852734346e-01,2.420742692178322053e-01,2.006838445532615756e-01,-1.211150539931183712e+00,-2.375687114217016394e+00,1.523305030501084900e+00,-9.153941253006733225e-01,-4.246339480676415867e+00,-8.408334734824798318e-01,-2.593509513037308700e+00
5.761813526477518543e+00,1.543278240813805713e-01,-1.855236861349441879e-01,2.736390114530165896e+00,4.383650571122338135e+00,2.829756037971102423e+00,-7.634681762974990793e-01,-4.696878178886931821e+00,-3.398629460865496998e+00,-3.620324879124571460e+00
3.343122333758705711e+00,1.347740979674308281e+00,-2.167371133795923832e+00,9.054850525828677110e-01,-1.433182902953415105e+00,7.618445337060024691e-01,-5.291842916916872364e-01,-5.018878212605944356e+00,-4.472037282302165906e+00,-4.886191620057694251e+00
-2.940494158667811941e+00,-6.508274382878010966e-01,-2.068910749639547131e+00,-4.307151552904310843e-01,8.645511755750149518e+00,-1.541981319910532278e-01,1.737410214216592808e+00,-3.327925162945989612e+00,-2.898270549587522726e+00,3.081183124990517719e+00
1.946911594877499541e+00,-3.612541152396643085e+00,-2.788060815565326145e+00,1.549832303235055164e+00,6.126898978625177072e+00,2.633686076772434603e+00,-2.246645016140596418e+00,-6.958324311359349146e+00,-2.777833725213698646e+00,-4.964745655271158853e+00
-6.298544525586780019e-02,1.272333984008496621e+00,-1.971193923298461659e+00,1.705507310966646539e+00,4.617268196638582012e+00,1.329304840542431032e+00,1.318951896007031888e+00,-4.117158175114294494e+00,-1.732141518026628413e+00,-1.232617497712996890e+00
2.440308754760426524e+00,8.236693353908660642e-01,1.031395998568076733e+00,5.813174182451590788e+00,-4.424190502937466185e-01,2.521231768127421002e-01,1.149589789438989262e+00,-8.573924015128504550e-01,3.246592464892751551e+00,-8.737006207077495645e-01
-3.222751878460609287e+00,7.629030288222005129e-02,2.267097647690853979e+00,-5.020703011060795085e+00,-3.727845445657728352e+00,-2.148663421812467611e+00,-7.628867614766188243e-01,6.441126084135120777e+00,1.202222843114648665e+00,4.417228060156151770e+00
-5.708608145272801027e-01,1.460672843480857352e+00,-1.134124546989974336e+00,5.102252810580892861e-01,4.472431236531125620e+00,6.801838692131604303e-01,1.200081355328652011e+00,-1.378636659543829746e+00,-1.545366437390445880e+00,5.147994569907814455e-01
-2.047059689118632342e+00,4.172355753293654601e+00,-2.501580046628753440e+00,2.623706012608219229e+00,5.398032715455260089e+00,-6.519388589523479327e-01,8.814424547241108687e-01,-4.404151790946019496e+00,-3.031321103453426868e+00,-5.302653783098691953e-01
