1.923043625817518754e+00,-2.567042571722927491e+00,-2.049399875669748738e-01,-1.050475220151265043e+00,1.101008595606897789e+00,2.312678500297407957e+00,1.640642941583198677e+00,2.257166621884231450e+00,7.115060854140076163e-01,6.047134247251533257e-01
1.135881933246874587e+00,2.131242506322400254e-01,1.575742181632558525e+00,-5.300167143190598340e-01,-1.275201420833119492e+00,-3.256031857793544315e+00,-1.224886952719384858e+00,-1.327518394988219663e+00,8.692928205259043972e-01,1.145101763399747341e+00
-1.305329492143027625e+00,-1.181012018664832075e+00,-2.132547881998048123e-02,2.047594689677861624e+00,2.110584989016276669e+00,-1.132892415536403963e+00,-3.132679705199732823e+00,-1.676111335292260751e+00,-2.079806877007415622e+00,-3.043261363499106587e+00
-1.465226593728251370e+00,-3.890011414668885781e-01,-7.323449791667858699e-01,2.034329675118677905e+00,2.315891413472448868e+00,8.134887848253216092e-01,4.440251426386844225e-01,5.503905185708460879e-01,-1.908000599575132350e+00,-3.124619270595463405e-01
-2.860365369424472615e+00,1.635629317519042614e+00,-5.934017360142091135e+00,2.028271913579287045e+00,4.241516105700977590e+00,4.240822987139633682e+00,5.103686925884711734e+00,2.735102874008678686e+00,-2.865752108758826910e+00,-2.893927146451345855e+00
-3.715794003673025259e+00,3.108339147364000965e+00,-6.363850776928604569e-01,1.564898286605209410e-01,-1.002609418465996383e+00,-8.458078297914650712e-01,-9.555031588682308952e-01,-1.787673401442020360e+00,1.352619561378256119e+00,-1.329329287761567668e+00
5.311152452831668924e-02,-1.399230805217059448e+00,5.097775084824109904e-01,7.798221425441461685e-01,2.350061153141723924e+00,-1.188069823248250056e-02,-4.154930991677725505e-01,-3.545042695571961611e-01,-1.341627114243643115e-02,-1.594434183856461962e+00
2.428143553977704094e+00,-3.353974350860211562e+00,2.390201115613484473e-01,2.550176561648215490e+00,2.918886138180077694e+00,-1.069932824900626356e+00,5.704534475275492289e-01,4.167274775203277382e-01,-4.318049008874469408e+00,6.494201317112225924e-01
-1.232104997724637441e+00,-1.933863453738239979e+00,1.794931343349638997e+00,1.228618531780315548e+00,2.477318591752343035e+00,-3.822679082747355572e-01,-2.529185424831113527e-01,6.000024614295823566e-01,9.230961877084720157e-01,1.708222368678438352e+00
-3.732231417076050661e-01,-3.267524207815945214e+00,1.740893164774646840e+00,2.371477009583790263e+00,1.424174862402371788e+00,-9.855799123375176274e-01,-5.902407825872995950e+00,-2.520439393684990925e+00,-3.204530800350150255e+00,-3.246118389398672477e+00
