-5.350905436498000212e-01,-3.283965597173430062e+00,-5.931416529831302631e-01,1.117380396713399282e+00,2.720372100465517029e+00,-2.179076660150800038e+00,1.695646660265010208e+00,4.880400929899806783e+00,-2.062260334531833550e+00,2.269198164736179191e+00
6.252443230097766147e-01,4.249231099306066683e-01,-4.762370002434873406e+00,-4.592183308603071945e-02,7.883575981091750506e+00,1.213801459228434965e+00,1.132123755295604939e+00,-2.213992211646220287e+00,6.681007881078818711e-01,-6.280852066516298127e-01
-3.981246822991662881e+00,-2.522181599014949871e+00,5.795260919052807047e+00,-6.662869602492309529e-01,-6.778368641092580305e+00,8.300733157243860294e-01,3.394426083626946866e-01,1.579762162490845778e+00,2.062004925835586810e+00,5.023696922740412685e-01
-3.843820555629316793e+00,7.931872698755638496e+00,-2.653741683577978128e-01,-1.474572611867398075e+00,-3.903348845912329779e+00,-1.827591518470662368e+00,1.444956416817149814e+00,-9.331858431362904938e-02,-3.115943163885187772e+00,-5.547331873438579031e-01
1.360082214129912037e+00,-9.303368355969929837e+00,1.437023725936312246e+01,2.463739844249351219e+00,-1.120826609645707883e+01,8.072962588123182293e-02,-1.101336880270367358e+00,7.662322575796635782e+00,1.821871387930369179e+00,3.594861757119913737e+00
-2.789447404394012064e+00,-7.966366428030804414e-01,-1.188556347549986736e+00,-8.598322947758714196e-01,-7.624588193817398718e-01,1.203386418711400729e-01,1.004758593676004175e+00,-6.526061792235136050e-01,4.295846960023920191e-01,-3.001721182603658833e-02
3.181861457346731203e+00,4.931140857025140711e+00,3.349356792929034654e+00,-3.968468888495874092e-01,1.576645491862372683e+00,2.218790292444619450e+00,1.405336181791279726e+00,-1.472986025660709686e+00,2.066404317057475293e+00,2.590043495559035680e-01
-4.930526270400916289e+00,-4.019504973020828764e+00,6.985530910424444961e+00,9.030389111928025514e-01,-2.253047452350176894e+00,-1.429575389895727078e+00,3.982595951300297976e+00,8.708656777244694780e+00,-8.857079670437938423e-01,4.140883918107679307e+00
4.288237122761082709e+00,3.910032945569679175e-01,-3.868474679855549159e+00,-2.779899209109885083e-01,5.422023954070983365e+00,4.596567791889656918e-01,6.610120414476113870e-01,-2.081253181312076705e+00,1.092738527683311922e+00,1.451543744748309273e-01
1.222548795397926158e+00,3.109956367860397641e+00,2.758080002214844839e+00,-1.561745185727482665e+00,9.449850647728734732e-01,3.645802417222628655e+00,-1.572740589896048924e+00,-1.983839824248315953e+00,4.884072748148983401e+00,1.853842471420384386e-01
