-2.191035715717849497e-01,2.057791074150538080e+00,1.967528149629738099e+00,4.486395074406742012e+00,7.045294132424180511e-02,-8.254698353288938417e-01,-5.599304907827974631e+00,-1.231777356123549882e+00,-1.820473781096652865e-01,-2.481040529742155609e+00
1.614271555865764984e+00,5.425101124540708808e-01,-4.999917613216043333e-01,-1.769176358227651402e+00,1.339114754697032506e-01,-3.613170663268590044e-01,5.527472506421959864e-01,-1.490203057161151756e+00,-2.414039124496748734e+00,2.055589877000252752e+00
-1.588585748742279868e+00,1.060666875101894391e+00,2.777864524083948350e+00,4.983061744007345695e+00,-2.551804727207843460e+00,-4.948339207571936793e-01,-6.825158634859478823e+00,-1.188875214117108836e+00,3.966722609965747104e-01,-2.181507496719174544e+00
2.603016459874124777e+00,-6.163424410836413347e-01,5.438685609868315618e-01,2.488650661814663323e+00,5.316757437192237923e+00,-1.897533183390039513e+00,1.545272159605186602e-01,4.712127308764803568e-01,8.238884264239219490e+00,-7.893172891415066728e-01
-2.089004479839496664e+00,1.761976643521548924e+00,-2.108509058060784369e+00,-1.621352002035239881e+00,-3.440385421012714495e+00,-2.201959291052321799e+00,-2.722723477793863811e+00,1.860736718672548529e+00,-8.583184557251481550e+00,-8.090297530311988394e-01
-1.885473910269057862e+00,7.675811975191911829e-01,-3.137285406071426586e+00,-3.802252016717145633e+00,-4.249032477509530281e+00,-4.872015645800628292e+00,-4.354846959180781241e+00,4.284885219273015800e-01,-6.487375571173396693e+00,-3.260208997125123576e-01
-1.804218834314673447e+00,-1.056072549704454744e+00,1.929844583974529515e+00,1.743594860123908852e+00,-2.761195702014792808e+00,-4.313455189326400152e+00,-4.625813040114379326e+00,8.938572530907379132e+00,-5.339610864135539536e+00,2.078908857319216708e+00
2.083920980776060805e+00,-6.570335056340773638e-01,4.878507949125234777e-01,1.404054795614928297e+00,4.532155861015934484e+00,-2.764863377808090217e+00,1.022972502687802043e+00,-2.386211710413897041e-02,5.640799980552516857e+00,3.333723385186068366e+00
8.739572130756693147e-01,-7.717905904712163423e-01,3.523357661045430356e-01,-1.276646540139236841e-01,6.097484262642605124e-01,1.950152505643162559e+00,2.736639372068800924e+00,1.593568838051945047e+00,4.958539290783647857e-01,2.895765089114338831e-01
2.721666556933081127e-01,-6.260255168504380574e-01,1.848635768642788779e+00,3.691910139171872274e+00,5.939822253166133770e+00,9.224677820501723247e-01,1.284242339509819475e+00,-2.900004645056684094e+00,1.158393125871643115e+01,-1.738647732471379381e+00
