7.331809539090529348e+00,9.313306695609915309e-01,3.866718489056080732e-01,1.054662696666541999e+00,-3.671926285548106961e+00,2.675590807155744155e+00,-3.043169224278828189e+00,5.919626801105990488e+00,4.092609998875140320e+00,6.361483025268291236e+00
2.856727986644864270e+00,-1.219433521479725613e+00,4.593836772251470024e-01,-8.723932788415261763e-01,-6.624713709048004162e+00,-2.551026189327759042e+00,2.097484716122999249e+00,3.134846623116510855e+00,-1.606957526782904766e-01,-5.922418870934281543e+00
2.111827896013478867e+00,3.486448487977734878e+00,-7.980775756247440178e-01,-8.070083073229010751e-01,2.983280965552966624e+00,1.711742461826592621e+00,-1.272226393397534849e+00,-6.963956157188256890e-01,-1.570219736026001511e+00,-3.945016794126944504e+00
-3.128710775690927370e+00,-3.417341058933796472e+00,-5.030191967015831267e+00,-1.986855315190170668e+00,-9.498364633167247773e-01,-1.515561044369301058e+00,1.272077569083020387e+00,-2.863239432737468282e-01,-8.401137263357414398e-01,-2.232798153513047834e-01
-5.594636427745958152e+00,3.259416364315208980e+00,-6.002233456701943082e-01,-2.672446660009622388e+00,8.240710253503733540e+00,2.615979800390597632e+00,-1.635012363730487417e+00,-7.372397553005970217e+00,6.348142440923977281e-01,4.436014051023184024e+00
-3.522105940631417909e+00,-4.358204695143252372e-01,-4.335514288428657714e+00,7.703250984380013988e-02,5.466668233320181258e+00,-7.084049343415456113e-01,3.691169665508831965e+00,-3.536684917132219219e+00,-5.391343426721738830e+00,-4.747714131151036909e+00
2.378610541546271051e+00,-2.360721084952736248e+00,-1.676194920744568329e+00,-1.803641320214591226e-01,-5.157727202060232052e+00,-6.506922641765400250e-01,-8.433553334805146129e-01,5.575636339414939080e+00,1.478517828020551761e+00,3.615887571985010318e+00
3.761969783909389520e+00,-6.285363975355929833e-01,2.091957724366760196e+00,2.174318274181176847e+00,1.888338587004655178e+00,7.167117117797999759e-01,3.075563259755443202e+00,-1.819624358716646961e+00,-3.976308538103761503e+00,-2.975490514331367020e+00
-1.724112917016322966e+00,3.882372572010989398e+00,-1.382920225548252446e+00,-4.768229380335551326e+00,1.941412944999875823e+00,1.863522248642741908e-01,9.333849417898969492e-01,-1.216045123097784675e+00,-2.280443861233478753e+00,-2.383563571996061003e-01
-8.436154294721234237e-01,-2.728001054110646084e+00,-2.552016261423261656e-01,4.327479922699620923e-02,-2.250993404642387841e+00,-1.374904608642634418e+00,1.213555422304126497e+00,-4.164458860713861066e-01,4.260267744917311528e-01,-8.779483152794496092e-01
