1.346985296405538435e+00,-2.050184992885942581e+00,-3.794548443380257208e+00,-3.269898721865962088e+00,1.316700798122157234e+00,-1.111258008826440769e+00,-1.023556811607092332e+00,1.639514755505327104e+00,-4.015978249479946194e-01,2.346537221089177283e+00
5.335257489021667965e+00,-6.545614254207374749e+00,2.579627939323199559e+00,1.267983458783183970e-01,7.516385613852972547e+00,-1.939163872385360143e+00,-1.986799696250818537e+00,3.260946356213322295e-01,5.102865976178050822e+00,-1.806347863382014474e+00
6.988647028715138099e-01,-4.173958895871498487e-01,4.654866433813711346e+00,3.644954881912115585e+00,2.098284752028670042e+00,-2.357949925834577076e+00,6.703075146839935217e-01,-1.218384900628468825e+00,1.895527795119728687e+00,-2.789003576401240192e+00
3.376808337930775838e+00,3.549684421552621316e+00,-5.226330405436132587e-01,2.781754029052467825e+00,1.017731092952594452e+00,1.802478016333387001e-01,1.495752962061590141e+00,1.359236280951557463e+00,3.476148931959437860e+00,-8.723950783981019086e+00
2.824804270227014857e+00,6.500106244501484554e+00,-3.945892456702861040e+00,-3.894847644966855427e+00,1.180769014615068446e+00,4.822072547069829795e+00,-3.085442318906867154e+00,4.547089885518900587e+00,3.133021592509297015e+00,-2.843089126509290576e+00
-1.313994632728181289e+00,8.247038469358675128e-01,-1.109646471181274840e+01,8.346422594864303379e-01,-1.695430668521866968e+00,-2.725744969472605472e+00,8.685733739083813632e+00,-6.130519985854411935e+00,-2.339623885812751158e+00,4.716337357702675703e+00
-6.803534126885605327e-01,8.596432912128406656e-01,2.547670071150725857e+00,1.575691007381594622e+00,3.397746372568182682e+00,5.100295492130543229e-01,-4.501650460173781676e-01,3.071603700124264646e-01,4.692169475562981695e+00,1.385444625069950142e+00
-9.977992449234662775e-01,5.144185818680981903e-01,-1.034891382279754524e+00,-2.545963850861618027e+00,-1.665937057234876395e+00,1.930841011952200148e+00,-3.261026870427481850e+00,9.108824818160274894e-01,-1.193538880496789689e+00,3.063246654885487086e+00
3.886256282083848657e+00,-9.697869117073901757e-01,2.086332579500505879e+00,-2.898082733926762300e-01,4.398911959654947523e+00,-2.481689553671996062e+00,-5.532180690029460557e+00,3.908268004301047149e+00,4.530378293050865146e+00,-3.039912189657463681e+00
1.980984934183170010e+00,-6.797921883882780403e-01,1.894413211463890967e+00,-1.643447126416627047e+00,3.465416024329553313e+00,-2.659983487826617088e-01,-3.283880669595526047e+00,5.037913858454680094e-01,1.499001855536824301e+00,1.473393070779056124e+00
