5.502715406031334133e+00,2.036461067454716112e+00,-1.409400109621984365e-01,-3.873594824773456125e-02,-9.854927697964360744e-01,1.949442322484966628e+00,-1.710660648994138111e-01,-1.044677671251052820e+00,-1.156259505330413884e+00,1.822381172058533449e+00
-1.350255503847789029e+00,1.418962385608333099e+00,-5.489891033829554345e+00,5.125523385530513565e+00,4.109411317736261893e+00,1.575132515571814773e+00,-1.794486358481216293e+00,1.587905881174676459e+00,-1.863435836780001686e+00,9.220651608548759981e-01
8.712067404986651997e-01,5.384831314229637123e+00,-4.439369339756880084e-01,-2.294270865007961291e-01,8.571746363435960303e-01,6.591923355716963862e+00,1.303469732750193399e+00,-4.061585538189298461e+00,7.941614346023051496e-01,2.229508802673509926e-01
-1.731245098127510040e+00,2.583295779386341806e+00,-1.897492447854932429e+00,3.351348265660615944e+00,2.043338825474391385e+00,3.287447016477585748e+00,1.261270579233504385e+00,1.102524057267907143e+00,1.606910969561445190e+00,-6.575329586585043629e-01
3.063638101676139147e+00,-1.873057927324333294e+00,-4.245788075606525824e-01,1.723440819146288661e+00,-1.127108531009233028e+00,3.925637050962540453e-01,2.853139622146829701e+00,2.093953382120192774e+00,-6.674689082003795182e-01,-1.967085200495084951e+00
-6.620740886415084958e+00,-8.942726320371330306e-01,-2.977004660309463091e+00,1.309790730681714255e+00,3.040155892794942361e+00,1.227402838031953713e+00,9.126540814864170237e-02,-3.399173266582398156e-01,1.365861707857211726e+00,-8.019461679164497925e-01
1.274143730549512687e+00,2.414439681529008119e+00,1.718742732557697384e+00,-2.595944204577207426e+00,-6.746367900038572341e-01,3.967866072689234080e+00,3.700918909317178151e+00,-1.932734483575612394e+00,4.776857727664410191e+00,-1.299726912424781444e+00
-6.573375702722927372e+00,4.632561026110392888e+00,2.711517658626941163e+00,1.143860137138999367e+00,1.463675055747123643e+00,3.634253176737261004e-01,-1.143324028796273373e+00,-2.207940362820807745e-01,5.141254442726250762e-01,-2.427604162363484086e+00
-6.463460768570855386e+00,2.524766902696096160e+00,-5.348948580225829641e-01,3.818239120673150300e+00,2.500148460087276092e+00,-1.739321380065475209e+00,-4.590852044227417217e+00,1.627875869995689673e+00,-2.703335424182585545e+00,-2.695179304894718825e-02
-3.221894209849800461e+00,3.390094091665652787e+00,9.598314936964371658e-01,2.603998180070291379e+00,1.026557505161601158e+00,-2.345846242033211571e-01,-2.268245534866354607e+00,1.323865963610725283e+00,-3.797092769329745154e-01,3.042595957233235615e-01
