-1.455635580190893119e+00,3.428896644240187364e+00,1.344330258971989100e-01,-9.345491263663905368e-01,2.281536974374186677e+00,1.757754616312305007e+00,-9.738049662945602591e-01,-8.698064750896516983e-02,1.565845069254393263e+00,1.022188480130189925e+00
1.347199126254942314e+00,-1.192480142354391148e+00,-1.460658694355962295e+00,-1.496596740220105248e+00,-1.131739818221290994e+00,1.716892651251022750e+00,-2.278466695061693414e+00,-6.777028028329501463e-01,5.644020892303214243e-01,4.179203907534223550e-01
-4.455975612539444519e-01,2.352416659632039053e+00,-3.324655566278519991e+00,-2.537305072514233650e+00,-9.984220100637541950e-02,3.599258616479033890e+00,-4.042979640241670225e+00,2.530429866123808047e+00,2.524127483755955303e+00,3.082565173894662003e+00
-4.245890606177828097e+00,1.771749668512758724e+00,-3.758966522782710040e+00,-1.991842634162347858e+00,-4.753808914070740133e-01,-9.376007879476924600e+00,5.562705423362182877e+00,-6.237727520951328763e+00,4.184327209055166641e+00,2.506760123864932410e+00
4.967443579970565182e-02,2.116871697236508698e-01,3.743528548623223373e-01,1.925648228025476527e+00,2.778818506296969471e-01,8.165978759021569999e+00,-5.297698035907288272e+00,8.280094379272867400e+00,2.216598779751777215e-04,5.885909263377446798e+00
-1.541930498025970486e+00,2.149664838061400296e+00,1.921599151122742377e+00,1.979872824956242283e+00,1.833381027388743867e+00,-9.208742969569722048e-01,1.072383899008594987e+00,1.316160619503981000e-01,-4.205894210297919655e-01,-9.358547354217978675e-01
2.409879064116345670e+00,2.643052971990153655e+00,-2.287463396668883153e-01,7.353008099583938639e-01,8.265091981862391357e-01,3.713342996099073368e+00,-3.019795208298567069e+00,8.600149595835118177e-01,1.706224261128160558e-01,-2.191274884237872644e+00
7.605355704529876970e-01,5.379627543528330280e-01,-2.146451795328675249e+00,7.458282993642105785e-01,-9.214980159611301236e-01,1.551932424796041543e+00,8.453620691592744762e-02,2.548665165040436609e+00,2.653712504426716912e+00,2.320940395571637449e+00
1.333014338025366730e+00,-9.672653620917751605e-01,1.441206412802291892e+00,-1.375865170823383110e+00,-1.111442147976251654e-01,8.565799473884709858e-01,-2.308422069736541626e+00,5.952463256143829540e-01,-4.038421443823864365e+00,-4.483990330664881618e+00
-2.822437395856564613e-01,2.323294291600221939e+00,2.672261249937419425e+00,3.374079628313952472e+00,2.220487969652162441e+00,2.064579909289236515e+00,-1.426840543038458753e+00,4.101132801472850975e-02,-4.510953435429893021e-01,-7.168871717371944063e-01
