-2.380704677503358013e+00,-9.034441087411539950e-01,7.055280536629649824e+00,1.148481731552104090e+00,1.587037447147459757e+00,-5.198004004666239020e+00,-6.601032478374754930e+00,-5.822037369089989589e+00,-2.940589261692735157e+00,2.899450579812314910e+00
4.116460361790776901e+00,-1.241481716014829040e+00,-5.177578763657431971e+00,-2.347112923970160026e+00,-8.177501591211230325e-01,1.505719518163240567e+00,-2.158685604687648751e-01,3.668096603145850065e-01,2.591153493159897625e+00,9.913258413401789815e-01
-1.182502156791475967e+00,-6.155059670126240556e-01,-1.558223714985178754e+00,-5.650445738830635056e-01,-1.997188733385541592e+00,-1.248346874737230827e+00,2.034367425767011905e+00,7.919315322956546055e-01,1.394065898235580914e+00,2.466156434568529843e+00
-9.099173859314392487e+00,6.941390926902541558e+00,8.974528088174459128e+00,5.009087948384486566e+00,7.368778649133538750e+00,-4.356700696210294765e+00,2.891958051556383413e+00,-7.280348641019137368e+00,1.628808284114738880e+00,-1.766400809121046356e+00
2.624238525196283867e+00,2.467215139129650847e+00,4.541220373974688584e+00,-2.482107276090471104e-01,2.462283119938564191e+00,2.377511904722837244e+00,1.788721615610534110e+00,6.240035661731521133e-01,-9.154087933738185967e+00,2.644514070892732827e-01
-3.469177317339602329e+00,-2.449600102659323042e+00,-1.910892116799241869e+00,-2.480934330952676792e+00,-2.333668471063161665e+00,2.273770798204980959e-01,-1.073676294813338483e+00,2.431953367963811008e+00,5.125705074088125812e+00,4.149666370950888528e+00
1.724500565814800934e+00,-1.106686913597102473e+00,-1.768104692618144513e+00,-3.859427979100457318e+00,-7.322899840855462417e-02,1.675270802281549343e-01,-2.184793586452776104e+00,1.305669964843590325e+00,1.055509326698876649e+00,1.089133445467139527e+00
3.184535664320480297e+00,-5.105090977860441415e-01,1.563663673047436475e+00,-2.243347360261351842e+00,3.655812261554272524e+00,4.581891704843744861e+00,-1.562732358815538125e-01,1.652872942831093095e+00,-2.402991743456346807e+00,-1.943699659747980313e+00
-1.376542781609966681e+00,2.776232209518599614e+00,4.697263713648747618e+00,2.741551073303128305e+00,5.289223639037683888e+00,-1.731838821413911045e-01,3.759443799892314697e-01,-4.167872542001439307e+00,-6.443765572694297727e-01,-3.123842275036286864e+00
-6.068307095819890584e+00,-1.538773898717390898e+00,5.524272641225934422e+00,2.421790842517353326e+00,1.099660439330755635e+00,-5.030485508693689489e+00,-5.114402059336532247e+00,-3.256984907815368313e+00,2.832585046560229358e+00,-2.183725634168732110e+00
