2.423685063792192729e+00,-2.228922998148365142e+00,-1.040168631703042079e+00,-3.160990445012980210e+00,-1.898834531729062691e+00,-2.822836220324547618e+00,-7.028631532552139127e+00,5.015985493107660176e+00,-3.922788976952005235e-01,-9.277598823384191062e-01
-2.872692747326758056e+00,1.625337361610805997e+00,-2.393575191300692517e-01,7.156959466861531061e-01,9.262899154225741061e-01,2.577823225107719107e+00,9.092449639621471569e-01,-3.898769025533508348e+00,-3.326849570053505900e+00,3.427549769964693738e+00
-2.292907878928042820e+00,1.824298669570763032e+00,3.452446305985401587e-04,4.485760635113784645e+00,1.085275813712981652e+00,2.938475390434923007e+00,-2.939298722758743043e-01,-3.384550895111448021e+00,-1.563446568523801261e+00,4.561946931281422479e+00
7.882221913995530738e-01,1.830461458524044183e+00,9.147459441931173885e-01,2.453082919803142303e+00,-1.002013921300746846e+00,-2.234595903033765651e+00,-6.213290197648086988e+00,-4.069141745633112706e+00,3.443656609811870162e+00,-3.519437760869019716e+00
-1.714909339570109825e+00,8.720954799499396337e-01,-1.403271359096382731e-01,2.411891298967161479e+00,8.692233067752752618e-01,3.293543690789054734e-01,-2.287887302772027009e+00,-2.637957158490707776e+00,-3.230399975505294785e-01,1.640651294933352267e+00
7.195969447246453043e-01,-2.813434526073530506e-01,-9.576661272544562120e-01,2.695990233580806139e-01,2.032299018563272330e+00,9.809466436984698445e-01,-3.158624968752999362e-01,-1.762758723315047682e+00,-1.079132281315895669e+00,2.879050097273018860e+00
-9.200989698854937782e-01,-3.549169104964484678e-01,-1.520480098037767236e-01,-1.925975342394783407e+00,-1.281326033419331045e+00,5.275270572150992932e-01,8.538354441551544438e-01,2.440295496889485882e+00,-9.636749386130464279e-01,-1.548646607674370346e+00
2.258968640526579641e+00,-2.451177291294922567e-01,9.172491258800471448e-01,-9.545867006104686858e-01,-1.907588888528261251e+00,-2.899269529331448325e+00,-2.602930857238969775e+00,1.084783835593886359e+00,2.143972612351832119e+00,-2.802959134319347179e+00
-1.864153142059757684e+00,2.614997020400648520e+00,2.104258989334957253e+00,-2.559536759137115425e-02,-1.557134634524734107e+00,-3.966276194023728774e+00,5.098169683913594818e-01,-6.384194910703794301e-01,9.852300078076632328e-01,-2.679565725029115164e+00
4.901625625561679023e+00,-2.266789020144826861e+00,-4.035696493172399313e-01,-1.380549657824321486e+00,1.981315471654570448e+00,-3.562554130570501965e+00,-6.201213021251102964e-01,8.020119913949592672e-01,3.274013983438981423e+00,-1.027857609004449113e+00
