5.479547704132339270e-01,1.029411893728253424e-02,-1.631743033753128236e+00,6.840066760047934791e-01,8.569670028515151694e-01,-3.143807820806909792e+00,3.949919925642444984e-01,9.924336778591267283e-01,-9.343314576720380682e-01,-1.027142052709458797e+00
6.380201500263903425e-01,2.150295646435053332e+00,-2.927381874640399673e+00,3.407672784643775099e+00,-4.738375417452129756e-01,-3.729123256994183677e+00,7.194576875161698970e-01,2.786301423129482480e-01,-3.851317577596308883e+00,3.077111900849659534e-02
1.391135820030842574e+00,2.025438760201978106e+00,-1.346708035664538894e+00,2.399660122262871342e-01,1.924590032224558822e+00,1.119433083258939865e+00,-3.506902742878595269e+00,-3.356214176652363879e+00,3.333367617051778087e+00,-7.883634695733003628e-02
-9.300337328607087839e-01,1.775639539608299344e+00,-2.907854077877296106e+00,-8.021646365625413333e-01,5.535026669618727801e+00,8.057948083070748391e-01,-4.013844520424269646e+00,-2.580679221161579218e+00,-8.972461074768355305e-01,-1.450212117318202820e-01
-6.816105200787244689e-01,1.674229272129975854e+00,-1.563545059880310228e+00,2.735288202754499132e+00,-2.894719534032200725e-01,1.049188184830164294e-01,7.752814106275935924e-01,-4.173063996061402436e-01,-1.306676130902793442e+00,2.825228198965663573e+00
-6.993041005683117151e-01,1.799181332784036025e+00,-2.281134765167690759e+00,5.315912328471387172e-01,7.645467428199512749e-01,1.629941917555498276e-02,3.375271323056436984e-02,-2.005539672018811892e+00,8.437470279798937600e-01,1.420263625377782057e+00
-8.822410463226399990e-01,4.047441909997660403e+00,-5.414876092550532150e+00,4.026709980650867715e-01,2.920260365948275094e+00,-2.281868781072833752e+00,-1.761877552586445184e+00,-1.428778905429075596e+00,-1.898819724126574293e+00,1.307773959781512119e+00
-1.222988075841718647e+00,-6.531047253405397601e-01,-1.129166847621223324e+00,8.586279216028024353e-01,-1.293340646632490820e+00,-2.251770306510849640e+00,3.402339095953526016e+00,1.691653664313759409e+00,-3.589839498923574013e+00,4.334459298954883022e-01
-1.929571467319328271e+00,-6.814423498525147060e+00,-7.637629753170366298e-01,-4.463047490543982754e+00,8.902502326834000890e-01,-3.410657966670020524e+00,5.867070524404259579e+00,4.528330004148733323e+00,9.751088574793393207e-03,-1.021473205281086649e+00
-1.785404254820781134e+00,-3.069773489264951305e+00,1.382213989851957869e+00,-3.773806597996185008e+00,3.783225327409127203e+00,3.118737895146220795e-01,-1.948196709544492700e-01,1.296116457526613974e+00,7.788640581207911806e-01,-2.126363727379282587e+00
