-5.275339313625925897e+00,2.727899102699038458e-01,-1.086139365974319704e+00,-4.930993537349758427e+00,2.227376382985325254e+00,4.806933681714202766e-01,7.153477267495276237e-01,1.550861733599834480e+00,2.187918973967954983e-01,1.356381728704542322e+00
4.915062179431401113e+00,-2.769880314454552517e-01,5.518769063447377388e-01,-8.569633879273510502e-01,-8.539763230100026803e+00,3.277141907163100942e+00,9.182257356686108762e-01,-4.533937055463905352e+00,-1.014629595909601445e+00,-2.106727325403789930e+00
-4.832099649337391334e+00,1.228554437153241419e-01,-1.504066875385814406e-01,-1.092358786968767648e+00,5.018270572295365106e+00,-2.495091625775246680e+00,1.268738551941127168e+00,1.669782141021478594e-01,1.234354848279490824e+00,2.267748488617319147e+00
-1.022805503758644541e+00,-1.720230103466882099e+00,-3.922628159355160626e+00,-1.520963563685820974e+00,-2.617467256882969107e+00,7.318232905272469280e-01,-3.351121539992771403e+00,1.846569001916940511e+00,-2.747216436054030986e+00,-4.894439655988205296e+00
-1.551662722592807020e+00,-3.679309127943170221e+00,-2.569129315697389337e+00,-6.270907352596699624e+00,1.445583991482157327e+00,1.000865273726544880e+00,-4.971681705635246917e-01,-1.399150800833286468e-01,-2.031762031449516392e+00,4.352592206992138557e-01
-5.756015162467146951e+00,-1.811988189036762842e-01,-4.248274266857433368e+00,-2.580569055588695981e+00,3.175605845590058429e+00,-4.997820416356704154e-01,1.482886198173023917e+00,1.913024494882838100e+00,-1.857490501263511895e+00,9.172196505868966954e-01
1.741765355188633402e+00,3.798677303255897364e-01,-7.310720510140408246e-01,2.388812483204358017e+00,4.038048798062119360e-01,-1.587315413576333989e-01,-2.460033734786136517e+00,3.241382450775843527e+00,-6.081770583181208556e-01,-1.397395949191925446e+00
-2.236345092200033857e+00,3.810131784261592824e-01,2.272352513805616869e+00,-2.050506817442689922e+00,2.347101357524461474e+00,-7.849927750430465423e-01,5.433411523878302063e+00,-4.658127370260360500e+00,2.181478761893245633e+00,5.378840019082648638e+00
3.677791241424733792e-01,-2.902651344712172676e-01,-1.252537334591292684e-01,6.636607352542642779e-01,6.548615434855280526e-01,-9.788783862974557159e-01,9.172775131184395248e-01,-1.313963272511067704e+00,2.760674013042164754e-01,1.000731877178909546e+00
5.487345602814853729e-01,-2.976201660169698116e+00,1.026489917914416683e+00,-5.469352664578012835e+00,-1.809129657936632940e+00,2.448732280235631720e+00,1.734660277402247042e+00,-3.977453402645474867e+00,-7.107638734786353440e-01,8.876512295788041573e-01
