1.061845708185456649e+00,8.530184183785757268e-01,-3.005767674548320278e-01,-3.013255646593185233e+00,-3.440870259978239698e+00,4.977054217677840953e+00,-2.972021325973378758e+00,1.995743486270716849e+00,-7.094289174107708540e-01,4.256778569999537964e+00
9.251603971002851923e-01,-1.381152570900096022e+00,9.416772458231023046e-01,-3.144354642080036122e+00,5.917570924918171826e+00,6.064124894909180830e-01,3.699134993290874363e+00,5.097033075612715791e-01,5.424001875761661040e+00,6.017803432346126691e+00
4.264750419355761712e-01,2.826814533788603256e+00,2.057895827085000739e+00,-2.303703190436410253e+00,2.411046942029451579e+00,1.921272421587267409e+00,-4.814410374929749992e+00,1.397859909810700296e-01,-9.275147220353014976e-01,2.477512075353382470e-01
3.709920963711747177e+00,1.331970693333574651e+00,-1.309906104533746785e+00,-1.893998216401375778e+00,-1.275880789404617577e+00,4.967728163394353302e+00,2.058941435626829630e+00,-1.032964666042901908e-01,-2.895588857200414257e+00,3.336354955074528839e+00
4.260648701588443110e+00,-2.608289305060552010e+00,2.061642372586580674e+00,-7.503466759332929614e-01,-2.598486048068993526e+00,4.553812183528232360e+00,1.166965228718812364e+00,-1.238182155080495228e+00,4.046359982983138259e+00,4.842196464595356353e+00
1.071783392516231892e+00,-4.440430491127478896e-01,-1.372599769548094484e+00,4.446057631812144750e-01,-3.450820595970766735e+00,2.758331998385109340e+00,6.809952807733635760e-01,-6.393443305462154225e-01,-2.443926847466725505e+00,2.788820449551229763e-01
-9.255153435415901519e-01,4.240262022980721746e+00,1.127614734773992877e+00,-2.922871609040275320e+00,7.627415814304554509e-01,-1.248017949876501831e+00,-2.667695262996966132e+00,3.665467180230742805e+00,-1.026870776179999334e+00,-8.865238544065460191e-01
-3.209104697440745557e+00,-5.338984513598294956e-01,-3.451768030683056043e+00,1.204824715132749358e+00,3.541734516025429880e-01,-2.730093341906313142e+00,2.803371106368749643e+00,7.324748542987351563e-01,-2.326029273879374415e+00,-1.727903877914224839e+00
3.003367493544459865e-01,2.259775398100256183e+00,-2.828041298161793060e-01,-2.310342338560222863e+00,-1.557035374281948714e+00,1.587138386303336368e+00,-1.673868164308876638e+00,1.574623192708932251e+00,-1.986897129978474785e+00,3.522482887242705529e-01
1.988755107327087934e+00,1.615495484970645323e+00,1.465535200765954116e+00,-1.712769034064542950e-02,6.354162167162544783e+00,-1.111919955289310424e+00,9.122857391735341714e-01,-1.267695945288444870e+00,5.817395334809752905e-01,3.535471799883640465e-01
