-4.073205807253630795e+00,1.348051321844470962e+00,-9.768666956768545795e-02,-8.642112551767766604e-02,2.142200058097301074e+00,1.118120914069211436e+00,-8.926894581805604467e-01,-1.344740768717524793e+00,-2.216193807500859592e+00,-4.007782925183734690e+00
3.083965003053054321e+00,-3.523609421960495425e+00,1.203398777841333533e+00,2.633212401680962156e-01,1.866159479216580541e+00,-1.019806085192282774e+00,2.994113220870375347e+00,1.736212522620334209e+00,-7.353575643349882229e-01,2.205436066184429666e-01
6.087145760396890815e+00,-2.987465905479213202e+00,-2.029678488649303336e+00,-2.111932215331402851e+00,2.040152545350061519e+00,-4.680511482503836973e+00,9.093420339209646874e-01,3.139609906657601535e+00,-4.608404967622451665e+00,-1.338424519703652393e+00
1.314012539163505355e+00,2.776622852414520892e+00,-3.269348537082450434e+00,-2.766892895713469080e+00,-2.729235148188358107e+00,3.868292875572406420e+00,-1.919082810250177795e-02,-2.067883255606727810e-01,8.355012504840982901e-01,5.161790450194742697e+00
2.641309830843479478e+00,-2.405811032729287646e+00,-1.911642112477598188e+00,-2.450970843174943070e+00,6.617725440628330347e-01,-1.155999503769007175e+00,-9.416527597501436753e-02,4.033439026476152378e+00,-2.564885307242212420e+00,3.249603287661204210e+00
8.570048949483780376e+00,-2.146420674196179323e+00,2.082338948314128579e+00,-4.026113188114165631e+00,-6.827419992539617510e+00,-1.816924871071805558e-01,1.481082549024703932e+00,3.351596450197686927e+00,3.969631865522964542e+00,1.514880986831053322e+00
5.702577265026533837e+00,4.688579844220599924e+00,3.517922674041270570e-01,1.540501088189602852e+00,-1.825208962314438965e+00,8.131708894105312835e-01,-1.254666004335083462e+00,-3.751377586117440543e+00,2.846146060635088570e+00,5.461170850620699291e+00
-6.046046104703378887e+00,1.354745284960966245e+00,-2.038224346272613730e+00,-7.259727323996141291e-01,2.215186266572987783e+00,2.284316573351114599e+00,-6.150284493556483767e-01,-6.575042795418424291e-01,-2.213257376051386061e+00,-1.982450488912059328e+00
-2.712368026383098041e+00,-3.580652594819557777e+00,-1.251958161539479697e+00,-4.303305261725692832e-01,3.587639940639653968e+00,-1.658643281892095755e+00,1.228151156533031196e+00,2.846034885175603435e+00,-3.205791104660648205e+00,-1.828411908671181418e+00
1.747533149575731137e+00,2.648236006354008687e+00,6.416071423378655325e+00,2.036318595041870516e+00,-3.696996918104629604e+00,3.069298719824003818e+00,-1.611232821741523491e+00,-3.084444471845466218e+00,4.891788323864965982e+00,6.703919695227140707e-01
