-2.585401076283434296e+00,4.948216676805083480e+00,-1.819527778275991325e+00,-4.193075917658275920e+00,-3.832376767584900090e+00,8.561323182232349893e-04,6.492665801315084195e+00,-3.672921178807718512e+00,1.109366958253049873e+00,-5.831898898987096791e-01
-9.353953411513360461e-01,2.172469552029139717e+00,-2.513019046732831274e+00,7.265561496762613647e-01,5.884920169064402629e-01,2.284370423519839211e-01,1.791800796266282081e+00,-4.841120476462835720e-01,3.225475137421661476e+00,8.058261823701540205e-01
-3.315883992522202117e+00,2.850124664630938831e+00,2.964100826146860435e-01,-1.464470057660169022e+00,-1.197679468270375525e+00,1.301438251862369055e+00,3.207297870265791051e+00,1.789032439135745500e+00,-3.460576036912348385e-01,1.618801871801665682e+00
-3.604030422305851022e+00,1.713212905548018306e+00,1.555177976932656136e+00,-3.101305841437555499e-01,1.257366094881595453e+00,-1.439185094759405370e-01,-8.637772727106785009e-02,-5.683767651688051981e-01,-2.479656115357189883e+00,-1.750073207281349630e-01
-2.934613964505454753e-01,1.624801245641314118e+00,-5.968743027157111136e+00,-7.460832375742953992e-01,1.511457772955894230e-01,4.356825091076799161e-02,-7.640546789065716382e-01,-3.086138787654125082e+00,1.677028580937885982e+00,-1.178085025243038819e+00
-2.599604937413619865e-01,-8.344416495834297010e+00,-1.033608928275268735e+00,5.727056648058093113e-01,4.474754498811476466e+00,4.067563375217858379e+00,-3.039012437987683724e-01,1.639480712720837730e+00,-3.485320073812398167e+00,-6.881264430038793734e-01
-3.206803273187399661e+00,5.965535778499282404e-01,-6.930585481271868353e+00,-2.487982092136113099e+00,1.816328852431578600e+00,4.114244673919016826e+00,-5.337478792919219117e-01,-5.785787453068989006e-01,1.617703831133111558e+00,-4.066183355134644906e-02
-5.022200946922885656e-01,2.746435471916372162e+00,2.000414685722012198e+00,2.109253344722366919e+00,9.592828406834499888e-02,-2.427900823831329546e+00,1.359897640292842214e+00,-1.451526994046539176e+00,2.426001358739013458e+00,3.312261451951217239e-01
2.057164339492964178e+00,5.077530411242632269e-01,5.135825264859331662e-01,-1.574178228386581280e+00,1.266942460529379977e+00,5.955977047250413658e-01,-3.843792878000250823e+00,1.555159379249867690e+00,-3.984888502494599721e-02,1.481435792356821934e-01
2.298734486981146574e-02,-4.941363187784660660e+00,-1.832134636022867191e+00,-1.675507676500877619e+00,-6.698616820979874653e-01,7.935455457998208395e-01,1.046956006298930042e+00,-1.917848542655929522e+00,-6.359543061249850915e+00,-2.462460811202552335e+00
