-4.892494727395338416e-01,-9.910353415742085836e-01,1.602335280759808467e-01,4.398033663730964715e-01,9.086614422313463169e-02,-5.144831571881811616e-01,-3.617142984211114687e+00,-1.268604287811948339e+00,8.160835393143657246e-01,-4.113785001717475076e+00
7.428775247399279635e-01,-9.464779651744964495e-01,-1.058934573299853188e+00,-1.574255705100139124e+00,-5.602810260578106744e-02,1.578875967870446484e+00,3.404421579508173146e+00,-1.133877644572418297e-01,-2.574119832171245292e+00,-1.102174518009745308e+00
2.791276411778036870e+00,2.766021389909906869e+00,-1.184485921760028093e+00,-2.065932877989349770e+00,2.500836800103802382e+00,-5.910020202925057864e-02,4.577204125888574282e+00,3.871133583842073733e+00,-2.420236853870063598e+00,-1.406146344230576162e+00
-9.488197967720098935e-01,-4.878172581906979888e-01,2.914611716052915469e+00,1.419122570686758289e+00,-3.557052420854640018e-01,-8.686848163727808325e-01,1.171437041517489480e-01,3.982994700419260070e+00,-7.518296207036375911e+00,2.706926455539844678e+00
-6.111072463738157268e+00,3.959284069267332562e+00,-5.275932865967405405e-01,3.315253454247603759e+00,6.239218905406229698e-01,-2.621518758912632308e+00,-8.039770196042846706e+00,-4.816202786103946032e+00,7.828825478658368864e-01,-8.295487084863149008e-01
-1.048506536365163333e+00,7.261519494534057984e+00,-5.918964853367859824e+00,3.780210012054594948e+00,-1.649594089325089108e+00,1.971633051479110499e+00,-2.140206839269779948e+00,-6.891586494502154103e+00,2.436637243522630225e+00,1.245236125417813894e-01
-2.148139189048210884e+00,3.451811578608176667e+00,-7.813105860227650967e-02,7.113433820658803253e-01,1.142228142715432826e+00,-2.817939094094891850e+00,-2.242596988954493664e+00,-1.090169850992994904e+00,4.393631646106923583e+00,2.225577706825182300e+00
1.785926419448896407e+00,-3.319617352442731928e+00,2.693946644279430203e+00,-2.857396578826810529e+00,1.339724042320449726e+00,7.166834693560467651e-01,5.728198081763231642e+00,5.881236531524174360e+00,-4.627137319586559272e+00,2.877135039246807580e+00
3.116968491677316599e+00,-1.548732008145639272e+00,1.647275043494105029e+00,-2.446817586220940921e+00,-1.057892789487516971e+00,-9.582184835739769868e-01,6.139803323410167657e+00,3.914514488444698959e+00,7.676132538081018586e-01,3.409573099267980911e+00
2.874761235262750070e+00,-2.450071433215160521e+00,-2.564271250458037277e-01,1.686651902720136958e-02,-2.060841315372965166e-01,2.469127962944666077e+00,1.868800402324336085e+00,1.567154527489219573e+00,-1.515979333967115039e+00,-5.634972173350162317e-01
