-4.203370605775613722e-01,2.160118740806054927e+00,-3.422450005848159282e+00,4.734315277655916532e+00,4.309521484489451382e+00,-2.367214865166439086e+00,6.069780839845695386e-01,-2.360271360784512940e+00,2.803658557543778240e+00,9.288037204154759863e-01
-2.000809725096078129e+00,-2.489198759409765760e+00,4.546679004558335180e+00,-2.197192891684646376e+00,-4.546097889811939871e-05,-3.472962364481770869e-01,4.034590551211784337e+00,-3.276931223364659029e+00,-4.860866475576413492e+00,3.771176627373222345e+00
-6.582724120731300310e+00,-1.131087053768466688e-01,2.778683757440325586e-02,1.767339839333285756e+00,4.524717470493658245e-01,-4.596726285514312615e-01,-2.165291383432018935e-01,-1.354354582335142443e-01,-6.063521099499215694e+00,7.819991763527197826e+00
-4.604866479249463573e+00,4.777830365663530365e+00,1.495210728373776110e+00,-1.259932180593292594e+00,-1.825011649355618160e-01,1.996611906917871826e+00,-4.877777085475593744e+00,4.859033046508497433e-01,-3.392944247325567764e-01,-2.222700285610700321e-01
4.704616622572518558e+00,-4.723695045976343265e-01,-1.144366579938599360e+00,1.843010383592656565e+00,3.349794990370161596e+00,-1.322108501464542840e+00,5.699237346784189029e+00,-2.761970198825328460e+00,4.635665529707096333e+00,4.784000510945348728e-01
-4.770217851518843588e+00,2.682330694691878126e+00,1.748806242527678245e+00,-2.285037254650918559e+00,3.219772139368377861e-02,1.230022681146274000e+00,-3.626892845038264923e+00,1.556069855563667170e+00,-7.388196932108592740e-01,-4.278165414118474175e+00
7.436699979459582277e-01,-3.777444914478746418e-01,-3.895897484486523066e+00,5.498170353145457767e+00,3.610526681269757621e+00,-1.068923403480388501e+00,3.692304209064564358e+00,-5.101617556686096622e-01,1.203374824415291089e+00,2.771053336030053771e+00
-4.524010380215376159e+00,6.561618297692548563e-01,-3.269897943929127027e-01,1.275637376884320329e+00,-4.406333244987838405e-01,5.201067701169038715e-01,-2.852611542293883584e+00,1.329893955168988340e+00,-3.658137460699971033e+00,2.247904848434665315e+00
1.674896274785765971e-01,-3.862336302920200026e+00,1.542520156850226698e-01,-3.083012637753710372e+00,-2.594054170361281386e+00,-2.203777355551603367e+00,3.005750494979893439e+00,-7.010344551293682391e-01,-4.114211484896492799e+00,-2.115058157935042260e+00
1.593924129332582762e+00,-6.991513052934420491e-01,-1.511323606578024448e+00,1.690964893431104565e+00,2.296476861156292237e+00,-5.589732585088688088e-01,2.604989345228680087e+00,-2.565519162244365159e-01,1.736657965009511306e+00,-6.732649559833502551e+00
