1.950359020237003138e+00,-9.825117527300442077e-02,-4.803779196782161920e-01,1.079042082225587729e+00,1.024666833953785439e+00,-1.175669151701840720e+00,-7.230869870868008586e-01,4.027887873644774963e+00,1.949835567450728835e+00,-2.506951565837479690e-01
-1.606724322694662366e+00,3.078097506636948477e+00,2.129213273808114870e+00,-9.855890500479211891e-01,-2.208083067989299320e+00,1.653791217468466135e+00,6.595648101586526479e-02,-5.759832435136941875e+00,-4.279049654183044282e+00,1.894177283859964867e+00
1.650755480908502326e-01,2.357684665955862346e+00,-2.494342748861505310e+00,1.511465524494586710e+00,6.284945015627299014e+00,-3.835952525126270496e-01,1.503577565480740175e+00,-8.450466046461347913e-01,-5.790926942575053360e+00,2.585413328018978940e-01
5.765696146434413638e-01,4.886276479598796185e-01,9.488939944860697029e-02,5.017882588796150900e-01,-2.817050072125979021e+00,-2.808001955372421143e+00,-8.892501529821410511e-01,4.315873018640207448e+00,4.975529746483503324e+00,-2.283385887374485834e-01
-1.842042971695665665e+00,-4.912055897815591488e-01,1.461414344171101165e+00,3.750772647011533789e-01,-1.865480879747257292e+00,-6.754950991015651329e-01,4.059600732555546099e-01,2.175170005852673949e+00,5.724546940249680027e+00,-2.870553735870116530e+00
4.246101918750794013e+00,-3.661659124885011884e+00,-1.184125286128551391e+00,-2.361923779116363864e+00,4.576970678166602191e+00,2.258978701214036988e+00,-1.965235151934505931e+00,3.387190271427156230e+00,-7.699657452304489169e-01,-1.202219677478149285e+00
5.860431492177199608e+00,3.922943425922179039e-01,-1.097428183992249950e+00,-2.155810416995800338e+00,4.045972403553506069e+00,-1.969788445187650616e+00,-4.503654532428798873e+00,5.470011639978652696e+00,1.034843146594600083e-01,2.981928945957885713e-01
-3.439679570337702330e+00,-2.118329778503630356e-02,3.050817200955334485e+00,-8.267884120780865098e-01,-3.714194923598172160e+00,3.345508871401387196e+00,8.470350449783168312e-01,-9.364741345700148045e+00,-3.416116136743149845e+00,1.467554218153205747e+00
-5.368977847060261155e+00,2.251499427916847651e+00,-1.274365323168169251e-01,2.141967602835901374e+00,-8.695872807801663384e+00,-4.127674599793795807e+00,1.325235106892500347e+00,-1.470323149269284535e+00,4.179642998724163228e+00,2.428110214842999603e+00
-1.495412676691911802e+00,-1.185263341018151506e-01,-3.130874282732588831e+00,-2.144958285942768050e+00,-5.239575776246978123e+00,7.628512774734572122e-02,2.769407839564038021e+00,4.191617494279567424e+00,6.611109714504859181e-01,1.000296335804025105e+00
