-7.763779720542718366e-01,-4.172006713118521226e+00,-1.128487993241624920e+01,1.186043384377517551e+00,6.819797118670251734e+00,5.087676968528288768e+00,8.944705876954639479e-02,5.064517691831916579e+00,-2.293896284139307795e+00,-1.098308540416588430e+00
7.703652081141482144e-02,-4.164056817804984156e+00,1.944714834118616675e+00,-5.606505246870117087e-01,9.054410195893064506e-01,8.946350424973775750e-01,-2.043956337686316793e-01,4.068237431910353585e+00,-4.774763635592851330e+00,6.168397601969102806e-02
-1.087155556819548119e+00,-5.174913570683758124e+00,3.461081344231646817e-01,6.792899034280992510e-01,1.980844559856105747e+00,7.508268027740618855e-01,2.135983873843424696e+00,1.094322458025404288e+00,-2.738471174372448580e+00,-2.421978175705862935e+00
-4.436644250870247497e-02,8.382792483783846338e-01,-2.194243067906936684e+00,2.876351069051330533e+00,-3.385414202612613721e+00,8.543437946386844839e-01,4.331581147892732631e+00,-5.905307248811086929e+00,2.501730868049112377e+00,2.729975788243279133e+00
1.769976781759114992e-01,-8.561920793241661443e+00,3.320764182156464628e+00,2.389144428779837348e+00,-1.510557606956553833e+00,-1.404988034307688816e+00,3.317428257704267303e+00,2.748015341219918195e-01,-2.125638706818876678e+00,6.444689901974950397e-01
1.478102850580288674e+00,-4.860379846978397644e+00,-2.292652257291627915e+00,-1.376245086464663592e+00,2.287267693445289574e-01,2.091424785348225512e+00,8.153250822917315066e-01,8.960486252065164026e-03,-1.910022132076915291e+00,-1.066190233091546258e+00
-1.312181086697514765e+00,-5.352278025792720939e+00,-1.622444443442035311e+00,1.962290308828233965e+00,8.098502905739694002e-01,4.965397487595851089e+00,2.555611865938165472e+00,5.928244168264173553e+00,2.773738160474877645e+00,3.242896866459864302e+00
8.374880476078858660e-01,5.174087462102844981e+00,4.117152171419043993e-01,-1.929938081841665320e-01,-2.317560511516740807e+00,-4.636788413911877349e+00,-4.933137501868067876e-01,-3.201792351398933700e+00,2.541741754799597963e-02,2.199244051534490652e+00
2.266426986140107402e+00,-5.977883172580527926e+00,3.147879246260470332e+00,1.229969590248793931e-01,-2.181862023813712526e+00,1.063674960809228853e+00,-1.754573018039136345e+00,1.243953754139336620e+00,1.952491707927647813e+00,4.451560597215186710e-01
-2.724933700688219052e+00,2.065093688917952197e-01,7.294335396699620944e+00,-2.256029360356853530e+00,1.600214145010759870e+00,2.040948996493336942e+00,-9.360732192442277055e-01,4.854037686264593532e+00,3.637709165108340859e+00,-3.363635436413721536e+00
