5.301933894374019074e-01,1.550218905325357666e+00,-1.201471496419484808e+00,4.639513309019203113e+00,1.498993225278218100e+00,-7.317575535865296077e-01,5.369369998199609029e-01,-1.793043428262505179e+00,-1.704236390351042463e+00,-1.742001338437492997e-01
2.328395425064064828e-01,4.084830292063929003e-01,-2.131210184812920350e+00,-2.433462270352658940e+00,-9.954003701955694838e-01,-3.688962551143010193e-01,9.271963094825307339e-01,2.161919380837323157e+00,1.245247205554779413e+00,-4.573399669521334143e-01
-7.200102586701581098e-01,-3.030645004106077497e-02,2.184429518749027466e+00,-2.414236621949502837e+00,-1.432717121039432717e+00,-5.575936603472598785e-01,1.486002497979202364e+00,1.047881640821326066e+00,1.151095547986319190e+00,8.083232011443842735e-01
5.149547263939215469e+00,7.934911883534406796e-01,-9.373982755370546371e+00,4.323927650855595495e+00,-1.502681738992325544e-01,8.953001210946678334e-01,-3.114866995926295790e+00,5.970920860882428904e+00,-3.749365511543443663e+00,-1.750434226837168650e+00
-6.230375379620721743e-01,-2.927372957603370462e+00,1.836054639197029381e+00,7.356473100190651371e-01,-2.591384740906765405e+00,-1.291267941660313001e+00,-6.958897979714226967e-01,-1.158241727755731976e+00,5.123555732086709086e-02,1.450380517865470953e+00
2.064091353955219255e+00,1.321690180267853343e+00,1.168775977232985097e+00,5.802289985900290770e-01,8.405067120779223799e-01,-3.662689137085674007e-01,-2.397083268856405047e-02,-4.326875854299715662e+00,-8.806767462523318324e-01,-7.986773807328502173e-01
-2.231851669956974593e+00,3.092704810216691413e+00,3.630296637091751766e+00,-1.221547579458903909e+00,3.460622997863007644e+00,-2.856704471124401623e-01,8.387627304410080198e-01,-5.623655459876595319e-01,3.126740637384414212e-01,-2.169713003066850443e-01
4.902847554383123807e+00,-2.987986280069922507e-01,-3.568083957614787582e+00,1.446567217563403229e+00,-4.900146790365452754e-01,2.681642345434698260e+00,-1.350356107190711363e-01,-2.440494561148602415e+00,-9.273943495202403575e-01,-2.880147579303829364e+00
-2.497714613796746086e+00,2.271959861006844772e+00,-2.504463455292607610e-01,2.597245605099726351e+00,1.674534201022790825e+00,-4.302842712521973922e+00,-1.431278520247755814e+00,2.755751151216641048e+00,-1.889071646032029594e+00,2.245868468698910547e+00
2.239228768694363492e+00,6.083148476252694392e-01,4.785363107542848216e-01,2.243253123502070068e+00,1.460807059254228601e+00,2.974851141738434457e+00,-2.838553488297743677e-01,2.079142943853402148e+00,-1.428108936978274679e+00,-3.673284322435465210e+00
