2.893705814745878069e+00,-9.181450065618168566e-01,3.073360258515833277e+00,-2.739832725515578105e+00,-3.674631923318890103e-01,3.898324596076200077e+00,2.178393626487198809e+00,-4.023833301859353062e-01,1.751488160031703822e+00,9.776517493049832197e+00
-1.861914101084921613e-01,3.396801800005831318e+00,4.665552348238833247e+00,1.135877859176924298e+00,5.051534611714163070e+00,3.693958927248611523e+00,-2.690211496235465294e+00,3.095661988681278398e+00,-1.366005172024633119e+00,2.404741943276046401e-01
4.478249956200285986e+00,-3.043280461005435367e+00,-1.520493661895977011e+00,-1.972870374403540961e+00,3.278199138672834856e+00,3.702059431877371853e+00,1.123379607584050088e+00,5.266256149273734088e+00,2.324672665631200008e+00,6.448713279633472517e+00
1.381809034008451009e+00,-1.292766311755205066e+00,3.368158503042127272e+00,3.441131908039334886e-01,-2.685992289633228225e+00,1.326850721366328756e+00,2.826317463624361981e+00,-2.533761525397380865e+00,9.229151185072101971e-01,-2.829023251455466959e+00
-7.810722581155943312e-01,-2.339010773595199488e+00,-5.568704052220380118e-02,3.447159367639677896e+00,-5.117903245164970194e+00,-4.504504047496522112e+00,2.579764453765215348e-02,-5.697239297513670309e+00,7.768004848197661572e-01,-1.227480720650266699e+00
4.453730552775453932e-01,-1.440142591994101329e+00,-9.228784234055523727e-01,1.151417243813357638e+00,5.476333979614643743e-01,-1.721292362354342187e-01,-9.397571361882004481e-01,6.503801605923638096e-01,3.197352726470056861e-01,1.223987544685023687e+00
7.698801076330524795e-01,-9.607329187290818417e-01,5.294575004284888031e+00,2.641823021190969456e+00,-3.127571676373759324e-01,1.488081994265840535e+00,-1.454029266475752591e-01,-1.100599571691555534e+00,1.199855729358271450e+00,3.009030457826673555e-01
-6.872049886702051857e-01,7.434286604082995797e-01,8.344388286515992403e-01,2.893220883708468527e+00,1.701797868362146637e+00,-1.672650621613991140e+00,-4.165916556426413564e+00,8.078577346841528950e-01,5.584435319603673342e+00,1.138740572913071514e+00
1.131633018496560394e+00,8.425254713459975342e-01,-4.214497768986150916e+00,-4.490543546949489873e+00,1.774511773062729558e+00,1.495292107100625101e+00,6.225948695328200611e-01,2.379272970152778832e+00,-9.712045253078549489e-01,6.630971060915310744e+00
-1.469003083968877688e+00,2.085266797718515530e+00,3.556998765989486611e+00,1.258650576977133229e+00,-4.514315942182885344e+00,-2.078707784913900181e+00,1.634610152378925818e+00,-6.575786723739789785e+00,-3.392020952751074514e+00,-3.551491096286867322e+00
