1.125070577526060989e+00,-2.504328517866635906e+00,4.566167759806722515e+00,2.358269885187542769e+00,-2.138316757062553641e+00,2.559473146250233366e+00,3.200224415152468360e+00,2.476280872813010347e+00,1.987400266064292209e+00,-1.089572147929594337e+00
-7.343700935083439241e-01,2.312371931538543368e+00,1.087653439719806103e+00,-5.856249849415708475e+00,2.760535529689605916e+00,-4.467319734006057530e+00,9.097523851095721259e-01,3.238607663028146177e+00,-3.212646905375773798e+00,6.581719692161881463e-01
8.684496437564306337e-01,2.474533576263323598e-01,-1.561574674871933244e+00,3.557391968829577422e+00,2.217232475170183292e+00,7.464615123361509896e-01,1.616886735099619665e+00,-4.394548720735580005e+00,1.158917744177163200e+00,6.289928529457049500e-01
-1.379372885596560128e+00,-2.826081613386630664e+00,-2.389135781712499185e+00,2.960809047167947128e+00,-2.470057942859051003e+00,2.339843941262397919e+00,-3.063280535340195510e+00,1.457043931058941588e+00,1.958879195891155778e+00,-6.816280538926172694e-01
-1.949003532761576230e+00,-3.131010134547484114e+00,1.521181721581310597e-02,-9.324321848160176174e+00,4.908371953854647529e+00,-5.727700373026453740e+00,5.536503519618334312e-01,1.123851299046386742e+01,-2.818384451322957673e+00,-3.640591512488243753e-01
-2.872717066542256337e-01,6.810933793549145410e-01,-9.790130351569944489e-01,3.201142319955425641e+00,-1.185163075941284561e+00,8.004100685341133392e-01,-1.454960960659341218e+00,-7.619631584052561912e-01,4.244582158798131943e-01,5.682717690781702302e-02
1.366479270387182421e+00,2.523187230055683017e+00,4.315188290772383084e+00,2.765760531535438105e+00,-3.730451421495565079e+00,2.775388641026016234e+00,3.863081886088341577e+00,-8.218135816055704979e-02,7.181266928050941134e-01,-1.443398210011739069e+00
-2.257299801196880118e+00,3.933000567362680666e+00,1.055044765512187288e+00,-3.695019763176877081e+00,1.114021159465699462e+00,2.351207568176311824e+00,8.506397167407475646e-01,-1.503095530672781122e-01,-2.133831764994444380e-01,1.242590073316411470e+00
-4.652310858763972212e-02,-2.745294759695569020e+00,-1.770134095088649051e+00,2.524657744716825469e+00,-2.039771866764415353e+00,-2.901038457655622071e+00,-2.601030770479578536e+00,1.243790673221780052e+00,-3.598820554673893279e-01,-6.692328221096482954e-01
2.285949426340391000e+00,9.413364524604540540e-01,5.393699589933564909e-02,-2.287825582333038010e+00,2.052862175789821997e+00,1.430447621726189000e+00,4.054447695680597263e+00,-4.056745263371512422e+00,3.909809472706061717e-01,-6.076633733273402171e-01
