3.983917710542463908e-01,4.197247171086088136e-01,-1.228734905810160871e+00,9.854454872201413584e-01,-1.985451286078664168e+00,1.193908132912761433e+00,-2.648154603318749745e-01,1.300702808484643924e+00,1.350497188799896664e+00,5.399541185474834748e+00
1.060558065191238741e+00,3.047011732392864714e-01,3.017352403246560844e+00,1.910778307017549360e-01,-2.078489406300875864e+00,-8.641691848119226194e-02,-6.706229872338534959e-01,-1.436137860088712859e-01,3.096917366623001655e+00,5.458997779278399243e+00
1.376468477311667549e+00,-2.634410250549882537e+00,3.818787656110963269e+00,-3.445960802763273101e+00,2.621176258945316917e-01,-7.345818612177716922e-01,-4.704216241585597036e-01,-3.118960212197740223e+00,2.282665709065756499e+00,8.709494443837968447e-01
-2.505587468274292462e+00,-2.567853421637501743e+00,-1.303569704598880108e+00,6.720248395740527902e-01,-1.448355478363869908e+00,-3.172538381493954063e+00,5.359019684633450353e+00,4.309464430958278580e-01,2.595449796905849649e+00,4.834566414608840290e+00
-1.218209988239480346e-01,-1.385041076491646095e+00,4.347460376578730745e+00,-1.824218495533605156e+00,-1.686914148528001256e+00,5.062353202425399212e-01,2.758064406837468230e-01,-3.767330878007084660e+00,2.093327864715201603e+00,1.069505185722348761e+00
-4.287928726246929556e-01,1.032741550465027469e+00,-3.494823990546967352e+00,2.103958741864531135e+00,-1.320534018785520569e+00,1.047504559256973167e+00,1.282433779669443386e+00,2.057910050443308769e+00,-1.615038812414675284e+00,6.541302221140995465e-01
-2.329813640171439104e+00,8.820533004496071694e-01,2.123061489107407773e+00,2.236817411435575664e+00,-1.624851283837110971e+00,-5.402277986497445283e+00,-1.037181098003467694e+00,-1.613754225295684908e-01,-2.460071820660833630e+00,3.759972286923380924e+00
2.323163060969418492e+00,3.638224599590098585e+00,7.391426144106220342e+00,3.073006906335107313e-03,-3.142816389897801876e+00,2.413410939935399124e+00,-4.638102604128674145e+00,-2.084066630213419646e+00,2.346792143580114676e+00,2.800124486055802109e+00
-3.943285703465213565e-01,8.571478878146799874e-01,-2.810754012538326574e+00,8.998885250637104205e-01,-1.453179232982410696e+00,1.443117090568839300e+00,-8.901859744342681680e-01,8.401358780744611066e-01,-1.595966852909794786e+00,2.349963727131381575e+00
1.876066817169781409e+00,2.012779950499516524e+00,4.972523267405962955e+00,-5.689905255123101080e-01,-1.726817441922281038e+00,5.329773077040438345e+00,-3.827163405577546307e+00,-2.710933455739925613e+00,2.032738902483827381e+00,-2.851402206343746637e-01
