3.024805683720167560e-01,1.322746640408426932e+00,1.301943777329085172e+00,1.358670488247554653e+00,-3.553389626944022606e+00,-3.672422931678687719e-01,1.552152746627267099e+00,5.380615990653916825e+00,1.987609795057870832e+00,-1.860945517851389841e+00
-2.709698761363681374e+00,7.214084249056156750e+00,4.110236658989047775e+00,-5.513289989976836836e+00,-3.293266240764895159e+00,1.929116257066349593e+00,-1.579254244059397738e+00,2.589043987189192819e+00,2.424391859919709791e-01,2.038182401653838571e+00
-1.985920449858471493e+00,-3.694672314247066769e+00,2.874346514812767595e+00,-1.827817206263869343e+00,5.662439682906295069e-02,-9.471621243212874353e-01,-1.300114081696749913e-01,-1.294370941124552088e+00,-8.841820601185144124e-01,-1.630880021478640973e+00
3.523791756882715731e+00,-2.196436530630203610e+00,-1.468425618220341011e+00,1.164643654422327756e+00,1.470338696536892531e+00,8.757583785770522988e-01,4.255494386676843099e+00,-3.960905938910713964e+00,3.752411197895110462e+00,1.890899357001871062e+00
-1.706985324029183237e+00,6.350766533854225848e+00,-4.334992282654432927e-01,-8.300214884961368833e-01,3.124866014299242600e+00,1.576102721505686421e+00,1.575677093086327751e+00,1.611147844953561670e+00,5.269958101144837315e+00,1.906780451594058068e+00
-2.371557561136989900e+00,-5.843052703618984989e-01,1.149527122411132973e+00,-6.844478189550369518e-02,-2.182839360050102262e-01,1.598654039695730722e+00,-4.810535202749756323e+00,-5.874553358493910249e-01,-2.832580241901239138e+00,3.151802142555216957e+00
1.532193463012335277e+00,-2.337358226630857239e+00,-1.043260774604693575e+00,-4.337387323862775368e+00,-2.595814928763176432e+00,6.479644077570870797e-01,2.962403073310144741e+00,-5.261605721676030356e+00,-2.710709831194120789e-01,-1.851023156394033808e+00
-9.162091081887779875e-02,-3.933161669269095828e+00,-2.476948208622585579e+00,2.154740373586605251e-01,1.939103376052609518e+00,-1.329222879196461093e+00,5.992279091328588159e+00,-6.641794220069169974e+00,5.563395401965667730e+00,2.979826822767512873e-01
3.053912029303107012e+00,3.486172450394094291e+00,-8.378999842191092728e-02,-2.057435467475683122e-01,-1.222000177869716264e+00,7.687702663122345514e-01,2.531158804750674118e+00,1.007280567211939759e-01,2.307713192364294397e+00,2.323065326336512193e+00
4.019101641162028948e-01,1.019747013884197528e+01,2.402276950272430156e+00,-2.265409682889210963e+00,-4.141592253688747505e+00,1.957832832843865889e+00,1.080073933291881616e+00,5.177428951121464173e+00,3.504906232639823926e+00,3.501122897758226493e+00
