1.659157065929804664e-01,1.311098276727616696e+00,4.153334422624947453e-01,-7.410243154615043792e-01,5.328021078325345661e-01,9.538549799457026745e-01,-1.675047309218904878e+00,-1.535443382724311467e+00,2.011015399635043277e+00,4.676270969104885822e+00
-3.596246416108039856e-01,-3.751082935102373339e-02,-6.204896198417766406e-01,-2.175988540005730776e-01,-2.151045256833995722e+00,-1.247553492379344098e+00,3.495994299862221766e+00,1.136010514396354143e+00,-3.175212997448650931e+00,-4.120546007794752441e+00
4.175915129510258672e-01,-2.147510347441090595e+00,1.144384587952078425e+00,-2.634352377073035711e+00,-2.153406439519384818e+00,-5.620103024292607330e+00,-2.363366666658993087e-01,1.748466207516573834e-01,1.168079801890077762e+00,5.363124773141328960e-01
-1.331052140409960893e+00,2.872609792706663501e-01,-3.746546151849631912e+00,-2.115045295402898873e+00,1.356351927195849960e+00,-2.104720445712062737e+00,4.593305630037627235e-02,1.803472552047247879e+00,3.465701031155827838e+00,-3.135766362763743875e-01
9.985809159377609934e-01,2.181492661883772666e+00,5.838059434930314984e-01,-8.900825145413923112e-01,-2.392059116207990166e-01,-7.866344135612015620e-01,-2.461236587750984528e-01,-1.457483275697109670e+00,-8.632023553511600777e-01,5.212054917374966401e-01
9.331564227736993677e-01,9.940420803369104386e-01,2.440061256339110418e+00,-3.693948273904044122e+00,-2.273766151006082925e+00,-3.264458230828042318e+00,3.427307553287492148e+00,-2.887724101306284652e+00,-4.453250071402420573e+00,-1.921461838405332356e+00
-2.165810735317961200e+00,-3.400919236517070399e+00,3.506047900826709807e+00,1.758044548552597286e+00,1.056782228556604641e+00,3.134779566276898244e+00,-6.504793444385004175e-01,-2.428624933057804025e+00,-1.637081444989387569e+00,2.145295129606545448e+00
-2.679341890780535973e+00,-4.860078904910759834e-02,4.738752488440715546e-03,-1.752694130669056882e+00,-1.008936691885813808e+00,-4.770420782462021059e+00,2.106913118122391848e-01,-1.708412038536220257e+00,-1.733786349119189163e+00,-2.845459417440430183e-01
2.614220714660533851e+00,-2.998927918042002538e+00,3.668022802113225289e+00,1.308595031184383028e+00,1.346743434458382571e-01,4.755365954355090352e+00,-1.549679807863734604e+00,-1.586014503709926249e+00,8.530810126139309890e-02,3.804951169738404637e+00
2.484887150459961891e+00,-1.805941421304691819e+00,-1.790738966774312546e+00,-4.520701631080513927e+00,1.321259233229347352e+00,-1.554435037794153818e+00,-9.031397724336325331e-03,1.282303842672263272e+00,4.875649125811913898e+00,9.303117333093829933e-01
