-2.945931391210604988e-01,1.525346047163506302e+00,3.352157030970105644e+00,-2.839259555263689450e+00,2.730044639265817863e-01,1.521606051043589425e-01,1.716543405527245048e+00,-9.248287329399513812e-01,1.682129943032702801e+00,3.050680642535497089e+00
-2.274606018160308718e+00,-4.830677543428751441e+00,-8.222700104009690314e-01,-2.824899146633899072e-01,-4.308371934432378758e+00,1.247252564491011739e+00,4.503967911874492636e+00,-6.394129715138795467e-01,-1.960986112668029691e+00,-7.485980131515335145e+00
-2.430615454331960801e-01,-1.201326045120934272e-01,-1.982315051932140637e+00,-2.415304851374441508e+00,-1.101290429117429248e+00,-3.245823137350374310e-01,1.246264446199902176e+00,4.936111994200767406e+00,7.313314995562568477e+00,-4.435610436423553793e-01
4.215070046606829379e+00,1.317584662484951874e+00,-3.032535247087419172e+00,5.455879754381567359e-01,-1.220476844455520959e+00,-3.690306424793972973e+00,-1.882342091273366269e-01,4.789534585846493719e+00,3.356981171635755601e+00,1.250949066354562156e+00
-1.485602867179022457e+00,1.821788981966627086e+00,6.985609360016336922e+00,-1.544962211192037138e+00,-2.083278788937140469e+00,-5.376463089482939051e-01,-1.242462620856785049e+00,-1.781637559649483116e+00,6.657342880866181645e-01,3.148218765469270153e+00
-7.969984069293301054e-01,1.305722205598317309e+00,4.811133582215763482e+00,6.917486603136959733e-01,-1.509565610291805360e+00,1.914997138777716934e+00,-3.463042981794813180e+00,2.891866219172621655e+00,1.989291624931011970e+00,1.549868391192001704e+00
-3.763813277875466268e-01,2.859800513475528216e+00,5.443228760381343179e+00,-1.887492658254090516e+00,-2.513736472718637760e+00,-5.474279083324162798e+00,-4.347321292539058746e+00,-3.268210432361471351e+00,2.690659301056747665e+00,5.911336150388848409e+00
-1.184908181586705300e+00,-8.174301957651298745e-01,-3.640379987640631754e+00,5.470358586799363820e+00,1.073318088240530876e+00,2.535160295563112953e+00,-5.019908849105476634e+00,1.777594811630909266e+00,-1.788914832350251283e+00,-3.838025998338063793e+00
8.680912700802768667e-01,1.819638588883824015e+00,1.623276114501792655e+00,4.343551837858879439e-01,1.448796352296230494e-01,4.198183691719769017e-01,2.277845886460396763e+00,-8.202530587723334321e+00,-4.547541320393795772e+00,1.500914123571433834e+00
1.579730263598375428e+00,1.118136216337634936e+00,3.433227915284321252e+00,8.473681049822869848e-01,2.674692365426581397e-02,-2.449061391785618103e+00,-2.397467442060518206e+00,-2.050316127416800693e+00,-4.042907090105639867e+00,3.264021771447255027e+00
