4.417797860211631011e+00,-2.138079308875145301e+00,4.223346311458055169e+00,8.243781108045795669e-01,-2.365073864654004154e+00,1.585717195386628253e+00,-2.458278006083133960e+00,-2.968616752277354998e+00,-2.360062477543665604e+00,-3.585664130802411975e+00
2.533373557627715655e+00,-1.604550768707702080e+00,1.420416316310384452e-01,-2.162088377445016363e+00,1.570713793823216742e+00,4.674306596994716401e+00,1.085506989612600837e+00,-2.883776912501977652e+00,-2.264244687850946569e+00,-3.816219149549659462e-01
2.033463331482911141e+00,2.291611000216678740e+00,1.089148632964387575e+00,4.024328793449751807e+00,3.446133149935837192e+00,2.611905681891082409e+00,-5.966471250382071601e-02,-2.643309872734817212e+00,-2.342016847171316751e+00,2.808148041166843800e+00
9.314494134016716442e-01,1.067344947571229330e+00,7.198816504555100693e+00,4.585546904229815368e+00,-2.124050076770644502e+00,-9.692834755045521833e-01,1.238491996155345998e+00,3.177967205800911632e+00,-1.695479915270197424e-01,1.299774313213890586e-01
-7.921702739150560113e-01,-3.191040918247334268e-01,-9.553160705203524117e+00,-1.426134616529588950e+00,1.889699220564977633e+00,-2.866581169139686303e+00,-3.104364383414718986e+00,-4.643222123722758887e+00,3.596840845025182976e+00,1.476820048403101104e+00
1.828592580270151924e+00,3.244562303780015311e-01,2.656592350061526275e+00,1.174425194334192568e+00,-3.874254676892625038e-01,-1.411828875992147792e+00,-2.938977412998340810e+00,-5.084704101315249414e-01,3.025487209424955193e-01,4.377629240460426119e-01
1.474454877430625643e+00,-1.360106947366520047e-01,-1.726059932327956847e+00,-1.668873921142060901e+00,-1.878533812163919015e+00,1.161529165916733497e+00,7.877436931620021010e-01,-1.930904566273326406e+00,-5.690254738938458345e-01,-4.899420785677576773e-01
4.761938013733956865e+00,-1.506259557781590708e+00,8.405085176798563040e+00,4.875630121526450811e-01,-4.835570453883932807e+00,-1.673437694732208492e+00,-2.203831407912703266e+00,-1.622058052354999669e+00,-3.550984314800913921e+00,-3.022318662003221856e+00
-7.713542240029832575e-01,-6.855161819389091749e-01,4.385238465532842467e-01,2.645371092878687769e+00,4.365915279765297113e-02,-7.185207668396750513e+00,-3.056455075292717094e+00,-8.315052046489488369e-01,2.523925699158895419e+00,7.795326975105811851e-01
-7.664802835474557874e-01,-3.624371528745320425e+00,2.846956603217148718e+00,3.753674685130405086e-02,2.699250626682649035e+00,6.861275477274026979e-01,5.291144601754391719e-01,2.593103859954886126e+00,3.386294592501172485e+00,-4.373727913764514641e-01
