-5.589031467319347524e-01,4.515783253541752806e+00,-3.860146303606656115e+00,-2.748950780493294443e-01,2.882413700979687299e+00,-2.088538407079129744e+00,-8.825535901458164689e-01,-1.068365260581511711e+00,2.242588782571354855e+00,1.847603572711347342e+00
-1.270630932984337713e+00,3.987543545265193945e+00,1.311380827903296797e+00,-3.097276909003957357e+00,2.053217681870222133e+00,-8.429568601672015049e-01,-7.166345077750313486e-01,1.891453895136767205e+00,2.429813956941518249e+00,1.038918512492614354e+00
2.355037496106837658e+00,8.728762787353498975e-01,3.106681815405186065e+00,-7.352209162523517527e-01,1.683745270747503353e+00,4.157472091606329023e+00,-9.992674061490319781e-01,-2.567281389807295255e+00,-1.958379573541977559e+00,-8.856440171630813873e-01
-2.136626230787944003e+00,2.153510577817449700e+00,-5.295059226306042532e+00,1.793699706070709610e+00,2.536374643228257675e+00,-5.176430866731632996e+00,4.014298917906116593e+00,3.321564033036151997e+00,7.264619328096543205e-01,1.870194104637370902e+00
2.120513699838037225e-01,-1.224996451135595299e+00,3.192024832435091053e+00,-2.207147346189968218e+00,-1.255279665090532681e+00,9.124063732075277100e-02,-2.517187639482717731e+00,-8.443685792177293425e-01,-1.128203504143797886e+00,-1.191274054378891778e+00
-2.173923175287641563e+00,-2.159472777718228098e+00,6.233805401023040815e+00,-2.790333393103369003e-02,1.141528344373021531e+00,-2.046832287649617554e-01,1.589830320842176681e+00,-1.208050563256619414e+00,-2.739421866291044783e+00,-1.300564772496566546e+00
-1.353432667966699032e+00,5.118504927623112266e+00,-2.897556655989062424e+00,-4.431250013469622551e-01,3.688085266336598611e+00,5.621286751262729808e+00,-1.454010869159887642e+00,-6.339622916868974833e+00,3.906241539463501944e+00,5.338814624157066646e+00
-1.053530496546594808e+00,1.669803945451842520e+00,3.409420485588139371e+00,-1.408012413461811052e+00,1.725778670323488750e+00,-1.693377697885923849e-01,-1.408644137026813237e+00,-1.565326087946518729e+00,9.379984813449195880e-01,-6.300386292627975227e-01
4.479326834172149496e+00,1.450541720302715110e+00,-5.953970001312980820e+00,4.807273333142163985e+00,-8.798673396199809815e-01,3.779641143897258360e+00,2.442133379868678844e+00,2.049058590225686094e-01,-1.088888926140783475e+00,1.418438693200199774e+00
-3.289905602325811085e+00,3.748446537185142535e+00,1.029412497485600486e+00,-1.978214192813235073e+00,5.255576228956702067e+00,4.688917481089954542e+00,1.755186774709198261e+00,-8.653586699331718979e-01,6.064999733947666449e+00,2.870696334587977905e+00
