-5.140951100904172399e+00,-3.932339842950167252e+00,3.073212710178172991e+00,1.140972204536565560e+00,-2.278011161968885201e+00,7.855949747704238373e-01,-5.004381704048531887e+00,7.415965792197914297e+00,-1.303819015448630658e+00,-5.143048208060564397e-01
5.574094236327984397e+00,2.130406112062144697e+00,-3.115559991145725238e+00,-2.818034202744380767e+00,2.831676743925409134e+00,-1.225421669072941366e+00,4.916858621115148154e+00,-8.228664672775458655e+00,1.927830477080669347e+00,-4.796756957308442870e-01
-6.609342572218175782e+00,-1.558363136550660943e+00,4.634574052199709193e+00,-4.046655536391231323e+00,-6.162382980428447787e+00,-4.234046034952515747e+00,-4.677899636095657954e+00,3.257855170598000782e+00,-6.473800792892619782e+00,-1.933657604293518739e+00
-2.080253688440791837e+00,-1.816370655337127493e+00,1.305406868562779543e-01,-1.195453121512514816e+00,-1.712913587326530429e+00,-7.354588638458263716e-01,-1.644747571756323801e+00,1.208716264797716100e+00,5.514574102330027650e-01,-9.186147826088583157e-01
6.584380581925750597e-01,1.412890918733703982e+00,-1.929884341976921824e+00,-2.642968369704600473e+00,3.470694224670700656e-01,7.128910229436008494e-01,3.300133706473345363e+00,-1.121198599740830248e+00,4.108348532801493036e+00,9.611226080326132903e-01
-5.702814748022253077e+00,1.850882654617818535e+00,2.153708399454638212e+00,-2.027349805687380657e-01,-1.803682714926071240e+00,-5.782515824546899941e-01,-1.695886386145267544e+00,-2.787308077095673742e-01,1.998196477714073271e+00,-1.189330473477093530e+00
2.800114580028703948e+00,-3.337440173073760619e+00,-3.973072774727649525e-01,3.520859171908720775e+00,3.829364465504736970e+00,-1.780312779084035846e+00,-1.173776256216725766e+00,-5.252626762615482114e+00,-3.986945153345867077e+00,-3.198069168389055417e+00
-3.040409381501953057e+00,-5.320291995323754186e+00,6.223391789025056742e-02,-3.326398267351898808e-02,1.138552132548321216e+00,1.486186922492368279e+00,-1.590994773406013252e+00,2.371035576700571301e+00,2.485425234206294576e+00,-2.033548840028887916e+00
-2.314281525120467364e+00,-3.920850933666753857e+00,1.911623666143954736e+00,-2.259587511986219877e+00,8.609515865809711510e-01,1.225980265486632304e+00,-6.610666207882927026e-01,3.082029330077045159e+00,2.935188236197694422e-01,-1.071700302976404284e+00
3.048969604463851013e+00,-4.784971326564058991e+00,-1.729580483465364971e+00,3.224684189220839325e+00,3.752054016287856175e+00,1.506464514549378020e+00,-7.624685478830252050e-01,5.977813721305047512e-01,9.321001307924334789e-01,-8.225669598849675301e-01
