-2.425950953344973016e+00,-1.270288863329036344e+00,2.480223769250208488e+00,4.888572511678864529e+00,-6.301732698999866322e+00,7.015692817066194742e-01,1.867229860069465230e+00,-2.011103862773473416e+00,6.063604059055982987e+00,-7.860278504721129877e-01
1.160808177314759826e+00,1.348732663874820270e+00,-2.415862516006263672e+00,2.223840865201337724e+00,-2.285715819299050100e+00,-1.477204536149383296e+00,-1.736254963043427413e+00,-2.962889473184134204e+00,-7.189720511883910259e-01,3.015880986893686000e+00
1.492062538947954486e+00,-3.782430399214686823e+00,1.779187781196698515e+00,-1.710081703790273799e+00,1.119743099452894963e+00,-9.476826088488903288e-01,7.429292083699734484e-01,5.906585759809479974e+00,3.848704985337874085e+00,-1.850742574994277412e-01
-4.214821034068883421e+00,8.168404487601983455e-01,-1.268899358325098925e+00,3.661415591896632016e+00,-1.377813576654078664e+00,-8.826214078318164180e-01,-1.108111758487065446e+00,-7.801820014091302991e-01,1.867788779290890266e+00,7.628675136112618160e-01
-4.783335235829380694e-01,-3.991419581801170513e-01,9.037839369394324862e-01,1.820868974506994142e+00,1.533403504742975321e-01,-1.496084449240991709e+00,1.069829697160507465e+00,-1.303139839853207915e+00,1.234195765638510744e+00,4.192436054507528986e-01
3.308349860351678662e-01,1.248724441394553741e+00,3.935249527687872950e-02,-3.393478610439071841e-01,1.809206025609344792e-01,3.553965150098433057e+00,-2.008493320892401901e-01,1.187379298583896903e+00,-1.686473233346962752e+00,-8.893312143146775428e-01
5.730563043492936659e-01,3.815771129087488944e+00,-9.554479640969661958e-01,-2.652293652509831290e+00,3.239527545520064500e+00,3.728618437126077989e+00,-3.119432514317956873e+00,1.352916091450072633e+00,-4.185589139319083607e+00,-1.019178375231370781e+00
-2.156765111991642836e-01,-2.395047845094798955e+00,-1.414200714722093410e+00,6.226754837206838644e+00,-3.512332348701167284e+00,-6.958598797379479395e-01,-1.044792404542198572e+00,8.621690092514463499e-01,4.533629531815938307e+00,1.823503365247459707e+00
-2.344751447945610412e+00,1.832916705163738058e+00,-4.090244251566489631e+00,2.067998650560938234e+00,2.520349922370092033e-01,-3.310614884935124680e-01,-2.349147846786195704e+00,-2.592202811172576449e-01,-2.427667505296873696e+00,2.255060380097014150e+00
1.861042636822316521e+00,1.991765263285760978e+00,2.582156003989829474e-01,-2.347578867674774639e+00,1.884858316294359515e+00,1.647665542224698854e+00,-5.884536724500232657e-02,-2.458069263294045292e+00,-4.030016862963311297e+00,-1.473001211379436404e+00
