7.612357276750350010e-01,2.406442498181104561e+00,-8.425251392215531432e-01,-2.874794837336926090e+00,3.459352494098233421e-01,-3.200850742360418000e+00,-2.883472604512969273e+00,-1.651449198083712044e+00,-2.020038712512613355e+00,-1.385277633582418400e+00
-6.299255823933123111e+00,-2.458820157522790595e+00,1.336888594393211394e+00,-1.869436629070560796e-01,2.638457435590368938e+00,-1.847962503004692447e+00,4.552011244951869706e+00,1.175703788426205376e+00,2.089430793616558368e+00,-2.018074989417526943e+00
-2.262575351481866281e+00,5.766021195951401168e+00,7.638875163062858187e-01,-1.091290283288020913e+00,2.983586002174171803e+00,-1.282300944974989587e+00,-8.775378797442086043e-01,-2.034097446487640237e+00,-1.821678896331107689e+00,9.082590457073510537e-01
-8.569024159852545175e-01,3.052551962604225899e+00,1.156171762932510116e+00,-6.007564064128160242e-01,1.281441660311949615e+00,-5.383670608616893949e-01,2.352669406840897093e+00,4.308687749800756972e-01,1.764331321758864313e+00,-3.879257982377121161e-01
-7.221662024306459149e-02,3.267915302010696355e+00,-8.862403849458445615e-01,-3.933151682423265960e-01,6.093871699596045133e-01,1.027593013728407056e+00,7.453976498351984059e-01,2.862992548334698295e+00,-2.040496074157407858e+00,-6.633853729817157374e-01
-3.471202953597772312e-01,1.051583865156140440e-01,-2.064780223276363458e+00,-1.641025871191923002e+00,-2.446413843533240318e+00,-2.150836697453329727e+00,-2.483712128007689479e+00,-6.267970375402518411e-03,-2.901067820571294753e+00,-1.442565343728875904e+00
8.994302433438303157e-02,1.558298888735316190e+00,2.058556964805903444e+00,-1.118606362731956017e+00,1.021463761319566510e+00,-2.291724441899384512e+00,3.356389118481843070e+00,-2.733751312125932628e-02,2.986810019521426440e+00,1.675621831822409202e-01
-7.216971620049314140e+00,-3.593567522135194814e+00,9.331792974940985586e-01,1.703678330694489151e+00,-1.298156119328736979e+00,-9.963076048475069113e-01,1.530487068486991564e+00,-2.689789844715123390e+00,2.360386755902729838e+00,2.481760786513125816e-01
2.555620592352947362e+00,1.791012185244959642e+00,2.316836282194843388e+00,-4.751905315703005006e-01,8.582925621224635648e+00,1.287472829324937562e+00,6.912446899147121071e-01,-9.557576967210027474e-01,1.341791866401788047e+00,-7.437484134523278945e-01
1.421896890511418654e+00,2.864280490973791338e+00,2.665802605464648312e-01,-1.745784738758849652e+00,1.308502372665016678e+00,-1.874689437517642610e+00,-9.757397191652088519e-01,-9.073868396711390893e-01,-1.037600510903014639e+00,8.109772607179800696e-02
