2.028429241921973603e+00,1.287035925803702741e+00,-1.872929261818867097e+00,-1.214792402556019724e+00,-5.925335560863620898e+00,-5.927432086681131418e-01,8.275576272437962233e-01,3.525694470470898345e+00,-4.491003452499145787e+00,-3.827309520873330428e-01
-3.272841916700002685e+00,1.117239159950757399e+00,-1.858124968058385118e+00,2.389279504481402472e-01,-7.767540580241727888e+00,2.509793460197747628e+00,4.759967506483993027e-01,2.349120312023838419e+00,-2.586749819043026921e+00,2.218369013875974571e-01
4.781232492898331188e+00,7.975173457597799498e-01,3.230493518487034810e-01,1.679359324230127903e+00,5.315837847218818801e+00,-2.868399004919704454e-01,7.400361064655911925e+00,-2.598435331508955226e+00,2.362843172705118011e+00,3.936501118106479624e-01
1.712380454028897381e+00,-1.150440171837477488e+00,-1.865926608964216138e+00,-5.347341337933336769e-01,1.997838187762061679e+00,-1.515484178487426226e+00,-3.760678983830029409e+00,-8.651870968369277382e-01,-2.173873147291845720e-01,9.694003560867244795e-01
-2.568172876869884380e+00,-3.029324400499997960e+00,2.791585315219589969e+00,-1.806160782568323686e+00,2.212875941560340787e-01,-3.734747492336877528e+00,-4.254844671245617604e+00,2.107095536673440073e+00,-3.970140606197480326e-01,-5.066348302887351274e-01
-4.892791124120420498e+00,1.616942974954977297e+00,2.509569638312851847e+00,5.936492627915761489e-01,-3.061871146197334692e+00,3.802695525006381416e+00,2.379057705896649111e+00,4.037593066005017661e+00,-1.696875891246685031e+00,-1.511392947388400243e+00
-4.772231413068274364e+00,-4.959352202223324957e-01,5.377444168508660027e+00,-1.442172223229509220e-01,-2.524581807260914079e+00,5.042122523517648114e-01,1.358849011972733445e+00,6.153678190752594368e+00,-2.554583200504109808e+00,-1.143784831146437808e+00
5.897153717151716323e-01,1.207516059342097048e+00,-2.199344400429468216e+00,2.186660250579039566e+00,-5.272096276822348493e+00,1.549908875595446878e+00,2.834122592901493487e+00,4.011875445578410471e+00,-2.927532917514966915e+00,2.419719995269594914e+00
7.819079793177539095e+00,1.462936619690005102e+00,-4.126549048806218423e+00,2.927281654474826467e-01,7.588890254650679790e-01,-1.696961137331215674e+00,-6.866119627366354949e-01,-4.326632047250461355e+00,1.043738313004727081e+00,1.707094394020278738e+00
-9.051831485089203433e-01,9.393869903165017465e-01,2.998961759001949723e+00,-9.985882039511585484e-01,-3.279560450847681441e+00,4.267248063657145818e-01,6.167031001107947219e+00,2.848981307601583524e-01,-8.997362945022204794e-01,-2.304763439645820089e+00
