3.507598792850687430e-01,-3.683422884184423207e+00,6.134664588729422663e-01,2.660482886951624604e+00,1.201471772672493721e+00,-2.585995963771305473e+00,3.339356133584113984e+00,4.899315667007862474e-01,-2.291201578248224902e+00,-8.279835986466016484e-01
-1.140550824109597405e+00,-6.634489750714100964e-01,1.086991405205035788e+00,2.248706179778329428e+00,-1.198809194823831970e+00,-2.739978476381772055e+00,2.103938533468815653e+00,1.967831005363779306e-01,-1.164798479981081991e+00,2.889629565314434601e+00
2.328246868511623990e+00,4.131611948590522054e+00,1.687872060270053209e+00,1.827622990657606472e+00,-3.294752923908655262e+00,-2.437980653106451623e+00,2.166147498655622616e+00,-7.271821856245866966e-01,-2.502739531664117251e-02,1.344989180280701691e+00
-1.435249935468985827e+00,-3.657445791866785090e+00,1.948536930447915427e+00,2.492666955151824570e+00,-2.051687484368934555e+00,1.300044941596501857e+00,-1.749631804503464227e+00,5.085032175262605314e+00,-1.546357352420977493e+00,-5.543876523182961868e+00
1.167051506597544197e+00,-2.447953972696200964e+00,-1.881074710255999094e-02,3.516199463935506309e+00,6.621611569481571369e-01,-2.501158999065844490e+00,7.594503751984259532e-01,-9.559439373832430142e-01,-3.208860485050091693e+00,-3.460207532077881787e+00
-7.898840990690728647e-01,3.993275861671378379e+00,-8.457832562301975665e-01,-1.200583977559038118e+00,-2.615793081280286536e+00,4.753965752824867330e+00,1.381384570986768021e-02,-4.696929560290215022e-01,6.796132701309868240e-01,2.449839368617632296e+00
1.094489396128254910e+00,1.801134076494673941e+00,1.586335650118458895e-01,-1.095382793600464089e+00,-3.237205141004071973e-01,-1.166285700182944085e+00,1.177504921663581117e+00,-1.251239705870767827e+00,7.956872710487371547e-01,9.095868092481580458e-01
-8.149622032046908160e-01,3.503401169441236473e-01,3.876556280773832075e+00,2.060006048146017399e+00,-4.135001785372249827e+00,-1.840545465578892204e+00,4.493338876360979950e-01,-9.099398032594834262e-01,-3.547794962633070259e+00,-1.112187402807608194e+00
3.346892074443687193e+00,2.911663691873598747e+00,3.178077574367469627e+00,2.580154657982827615e+00,-3.897903082686542398e+00,-4.394191904856421083e+00,2.099845244432890501e-01,-2.595288256046093256e+00,-2.927916877024808961e+00,-4.650767211397633716e+00
-3.060834062573269954e+00,-2.569225661406254968e+00,-2.697415287659434835e-01,2.995739020463947355e+00,-5.083652662740928418e-01,1.915774529138477789e+00,-1.724897963541981216e+00,5.197346597397185519e+00,5.192740799552605369e-01,1.734213805406821463e+00
