-7.251175771675691939e-01,-8.988742024633140648e-01,2.247773969048994402e+00,3.232633910312339154e+00,3.550666868144794819e+00,-5.494286735963186397e-01,-1.591186218836910582e+00,5.683849703263840203e-01,-1.004547784683697209e+00,1.103986862104714417e+00
3.045946724902901526e+00,8.619412387896114858e-01,7.733802487393101721e+00,-2.088396917585100265e+00,5.871355603323439531e+00,5.147130850957765125e-01,-1.801904756453226175e-01,8.627502130690622995e-01,-8.361763851392390867e-01,-1.237654686338721444e+00
-1.043058870844588260e+00,-2.119729135285409960e+00,1.226954191765285085e+00,-1.173795553637585254e+00,8.576204676211195421e-01,6.404217746949936174e-01,4.914092820674740292e-01,7.859457039125408023e-03,-2.924718122004300813e+00,-4.602180743950580188e-01
-7.886574350059334826e+00,-7.068367705554848834e-01,1.066005896019799337e+01,8.114962614005017727e+00,3.037511206199499547e+00,8.734136222152731222e+00,-2.598378935399800582e+00,6.325092787353812085e-01,-5.160505560641902578e-01,5.567602990847323241e+00
3.252907453526389769e+00,1.670346646525422640e+00,1.943312244929773058e+00,-2.071960491234471124e+00,2.748925753597820432e+00,-9.813778486525114308e-01,-1.278658829491296882e-02,8.122199006723689330e-01,-1.190842976879703308e+00,-1.193330270358892164e+00
-2.901639238512167207e+00,-2.637776424582976453e+00,5.294800688869287342e+00,4.809458208871604246e-01,-2.549323840221575210e+00,3.177265061769613208e+00,8.129303588777682110e-01,6.880448776213853312e-01,9.950340183945366235e+00,-2.158935571033859802e+00
3.094669374162363873e+00,-3.767073597407009089e+00,-6.913600742973189384e+00,-2.338431321614844460e+00,-2.495896459271595536e+00,-2.640615168971305771e+00,1.774599747848186970e+00,-2.925283572745402516e+00,-1.923537554316868237e+00,-6.818928884156608694e-01
8.758359341886523541e-01,1.861181137368530525e+00,4.043659066856442053e+00,1.287802119261562739e+00,8.336152817568991402e-01,2.278051136000769361e+00,-1.728099247780236769e-01,1.639303241205481154e-01,-2.281155442026393809e-01,5.434109672763129950e-01
5.939991298050247698e-02,2.508473566261669063e+00,-3.292581645488655284e-01,4.504035671219284609e+00,-2.013579914015872219e-01,1.042591972252380900e-01,-7.680889618549964215e-01,-1.364467840726337311e+00,-4.376642824415717392e+00,2.677584549021101434e+00
1.436843038605300604e+00,8.984044071257659692e-01,3.560925611469632823e+00,-3.158398032758896079e+00,1.684667765033918574e+00,-6.268321027683444457e-01,5.261452608887552396e-01,1.845481426017668847e+00,1.140893969221975723e+00,-3.006835387405758730e+00
