-6.714046188923279423e-01,2.912857563990830734e+00,-1.353427633629185334e-02,-2.754560163303844345e+00,-5.576618436465216044e-01,-2.270694253129123208e+00,1.008835227563022130e+00,-5.948500835333073722e-01,3.911324035075543382e+00,2.422782365381775271e+00
2.277786301539436176e-02,-1.195709597571085858e+00,1.038799466578949504e+00,3.015613842210453921e+00,-1.045247753412349656e+00,1.164531643570129615e+00,4.008772244480834912e-02,-2.378642336950167024e+00,-1.391367369653015551e+00,-3.621907088407540609e+00
2.550086753045749610e+00,-1.787353648284072116e-01,1.081561341670769449e+00,4.183100158400311130e+00,1.075680267225173514e+00,4.651781723054676521e-02,-6.704334097659501168e-01,-2.028776650116650426e+00,7.939908059146159047e-01,3.992976984362970883e-01
-3.887617686669983197e+00,-1.959703316432711340e+00,-7.264767841419975669e-01,-2.287014644764600035e+00,-1.629158921055404274e+00,-6.033760896065225587e-01,-3.399628088201427367e-01,9.415082509842118696e+00,-2.472965624542262653e+00,-1.628300638350258733e+00
-1.542138247555068453e+00,8.936782489166236187e-01,1.864424246486148906e+00,2.381000087768400775e+00,1.539277975379810814e-01,1.760748278286699442e+00,2.136318077218673395e+00,-2.737145401292886859e+00,2.160200215983578254e+00,8.309993784466493949e-01
-5.391116453890296256e+00,-5.894522901860678177e-01,1.648166083759679434e+00,6.721602544761698939e-01,-2.190839136171982560e+00,-1.914441551422905174e-01,2.184628823251699714e+00,7.420563186082506313e+00,-1.164451440256364601e+00,-2.634533900572182397e+00
1.081083647514940793e+00,-2.272779656793987080e+00,-3.440762178909392510e+00,-1.414734399688407640e-01,3.382493473655491245e-01,1.391988164254592597e+00,-1.315289108588525657e+00,-1.251294595896538908e+00,-4.231604601237383356e+00,-4.787959290677535229e+00
2.261081667082180946e+00,1.225956885571575450e+00,-1.962374829679472743e+00,-5.962365363746892077e-01,9.004177955674089739e-01,-1.930078398269876594e+00,-8.350574958774140688e-01,-4.124460338422023753e+00,5.154925579073297293e-01,-1.015414876877456685e+00
1.750009517789120395e+00,6.211873984421900641e-01,-9.656961327859254762e-01,2.033950878414015229e+00,-4.682013064884312792e-01,-2.244335324248507568e+00,-1.060759225225169633e+00,1.514818167806661897e-01,2.340227360764447706e+00,-1.351262870445251618e+00
-2.377916388254167401e+00,1.831116041424690311e+00,3.592406986753357012e-01,-1.756590905407499292e+00,-9.492213341720137088e-01,-3.223690382138928445e+00,1.382343377516075389e+00,6.291380392818341605e+00,8.820976395918886936e-01,4.045035224024867149e-01
