-2.409528329096356225e-01,1.496747183638247325e+00,2.156918860614945199e+00,6.295595535060589665e-01,-1.171249335993409524e+00,3.270739448592837384e+00,3.122500453286294775e+00,1.892676355253490428e+00,-1.797925657916981335e+00,-1.450850274731753098e+00
2.171647209601154760e+00,-2.886165559746974196e+00,6.151170077018432991e-01,-8.904481514848411328e-01,-1.590988169640255245e+00,-2.776925593645982904e+00,1.906407932794522475e+00,1.795162709493939579e-01,4.385257906679131956e+00,2.123634057714839096e-01
-2.299743730761208305e+00,-1.584045386997272598e+00,-1.019835924227031176e+00,1.582885962482069697e+00,-6.892487435701744047e-01,-1.466620509687569740e+00,1.979051810581021753e+00,2.833863847364430644e+00,3.410038302312480951e+00,-1.196014170902728990e+00
-3.614215430835139742e+00,-2.487853121421074398e+00,-4.083711790727212687e+00,-2.305733985345125081e+00,-2.689063558299640277e+00,-4.452178741741665391e+00,2.701513318716685319e+00,-4.466625809415927684e+00,-7.967102140533779409e-01,-4.796354607987845853e+00
-1.616379281222337094e-01,-2.348389817316492767e+00,-1.579280917270515339e+00,2.759894709590883233e-01,-5.070395129340414808e-01,1.074466033303899115e+00,-3.890306663617561500e-01,2.675771384868322889e-01,2.337394249145765102e+00,-1.674393500839892468e+00
1.895115880315369372e+00,-1.654248291119468472e+00,2.075112735366383410e-01,-1.134721499729694383e+00,-2.953001477668851238e-01,-3.900833231038897120e-01,2.484740435986194651e-01,-2.807067557370089173e+00,1.076163345340535871e-01,1.565216304315046880e+00
-2.818840820914350509e+00,4.977602757138262390e+00,-4.375758533457173027e-01,2.224822891748394316e+00,1.991114788664753110e+00,6.417950177436970272e+00,-2.501411571748349161e+00,5.257366850179610474e+00,3.111174640251448409e+00,-2.989375516717820425e+00
-2.078484525233093461e+00,-4.931270872912362768e-01,-1.579005043072267411e-01,1.939352496448776275e+00,-2.741179954555793552e-01,2.972704667070187323e+00,9.397857634290095463e-01,3.161400920916694446e+00,2.295933977874276444e+00,2.607634962873391360e-01
1.530852393688240110e+00,-3.788952265811649678e+00,-5.010260355358281403e-01,-2.055581933592772970e+00,-1.686537699926956346e+00,4.229929626397700981e-01,1.235376736538675413e+00,-5.157561202143491563e+00,-5.416097181250308923e-01,2.369925387315486187e+00
1.362922207910640449e+00,-5.392257059337309810e-01,6.653105772017775532e-01,-1.451535776432958946e-01,1.841416770969182826e-01,-8.144687416549767356e-01,-5.395106203983466298e-01,-4.480668842626956416e-01,-1.423649052249149616e+00,1.191881419464160041e+00
