2.046777390271198982e+00,-1.414753614846080421e-01,5.303413756641078614e+00,1.684233974473117845e+00,3.170980099994664680e-01,-5.426107528858823414e+00,5.625773185204205440e+00,-2.019217701625203532e+00,3.421597400890806551e+00,-7.390631256353077383e-01
-1.833649714577784806e+00,9.725393383059387498e-01,4.855667909170898078e+00,-3.920457042253862490e+00,-2.802339223422058545e+00,-4.885878671607287727e-01,3.669145367803823721e+00,3.318446121195210097e+00,-6.910924169964143271e-01,1.020173931387622357e+00
-7.616975532579972175e+00,-4.213632265229215079e+00,2.005982657396301772e+00,1.334198309727923637e-01,-7.814073000614110143e+00,4.315763383334647152e+00,-4.588389546474127556e-01,5.084650287909943778e+00,1.765316938293591542e-01,5.209558661542551539e-01
5.023710844316672919e+00,3.817250757738390288e+00,-3.860673667590621694e-01,-1.418983813564136165e+00,8.300671741009308491e+00,-8.135831076825553732e-01,-5.498819321479048172e-01,4.255556066256054870e-01,-6.021035217258090988e+00,4.844688163181143814e+00
-3.649746113201313591e+00,-1.271493102197452485e+00,-1.191076477742042838e+00,-3.665587073306470156e+00,-3.622001400588394482e+00,3.683535479140740421e+00,-2.416799974096860204e+00,2.129891712220444155e+00,9.157665121236081562e-01,-1.019837251216266782e+00
5.139400891590107934e-01,-4.474669046090038016e+00,-1.738765355651163969e+00,-4.572245933206668056e+00,7.705968692926105090e-01,1.466865555995687576e+00,2.253094817610410416e+00,-1.123040508411102811e+00,1.508282540168373043e+00,-3.670598517594447774e+00
-2.811316308427899813e+00,-3.351435521095873948e+00,1.339594307384111449e+00,-2.487185406917911401e-01,-3.804120372900147373e+00,4.585019493885921643e-02,2.471290420560859680e+00,-3.139714353569442729e-01,3.088826444572534968e-01,-1.564231817527162338e+00
-6.052822920014430119e-01,-4.149338380883301980e+00,-2.071034182628214371e+00,-6.933138852946999497e-01,2.300270865668697429e+00,-6.261952718094119241e-01,1.695407467341136343e+00,-3.571525750464397131e+00,2.382926866740991745e+00,-3.192044213362312366e+00
-3.880185599978008604e+00,-1.165781657543875305e+00,-9.270545931954485841e-01,-5.833810025982720804e-01,-2.018501477358217944e+00,8.912639487343608780e-01,-2.156090165211551390e+00,-6.150779559997010537e-01,5.309933537629142108e+00,-2.272467365950042950e+00
-4.115796156347883983e-02,-1.203382634942182339e+00,2.340175139582983288e+00,-3.592324619387116780e+00,-4.203540270723144623e+00,-9.061979656438230446e-01,2.176927812438317567e+00,-1.382965392994913501e+00,-8.570782595573019913e-01,-1.127665087554769130e+00
