5.770607381878058995e+00,1.271947534482901210e-01,-2.455535622989559741e+00,1.991751774026156996e+00,1.877344602195679391e-01,-8.459478412531460378e+00,-2.254613952513921105e-01,-2.126431341801706676e+00,3.461517478512748935e-01,-6.732623669595779958e+00
1.798033923525479860e+00,1.085296130420099425e+00,-1.534960881584156445e+00,2.304626774952014401e+00,4.308493388971229021e-01,-4.257945482268299386e+00,-8.426374258969503428e-01,-1.086020459898261459e+00,-5.359946649557832954e-01,-3.056090528364010073e+00
2.404036854940874601e+00,-3.352305047670980365e-01,-3.791095250776483461e+00,-1.151217811214674036e+00,2.512559902317680116e+00,1.381181302820791157e-01,1.208994356280557042e-01,-4.500806358079804781e+00,6.778924975504438066e+00,-1.375776971492178147e+00
7.107994715417495613e+00,-4.151902217628279601e+00,-2.924685890018199785e+00,-2.829762877990652292e+00,1.485210577283986311e+00,-3.832042072162067381e-02,2.659187554240877827e+00,-3.681708344142152534e+00,6.656187071313526715e+00,-1.226931014544111243e+00
8.333451895637933760e+00,-2.726221907385059762e+00,-5.110402145099076421e+00,4.135160668318373922e+00,2.754944605621011622e+00,-6.179221398944400256e+00,2.115880506277271866e+00,-9.888667135214496140e-01,2.825808539359726534e+00,-6.243345182656915293e-01
-5.089605175354771305e+00,2.100579336004980702e-01,2.974555954264395563e+00,1.812542940637522637e+00,-4.114539724832290801e+00,4.111897790973245925e+00,-9.043556035962409256e-02,5.831853385733762885e+00,-4.163485663291432992e+00,3.148974107842154702e+00
1.432153060707354264e+00,-2.634866988071257410e+00,-4.350426881791697120e+00,7.194714791831499090e-01,3.876650917922880080e+00,2.601021762602852672e+00,9.892510113785919490e-01,-3.931539308833676305e+00,7.625310331077034931e+00,5.107735311009689916e+00
4.567322143597472461e+00,-3.938873901178693071e+00,-1.421275436750041754e+00,1.796601375552193236e+00,4.163699966857530299e+00,1.501417926292032856e+00,-1.926868170538819092e-01,-5.107998344777034738e+00,5.688703760912544816e+00,-1.060078569444647067e+00
-4.989052090937248884e+00,-2.499117035579464297e+00,3.826128789883801229e+00,3.651863267422679193e+00,2.052912902953581697e-01,1.521485812640915425e+00,-2.511284224281487898e+00,1.126175750572824485e+00,1.640276637884850786e+00,1.857828162422933971e-01
3.121701015939018387e+00,2.551733688445926962e+00,-3.113860829489687454e+00,-4.246368163732499923e+00,-2.392762504579720950e+00,-4.677040191511116163e+00,2.919859860178372735e+00,2.087110721338937047e+00,-1.537912941606492279e+00,-5.777147607907845428e-01
