1.545646680290975628e+00,-2.192994069072824459e+00,1.611287768083585759e-01,2.035045183588831019e+00,9.313392900192348778e-01,-3.674677301148533193e+00,-1.811124518752461166e+00,1.484848006247012631e+00,3.516230611366359948e+00,3.148787287514688948e+00
-2.487960843124135124e-01,-2.105407269398775483e-01,1.832484264912862315e+00,2.461516962156778288e+00,-3.553964549976683873e+00,-5.251905737734915425e-01,-1.890884670368843334e+00,-1.319382291974635413e+00,-2.782416453891387587e-01,-1.734782683324899377e+00
3.162463106280656966e+00,2.590112795026776604e-01,9.404421400641483908e-01,4.633548022734776950e-01,3.714369032233053591e-01,1.316164560760052060e+00,-2.746381533543881925e+00,7.996235734589292043e-01,2.125927863683745755e+00,-2.868105162326158641e+00
9.303016787600665305e-02,-2.038771024931590237e+00,-1.631579958387875617e+00,5.321470106055659066e-02,9.078810540326249789e-01,-2.367804227494502811e+00,2.607835858931250028e-01,4.135014812705829712e+00,2.861394885385693865e+00,1.685751728328596322e+00
1.722883374465090212e+00,1.056933369524968302e+00,-2.076772327142191177e+00,-2.544213556337623583e+00,9.843072598435910203e-01,-5.943150325218523378e+00,7.107039585126898595e-01,1.533962047224368686e+00,4.714337441777384896e+00,4.237161988571220839e+00
1.167469136765095561e+00,-5.944731607219517766e-01,2.598608166762141902e+00,2.037064878619904373e+00,-4.842737581404970904e+00,-2.713381757250178161e+00,-3.872652412303487335e+00,-3.030769299906701519e+00,-3.204866942913664474e-02,1.833171921969106055e+00
8.192062439290783260e+00,-3.426944641470592412e+00,1.026616564554489575e+00,-4.268289899766822160e+00,1.628661388859665937e+00,-1.525917011051743266e+00,-4.068596744372607432e+00,2.997324444436606505e+00,4.491849458766636438e+00,1.853253735403306512e+00
-2.484042974728466469e+00,-5.445189053674007740e-01,-1.426400669621596951e+00,3.804129174438941607e-02,4.448148538385184314e-01,-2.388926510422879346e-01,1.792515024439531590e+00,-1.494970664918333081e-01,-1.409408545600855156e+00,1.743460015250543726e+00
-6.272369987983335005e-01,1.971384741083829217e+00,-3.333575765055928564e+00,-2.613666910858099879e+00,4.538648812865361037e+00,4.314706636432372733e-01,3.744375194031752230e+00,3.006610563268841574e+00,1.954378662291783142e+00,-8.699151714116813983e-01
-4.500287077806827796e+00,2.956660720107619600e+00,2.065366201787044997e-01,1.939260460983903700e+00,-3.312888638320489409e+00,1.485966779391488801e+00,1.552853390786938181e+00,-3.951386389998974291e+00,-3.900943456680827204e+00,-2.394703773473769726e+00
