1.538333128073018807e+00,-1.415768670151303255e+00,1.025000999488688169e+00,-4.214917615533664286e-02,-2.113174005715740211e+00,-7.361201637453549385e-01,4.095823303116753245e+00,-3.066375894569975280e+00,-4.327799906859053358e+00,3.376477299253499709e-01
-2.951953492463675666e+00,-5.987633278772991341e-01,4.347143068060042026e+00,4.696665004286905143e-01,-1.484144537914776851e+00,2.678640878555158977e+00,-1.473055360499738065e+00,3.516050043584668217e+00,2.229407881942158109e+00,-7.731571309734168729e-01
2.221952193328459835e+00,2.466852037665652642e+00,5.242267079263153162e-01,-6.105142993348083635e+00,2.343886835608314456e+00,2.440338374244048314e+00,-1.986193001843980843e+00,-8.310716774784848715e-02,-3.345924746634812319e+00,2.076548171706584345e+00
-1.095215922475818449e+00,1.040908646966043349e+00,-1.714768604123289464e+00,-9.449267058448169720e-01,2.380778442526876315e-01,1.630630803379906624e-01,2.270889336918247459e+00,-2.421013536390726473e-01,-9.060739429459417904e-01,6.971436023481722977e-01
2.327197907050420511e+00,1.564664590015689027e+00,-5.994712623071499102e+00,-8.642828045331707898e+00,8.736902738881434871e+00,-1.192006194960458565e+00,-5.576403989584868270e+00,2.474675122346426726e+00,-3.453626207713483165e+00,3.263727677651551584e+00
-4.994814716629329965e+00,-6.569052704368251172e-01,2.141700903037091930e+00,1.721741479821464305e+00,-1.988771897931568944e+00,5.085546616859160096e+00,4.709676262267281643e+00,-1.482600904002121078e+00,3.376981508682232125e+00,2.862663987663692122e+00
-6.625425785895927566e-01,-3.101258336342241684e+00,-8.468824205721909859e-01,1.953483432110039386e+00,-1.957357778940392201e+00,-2.759242717695332914e+00,2.197331452522525375e+00,-2.613475255507323181e-01,-1.042658788487059285e+00,-1.057617585202172139e-01
-1.590769245427960055e+00,7.076721103514188371e+00,-7.583060604847620567e+00,-5.367555073225075191e+00,1.946906014823911679e+00,4.730378766489522491e+00,1.770839477843580756e+00,-3.752259246015461347e+00,-2.546911691483301432e+00,2.557562462473625509e+00
-3.117984951204806787e+00,1.261131421082682724e+00,-1.031389700342937865e-01,5.181527035250472757e+00,-1.960435667921341940e+00,2.147893759256196411e+00,-9.179312471287623953e-01,-1.400679893592965963e-01,7.455890303393034380e+00,-1.130483076971866119e+00
-3.167357157147277391e+00,1.615454824571456172e+00,-2.424027273861650400e+00,-3.750440698562476971e+00,1.126715158716438347e+00,2.829868990282281338e+00,2.133401308080673520e-01,1.271998648944916654e+00,-2.007677560817199836e-01,2.664760768188079609e+00
