-8.451995931124762773e-01,2.391542125720805156e+00,-8.118875990579969004e-01,3.704157840928711920e+00,7.708987991926130601e-01,-1.371314647922419860e+00,-5.015753121279962201e+00,-1.849690419269206743e+00,7.267120469849066566e-01,-4.835117741535363223e+00
2.848172233820069454e+00,4.790390347772837676e-01,7.503409510585515863e-01,-2.788211534080338616e+00,4.766531479509977243e-01,1.104274898621118384e+00,1.347060400852754247e+00,-1.352473527093822181e+00,-1.054200663490396206e+00,-7.113700315588316059e-01
-4.822383495760463212e+00,-2.931793610702562614e+00,-6.001974269974184040e-01,9.179888620453646730e-01,-3.987640054182644000e+00,-1.343690844847531318e+00,3.855667877097559426e+00,6.286501315204915397e-01,1.664811575964030732e+00,2.886295993869173238e+00
3.109709709550199097e+00,3.496592411366451075e-02,1.775105579907143127e+00,5.640144348887157211e-01,-3.770627114329428764e+00,5.418967656933684651e+00,9.483164898659694586e+00,-6.730976836831717769e+00,5.311886546528235442e+00,-3.670670823103876046e+00
-1.408743180088231961e+00,-8.499832516343640565e-01,-2.925038287627615752e+00,1.649924673894858085e+00,-2.675485275052257084e+00,-4.419590271129749226e+00,-2.992737016475977896e+00,9.861729836675119376e-01,3.618966594952243820e+00,-1.088343227965046900e+00
-1.828094189871925179e+00,-9.829853323256295683e-01,-2.286050760288727890e+00,-2.714651638757117791e+00,-2.660730404069624466e+00,-2.124443542012624864e+00,2.505669409423864735e+00,-2.844724119350789060e+00,3.038414312245501847e+00,-2.528319586826263343e+00
-1.132476545181518413e+00,4.326261734821957861e-01,-3.205098562940681406e-01,8.570231814896428491e-01,1.199642654615060922e+00,-2.358606818893871804e+00,-3.918020725789107761e+00,2.560476954107627989e+00,-2.309744282002064164e+00,1.658547237041592126e+00
-4.774234599419372449e-01,1.259658453730229555e+00,-2.710435823620304774e+00,5.647002133437379889e-01,-7.327444242135544350e+00,-1.988729153915846481e+00,-2.078942507831638142e+00,-3.337920783340656339e+00,1.502650189110251944e+00,-3.400441967469836957e+00
-4.214457080315345272e-01,4.200231148501772926e-01,3.000438678509427692e+00,4.119254534144565660e+00,3.411241871054566221e+00,4.860998190150009002e+00,1.204035148670192568e+00,-6.955207252996646883e-01,-2.558756726075955279e-01,-1.207554348565531788e+00
8.755583780298972219e-01,-1.327780566874149637e-01,-9.019888759831711234e-01,-2.384630334222072268e+00,-1.289118477689533693e+00,2.002038402488012903e+00,1.837275576305406721e+00,-1.257456498934692579e+00,1.104093952629113584e+00,-7.783029670475207773e-01
