-1.621614634131357091e+00,3.278029052716237568e-01,1.751442703811728618e+00,1.448753613999054668e+00,1.453416789042055735e+00,-9.925438994914370650e-01,-1.227151989806691379e+00,-4.507883908789605876e+00,-5.611413061368806243e-01,1.125271510291250499e+00
-8.300977051291176245e-01,6.658364982602708038e-01,4.349005573105565681e+00,-2.745322537883026826e+00,-4.816918843773289605e-01,6.497492841333016855e-01,-1.793547170398144042e+00,-2.726334679126797944e+00,-3.330897461154820327e+00,-3.164707514270302280e+00
4.032866212869449241e-01,-5.708617367186797686e+00,-5.548750336472552114e+00,-4.166726501478339451e+00,-6.389604308307816893e+00,5.282210356519402517e+00,2.174837337243159308e+00,-3.160944319307233741e+00,7.282288796979036860e+00,-7.460662470277299008e+00
2.650604896859146686e-01,6.514399834675843604e-01,-9.242798106625563781e-01,-1.061458639354634803e+00,-1.765061573425609209e+00,3.494893557489289759e-01,-1.314002911666309892e+00,2.723645998323496631e+00,-1.944565756157661029e+00,1.070345560866288404e+00
-3.331064015113748944e+00,-1.159756381574869710e+00,1.137428762107479951e-01,-1.873218604395429088e+00,-3.435495740145073640e+00,1.068005513756245417e+00,1.678168599565046826e+00,-3.635576184040102188e+00,1.909280422112472175e+00,-6.626796640679354367e-01
-1.072890106437588975e-01,3.073868355725653423e+00,4.932146138336901409e-02,1.967704882436957403e+00,-3.565796302936515838e-01,-1.723401367650524207e+00,-1.625830274838667711e+00,-4.542921106925539299e+00,9.011771835495039351e-01,4.689239592329914608e+00
1.994135115039337158e+00,-2.113617263946315550e+00,-3.648217224687721583e+00,-1.273414411282848047e+00,-2.211150535669124562e+00,3.791217731810094804e+00,5.839313253867228770e-01,4.988875035880379727e+00,1.833379478341462976e+00,-2.968167582140447625e+00
3.067165316169942813e+00,-1.926257834979680394e+00,-4.827655595120223353e+00,-9.501284505886198328e-01,-1.002549274903937193e-01,-1.743430004000632305e+00,-3.779246967876068175e-01,5.290771490228284968e+00,1.655702642242563360e+00,-3.132287893066126649e+00
-7.375516394275275722e+00,-3.613230888129436380e+00,4.499208870298222251e+00,3.424882038713027987e-01,-1.721402998509965032e+00,6.788816600133606549e+00,3.540563726468068495e+00,-5.124290602623858604e+00,-3.406362960528122041e+00,4.151410745239290989e+00
1.874361806696205113e+00,1.527907344873861817e+00,3.025335301807663857e+00,-1.566460181978045485e-01,1.591651100424121168e+00,8.148988404047797784e-01,1.277531744179790096e-01,-5.879258580805436507e-01,-1.029769323739897491e+00,-9.591059059003466114e-01
