-1.584893482414878374e+00,-4.545589641569463879e+00,-3.193117313200656504e+00,-1.132851503501409285e+00,6.024941430137009668e+00,4.615414554061613162e-01,-3.283710722614540778e+00,-1.790021348006442858e+00,5.176409679616675419e+00,-3.836416943683069736e+00
-6.989526623123563098e-01,-6.417161261706222142e+00,-6.942116971012920246e+00,3.036707739583468069e+00,5.919707791291816124e-01,1.920312490303597963e+00,-4.891195287637899902e+00,1.103324781334594107e+00,3.916260176224655165e+00,-1.097486298191307219e-01
-1.086837165356875801e+00,-2.138559412630093526e+00,4.424100110565045152e-01,-4.733892222476668854e-01,6.005825283475556553e+00,-1.742724751703108033e-01,-3.596104536923039774e+00,3.205154454118542828e-01,4.667907666404561340e+00,-2.263478352028199136e+00
2.267778675445524694e+00,-1.339507239228475033e+00,-5.973232439938181981e-01,1.286178335684900365e+00,-1.394717157524989704e+00,-1.180738347552104939e+00,-3.881359470609329065e-01,-3.516192712847342194e-02,2.848918370979765333e-03,1.074324368871137025e+00
5.953669100325239549e-01,-6.110459127026292014e-01,-1.765093599979564498e+00,3.683727997173524393e+00,2.616013232850168957e-01,3.167362818429937388e-01,-5.366180596946994008e+00,-4.836529812367996173e-01,1.589917656507094934e+00,4.535616672504850233e-01
-4.044882456515131786e+00,1.354936156317668283e+00,-4.031082186071511253e-01,-3.663951412902549887e+00,5.312129455654575949e+00,4.408979091138277795e+00,-5.989151790693033606e-01,3.226495314507936474e+00,9.830727038922449923e-01,3.295892488709402546e+00
-2.444650083576389132e+00,3.677161699799923689e+00,6.981370840322209670e-01,-4.738553944428942621e+00,1.694194551161273932e+00,7.452417328996722823e+00,1.797044687182186795e+00,-1.140162267949946795e+00,-1.650443814559416023e+00,-1.506367755914018502e+00
-9.865116738692744081e-01,-5.121163859963273168e+00,-7.117154636220390351e+00,-3.147072205614797280e+00,2.096680489247268131e+00,2.876780635915080264e+00,-9.595997995032899686e-02,-4.212251313402390451e+00,2.202311469567164615e+00,-2.853681962815003414e-01
-2.404282535149917799e-01,-4.722220686225973574e-01,4.456887528337647453e-01,-2.830693577876020495e+00,8.893700600432533632e-01,1.457849727719658040e+00,2.751165738727817445e+00,5.395776095458647559e-01,-1.481779800237105760e-01,-1.012959515740410321e+00
-7.200404053556217487e-01,-1.177851860812411999e+00,2.867612423178324654e+00,4.084834849901760379e+00,3.017317597690553743e+00,-7.445107777576782659e+00,-2.100378858066961119e+00,7.791350659430127390e-01,3.061015463700587969e+00,-9.368296252019220560e+00
