-5.839972754499376251e-01,1.038439060681230819e+00,2.433411457315564075e-01,1.234219612244639441e-01,-2.987609345286632134e+00,2.372316777475882432e+00,8.144262712137150473e+00,-2.852108125442069930e-01,-4.925336211395789920e-01,7.639749467152912032e-01
-4.159349796199111049e-01,-1.914197270090184144e+00,-3.204267379713598540e+00,-2.549118640959961102e+00,1.497096839208335251e+00,-1.277634794138797991e+00,2.991501214913121931e+00,1.454804211346614473e-01,-3.496824854798310067e+00,-2.924113741820437262e+00
-2.414058391464412701e+00,2.516568275108479025e+00,-7.383475747238801290e-01,-2.204349628746168133e+00,-6.159211677704767851e+00,8.546984539304711692e-01,6.633578585421380680e+00,1.486631533896256352e+00,5.646079216598607342e-01,2.201786832119557058e+00
-1.666888968608062793e+00,-3.556479705566767180e+00,-3.924555332074328717e+00,-1.895935487433753508e+00,-7.016163942149275634e+00,-1.286983876687866513e+00,5.184475720289194456e-01,3.719511729741289852e+00,-1.918809937262241805e+00,-3.187407405576539787e+00
-1.193747468505858222e+00,2.130573663800170436e+00,-9.117636686930816747e-01,-2.707477204162636486e+00,2.932984711799217159e+00,-5.214179745235497654e-01,2.831895090266427051e+00,-2.236965622428063849e+00,1.702649961439604565e-01,-1.638666101952760190e+00
4.219295470400229453e-01,1.051455164218659366e+00,3.064433961743612933e+00,-1.140141199994258114e+00,5.317747142454480880e-01,-8.622767206747877777e-01,6.743177926411936696e+00,2.547924196936741659e-01,-3.159148418449809093e+00,3.169913790960090072e+00
3.598961531822383542e+00,7.170075766911456761e+00,-1.324500220384787097e+00,5.838576165465632073e-01,8.793753953205803997e-01,7.880101658613470894e-01,4.087714524971364227e+00,-8.337790429288202132e-01,2.391804385624448415e+00,-2.567679931467808707e+00
-7.511632119630989868e-01,-1.193719644386924683e-01,2.516182239027545453e+00,7.550881251043214948e-02,3.350568440105888168e+00,-5.155828506342462481e-01,-4.985653848834191493e+00,-1.087528620046648298e+00,8.579845841841247100e-01,3.172311741870004198e+00
1.197419307320028992e+00,4.940124532782207978e-01,-2.309730235897271278e-01,-4.666822469114933480e-01,2.573584099104448075e+00,6.227012650372178992e-01,-5.552922147564107735e-01,-3.722237740569153130e-01,-1.539850580472176489e+00,-6.954540397530218909e-01
-1.869118082374533751e-02,2.231496023252594441e+00,-1.849859126006091481e+00,6.120065597385800915e-01,4.609725733857811925e+00,9.790211964641547526e-01,1.069958413062472857e+00,-3.585173354665140533e+00,2.855732501124959466e+00,-1.471152456316620727e+00
