4.691441234951525985e+00,8.855311567621177105e+00,-2.308650931642819870e+00,-2.721714219907949595e+00,-1.159361520869909512e+00,1.576194113796685281e+00,1.281313222325550782e+00,1.517759824400809254e+00,3.705380147908235333e+00,-8.793507012260225186e-02
-1.752607767534611227e+00,-1.743716055105482443e+00,2.052202602703808498e+00,1.852167933030775204e+00,-4.768738703238231680e-01,1.427485120548960928e+00,2.644997155330247818e+00,-2.973799719112252826e-01,-1.821688471305928259e+00,-2.053584828083365732e+00
-2.704664807702966023e+00,-1.906888735941704160e+00,2.743444587228971887e+00,1.812357159828910103e+00,7.009863744965320054e-01,1.335985408172008226e-01,4.112034032179095355e+00,-7.716665304739657172e-01,-4.586673043456202525e-01,-1.767516416565622306e+00
-3.704268583664719894e-01,-2.489567297818954028e+00,1.895242611657365961e+00,-3.099121450069018291e+00,-1.828180357821800883e-01,-1.173388251706814822e+00,3.283909615262621262e-01,-8.424563915749121445e-01,-4.268777990867453909e+00,-3.558634311994029797e+00
-5.171070702081276060e+00,-1.114800573873001355e+00,2.038879090743325850e+00,1.329128303403610101e+00,-1.501511386255875435e-01,3.198139854479751243e-01,2.829881677596011169e+00,2.754631026184279907e+00,3.504636016942327403e-01,-3.299918560163348641e-02
-4.442881164756155576e-01,1.790865093957989540e+00,-1.246191299524712776e-01,1.868734197925046581e-01,-1.917135822363647435e+00,3.298856863496561487e-01,1.491629529817558364e+00,4.558680764193151269e+00,1.482895553951742995e+00,1.354694404589893209e+00
-8.292670588647743202e+00,-2.366172232419872845e+00,2.174940668512994613e+00,-2.859065670941171255e+00,1.335974428009699677e+00,-2.734062552500784005e+00,1.056904162233220701e+00,2.067011513754051233e+00,-1.097417245959856347e+00,-1.004496789730095152e+00
-1.639319905709718250e-01,-1.617369422742610530e+00,-2.329477475778894302e+00,-2.161342870432899632e-01,-1.148764516326595375e+00,-1.617785213455712023e+00,-1.543542787730668442e-01,2.932572972749938778e+00,-9.044679790715516310e-01,1.279860532281728691e+00
4.180663833473674096e+00,1.401044796518746915e+00,-1.339094492709671735e+00,1.603667508592111490e+00,-1.742356343832546006e+00,5.571940592776523093e-01,1.248103327508470306e+00,-2.814958452842287073e+00,-6.212610963298615951e-01,-1.333461392462504724e+00
4.291196294650091225e+00,-2.469391261043811792e+00,-1.304476959257615976e+00,2.508007110405117590e+00,-1.985003057398423199e+00,1.857404219936265866e-01,4.190272331642095893e-01,-5.163691195944248413e+00,-4.127855125365337940e+00,-2.830364148008567060e+00
