-2.971223836863466694e+00,-1.514844700087979668e+00,2.377338455994002508e+00,-1.149825608875694627e+01,-6.178497354534652430e+00,-5.159883938950544646e+00,5.099240440105059363e-02,-6.447244647730737022e+00,8.202266955818409144e-01,7.035368313241652238e-01
-7.567150794192353258e-01,-7.050126350334016578e+00,-1.420621637643842750e+00,4.949582171943487374e+00,1.038647845803639003e+00,4.167049850092618968e+00,2.199918436876387773e+00,4.233676526475957935e+00,-9.398514952551696444e-01,3.793215306925100894e+00
2.821304835960607882e+00,1.836276112677360572e+00,1.874031297457404932e+00,-9.249859659129297640e+00,-6.416839095248625391e+00,2.602895454596063196e+00,2.920808055366918565e-01,-4.597514722508153184e+00,-2.130926752241202315e+00,4.096064672440506982e+00
-1.654264478074768840e+00,-2.296618052513159203e+00,-4.551759526707126469e-01,6.289526309745142818e+00,3.189333161375431658e+00,-3.019149376045171529e-01,3.802701414847357020e-01,3.145119874884938493e+00,5.920584634645202904e-01,-1.282659927194324423e+00
-1.180232878675562258e+00,-2.428801505999506727e+00,-1.788020582114080437e-02,-3.175143986811324037e+00,6.369972458132062698e-01,-4.050920609109217807e+00,-1.566586940207827183e+00,-3.994405279769286388e-02,1.408523240902454399e+00,-4.516450212990697488e-01
3.612424425179274756e-01,2.093001993122331594e+00,4.172307378823179036e-01,-1.726313963024913800e+00,3.253868761877097615e+00,2.441925667604694539e+00,-1.535042239108798334e+00,-3.450717073750826369e-01,1.852302922508230809e+00,-1.991625996377449859e+00
-9.230015619018058226e-01,2.793288895736939281e+00,3.463771298724422465e+00,3.195674153785086347e-01,-2.499198692246994202e+00,-2.335318808193592943e+00,4.189613693100374903e+00,-2.550709107348670734e+00,2.191630482596147012e+00,3.942666206788813632e+00
3.327535729947070475e+00,6.568289716266725975e+00,9.359926717042485578e+00,-3.454208977926172430e+00,1.044643821706779718e+00,-4.344943003222563327e+00,-7.394167302529455199e+00,-3.939629774852876354e-01,1.615649572124477018e+00,1.081970571404642145e+00
-1.279501705647503984e+00,2.640679937659429211e-01,-1.708772622501391725e+00,-1.441481435702760105e+00,-1.866814583627724344e+00,-1.894251008928851343e+00,-3.944193871222615666e+00,-5.298867355184613270e-01,-1.916313618084425796e+00,-3.462638326344637196e+00
4.248365193551360441e+00,-9.674667647709654261e+00,1.761306298689829575e+00,-1.150819005690274288e+01,-7.061827750034773921e+00,-2.599287940106932204e+00,1.733392137871878402e+00,-2.290259411865436245e+00,-5.143757929043880850e+00,5.257571986432303390e+00
