-3.172824042606073203e+00,-9.257433855184989957e-01,6.462359605361012171e-01,-3.488359766085403102e+00,4.460876053995007640e-01,-1.824661951142076965e-01,2.458474762016385817e+00,2.151021157858334476e+00,8.740755095207308756e-02,7.559396699310749757e-01
6.452398635632883295e-01,-1.363217059440041456e+00,2.418942004832394410e+00,-1.661725301629900287e+00,-1.918128093330533579e+00,-1.960131003187498333e+00,2.092106831854159132e-01,3.979422712522745487e-01,-2.383765360036732339e+00,-1.855338803075103904e-01
-3.367006045230646283e+00,-2.379874334074602693e+00,-2.134987450322778368e+00,-3.354044885232216888e+00,4.094326248273567614e+00,6.097371705731370106e+00,-1.799505906616995166e+00,1.655272788600842038e+00,-5.271580324281883279e+00,4.939684639470165450e+00
-4.635158643213497243e+00,4.828362656375862372e+00,-1.595311625815484025e+00,1.618667889463512255e+00,1.407498167281648449e+00,-8.176271936268411089e-01,2.928716823437294003e+00,6.042311090079596880e+00,-5.722573061290248120e-02,6.066691898007006145e-01
3.615224147901545670e+00,-1.858176334017571651e-01,-3.652216831842968414e+00,7.779081620067900271e-01,1.413260732809508147e+00,7.304331433269392271e+00,1.458792152908428008e-01,-7.615440288069532215e+00,6.886824279087933931e+00,-5.076162933192409632e+00
-6.400719654885302035e+00,3.666585711328337327e-01,5.805230370658796879e+00,-3.509282607381066565e+00,-2.380715127849724499e+00,-8.158343894769945592e+00,4.375507075644096133e+00,7.286222825507928214e+00,-6.127404420699281040e+00,4.057358896983181973e-01
4.502580971506831009e-02,2.315512256761943277e+00,-1.835608999133074626e+00,5.523040695252590560e+00,1.334241033219883521e+00,4.429774425980477659e+00,-4.789594846993283639e-01,8.926415097535324028e-01,4.348417679086066912e+00,4.495272871720099594e-01
-6.067769176677787479e-01,1.010320094229302468e+00,2.371415616572159490e-01,-8.502394621257383100e-01,-3.887031320346304164e-01,-1.064599272425740040e+00,1.620196422490581378e+00,3.393049109704237676e+00,-2.926365606315591172e+00,-1.980225410872725966e+00
1.357203256649309742e-01,-1.593319061662999525e+00,4.908840201251182478e+00,-6.179199857078925273e-01,-3.666275064849433551e+00,-2.808564610750648782e+00,2.072888165540218708e+00,-2.513502609613939232e+00,3.001644279947363270e+00,-1.869395351449727016e+00
-4.793370102144789868e+00,-1.084877129658467609e+00,-2.302621257231689533e+00,-3.411717980542290807e+00,4.443922631296605807e+00,-3.491236781923173549e+00,7.491674997495716415e-01,4.625693343985330941e+00,-4.134411230225513378e+00,2.553788848469169537e-01
