6.266697972085316648e-01,1.083565958787041428e+00,-1.448110729780305750e+00,-4.205510901490484343e+00,-3.759801626601219748e+00,2.385378351317526402e+00,1.700746775618680040e-01,-3.332082836462910702e+00,-1.213537713016028530e+00,4.563521614470877452e+00
-1.091275045944031241e+00,5.710808324047358248e-02,-1.535287175472157262e-01,-3.547434718779284846e-01,4.142680995081171602e-02,-1.124029241453363970e-01,1.550561040267186330e+00,3.464258305293958506e-01,-1.468530874312548251e+00,-1.700746162261908001e-01
1.158120120736894521e+00,6.219247921309758315e-02,-6.055936761200023631e-03,-1.085377534590916543e-01,-4.549223792278915823e-01,3.745773497242486649e-01,-1.528886133588770679e+00,-7.122891281555693288e-01,1.332232918200633609e+00,6.717325147161201659e-01
5.329578470280103009e-01,-2.110445924586137195e-02,6.564191020043722014e-02,1.464475139648647728e-01,-4.294220738035705448e-02,6.900309975611168545e-02,-7.508179122049848386e-01,-1.882332428267559365e-01,7.046993816122026910e-01,1.102078424946828644e-01
-4.704221977444166258e-01,4.739699879874731403e-01,-6.845566591737466400e-01,-1.927700951439997423e+00,-1.485943531949451613e+00,8.857153404149040732e-01,1.095273229837004259e+00,-1.111803168216667359e+00,-1.460960776293020569e+00,1.724259633787237567e+00
1.448465079377360132e+00,-4.626811528083751845e-01,7.361853793291383008e-01,1.998896493586585388e+00,1.239748753248480995e+00,-6.551022988199414199e-01,-2.425601081535756265e+00,6.259927292431095580e-01,2.662014098404923867e+00,-1.321923831894583845e+00
-1.110251537944606071e+00,2.057324474823936378e-02,-1.045545853573167788e-01,-2.126904249453768492e-01,1.677380832020481938e-01,-1.923752553527388054e-01,1.541874386605140757e+00,4.577746993861880886e-01,-1.424923948021365572e+00,-3.231576144572727016e-01
-5.222250605239516785e-01,1.703379078527974821e-01,-2.702719147204304395e-01,-7.345955795496084129e-01,-4.587695355853167456e-01,2.435152766871400698e-01,8.778665320922963700e-01,-2.355846442636821692e-01,-9.662475895092446088e-01,4.907007603518845906e-01
-2.849876901299656651e-01,1.497878813036290224e-01,-2.257005947965530501e-01,-6.253457735252483385e-01,-4.405507987241604195e-01,2.510389423529711395e-01,5.330549265703407036e-01,-2.880642123973863322e-01,-6.320083495729246215e-01,4.951309261454200361e-01
-1.202582870415412675e+00,-1.138230234775526595e-01,7.405378393192570130e-02,3.071963204171664907e-01,6.371839214729446699e-01,-4.913303860203575013e-01,1.540804944634066809e+00,8.778390293406409528e-01,-1.292652327688450509e+00,-8.945113763603138590e-01
