3.677814475241062420e-01,1.947402013817224053e-01,1.248554141818307428e-01,1.295741430033234831e-01,-1.234833909117731554e-01,1.188227204197142006e-01,-3.524051593444400832e-02,-1.202835418471481094e-01,1.129284352863471480e-01,-1.132070390646173347e-01
-4.675392955102578574e-01,-4.012331123486904266e-02,2.232852479077051255e-01,-1.614524282531250576e-01,1.375958357339968074e-01,3.580210311356941261e-02,2.595575239556757174e-01,1.713800822844832594e-01,-1.042727786582121029e-02,-5.056092518910481302e-04
4.611765370298975597e+00,1.669444210459326117e+00,1.430523919242382702e-01,1.612615753686137410e+00,-1.476234895797052804e+00,7.941366449097382318e-01,-1.241637930397222034e+00,-1.577068521058115902e+00,9.202837413101728758e-01,-8.817451799196438511e-01
-6.096630251957813051e-01,-9.010790206971979188e-01,-1.271864077913548829e+00,-2.239012561241137400e-01,2.587240148422941810e-01,-7.178514556520670942e-01,-5.402496322027909859e-01,1.479021762575283006e-01,-5.583222371738449930e-01,5.902482395005969051e-01
4.417103597598032394e+00,1.310258372499900625e+00,-3.946734368931628656e-01,1.539999475523193384e+00,-1.386947631854839713e+00,5.005468915081390247e-01,-1.488135206760945017e+00,-1.536208599656342155e+00,6.961417403708139995e-01,-6.435202394748049670e-01
-2.781340914790067509e-01,-1.823594662820189061e-01,-1.590367931343270869e-01,-9.854294264938287529e-02,9.666240982295819240e-02,-1.214652740402449305e-01,-9.675033595438919942e-03,8.783999109740950328e-02,-1.079207674485185009e-01,1.100406277717439762e-01
-1.247917670572828763e+00,-4.256851315437286676e-01,9.275941212942265604e-03,-4.359542526991225797e-01,3.970262591545640207e-01,-1.914174812565567485e-01,3.629567036378877898e-01,4.290659858242343860e-01,-2.323004249521442299e-01,2.204543033884121539e-01
-1.038349926389276590e+00,-1.229942568823480104e-01,4.334895690894148279e-01,-3.591006794551616088e-01,3.087501696728826017e-01,4.898959114997442771e-02,5.413660581422476969e-01,3.775978913715533625e-01,-4.490488285439396543e-02,2.246796364350503103e-02
3.626658008141114387e+00,1.174398401300547734e+00,-1.424477732195842949e-01,1.265968255785367536e+00,-1.147965376557787076e+00,4.998004197784702285e-01,-1.119739929278697144e+00,-1.252521824723977995e+00,6.348547690779379193e-01,-5.970155885092669479e-01
1.056816561550486368e-03,-5.994909234758101224e-01,-1.104658665979695531e+00,-9.080002222103908394e-03,5.570924540227290694e-02,-5.401661937027957272e-01,-6.213250447701141876e-01,-5.377479850586604909e-02,-3.847820986823395906e-01,4.174309806683024204e-01
