2.504120235865265331e-01,-5.180400863433136660e-01,4.503677145073701205e-01,1.912012835856423121e-01,-1.152524804162053940e-01,6.629398290745878164e-01,-1.734928396178755161e+00,-1.529406078256918100e+00,-3.830748457325446887e-01,1.025583862702846627e+00
2.544783427188097025e-01,2.190486849947423653e-01,5.208646429819241419e-01,-5.363825639615835694e-01,-7.884033002317948624e-02,1.117828633334308375e+00,7.295093777894743337e-01,2.543660957267516731e-01,4.830244054435625101e-01,2.844646872740005383e-01
-1.548062160403592125e-01,-2.266424211977564329e-01,-3.247713967327873763e-01,4.178298592226752373e-01,4.316495020578085123e-02,-7.356415346715654557e-01,-7.560305110997668221e-01,-3.813025270124604793e-01,-4.031127752526081354e-01,-7.812135701984174174e-02
-2.288403756285907198e-01,-5.055169315663107232e-01,-4.945385088701039766e-01,7.847500344993315613e-01,5.505311584282426840e-02,-1.189017830278532584e+00,-1.687617661771541711e+00,-9.772588025256088162e-01,-7.953837353019375112e-01,5.781011329721458258e-02
-3.701047092710993969e-01,2.512590764500582940e-01,-7.092324927486421959e-01,2.215826308940109513e-01,1.439254820943970392e-01,-1.286258913151602012e+00,8.442945019418811592e-01,1.012497777876682825e+00,-3.572220151294303037e-02,-9.929323546414705604e-01
2.311316578567963742e-02,-1.116616577915452019e-01,3.615800559357272570e-02,8.022570212814741919e-02,-1.391656163142101707e-02,2.315401999864555305e-02,-3.736072506996760412e-01,-2.960579707819449014e-01,-1.100653262707854962e-01,1.595592377619588498e-01
1.245389820867401909e-01,-8.409862459103585319e-01,1.745437235011871313e-01,6.668469962079733859e-01,-8.727578714444204910e-02,-1.781773259322338987e-02,-2.813282431010536655e+00,-2.175844096109261550e+00,-8.730974552938884914e-01,1.103009002832297858e+00
-4.076364327984235425e-01,-6.270146128086295789e-03,-8.051405506187718775e-01,5.214388871844639617e-01,1.439873847417194042e-01,-1.585295725499547004e+00,-1.633815011690420427e-02,4.285853235278780371e-01,-3.704970310126125543e-01,-8.059562374539762653e-01
1.931479956710535906e-01,-7.149889690275615939e-01,3.206456234104932412e-01,4.566244771709123684e-01,-1.050940682053152081e-01,3.234350579008913318e-01,-2.392784467601287712e+00,-1.944866122601378811e+00,-6.645432403888069661e-01,1.111660253649943808e+00
2.194843257244054602e-01,6.963582044350900002e-01,4.922455794627618175e-01,-9.599725119649494820e-01,-4.194067098917945297e-02,1.266409437972898289e+00,2.325808790789392511e+00,1.450431389701440699e+00,1.010354210700661337e+00,-2.704374906265669676e-01
