-1.084558850098072735e+00,-1.714666484407889824e+00,-2.826625794376516954e+00,1.291164503036567934e+00,4.374903302748206491e-01,1.496956398176487735e-01,3.085217557162811985e+00,-1.978191187260212036e-01,5.163532232019669294e-02,-8.435834803433924778e-01
2.646455315432285071e-01,4.878929327771059504e-02,5.296355010011325470e-01,-3.376392805813562825e-01,-3.586140564670990405e-01,-3.606975667992234208e-02,-5.716720604871154965e-01,2.707198590524766413e-01,3.009497142235319500e-01,4.211225327951484965e-01
-7.519746763248154331e-02,4.684032071109867634e-01,5.839942914173104627e-02,1.253998342164848179e-01,4.305258018241511775e-01,9.651675682359358438e-03,-7.393790040717890255e-02,-3.671751184150761627e-01,-4.946315018284269671e-01,-4.005535701292222694e-01
-1.445893341080714822e-01,1.884545615393929396e-01,-1.961923287266416349e-01,1.976106322689483441e-01,3.425106030048837846e-01,1.944031026700039980e-02,2.069005339732553905e-01,-2.773722232192815662e-01,-3.469077888954418820e-01,-3.553709989817211978e-01
-4.837920447947832159e-01,-1.150885370538851094e+00,-1.428083669369176745e+00,5.523712678840024815e-01,-6.789037432488163881e-02,6.725325346603582000e-02,1.565432476223467262e+00,1.440838694690716737e-01,3.505029509055190284e-01,-1.514640236366869008e-01
3.193369003499844649e-01,-4.995482087633136281e-01,3.972113754425222742e-01,-4.415293180846460164e-01,-8.132456285594439338e-01,-4.283223801696354333e-02,-4.161124756515941492e-01,6.627513450120747773e-01,8.368652604995322486e-01,8.334008572451447883e-01
1.423764147187356333e-01,3.061729342206268800e+00,1.599747668257168076e+00,3.791095866025492606e-03,1.875518263599849078e+00,-2.316487009400418698e-02,-1.795345827581069642e+00,-1.681257748123556883e+00,-2.413165521045014472e+00,-1.541444256995212481e+00
2.837165730440690536e-01,1.955734981170382358e+00,1.392267280496650717e+00,-2.456900363432784340e-01,9.125853849949963070e-01,-4.102661642092592792e-02,-1.545803844278814898e+00,-8.553491565331243773e-01,-1.292089265863591629e+00,-6.571751715985396647e-01
3.702544075959455366e-02,2.252545188127999531e-01,1.687107654878295671e-01,-3.389389852227422256e-02,9.867024418386295681e-02,-5.316912333203967049e-03,-1.870395132640813030e-01,-9.358582210819033076e-02,-1.431937457657333213e-01,-6.830537221596300057e-02
-7.428284738410901866e-01,1.788617490357443662e+00,-6.525718452594001517e-01,1.065345763165700399e+00,2.318711259244419232e+00,9.885851506015909396e-02,6.608314009409558265e-01,-1.918777157104912590e+00,-2.478232505192574209e+00,-2.303577173573420289e+00
