3.217872614131572218e-01,-9.140969851224585163e-01,5.694665129864059372e-01,-4.181822225761251399e-01,-4.846719270742496088e-01,-5.768749649407407531e-01,2.183703171716141200e-01,1.225336774813309049e+00,-2.376578687325320294e-02,-6.820864534057914375e-01
9.099447520303312054e-01,-2.988851377665865172e+00,1.925960137910820880e+00,-1.369160297806990112e+00,-1.488167813979810905e+00,-2.111459135555931788e+00,7.428886095998962213e-01,4.096886188380659100e+00,-4.861634865957953355e-02,-2.582686579345656597e+00
-6.840434410335555215e-01,-9.268189583128143560e-01,1.031760276529660070e+00,-4.369096272865781727e-01,1.946990789608414874e-01,-2.185003103851938633e+00,4.265529014966478738e-01,1.884356445326607066e+00,1.825742719763829292e-01,-3.195432882023889753e+00
6.214476773359891570e-01,1.085252354774574268e+00,-1.127393070672527919e+00,5.093027677316452895e-01,-1.060611188543417738e-01,2.274182557202539812e+00,-4.630159668779313398e-01,-2.092399293208303312e+00,-1.770594347141248859e-01,3.296744571257937295e+00
4.252779942316364803e-02,-1.140388226814093908e+00,8.718598545448699166e-01,-5.262916536856294680e-01,-3.609077226012878947e-01,-1.288132268015217852e+00,3.453082417300738505e-01,1.756741069400558963e+00,4.377223932748064428e-02,-1.740455253705472938e+00
9.169245781650965377e-01,3.611188876186467445e-01,-6.945125540067857983e-01,1.785434964944602187e-01,-5.175569973060556439e-01,1.881432140842429934e+00,-2.982625084191844467e-01,-1.147480218457989531e+00,-2.041837685391008350e-01,2.856931272028669255e+00
2.815140588233373542e+00,-2.485706139317216845e+00,6.760252788699110393e-01,-1.112377872424922476e+00,-2.635523686852177860e+00,1.503984569368365776e+00,1.998766259616946428e-01,2.099289490994693974e+00,-4.614977649854146713e-01,2.953367775351066538e+00
-1.339267386226251633e+00,-3.333160884382926348e-01,8.627312138565006450e-01,-1.710948950816225667e-01,8.124713106461507461e-01,-2.517279957734070539e+00,3.753900846353125376e-01,1.372354965889036160e+00,2.892997691330438381e-01,-3.858623123114749642e+00
5.908944516006312542e-01,1.135138104825456073e-02,-2.746128812391599450e-01,1.279314667864363264e-02,-3.979804936859794862e-01,9.493345861143869246e-01,-1.235043337443889888e-01,-3.932189475085192121e-01,-1.213968251770757290e-01,1.482789724190755276e+00
3.118668436107614017e+00,-2.075352592823815900e+00,2.189096901152067787e-01,-9.189255486945943074e-01,-2.722178794783784994e+00,2.472457335127272060e+00,1.088338765475913017e-02,1.264559497596754900e+00,-5.424692972780077449e-01,4.369807442528199637e+00
