5.002310465337206358e-01,8.304663945203692998e-01,-2.871346341866136131e-01,9.019053469252401312e-02,3.798947384885876799e-01,3.293753585031748421e-01,6.877917839889413631e-01,-7.613335826028634346e-01,-8.289079601327882518e-02,3.680963340449672997e-03
-8.119162603852699833e-01,-3.365257848820363829e-01,-1.888475935179894372e-01,-5.795682066069182126e-01,1.989291557397599164e-01,-5.540672599272548071e-01,-8.316788139807653746e-01,3.459328062488919442e-01,3.579275046482095490e-01,7.369562548266255231e-01
8.126867067515890497e-01,8.354216311293302666e-02,3.530444609873500950e-01,6.886086619561540001e-01,-4.033676587470331198e-01,5.594677634252476217e-01,7.611737995702789750e-01,-1.234167070243591818e-01,-4.142149921108565502e-01,-9.237228809401692997e-01
1.926453815946437276e-01,1.344480260223554602e+00,-7.740608224320385533e-01,-4.041304369955594500e-01,9.725300384078642280e-01,1.071274649921218625e-01,5.532756200961929105e-01,-1.194645711028305302e+00,1.943969938377514417e-01,7.540940520728254270e-01
8.618283805855392332e-01,1.915155534341848709e+00,-8.083351496623467636e-01,-5.207482556257411049e-02,1.045081511126984219e+00,5.581461441586005323e-01,1.321301496427180755e+00,-1.737804993302713319e+00,-3.582323107357372055e-02,3.621483322996464360e-01
2.326018693426384676e+00,-6.657973545960870210e-01,1.596401840949791540e+00,2.358464962019333200e+00,-1.884159722373661250e+00,1.618686647186036609e+00,1.923888465955080340e+00,4.428599422436363398e-01,-1.385408601701736853e+00,-3.308531001077441136e+00
-1.165135314825563206e+00,6.929438423087292964e-01,-1.032400916208249919e+00,-1.335335994280410610e+00,1.233632129098398256e+00,-8.177400394993392663e-01,-8.625362424097130498e-01,-5.380506571817348371e-01,7.733604845296262464e-01,1.921318796324335443e+00
-4.548240178816186918e-01,-1.513362933649917030e+00,7.520689138958925879e-01,2.427699492148042704e-01,-9.568464368365378059e-01,-2.848844057164950372e-01,-8.387835753299072161e-01,1.359325563285432192e+00,-9.211706619849703570e-02,-5.603520529153329655e-01
7.385562051858562960e-02,6.683408233222867811e-02,-6.275976252253677966e-03,3.720610924768332634e-02,1.111207051790491854e-02,4.970341079200639445e-02,8.584833846033140814e-02,-6.333422892294321427e-02,-2.455822017786029807e-02,-4.042941240782846335e-02
8.852134997255972637e-01,-2.918298738658857694e-01,6.324382140995742363e-01,9.140286515790164712e-01,-7.480568657190024284e-01,6.167638754655145883e-01,7.213534150967912950e-01,2.023634159650724851e-01,-5.357372483125868445e-01,-1.287370397504529418e+00
