2.316742307102234388e+00,7.698119447109835756e-01,-3.268444919912734115e-01,-3.423157991097560693e+00,-4.562088448880206037e+00,-9.609401910864516783e-01,-1.394590649123134574e+00,-2.159004880789429370e-01,4.126415893912131067e-02,-8.303871438081014134e-01
3.123007147366084757e-01,9.260889354224249859e-02,-9.044883180414293733e-01,-7.469963853186636360e-01,-1.038134696436442406e+00,-8.900841257830776065e-01,-4.852527469288129280e-01,-1.097348473121312784e+00,2.677574062617064654e-01,4.350985502115687908e-01
-8.757735098210486790e-02,-1.146785507231681475e-02,1.371442708881651873e+00,5.804397687579689880e-01,8.408526413496459906e-01,1.237645579643848581e+00,5.222534397644836845e-01,1.695503084644979230e+00,-4.157088018263972451e-01,-8.326784368712321083e-01
1.574636336248578905e+00,5.221103370728663595e-01,-3.079442315243129391e-01,-2.355114382144730456e+00,-3.142940458255115033e+00,-7.289650381470460516e-01,-9.775116208770047166e-01,-2.532599679395420300e-01,5.419041701598038829e-02,-5.098486432074351704e-01
-1.495293838383863760e-01,-3.072443216545712660e-02,1.482617993739521189e+00,7.059734306929672520e-01,1.013224925628587458e+00,1.353886229444515088e+00,5.949353214786680111e-01,1.828452312838854121e+00,-4.480268715338878716e-01,-8.755983580449898662e-01
-9.510668678587549385e-01,-3.315721896657141121e-01,-1.064371529752092815e+00,1.007511916089863346e+00,1.283380661822566715e+00,-6.649319700798964616e-01,1.584338940975516530e-01,-1.399395942222328770e+00,3.482885593560202664e-01,1.102891753973342714e+00
-6.334340839193045580e-01,-2.128194231341244969e-01,-9.104760630916300390e-02,8.760726617283081108e-01,1.158620972770151303e+00,1.032670192409720078e-01,3.189747386849496880e-01,-1.649555753217814558e-01,4.369393207194355311e-02,3.417418241521587019e-01
7.179667074316729014e-01,2.197787756347287791e-01,-1.549492902931843386e+00,-1.541461154039318160e+00,-2.126031082400131389e+00,-1.577889462398628817e+00,-9.325112227795612219e-01,-1.864888847299891017e+00,4.540925673358223724e-01,6.633856730311907812e-01
1.897348904851983709e-01,8.690316736388210839e-02,1.812143204897014748e+00,3.299285653009394470e-01,5.307506189434904043e-01,1.546745877931775315e+00,5.210906536864440275e-01,2.265373115785745739e+00,-5.569841064175099499e-01,-1.237133136575934156e+00
-5.117005170899980859e-01,-1.794484389738429109e-01,-6.538519398521355219e-01,5.151250389282282516e-01,6.505653348395765700e-01,-4.295174753042865778e-01,5.719235032829126514e-02,-8.537139653496601532e-01,2.121297573890699173e-01,6.450050357834841153e-01
