2.040457625389575647e+00,2.020182974895114170e-01,-1.233007601378582674e+00,9.228964113838746819e-01,-5.828062787450576376e-01,-7.609574214255188096e-01,2.527484428214731849e-01,4.806483380985050458e-01,6.664669225345677683e-02,-1.429407748126132027e+00
9.131906656389117416e-02,-3.154232418854015507e-01,6.347042725411365660e-02,-1.538523572092591052e-01,-3.984169573820431909e-01,4.050305583339420257e-01,1.131020261759529272e-01,-2.040557494386968374e-01,-5.912579402002984125e-02,2.348846439897187832e-01
-2.984260193972331443e+00,1.605219336167764244e+00,1.108272855644500732e+00,-2.065736201905198355e-01,3.033475069673324143e+00,-1.459191325737865919e+00,-9.659342589689808856e-01,6.183780792515387592e-01,2.663517118821498442e-01,3.399000894031793396e-01
-3.010212388790851623e-01,1.918087395605448053e+00,-5.304188474222530925e-01,1.035447601706189991e+00,2.321249635721482907e+00,-2.523752309906626135e+00,-6.483761987519435221e-01,1.283259887039787550e+00,3.630302580284729408e-01,-1.583281473920518545e+00
2.969997941207453529e+00,-1.497630888087949197e+00,-1.139514626377358342e+00,2.656834359880327345e-01,-2.904319634445288401e+00,1.317003558013584597e+00,9.299721473140128980e-01,-5.459608268466181746e-01,-2.459528340718021566e-01,-4.303067504473896410e-01
-2.984908567405584190e-01,1.345969212491769484e+00,-3.226395999416030724e-01,6.923290490583520196e-01,1.663714377739620165e+00,-1.750128954479683197e+00,-4.685001448663403401e-01,8.859467563785614619e-01,2.535509067453969867e-01,-1.057858525593954102e+00
-5.196580763334364583e+00,3.965463135579440301e+00,1.501923185749405310e+00,3.441566478102455751e-01,6.625178359477855494e+00,-4.124588566110349852e+00,-2.049138066496051014e+00,1.890352726414204376e+00,6.878131632444003385e-01,-4.860094133098315505e-01
-7.587428983658275339e-01,9.854200582834480304e-01,7.066631144684561161e-02,2.947056061553854911e-01,1.433722296508514127e+00,-1.152231607563027449e+00,-4.266954449769223001e-01,5.585560725927737336e-01,1.782246041753535182e-01,-4.453148602228235164e-01
-1.892500581635489842e+00,1.835473101720608513e+00,4.038710397152681653e-01,3.607051151952899715e-01,2.861826669213762830e+00,-2.031664843405588616e+00,-8.690242884943384372e-01,9.604790975550896448e-01,3.253956340383388213e-01,-5.374346186492807709e-01
-3.564042548313851588e-01,1.919252755902591590e+00,-4.993833261946316604e-01,1.014396890875182589e+00,2.344697955434063896e+00,-2.512095428276824194e+00,-6.573222086633747629e-01,1.274836025039818077e+00,3.624939751666081400e-01,-1.550607748341529479e+00
