1.257824184184199279e+00,6.517750827450057294e-01,-6.557885615492117237e-01,-4.193065297628958965e-01,1.027068870923808497e-02,-2.441194032604079300e+00,1.613738528197554700e+00,2.391616148335213410e+00,1.648734430882265567e+00,2.476041572638199018e-01
3.307599925405411145e-01,6.136802233475027180e-01,-7.078138374095052643e-02,-7.778557728450328224e-01,-8.480507007105717587e-01,-3.639014673188417870e+00,1.287342255510502076e+00,2.864647541347435489e+00,3.373031714726162367e+00,1.469522786637598610e+00
2.004017164743262303e+00,8.259880066467839566e-01,-1.093663148922353834e+00,-3.473870387961964790e-01,4.250101047356795170e-01,-2.449808932772226999e+00,2.156549361408131915e+00,2.736513496713226967e+00,1.214895246669988271e+00,-2.800964186513337228e-01
-5.589510864571517468e-01,3.543365960395616909e-02,3.661405506424798562e-01,-3.043312711446391483e-01,-6.298419472997203172e-01,-1.117946439726866581e+00,-8.283903448684493132e-02,5.804221690828325064e-01,1.427767585021628260e+00,9.221724395158650278e-01
7.732044353998278607e-01,-2.483655090088572881e-01,-5.523103725735782898e-01,7.218858231235751877e-01,1.254722406148323532e+00,2.897321532113283915e+00,-2.743776892093904296e-01,-1.810607749201917693e+00,-3.299941271074731119e+00,-1.908654982735983996e+00
-8.079827659645080207e-01,-4.351955543148431360e-01,4.174590560485436086e-01,2.942801125174736576e-01,2.517479219518892197e-02,1.680067912720664358e+00,-1.068839234879370048e+00,-1.619788017806056191e+00,-1.168868266465467265e+00,-2.115017984989684963e-01
1.155543772187039020e-01,1.733175084545786060e-01,-3.417053595840363611e-02,-2.097484034772633954e-01,-2.172607949782442427e-01,-9.929708119679764300e-01,3.695950896689567666e-01,7.931470178822910277e-01,9.053962530314305646e-01,3.829566261681565664e-01
1.028674455239858843e-01,4.864664609451847810e-03,-6.476607961722659346e-02,3.882231596823390585e-02,9.401319422231496636e-02,1.285898474851255857e-01,3.746123690275304785e-02,-4.926451968591869651e-02,-1.870909604261011827e-01,-1.335598946161604128e-01
1.894317574339933752e-01,-3.612995541771474306e-01,-2.043765385354502084e-01,6.303627431548741722e-01,8.853262149901550693e-01,2.745775401158478957e+00,-6.534599321792184945e-01,-1.962355540456931058e+00,-2.805289801508902503e+00,-1.421644601952190001e+00
1.181657352705174802e+00,-1.395967047341957756e-01,-7.889132725266430057e-01,7.410155533589820598e-01,1.455953422565584576e+00,2.801751314341676569e+00,4.890847668640674328e-02,-1.554041718701181907e+00,-3.448308634817819573e+00,-2.154935040006732194e+00
