1.266265923385863079e+00,-5.715287069377865681e-01,5.786309667459514916e-01,7.590942658412953570e-01,5.417786420733106123e-02,-2.749699104213227940e-01,-1.416041228101792837e-01,-8.700468544553237038e-01,1.497524515155017610e+00,3.227679440093851881e-01
1.321795244782539569e-01,-5.568844945063249063e-02,5.875446373057982563e-02,8.701296657218993147e-02,-1.872026829675590975e-03,-4.077403680912042305e-02,-1.485028376978437745e-02,-9.136748176665349108e-02,1.404975254656800343e-01,2.784733934448671566e-02
1.346412226248897559e+00,1.390341311030662275e-01,3.056902074127897384e-01,2.269250381173920417e+00,-1.357996260054565418e+00,-2.562489434046360426e+00,-1.635236196393990427e-01,-1.028058478009840515e+00,-1.383177305925609391e+00,-7.559922405961758685e-01
8.999413523659082204e-01,-2.496437201993684518e-01,3.463393651420952346e-01,8.460060800010817950e-01,-2.582599350216598366e-01,-6.713252606210410312e-01,-1.033549965948788729e-01,-6.399273898608944799e-01,4.405228042848963188e-01,-1.039230302093435698e-03
1.346073926836192758e+00,-1.833038787896194566e-01,4.392260967941266081e-01,1.637610916409346862e+00,-7.466589843938574722e-01,-1.582028811189522211e+00,-1.578901413734943304e-01,-9.833682258054232683e-01,-9.856468671683205063e-02,-2.813753404473965380e-01
7.040605424254173794e-01,-6.477655402065554124e-01,4.585249919038638655e-01,-2.240500455606315167e-01,6.556882165546530361e-01,8.502925553981461881e-01,-7.300802268854593435e-02,-4.382661438204101811e-01,2.147530369871386124e+00,6.652023810684372096e-01
-1.029525854968150522e+00,-8.204854919000051927e-01,6.232098144420539221e-02,-3.133520592825795870e+00,2.392256539883431010e+00,4.130514649674731587e+00,1.374292097932551249e-01,8.845529427398231004e-01,3.903371349243313748e+00,1.629321763907418452e+00
1.179845681960656201e-02,-4.113253235762130422e-01,1.737012089965579986e-01,-7.878751449277074936e-01,7.701668958879241966e-01,1.231697673143602900e+00,5.725247921954668140e-03,4.786353779033586386e-02,1.631721650968158022e+00,6.006355308355690870e-01
2.167247971584575772e-01,7.383928598593422765e-02,2.787239038379751843e-02,4.660272126288637073e-01,-3.161425544906421581e-01,-5.689102211555222555e-01,-2.721442014488500982e-02,-1.725752051069370241e-01,-4.276916031249275441e-01,-1.974362157512069005e-01
-1.043843821268398975e-01,-8.119393279201375657e-02,5.491443203023534114e-03,-3.138023859346716904e-01,2.387693724832445907e-01,4.127289085338822217e-01,1.389942049375187186e-02,8.941035054386463343e-02,3.878135454059736809e-01,1.622604884692494531e-01
