-1.035075204268901983e+00,1.173471454416651794e+00,1.504181503311778911e+00,4.203606428467576706e-02,9.405634589974078974e-01,3.262131285401484337e+00,1.510546106099422747e+00,-2.829162622371266256e-01,2.703463665976231223e+00,8.908844547474166209e-01
1.038860354280383841e-01,-5.923392400265467539e-02,4.088753184817187081e-02,3.550979706429694405e-01,5.471854244645610876e-01,-4.881367793124621324e-01,7.389117320533894473e-01,-1.137838268358860178e-01,-9.548988001081509802e-02,1.244114129863866103e-01
4.994011197101786981e-01,-5.156544962394838949e-01,-5.601705403633728819e-01,2.897951669903029992e-01,9.986242405023909585e-02,-1.712611319070997729e+00,3.967784890530062780e-02,1.380599194452054174e-02,-1.152614478620825222e+00,-2.453089689504821813e-01
5.534228845650879247e-01,-7.476109118477237692e-01,-1.198133764519019984e+00,-7.601799143326968267e-01,-1.820113751745640496e+00,-1.414169109105906097e+00,-2.635943998467154437e+00,4.431705480896200311e-01,-1.806482037723101008e+00,-9.153285370385451092e-01
5.756717391721655197e-01,-5.250226469173622235e-01,-4.183335007041537046e-01,7.599185699688167928e-01,8.755252101876156434e-01,-2.164667509537500312e+00,1.101185942187437705e+00,-1.525968285149415793e-01,-1.120233845689201146e+00,-2.934609582679764683e-02
4.464002596996637373e-01,-5.414538456138671130e-01,-7.646184054250881879e-01,-2.352019268208589420e-01,-7.932388181987405362e-01,-1.309768306281058337e+00,-1.189444124445622419e+00,2.079082700287447349e-01,-1.272164288387149345e+00,-5.133923862718867692e-01
1.288381500665341184e+00,-1.335208733633379552e+00,-1.461202616075019556e+00,7.175791849940633682e-01,2.039744162503581704e-01,-4.404843582908927857e+00,2.788873145275794219e-02,4.750788578255094041e-02,-2.988281942861671148e+00,-6.507433793744423767e-01
1.024688710363945487e+00,-1.210688483467770249e+00,-1.649645838103469986e+00,-3.423154038010942091e-01,-1.468048434242632094e+00,-3.094886794709559741e+00,-2.240635846231399331e+00,3.990624290211080560e-01,-2.823494968361768720e+00,-1.060888862464716587e+00
-1.741930410065251067e-02,2.599109969971769574e-01,8.123779848692143091e-01,1.474760056966097688e+00,2.647853570844765692e+00,-6.044791289169092474e-01,3.678662206777516985e+00,-5.880323250811926306e-01,7.668791257217136836e-01,8.921855515808191361e-01
-2.019489425303307162e-02,1.737818214272273398e-01,5.238354168181001969e-01,9.269217842287067466e-01,1.671970626444314822e+00,-3.506205409143103857e-01,2.324689947465641282e+00,-3.719710434403750154e-01,5.059683606431585323e-01,5.684947572825969075e-01
