-2.428863802488174795e+00,2.504633593478594822e+00,2.331744978529230128e+00,1.595037125938867817e+00,1.969569578884680983e+00,1.664140323160424595e+00,4.229164579947372049e-01,9.339545645639199534e-02,5.507103542920208650e-01,2.349912370498753678e+00
8.334547415274059512e-01,9.409508700495597955e-01,6.302486642459390609e-01,1.735984051493428382e+00,8.725219123935620269e-01,4.378859507057735745e-01,1.796520512607805875e+00,1.892338308363245902e+00,9.405984418269482950e-01,-1.501494296417288377e+00
2.483636441912405068e+00,-1.685273371214655258e+00,-1.688493248379716150e+00,-5.202446686325249425e-01,-1.260749997494014618e+00,-1.210855263626148925e+00,5.120953500066500741e-01,8.406527819787915634e-01,-1.362731047515029423e-02,-2.741064468692876233e+00
-1.078588302497772267e+00,7.422811285213122279e-01,7.415411220773792111e-01,2.391256094195121917e-01,5.564635691208509316e-01,5.316780467258542808e-01,-2.111712598341865810e-01,-3.539561954495658025e-01,1.244563886834945676e-02,1.186366551683904369e+00
-4.165863982568343560e-02,1.545156333123949732e+00,1.233451891566216263e+00,1.932478341978383307e+00,1.325690471816121985e+00,8.703589528281088228e-01,1.627295082425326722e+00,1.607245480682972127e+00,9.519228754059919639e-01,-5.396898322255838654e-01
1.794568620182318996e+00,2.366861408641095788e-01,-6.455420187162105861e-02,1.468585941333721223e+00,3.398319633291291830e-01,-5.988540117972875748e-02,1.938503095879618776e+00,2.161964904822654354e+00,9.026373694867141362e-01,-2.542111553556167802e+00
-1.890320748292706687e+00,7.351047584197253904e-02,3.244753258778928506e-01,-1.137530393255258065e+00,-8.033032636318150621e-02,2.439887303722111378e-01,-1.693784928566032244e+00,-1.932264027252749372e+00,-7.482587773881700377e-01,2.553108104599024486e+00
9.312908103067681909e-01,1.778111968125505038e-01,1.018224107909285019e-02,8.318528668127908032e-01,2.236417646240469181e-01,-2.655991524578641934e-04,1.065281825104228641e+00,1.180720274430207661e+00,5.029196442264798339e-01,-1.340456752660941664e+00
-1.362729834645182159e+00,2.027697900536468367e+00,1.802767210122262931e+00,1.684319678265967291e+00,1.640360666964214120e+00,1.282495248787684394e+00,9.085669932304278884e-01,7.177211507379195332e-01,6.995083864464760603e-01,1.078104805526807874e+00
-1.097849896767476796e+00,1.057440742000120837e+00,9.946387583150820833e-01,6.262771200880240530e-01,8.260421093342968923e-01,7.103566597071612199e-01,1.106449806117701246e-01,-3.758342888619712469e-02,2.020820180184296211e-01,1.090988668482081758e+00
