5.616614494317309081e-01,-4.701372391208834267e-02,-6.704952704105812678e-02,3.186095679334904895e-02,-1.371645527674919540e-02,3.148770218843814916e-01,7.604852211321411204e-01,-3.976346164518381188e-01,2.763296113995397651e-02,6.831101187510932871e-01
6.382827894450801010e-01,-1.264244575706157531e-02,8.036155227861305761e-01,-1.085948927614188708e-01,7.833207904593397775e-01,-3.502104397665299906e-01,2.106486925869825999e-01,-4.736828163468609354e-01,1.010232364072177313e+00,9.607757048973830649e-02
-4.537389125418967994e-01,7.511403299935272282e-02,8.552203825008822813e-01,-1.575790338390014034e-01,7.384739218585404386e-01,-8.990350998299652119e-01,-1.209433968335324572e+00,3.013781252683052636e-01,8.688851526639908007e-01,-1.171182205786918562e+00
-1.426091796329135519e+00,8.304257950794878551e-02,-6.134271935048465352e-01,4.808207438576681675e-02,-6.767803512214040085e-01,-1.688205529115731351e-01,-1.348756412675461425e+00,1.029038607417571471e+00,-9.420292783372838930e-01,-1.128567015457045297e+00
8.214103870500165661e-01,-8.282335586926817261e-02,-4.015202934419042080e-01,9.654041670625765348e-02,-2.956174936447389934e-01,7.047131757798151819e-01,1.337614985069748297e+00,-5.740065068110448143e-01,-2.972034489015049630e-01,1.233645388924993647e+00
-7.276156584681914286e-02,-5.393768960673450685e-02,-1.286243481925294141e+00,2.089962108449485989e-01,-1.174076859146735208e+00,1.001323900946125223e+00,8.634389068470805784e-01,8.360295772670167658e-02,-1.444246317520556211e+00,9.126729038217366030e-01
1.492604743565191683e+00,-4.233154984976235380e-02,1.603807721391694585e+00,-2.086158923955795108e-01,1.581675702457138399e+00,-5.973056739836435369e-01,6.971972148595131369e-01,-1.100867306438306770e+00,2.055977621579966552e+00,4.376159126156780044e-01
-8.178501379161490226e-01,5.133348116923336368e-02,-2.717765170516719397e-01,1.440496471312291589e-02,-3.154670555399096687e-01,-1.612128898101352903e-01,-8.329417035151530646e-01,5.881609070928447425e-01,-4.512211077609572518e-01,-7.090881085386746552e-01
3.237954526193664861e+00,-3.023961178798061367e-01,-1.063122484432336368e+00,2.950315884493578955e-01,-6.934439543722097365e-01,2.359745169875582693e+00,4.886776155417189571e+00,-2.275579830483902111e+00,-5.934277347675123160e-01,4.461198850902245994e+00
-1.109627382490252501e-01,4.601106256441740705e-02,8.054350575809954282e-01,-1.366754770710348343e-01,7.220524673439278063e-01,-6.997341021101413094e-01,-7.387316923425542026e-01,5.892553797454999631e-02,8.758857876246399776e-01,-7.474327027244973554e-01
