-4.063746714563762019e+00,2.322100879078619479e-02,-3.307222881948143067e-01,-1.377714598544677704e+00,3.004405454364800665e+00,-2.468892612915776219e+00,1.143509562968621829e+00,-3.021479731150340964e+00,2.284038741692176355e+00,-4.214866676688971303e+00
-7.986545440638185278e-01,-2.942719672865964364e-01,-3.248878294231284380e-01,-3.547686331015020844e-02,4.223553165372472273e-01,-1.840741012310720126e-01,2.129370495769528915e-01,-5.426685388407028743e-01,8.705066158215894745e-02,-1.078642528990592986e+00
-9.843056118425033141e-01,2.202104175145849219e-01,1.065140976199003831e-01,-5.026586373226750171e-01,8.484277972933808032e-01,-8.142475032986735695e-01,2.854489550797033592e-01,-7.685793342648337134e-01,8.130555009097982788e-01,-8.411840747619415692e-01
1.511116125045964376e+00,2.466971519591396045e-01,3.450363645437434790e-01,3.112721752400533504e-01,-9.735640522139225039e-01,6.607630230336134503e-01,-4.151363163988887606e-01,1.079844392903751782e+00,-5.401663927004425325e-01,1.781162400956844971e+00
-1.186429295420570629e+00,-8.060608062346244843e-03,-1.094619544360312807e-01,-3.905457204448004593e-01,8.688017525718989553e-01,-7.058498190791320237e-01,3.332668871881377948e-01,-8.795947436097205641e-01,6.488668558662332719e-01,-1.242978687560144069e+00
-2.825877849801950781e+00,1.921416215908824943e-02,-2.273131554207682703e-01,-9.604596879072898608e-01,2.090950441364687773e+00,-1.719926791751278383e+00,7.953031006679408543e-01,-2.101623490540300399e+00,1.592004580580690387e+00,-2.928396365168678184e+00
-2.161199012243523732e-01,2.395267142234648317e-01,1.896482412876138446e-01,-2.608886847460450409e-01,2.938287998751983876e-01,-3.714319657854677770e-01,7.022289231716360991e-02,-2.014747790883534839e-01,4.099982861653558852e-01,-2.457686748768793394e-02
-7.470211704890451776e-02,-1.460103899613414968e-01,-1.334326283335479646e-01,8.997110149065203066e-02,-2.714724246620903170e-02,1.021824716482795936e-01,1.523898296734203274e-02,-3.047889497474689721e-02,-1.353221145695623073e-01,-2.001278072034209654e-01
8.236916799470129780e-01,-5.579568760156432550e-01,-4.141139147912377139e-01,7.148529073548131052e-01,-9.201930233741201226e-01,1.057945113171260720e+00,-2.536245386596168716e-01,7.071241083817305650e-01,-1.132842250176252064e+00,3.909509641631036536e-01
-1.547691118899047868e+00,8.444603527445154745e-02,-6.020713217065018497e-02,-5.842323260237224369e-01,1.186766398100240760e+00,-1.016471297979388178e+00,4.384942688489656404e-01,-1.163680164841510933e+00,9.614239922819054485e-01,-1.541925406580253011e+00
