1.064222105634761828e+00,-1.194613011780737866e+00,-6.216404315926757906e-01,-1.445790615111239408e+00,-2.137669228900686835e-01,-1.423206721309643541e+00,-2.629815051364932099e+00,-4.106108317384459028e+00,-1.207975371584544488e+00,5.248478291566759379e-01
1.701121219053393974e+00,-4.014179551665441048e-01,5.180922306855241244e-01,-1.529299228430779645e-01,-1.663327261000524249e-01,-7.702411441163145023e-01,-3.090013718119128949e-01,-4.481294616417748067e-01,-7.603904494672890646e-01,-7.343480617574723590e-01
8.352614047202213676e-01,1.360490305964522639e-01,5.883371449352070570e-01,4.016412253392443454e-01,-4.293180113844161788e-02,-4.580194113392757616e-02,7.086155071989719278e-01,1.130852948782728129e+00,-1.147880248253247831e-01,-7.081136006283960116e-01
3.530988722150092407e-01,4.294200823965882985e-01,6.215167313909872870e-01,7.019842750717938396e-01,2.509651799773066766e-02,3.516998719568302789e-01,1.259990349159941347e+00,1.986108677216495977e+00,2.401251795019523627e-01,-6.873260354175574349e-01
-2.843223975935591952e+00,1.261541269333558146e+00,-2.738887122083699110e-01,1.100772673945865865e+00,3.466830493548005987e-01,1.876644813434157344e+00,2.041701146433448688e+00,3.143905340293320805e+00,1.729304320875162837e+00,6.112358383877112278e-01
-3.321566349140816499e+00,5.493113779099066951e-01,-1.246666002115257799e+00,-3.694143537253876536e-02,2.975107683922271207e-01,1.269998638790457379e+00,-2.202866294995708355e-03,-7.582026227922314399e-02,1.302724868796871327e+00,1.678489479423759256e+00
1.328834914087548003e-01,-1.960191334827067866e+00,-1.893011155841168192e+00,-2.772086708806776212e+00,-2.372791736219159731e-01,-1.984622549188187701e+00,-5.005253887814840041e+00,-7.856273160330106364e+00,-1.556439077148872974e+00,1.954820677414765395e+00
-2.444561579481461688e+00,1.016397337758219388e+00,-3.039069329199799996e-01,8.487528783672165789e-01,2.901359466991446090e-01,1.545409173611082432e+00,1.579153907916662103e+00,2.426306190417293340e+00,1.433853217124740009e+00,5.967380594766664714e-01
-2.662308460441480396e-01,-1.153745985689527687e-01,-2.597102205691816934e-01,-2.310650087416918907e-01,5.310650685896726661e-03,-5.724799875513281872e-02,-4.118269345976307005e-01,-6.524438617986666467e-01,-1.930249010265084469e-02,3.008259605574432061e-01
-4.646846546064554995e-02,6.303908367603948681e-01,6.067656743343522452e-01,8.905685268598203530e-01,7.657078947280916703e-02,6.390593183776617225e-01,1.608075540778087342e+00,2.523961672367021958e+00,5.015305842817133763e-01,-6.261328226002051967e-01
