9.816806680860218348e-02,-5.160769917103334714e-02,1.478869326762672909e-01,5.059474516803803557e-01,1.302934782367642486e+00,1.922369811838286480e-01,-2.041903419112340856e-01,-5.636359559611161529e-01,2.687593195954717240e-01,-2.041836441637924882e+00
-1.281245113862100604e+00,-1.396446136666950055e-01,1.181675513092757868e+00,-2.112928719698358715e-01,1.871259738415888885e+00,1.619913005358297742e+00,-8.534411182858601119e-01,7.568384179625478048e-01,1.164923846280323971e+00,-6.452684950262983499e-01
1.408844090524439263e+00,6.071450746867507881e-02,-9.441050535812131050e-01,9.620723537687494442e-01,9.737367110293604355e-02,-1.309875076278162576e+00,5.367620979485256960e-01,-1.585623496712089242e+00,-7.474984009569608512e-01,-2.406458104761310501e+00
-1.857342888000487469e-01,-3.064231414976301138e-02,2.110929100539506165e-01,5.110941444171207548e-02,5.126499610489615444e-01,2.876273984195998334e-01,-1.687103395500601233e-01,2.532313369048658225e-02,2.286235628068751247e-01,-4.425686354307467041e-01
-5.308921998931217523e-01,-7.518079185927209473e-02,5.559048983530112675e-01,4.857670860130855472e-02,1.177367139693194398e+00,7.591512144719069211e-01,-4.285581325183229762e-01,1.730572474178074249e-01,5.822032101095863110e-01,-8.486369548961643083e-01
1.023881559826171461e+00,1.751769648647356625e-01,-1.187619707998327501e+00,-3.309344021178539652e-01,-2.971298854676021506e+00,-1.617351339636738716e+00,9.571098517751654988e-01,-8.881298168114537539e-02,-1.296270110642370410e+00,2.649743488609558995e+00
-2.557932358422965180e-02,9.374221039219650387e-02,-3.457929739251175416e-01,-7.629823962477284560e-01,-2.203353653066142392e+00,-4.577739159702547411e-01,4.006122074297588376e-01,7.984904391585800898e-01,-5.314019435643714262e-01,3.227052970131518261e+00
-2.312294869974140243e-01,-7.675321635489552180e-04,1.197583751644323014e-01,-2.301969612337889937e-01,-2.294760801210980472e-01,1.682880167444334440e-01,-4.830356766361146303e-02,3.348840552895339107e-01,6.983699232455412020e-02,7.036650893225170345e-01
-7.781566414932429288e-01,-9.080123671440941402e-02,7.406009218879788802e-01,-8.125236265648400069e-02,1.275516432581357273e+00,1.014252187617123102e+00,-5.442442285978499328e-01,4.110589679533370733e-01,7.419216678570696999e-01,-5.929115362632035868e-01
-1.451658090050772953e+00,-1.279678779177033376e-01,1.223088763605843177e+00,-4.771748442388960565e-01,1.417961543780093647e+00,1.681780391588473256e+00,-8.360718061810390456e-01,1.102995332730365874e+00,1.146048349123761190e+00,2.842266059554521274e-01
