4.630402718438725307e-01,-2.390194251148647808e+00,-9.491824876026977442e-01,9.444965419306824428e-01,-1.237203149264194113e-01,-1.873740279754988025e+00,1.066793077477314222e+00,-1.377891219069069972e+00,7.302146965842025716e-01,-2.872494656477805330e-01
-6.987200955471163828e-03,3.227378796017993379e-02,1.447861019793586328e-02,-4.771920790916648822e-03,3.454085497344857106e-03,2.484536033968469046e-02,-1.635343946679252911e-02,8.759359247380513191e-03,-1.393948402873851182e-02,-4.295966111646367519e-03
5.849349903095051317e-01,-2.129295642716187320e+00,-1.235561303252103338e+00,-1.031155638826668053e+00,-5.286711658113086854e-01,-1.562470048444691839e+00,1.407619387335089067e+00,1.082519156282606421e+00,1.607690410810568959e+00,1.662027009068172800e+00
8.700234900104883984e-01,-4.285332933315443960e+00,-1.791890464450491605e+00,1.260650900770388327e+00,-3.185142561586804533e-01,-3.334725634732772281e+00,2.018300752893930738e+00,-1.936587595574642995e+00,1.530377433775278018e+00,-7.180215681798052252e-02
3.066350974454373768e-01,-1.426855394488645290e+00,-6.349663581186765215e-01,2.356851368876624053e-01,-1.471857111993376266e-01,-1.099846229438305123e+00,7.169663488373206883e-01,-4.177471106037625725e-01,6.036452505779262845e-01,1.646161891509740904e-01
5.063942705257498123e-01,-1.864137832549895180e+00,-1.068808339940038987e+00,-8.408525023569874968e-01,-4.490050790382107415e-01,-1.371426432927686623e+00,1.217216280213947011e+00,8.713604038061055768e-01,1.375848873512933723e+00,1.391662970785987552e+00
-1.721687007384499757e-01,9.601527052689109443e-01,3.499977322179912420e-01,-5.296679409819435858e-01,1.612105417953037245e-02,7.612560918986773784e-01,-3.918433385278529690e-01,7.388670044463857556e-01,-2.165239681891706625e-01,2.692888124197934108e-01
1.259043105962455722e-01,-9.106007090323930964e-01,-2.473981631561728289e-01,9.082445612132518109e-01,7.541901321886357312e-02,-7.451077224334928806e-01,2.724988637897433064e-01,-1.201473046081241725e+00,-2.137585984148419882e-03,-6.711369714756399985e-01
2.910366810534473769e-01,-1.664238294101053839e+00,-5.899526427375870741e-01,9.982656025597874683e-01,-1.002307665281379490e-02,-1.324060783760756532e+00,6.596025053708478580e-01,-1.379604680888321999e+00,3.343125935881788857e-01,-5.488916278826956319e-01
-7.266976957421862338e-01,3.750037548291361489e+00,1.489698664592812971e+00,-1.479435964847616969e+00,1.946463501121215578e-01,2.939622233421761877e+00,-1.674307522771039114e+00,2.158837288591510806e+00,-1.146884143582806992e+00,4.482056735548982651e-01
