1.020955162936589389e+00,-1.016680869873392012e+00,2.134528082344019584e+00,-1.069399617534670277e+00,2.558882756557417926e-01,5.314253979125020955e-01,-5.410111176521533727e-01,-2.203624807911313432e+00,1.454568331221680388e+00,1.539308184091716880e+00
-6.020524338986342761e-01,-2.763957166969354118e-01,4.881827281379791383e-02,7.325838859550748428e-01,-1.890703136663119510e+00,2.193101088861658443e+00,-1.247779751082296773e+00,-3.734094330451237509e-01,-7.745254237432382949e-01,-2.247509683581682127e-01
1.792015408031701451e+00,5.710625677985441406e-01,2.303154044626236630e-01,-2.151251935226520473e+00,5.127894556999914144e+00,-5.807739154320262998e+00,3.263923653181646678e+00,6.308813292485475621e-01,2.329292021007492774e+00,8.651744120138658012e-01
1.246392479751135429e+00,-1.432650381630788117e-01,9.669514496331239606e-01,-1.433338146047585804e+00,2.493108174950320777e+00,-2.492914638005997219e+00,1.303408326618966440e+00,-5.933827900709822689e-01,1.671433523502965146e+00,1.023149402560689758e+00
-8.285799811958758365e-01,5.104750861920347438e-01,-1.262653746020076628e+00,9.045219973137161862e-01,-8.326163298807893742e-01,4.690449725989054297e-01,-1.237334720374496655e-01,1.187500528904753772e+00,-1.150593587568512932e+00,-1.003935824269234667e+00
1.631153215718364469e-01,3.613446278421149627e-01,-4.408393295341712093e-01,-2.318264085959846066e-01,1.081232261257374372e+00,-1.413891532338663826e+00,8.504678468067128350e-01,6.482600200646115862e-01,1.826256510381190634e-01,-1.624643441361933172e-01
3.824282450578102566e-01,-1.203816994083637543e-01,4.107696113107586755e-01,-4.308921566544364756e-01,6.131589401506665205e-01,-5.462079645986759324e-01,2.632193088581509244e-01,-3.280236122426875012e-01,5.201042397693186325e-01,3.735197171591917442e-01
5.635231073361165466e-01,-1.608372378615721132e-01,5.805803266918299066e-01,-6.368631204179951988e-01,9.363861400025601522e-01,-8.522169058484154736e-01,4.174676749281484578e-01,-4.517480812784334665e-01,7.648216170506814127e-01,5.374918389773459815e-01
4.203109056402495880e-01,-8.617209013574702592e-01,1.540291770578511965e+00,-3.886667234917265956e-01,-7.748984880826680355e-01,1.486916001243550722e+00,-1.015443274796323792e+00,-1.753577657995273764e+00,6.409304678537826039e-01,9.792535088616434180e-01
-9.473409219983373042e-01,1.249207740968943492e+00,-2.437153102470432930e+00,9.566913204699030171e-01,3.700212862864501462e-01,-1.368253401120030244e+00,1.049059641692279943e+00,2.628826364482728550e+00,-1.378747996794839947e+00,-1.666780756229576443e+00
