-3.879427138992931345e-01,2.529224125178291538e-01,4.389178195291138507e-01,-2.516511882958390456e-01,-1.496653016245208079e+00,-2.591276554223611792e-02,1.971576009675985730e-01,4.545827634765027270e-01,-2.593854512161950510e-01,-1.924161282150488539e+00
-8.357415795591844887e-01,2.645377438646210333e-01,-3.309625877435982688e-01,8.175773608977979223e-02,1.103204398635436734e+00,7.599212250497746624e-01,-9.188736656305339368e-02,1.391233849683763069e+00,2.418091159736133755e-01,-4.960692720985804272e-01
-5.921953503466915320e-02,9.752008009970922209e-02,3.352610214205672401e-01,-1.695243944583983697e-01,-1.137872545430011373e+00,-1.753841022972373875e-01,1.386641435059541572e-01,-1.717484186455973255e-02,-2.078412588713842157e-01,-1.060588013038091360e+00
-2.014908239658707023e-01,4.169848954091945892e-01,1.528576842019738757e+00,-7.663652910596722156e-01,-5.186436026790944176e+00,-8.445986080485954339e-01,6.287724663303994044e-01,-1.836017943939656505e-01,-9.504305787187501409e-01,-4.717379049012570214e+00
5.629011961001232356e-01,-2.354871388290178669e-01,-3.806077625511325446e-02,7.248287356239181689e-02,1.416668777637204168e-01,-3.450600748083665348e-01,-4.373053025440019892e-02,-8.528283648194728839e-01,8.104813752727701558e-04,1.080160598785582904e+00
-4.652686610840567338e-01,1.581900866727251331e-01,-1.345334029473055915e-01,2.121642456367381357e-02,4.456237997231284886e-01,3.912867622143762492e-01,-3.103350735696485535e-02,7.584748523234082773e-01,1.034365586456626879e-01,-4.182951940402719337e-01
-1.377202030301916569e+00,4.324984717662614386e-01,-5.609967273274101274e-01,1.423562182654070085e-01,1.870867061241212603e+00,1.262234568780606692e+00,-1.577369321760609955e-01,2.297624084501903141e+00,4.082626757920779781e-01,-7.728390126900371859e-01
4.653250742318021937e-01,-3.836723878311453784e-01,-8.921232685686574237e-01,4.805584383790064140e-01,3.034767799614959127e+00,2.647492233329087341e-01,-3.844692353588969880e-01,-4.272615437248796777e-01,5.404544205951393732e-01,3.353254542374366487e+00
1.982594997798604042e-01,-1.046834350341557945e-01,-1.124123482041028271e-01,7.391798583168625314e-02,3.855324297482927709e-01,-5.826440694827195871e-02,-5.547160346548750398e-02,-2.684254409228048477e-01,6.238013793400453560e-02,6.634706922424530307e-01
-3.470871310525243114e-01,1.331920228025141595e-01,-3.122184770229138873e-02,-1.796383689261538130e-02,9.804895730107597573e-02,2.477146074859205571e-01,4.830629330307735503e-03,5.435058238159976574e-01,3.380062124916539262e-02,-5.096904680405465182e-01
