1.273478577895963193e+00,-3.823798308034559446e-02,-9.812917245823526979e-01,-4.700138620652800636e-01,-6.760580663284279090e-01,4.695970236343082749e-01,9.125204202037268120e-02,7.796902273568514508e-01,5.876384683204798343e-01,1.374058142813392669e+00
-7.708582472857086199e-01,2.706432284839263222e-02,6.215252550459064995e-01,3.178340483792866933e-01,4.316356115071973143e-01,-2.902499436025081092e-01,-4.020959645731589371e-02,-4.659041605006853382e-01,-3.661847045079696383e-01,-8.515229500563662457e-01
-1.321082585489121497e+00,-7.293919843632294675e-02,2.267061414392740615e-01,-4.701982504904679283e-01,5.739455560621331554e-02,-3.148630882546669674e-01,-5.265219012180890612e-01,-9.828689590813914911e-01,-3.085002824565148960e-01,-8.568977830754318514e-01
9.379746597618474624e-01,1.622944057986910882e-01,6.155533928065861637e-01,1.273768781661647198e+00,5.911800549885360967e-01,5.447820110592055398e-02,7.976405964572703677e-01,8.686300232919419440e-01,-7.645466525588981432e-02,5.047614986937409842e-02
1.539104602040968661e+00,-1.912187432505091655e-01,-2.204898009893333288e+00,-1.801399083436430848e+00,-1.646276362873697829e+00,7.894045224794981053e-01,-4.458246071855638260e-01,7.182156808853982222e-01,1.097946477123874942e+00,2.392759466482385022e+00
-1.796037842905031212e+00,6.666409475571485888e-02,1.473445486700777352e+00,7.712022261353268515e-01,1.026299328176739412e+00,-6.817768539314408294e-01,-7.985420432039358474e-02,-1.079945626558540539e+00,-8.628243031323992174e-01,-2.002187968677270113e+00
1.469729379035701111e+00,-7.837619478158500130e-02,-1.373152156258321543e+00,-8.337230321336792649e-01,-9.760740386170185801e-01,5.943603908628709576e-01,-2.602081112990795031e-02,8.469189209625685999e-01,7.697680374564336292e-01,1.758706404691086744e+00
1.530485900782039277e-01,9.570168378905748174e-02,5.868382867696906313e-01,7.965966342812429435e-01,4.922950215118446771e-01,-9.701775733972178850e-02,3.956177330218104693e-01,2.487133228325906220e-01,-1.975667598720013129e-01,-3.412405888773030194e-01
-2.812785991399688434e+00,-2.914341010520598574e-01,-4.739089265720051181e-01,-2.159031710993311481e+00,-6.562823465569986858e-01,-4.621043018021374627e-01,-1.643139959499833935e+00,-2.303074556788144100e+00,-2.928241838836778688e-01,-1.137149908483847893e+00
-1.426396979462162928e+00,-2.683140782517299816e-01,-1.087229516480024527e+00,-2.119997919097480032e+00,-1.022021650671911086e+00,-4.993626429514572140e-02,-1.295480257316729222e+00,-1.354186367361208898e+00,1.737821047041427924e-01,3.183735183041314087e-02
