-3.833525771186019945e-03,9.533255240004693265e-01,1.587510232483644090e+00,5.757613237164157516e-01,-6.773544614531149533e-01,1.683227001246168086e-02,-4.592410147476730375e-01,-3.006844840355828996e-01,3.489448047221172633e+00,2.990369755161196297e-01
6.886889924878458746e-01,-1.816375542712197033e+00,-3.973386818023799005e+00,-2.018393574028526150e+00,2.268197110201334965e+00,-1.400585728405854047e+00,1.972242672619664239e+00,8.790541375004041758e-01,-1.004055418510212938e+01,-1.986029281517222689e+00
-4.874338231278538824e-01,-5.982685478528081413e-01,-3.142507394813414123e-01,3.010539028400980310e-01,-2.777267463498533373e-01,9.732460894229396642e-01,-5.005979802526466793e-01,-3.139637089902456990e-02,2.486987971971951483e-01,8.304782155557628442e-01
6.608599925109467366e-01,2.235957308371921304e+00,2.790754733045658131e+00,4.446107205303819199e-01,-6.276044766125653540e-01,-1.305871577881949186e+00,1.558487221164815304e-03,-4.042578079363928767e-01,4.849577381546107624e+00,-6.909297167460803912e-01
3.464349682187216062e-01,-8.236217599539473744e-01,-1.849255238594121664e+00,-9.614097599593457444e-01,1.077500175532751348e+00,-7.036812886470716899e-01,9.492976838677565921e-01,4.139465318961966234e-01,-4.722840695038134307e+00,-9.715400741361859271e-01
9.525595801463244694e-01,1.326307784139201917e+00,8.749331572221010767e-01,-4.942726358007188958e-01,4.319909245061634984e-01,-1.900444744247682172e+00,9.035993094332159803e-01,1.207335481494963350e-02,8.605769813518540645e-02,-1.574967126541564566e+00
6.737392047950847562e-01,1.035439449824029134e+00,7.804009886961991160e-01,-2.913302680281494306e-01,2.369367598132808561e-01,-1.343239603268821636e+00,5.928440811822117684e-01,-2.198964341583211496e-02,4.152505609904190154e-01,-1.084240989479661854e+00
7.244727836999468318e-01,1.405410884149131290e+00,1.323782025420291886e+00,-1.385013829865630319e-01,4.899114318732546852e-02,-1.441590188977121878e+00,4.987125717798455704e-01,-1.152168311655577260e-01,1.509483536300743278e+00,-1.076732274737244532e+00
2.050695412391008721e-01,6.427424710034155275e-01,7.811986558683865489e-01,1.073872822184588627e-01,-1.587438858128375485e-01,-4.057106625124907717e-01,2.476456851779630999e-02,-1.094219936082652528e-01,1.318873364127895575e+00,-2.299994507482586437e-01
-6.329890926939926721e-02,-7.849625161514126592e-01,-1.214620147049597199e+00,-3.842150601385200259e-01,4.623813864580592070e-01,1.196115624569224073e-01,2.711217387192718098e-01,2.177221806905755563e-01,-2.542360105819160498e+00,-1.080963026190063792e-01
