3.024873852187868639e+00,-5.996825609000934199e-01,1.826941390032605472e+00,-1.995313189761873884e+00,-1.006858252914160756e+00,-2.745713005760161973e+00,-3.243615341099434501e-01,-2.608997205749565396e+00,3.720621629390059137e+00,2.299642583307243804e+00
2.040095432703462386e+00,-1.855150814287473970e-01,9.543748805108942523e-01,-1.323678783598210673e+00,-7.420547999707611808e-01,-1.804032595342184964e+00,-3.220309993698549506e-02,-1.869747689485185216e+00,2.348821584590279343e+00,1.020403146607530065e+00
2.466959281940128701e+00,3.508074483738510829e-01,4.243216704012892637e-01,-1.542742982324349699e+00,-1.062792961427464933e+00,-2.055970950900710914e+00,4.511479405758781480e-01,-2.550294638735387753e+00,2.418614220227303768e+00,-1.598855039178667115e-01
1.374407515222811904e+00,-3.663797829549751695e-02,5.308692728057761157e-01,-8.828658925223862308e-01,-5.253376813873004147e-01,-1.196090387776728603e+00,5.358400144006079252e-02,-1.304086006074834048e+00,1.517626103860688191e+00,4.733521415248092556e-01
2.772922355428797836e+00,1.508198646488653483e-01,7.858990554053193467e-01,-1.758593215089155004e+00,-1.124549135899373997e+00,-2.364108001791047631e+00,2.996126044520956988e-01,-2.744101512106139840e+00,2.897102689182475377e+00,4.103747447213621502e-01
1.504965092927915471e+00,5.320620852347913710e-01,-1.446922054995475881e-01,-9.091302198830506498e-01,-7.398619235193214516e-01,-1.184822718689222620e+00,5.462419046002929823e-01,-1.715801352263627511e+00,1.242289356292681335e+00,-8.683077891599394471e-01
4.658059039573596571e-01,1.672355930384665859e-02,1.429449425861686052e-01,-2.962820215107240807e-01,-1.864283130831727864e-01,-3.990113674925263587e-01,4.299180160278205654e-02,-4.566323047807681057e-01,4.929799441278208127e-01,8.980598993218272263e-02
1.541048325453797885e+00,1.223210829569852942e+00,-1.008913732127102669e+00,-8.626346565348456119e-01,-9.527803886964586466e-01,-1.065161413304348770e+00,1.137411821360443831e+00,-2.098207546335001172e+00,7.747057825039299628e-01,-2.533144631065538110e+00
1.901786180580165908e+00,3.849303054794597778e-02,6.214061910843421410e-01,-1.212654810449693921e+00,-7.525774380546506048e-01,-1.635579485920140241e+00,1.501452923910337189e-01,-1.849348511672879392e+00,2.034569629773930188e+00,4.388414999892010782e-01
5.108182340103160080e-01,-8.291191020649554266e-01,1.232024599265153730e+00,-4.102254621578658167e-01,3.937797915368070750e-02,-6.225391314293948763e-01,-6.749925260577528396e-01,-7.444049324661064504e-02,1.161939786200977043e+00,2.152219571715748625e+00
