-1.010986377401370540e+00,5.382573544639528418e-01,-1.042466027540611462e+00,-1.047818436505552758e-01,-1.164979654047855639e+00,9.900425416637008702e-01,-4.292054073192700381e-01,-4.225013322912351543e-01,3.367489407670985480e-01,-1.577038366060550034e+00
4.332407886850915824e-01,-7.630691592676996926e-02,2.192981575642602987e-01,-1.737878309266646104e-01,6.203940276694636102e-01,-7.168572189062673017e-01,6.136979454140173429e-02,-1.555807861904107137e-01,1.944936259391745470e-01,9.067719865402851243e-01
7.830370576853767917e-01,-5.829701325290220781e-01,1.052121684605841656e+00,3.164529517810537596e-01,7.719466324034905957e-01,-4.520060257265155479e-01,4.642967913878570663e-01,6.894379216148079914e-01,-6.253498492930428254e-01,9.729628193359375343e-01
5.731326383897441534e-01,-7.805191981124194323e-01,1.291424749957094331e+00,7.329226192376022686e-01,2.872777085519298557e-01,3.398626223489695786e-01,6.207744232378740179e-01,1.276289259585459135e+00,-1.234344008514628444e+00,1.827223942424138492e-01
1.017435735810221287e+00,-8.881274273179401435e-01,1.559572432094051386e+00,5.962848010668572174e-01,9.004718655721445364e-01,-3.396577221391348655e-01,7.070177562432914398e-01,1.180752749102294885e+00,-1.099312797811695219e+00,1.068727115993755694e+00
-8.624248654761270672e-01,-3.877860341948347611e-01,3.586557873058194845e-01,1.110579975107792272e+00,-1.658611585170917335e+00,2.450023006241698109e+00,3.063512145241814033e-01,1.486724905607384351e+00,-1.571756409097663454e+00,-2.612582690515853123e+00
-2.677887971979378001e-01,4.658586806431326277e-01,-7.524720495326354675e-01,-4.857889629436013545e-01,-5.481120349098635158e-02,-3.505752980030702459e-01,-3.703798597720906471e-01,-8.169777018552614178e-01,7.987984597574768753e-01,6.600746214583372296e-02
-1.680368111331461689e+00,1.960497891675113902e+00,-3.303175184214298454e+00,-1.684274499023436622e+00,-1.099664475188375068e+00,-3.748669106782444582e-01,-1.559687256895988305e+00,-3.026808777596062594e+00,2.899229890631302986e+00,-1.026370210134674110e+00
2.627816538456360096e+00,-1.016471343262199678e+00,2.145899588425435933e+00,-2.697155482547672900e-01,3.328411324838876695e+00,-3.298629025058769315e+00,8.118282255673551218e-01,2.637651457605805216e-01,-3.550563717544771153e-02,4.671615262813937797e+00
-8.571677826872697858e-01,1.097068208675861856e+00,-1.827904012379968579e+00,-9.965970107703283620e-01,-4.848020461686936566e-01,-3.751023097216197311e-01,-8.726300455047419913e-01,-1.755556955952199516e+00,1.691838736391554576e+00,-3.784116823567629240e-01
