-3.687900315824507169e-01,-1.114587257717494673e+00,-9.384766286073096264e-01,2.081307902263949683e-01,-5.969095881260919056e-02,2.550944430254213913e+00,3.949782356898428604e-01,-8.971880620241274862e-01,1.460554489286769453e+00,-1.249385544240370738e+00
5.537728559519270455e-01,1.047529194086761040e+00,1.527625221940848599e+00,-5.009659003276725198e-01,5.227721540324094252e-02,-1.549362202954951861e+00,-7.657800543850700192e-01,4.724671930133321762e-01,-9.937754028177514520e-01,1.235142475264483286e+00
-5.871553286790356374e-01,-1.400626218617520014e+00,-1.564877507415882718e+00,4.439024483488884232e-01,-7.272679432401048250e-02,2.699111124910595905e+00,7.319759085127413023e-01,-9.060288218575387464e-01,1.609097788453239808e+00,-1.606402363898945751e+00
7.943570917522001507e-01,4.778082657150043988e-01,2.385110314747064031e+00,-1.027034280574153691e+00,1.384906523385285443e-02,1.511148243980144246e+00,-1.381109088282199915e+00,-7.540103795721734281e-01,5.375756167920210382e-01,7.227070614855599651e-01
6.539522621416580250e-01,1.269918962461220602e+00,1.797757992365238700e+00,-5.816944123043990000e-01,6.369642628419290575e-02,-1.949465765600204570e+00,-8.952418953162836202e-01,6.038851718153323000e-01,-1.236551901838390810e+00,1.492249464372552792e+00
-6.402149068217972694e-01,-2.503103493135298563e-01,-1.947778091797684796e+00,8.683052353437358262e-01,-3.120769905715168463e-03,-1.708951249390114002e+00,1.150281680546272334e+00,7.959956931539934333e-01,-6.914414883364004005e-01,-4.445017535830722011e-01
1.276388150867659166e-01,7.478673266080974047e-01,2.563259625782349227e-01,3.694439090902518208e-02,4.226217573985095732e-02,-2.202119607987857552e+00,-3.683524985520159056e-02,8.164068915129525372e-01,-1.199136648819567386e+00,8.030798908900299571e-01
4.464121693571121430e-01,1.265907689888436494e+00,1.151754393486799533e+00,-2.770001036135247841e-01,6.728642654407550328e-02,-2.784471082226060545e+00,-5.010793965284525697e-01,9.696845727457863440e-01,-1.608449887095705577e+00,1.427109753654218771e+00
7.167073865566125912e-01,-1.333760799937372843e+00,2.485735747161792464e+00,-1.457788602590890825e+00,-9.279514458837087587e-02,7.793206479436479484e+00,-1.732844014558726053e+00,-3.145941030282624951e+00,3.865721485977575700e+00,-1.154515087537455909e+00
6.003384238712742293e-01,1.831005540837453704e+00,1.524566221034569846e+00,-3.338076502153093372e-01,9.815967758513305386e-02,-4.213107548650433465e+00,-6.383871170303521136e-01,1.483707027915649013e+00,-2.409402603680474542e+00,2.050830918103086375e+00
