-1.444352354980939612e+00,1.551896126017536570e+00,1.482169909439901012e+00,3.682216320549130728e+00,2.031738484842106285e+00,2.621312356235702801e+00,2.926779000293551758e-01,-9.719560076845830121e-01,-1.651694111806158716e-01,7.361044668028956517e-01
1.312539175359510368e+00,-1.512281519595922052e+00,-1.484174407735021184e+00,-3.445654209246609145e+00,-2.435055788809480148e+00,-2.209364679161358591e+00,-3.844018758407128367e-01,8.389460467766747254e-01,5.587634261469727193e-01,-4.458244877180910781e-01
9.344138008474801860e-02,-7.026479056124572409e-02,-5.533954814326132871e-02,-2.088323683574963008e-01,4.246710767656797225e-02,-2.206055668751063514e-01,1.605011226659971979e-02,7.596839374248526289e-02,-1.100323888093705377e-01,-1.135248268653996084e-01
-1.783940237155997366e+00,2.031815632640843639e+00,1.985455956066266126e+00,4.660148892081273253e+00,3.173383365637101328e+00,3.042828961320603653e+00,4.950561248304158335e-01,-1.150507660109808095e+00,-6.648828769801908845e-01,6.575668567200645409e-01
2.341748313217441702e+00,-2.504820314391589697e+00,-2.387870343099868453e+00,-5.959017951261095902e+00,-3.228927803643978134e+00,-4.269085751866272815e+00,-4.614151373334724471e-01,1.580749386749983776e+00,2.225626009269159877e-01,-1.218147883702108469e+00
1.035851672887326380e+00,-1.137211139701014950e+00,-1.095579882981371878e+00,-2.664419498783992424e+00,-1.596956181977693179e+00,-1.838908256839931532e+00,-2.380333962283339155e-01,6.865365541496012414e-01,2.155288291998222194e-01,-4.749198008573210505e-01
-1.811196417341399023e+00,1.843936559950017040e+00,1.721208812338149707e+00,4.517861222276965627e+00,1.958427863254032175e+00,3.459988434403826307e+00,2.484577424697485826e-01,-1.263172210449521771e+00,2.019682574709866230e-01,1.146396021406271615e+00
-8.411094125836465762e-01,1.179509952534397943e+00,1.234212720029792543e+00,2.413243195302868571e+00,2.774705746695657727e+00,1.059578547304555585e+00,4.906031278270869267e-01,-4.462336389813834070e-01,-1.200940363756910045e+00,-1.744488164732484470e-01
9.130038004477240010e-01,-7.891051564580838784e-01,-6.787162408495777122e-01,-2.140485631897824703e+00,-1.769331950148308186e-01,-1.981864405211478886e+00,3.775827606506072104e-02,6.977331329251400538e-01,-6.642667192112746699e-01,-8.849452067818575074e-01
-2.020753190897797702e-01,4.183988597367739870e-01,4.782052711862591621e-01,7.114499665358874347e-01,1.445862570890280363e+00,2.594711846172743572e-02,2.746245495703856232e-01,-4.856122421588061205e-02,-8.294314116437360163e-01,-3.372064394605564508e-01
