-5.018556569817114732e-02,4.568217785916286466e-01,-8.323017060036717041e-01,-6.863082198110788124e-01,2.452717378854720187e-01,8.629874033819112666e-02,-1.998921671898300501e+00,2.057467142091411461e+00,2.109074815734678587e+00,-3.401538875936901962e-02
3.657962690807546324e-01,6.583877709378224141e-01,7.956292463712208995e-01,7.722092917777492183e-01,-6.249729033527939848e-01,-9.208323795643902354e-02,3.799521628075108182e-01,-7.091027819561032119e-01,-1.277824766178436988e+00,3.154917861829671377e-01
8.866245400831344881e-02,-1.739720280122385443e-01,6.336900688406197357e-01,5.409716920869693801e-01,-2.487339117353976337e-01,-6.722720578498470045e-02,1.278898504089896582e+00,-1.366840011834757007e+00,-1.488582849344805448e+00,7.081920375699703174e-02
1.935771146632729423e+00,4.137795226177683361e+00,3.346520910757791345e+00,3.393155446225444294e+00,-3.116738509162408022e+00,-3.992950408304241083e-01,-3.150392419846426151e-01,-1.410812103206538826e+00,-4.452014035671725267e+00,1.680635647761637763e+00
2.548173211070864919e-01,-4.277044404816112699e-01,1.725687502179782173e+00,1.478078730058257628e+00,-6.937870533530292594e-01,-1.834787916999422452e-01,3.418348215487046815e+00,-3.669324654533808072e+00,-4.022706146091769241e+00,2.047601817122729484e-01
-2.861772993698399326e-01,-9.274001397022924031e-01,-7.751123825691880187e-02,-1.667841553896347584e-01,3.687256318430018331e-01,1.652831865989268234e-02,1.169797493850331715e+00,-9.223780370885069635e-01,-4.575355543877226983e-01,-2.538066392831824225e-01
-1.324239350658249270e+00,-2.624161736959289559e+00,-2.562183981089657614e+00,-2.540210388702253574e+00,2.192321202509755818e+00,3.009496324081443186e-01,-5.190749059679828914e-01,1.704762026149923670e+00,3.775245667717991083e+00,-1.146206653028845945e+00
2.578937484279171799e-01,7.199123305119659033e-02,1.079269996043665136e+00,9.604164498566970520e-01,-5.549650946052737677e-01,-1.177223273241626705e-01,1.663295399722846790e+00,-1.904949121176012339e+00,-2.286973455907433284e+00,2.157845096017265152e-01
2.986088442989359715e-01,-5.341943362855434696e-01,2.065852266246578139e+00,1.767082751266990881e+00,-8.226352886511306695e-01,-2.194516490757135729e-01,4.123176664173583639e+00,-4.418091669234248897e+00,-4.830610659180428534e+00,2.393903625811130420e-01
8.942253174271874716e-01,1.734384795590903305e+00,1.779932116517031204e+00,1.755270271524905557e+00,-1.491394954921559268e+00,-2.082920231134522404e-01,4.844622671418951088e-01,-1.286047863640709332e+00,-2.682375416168266469e+00,7.733666383490535035e-01
