5.489927132275353117e+00,-2.568910109040279277e+00,2.466053854055815009e+00,1.708609158692861785e+00,-2.409613319673838294e+00,1.307812608263768883e+00,3.706281751501973032e-01,-2.800020732175845239e+00,-9.872368946203732287e-01,-1.567253928402992491e+00
1.516622057908063370e+00,-9.837262583088438594e-01,1.390580316186855292e+00,2.843240124055946838e-01,-6.142800919339839183e-01,-7.419212765099408857e-02,3.601044212393921806e-01,-8.447553901194478909e-01,-8.523661996334801483e-01,-7.860451501374989824e-01
8.572651447795499591e-01,-4.966282382187853228e-01,6.322264698456148135e-01,2.014075743948879060e-01,-3.583616387461394104e-01,5.248407509390967673e-02,1.476698911336023767e-01,-4.620499310353821665e-01,-3.561206195292442311e-01,-3.677540956631447089e-01
6.636165230623181088e-01,5.826962190213160753e-01,-2.013814903054811367e+00,8.182742113895272729e-01,-4.587641053812410719e-01,1.577469294784523246e+00,-7.951824000478812104e-01,-1.062864802397179703e-01,1.769892836039109074e+00,9.613664008467692756e-01
3.393343856311704432e+00,-4.310068499918932594e-01,-1.469959853732408117e+00,1.848383260911479198e+00,-1.706316472405062123e+00,2.646657010812106581e+00,-8.588064057862108136e-01,-1.430002099614143152e+00,1.836593993494648025e+00,5.217359441546540744e-01
-3.950431350326693014e+00,1.965651057484293140e+00,-2.077656237317322407e+00,-1.149266367242691267e+00,1.711943319724522850e+00,-7.549636655728929613e-01,-3.768347038463884524e-01,2.045276698370706026e+00,9.581100772756591111e-01,1.278656586235321413e+00
4.691808069429341366e+00,-2.638498176893900649e+00,3.254285915661593975e+00,1.156781018355775403e+00,-1.976227568428051251e+00,4.136478845519657721e-01,7.333920573501728768e-01,-2.508120603524087944e+00,-1.780801574312288915e+00,-1.910230889503061524e+00
-3.633436907837267693e+00,7.019506338106267229e-01,9.516189728491500910e-01,-1.814488850779865992e+00,1.781957771336679874e+00,-2.451833007721919699e+00,6.934539287095985438e-01,1.593680758798168506e+00,-1.457975888383439944e+00,-2.488612718922822153e-01
-2.046477040264386815e+00,-3.209933756002009142e-01,2.390112471882551937e+00,-1.512591594491082159e+00,1.137987516458022874e+00,-2.519287394765143073e+00,1.064235594823576658e+00,7.114123311310405207e-01,-2.336325113246148444e+00,-1.063108903311138942e+00
-1.920741780231097984e+00,2.095694338780818899e+00,-3.960746040081909669e+00,2.219451725523829133e-01,6.186030583601348498e-01,1.444411475639022502e+00,-1.255247774819966411e+00,1.290750618742074751e+00,2.876966718095624209e+00,2.090420201794450872e+00
