8.454481485363728455e-01,1.301092747689903684e+00,-3.954593359191923008e-01,1.346059622852906479e-01,-5.385195488300503763e-01,2.965136562963667233e-01,1.275421763659959407e+00,-9.869587985104317784e-01,3.173692411937242830e-01,-9.588399329685373118e-01
8.551651788225625994e-01,1.178092626563575607e+00,-1.804878459855264294e+00,6.927208919977693169e-01,-1.520546174460756239e-01,6.166143678209610179e-01,3.924146181309041137e-01,9.984132132677884242e-01,2.183536561938889786e+00,-8.839005141837010804e-01
-3.029563042501803305e-01,-4.103832801663394036e-01,7.104425123516022733e-01,-2.735495065801692993e-01,3.401405175391473967e-02,-2.344587097843223722e-01,-9.363060638112076506e-02,-4.546642588935932427e-01,-8.677283160903630499e-01,3.087898855558488531e-01
-5.632995556687729888e-01,-8.071360169396366580e-01,8.719297581345069048e-01,-3.307318540053875155e-01,1.887440714182839763e-01,-3.347176184207483751e-01,-4.610036619754678267e-01,-2.071857970463276133e-01,-1.018105085187769987e+00,6.016206478314966022e-01
-3.169399032515447079e+00,-4.740114613547669720e+00,2.881678498887866091e+00,-1.058923568709460472e+00,1.627726001610488860e+00,-1.426975567011393053e+00,-3.887242298861407708e+00,1.711256492735938384e+00,-3.044729554749446176e+00,3.508868051876147032e+00
1.222584126952101391e+00,1.876628032894665399e+00,-6.212945704333598940e-01,2.142331739697757587e-01,-7.649261219063812067e-01,4.399245317462467386e-01,1.812775879407396928e+00,-1.356966635933340992e+00,5.244721132698614285e-01,-1.383533084749249298e+00
1.130506743347245546e+00,1.753637799545448850e+00,-3.876771585667865838e-01,1.240839976565412534e-01,-7.595333147488486647e-01,3.646771801332218121e-01,1.795623930210671571e+00,-1.520299092625670534e+00,2.372873246157804761e-01,-1.290765275486661201e+00
6.086771595195462209e-02,2.593113000508954352e-02,-7.183161429775938300e-01,2.829863544455552549e-01,1.540373202008873121e-01,1.768552805080911006e-01,-3.489637870731013281e-01,9.094055953029384076e-01,9.374150869035646760e-01,-2.682191464177163462e-02
7.912875638911849308e-01,1.248517376619706853e+00,-5.672989139464183761e-02,1.825152731146421426e-03,-5.916135811545202294e-01,2.068715469925785089e-01,1.393965558228784873e+00,-1.369155134770704274e+00,-1.184481035003855792e-01,-9.165909876573491433e-01
1.295126815838732459e-01,1.466971479843069970e-01,-5.963909180121403919e-01,2.328919675661181576e-01,6.726136042642760771e-02,1.662072787041522781e-01,-1.469853181951926435e-01,6.103458664674754619e-01,7.589719972978030693e-01,-1.140984077428186805e-01
