1.707936077732821412e+00,1.586086272673447040e+00,1.066145555452262528e+00,9.423970528518784695e-01,-1.518332830316869719e+00,4.927111601690803422e-01,1.340451085022534405e+00,-1.019749900747106475e+00,-1.186069700209547717e+00,1.244223522163860896e+00
5.877549715154005705e-01,7.402421320733866272e-01,4.154735344995286184e-01,9.592314296787620709e-01,-9.688945436692910640e-01,8.286598763716678251e-01,4.665686974585423613e-02,-1.327317375716040304e-01,-7.512651897284924329e-01,1.307433500783784508e+00
-4.628512356276485301e-02,1.172034418121411792e-01,1.113273041053826871e-02,4.975874534034227525e-01,-3.266418305198557359e-01,5.296960667816985602e-01,-3.779528240121619032e-01,2.074120690306874015e-01,-2.505457371662155874e-01,6.907199784335706916e-01
-2.339575112277850533e+00,-2.014959515555694303e+00,-1.421029142455395355e+00,-7.759050846311201788e-01,1.717765913861321714e+00,-1.403004940888767371e-01,-2.172513925596683659e+00,1.573869035641500158e+00,1.346404130013973965e+00,-9.911643255268171027e-01
-2.386352024132729344e-01,-2.108691061531150490e-01,-1.462794987754343912e-01,-9.659553013312423275e-02,1.874820277437579674e-01,-3.242894358028995672e-02,-2.101969687811355292e-01,1.545355505372066340e-01,1.467640494393955275e-01,-1.252684533925892130e-01
-1.125146506211663205e-01,-5.608676398406259311e-02,-5.814131642419680807e-02,9.598111387535367134e-02,-1.110419683893778230e-02,1.316248346451134310e-01,-1.915289322319843057e-01,1.214986298110595914e-01,-7.279575790659907272e-03,1.369244441457277417e-01
2.114906040153615052e+00,1.665226205262240633e+00,1.245529427664651800e+00,1.911662867869565463e-01,-1.194088237877712455e+00,-4.028322139924203071e-01,2.297091455138678739e+00,-1.598075020137413205e+00,-9.413905547698766529e-01,1.894055368656528127e-01
-2.414954716121942901e+00,-2.107742071331089040e+00,-1.473775546438590656e+00,-8.918936913693731316e-01,1.837082163938231760e+00,-2.392754614261534407e-01,-2.183090472140402749e+00,1.593308792905953952e+00,1.438953488401618186e+00,-1.149103441686813554e+00
-1.808170642526908622e+00,-1.474416254410428229e+00,-1.077553858251657060e+00,-3.290332765462087306e-01,1.137325135717101254e+00,1.725084172384709347e-01,-1.855792792864566998e+00,1.309390850287430519e+00,8.943393875011730332e-01,-3.912521110353257003e-01
-2.620031834113504057e-02,2.080573670770375500e-02,-5.076826067903048197e-03,1.329482628026322222e-01,-8.034262311862343242e-02,1.454601876907195834e-01,-1.168254492461127114e-01,6.630026408210347444e-02,-6.146031453036623904e-02,1.850432248398126145e-01
