5.375369459650215787e-02,3.943242140644197258e-02,-1.616934527632387653e+00,-9.781009829860781712e-01,1.570046032776469813e+00,2.278783806994908456e+00,-5.043005785094089033e-01,2.284870436599899968e+00,8.816170703583166013e-01,7.606960210782007792e-01
-2.666592387100115147e+00,-2.227911872603690835e+00,-3.431545986197650056e+00,-1.206724376834846568e+00,8.170072199464459839e-01,3.097699595870972988e+00,-9.849036233927496720e-02,8.459523967948870959e-01,3.892599942291981030e-01,1.544783568508842908e+00
8.323844700336907598e-01,6.932587686933162630e-01,3.970273280387094927e-01,-2.410750218055429661e-02,3.792892415322999256e-01,-3.088641021308136114e-02,-1.716791399628655457e-01,6.562882095985927977e-01,2.341166960100294625e-01,-1.656168307658898164e-01
4.496955568849703155e-01,3.726337515227493014e-01,-3.700355901296580874e-01,-3.605390071423797416e-01,7.549142336808054576e-01,7.949559166354430717e-01,-2.682656907988034689e-01,1.152576027491421629e+00,4.348352920816415113e-01,1.850343376381048954e-01
-1.701034707868567031e+00,-1.426666568175973371e+00,-3.872166782682471720e+00,-1.770452229626578111e+00,2.104918423722365706e+00,4.313179700371528646e+00,-5.682293790493165853e-01,2.837541243529419610e+00,1.136221724540814604e+00,1.775879612511661154e+00
2.163749329002731536e-01,1.841661636142304104e-01,1.320908076850997759e+00,7.176827235455572884e-01,-1.047182078951712114e+00,-1.698856644504694646e+00,3.210109435834536673e-01,-1.491842798701820350e+00,-5.815104945252309587e-01,-6.149130940997010741e-01
-3.012696869862686588e-01,-2.506210409633800595e-01,-5.318517646139528376e-02,6.253734322667271750e-02,-2.224452159161827980e-01,-1.145022534437893647e-01,8.931512009740852354e-02,-3.611053710283327334e-01,-1.324831527051731350e-01,1.743552357425086352e-02
-2.119586201338664530e-02,-1.916130856032635665e-02,-4.742896996749592642e-01,-2.753506380806936549e-01,4.271039763029204628e-01,6.453184194551623287e-01,-1.350071327042601244e-01,6.169997829920054189e-01,2.389047667705209987e-01,2.222070033427559210e-01
-6.130203034424290820e-01,-5.100777606798527763e-01,-1.441617500306622834e-01,1.058825640996511330e-01,-4.188109182307114264e-01,-1.830822754554533027e-01,1.709454366171632433e-01,-6.857054506765651869e-01,-2.506154533379659766e-01,5.235641288059916798e-02
2.257224069785457310e-02,2.341442113539916881e-02,1.431156486916404180e+00,8.437976300914687977e-01,-1.326206892714641095e+00,-1.973105166388918752e+00,4.218435114218646032e-01,-1.921360234103834941e+00,-7.429422315058923365e-01,-6.715396720802737640e-01
