-1.127524516326240178e+00,-1.640598588908896427e-01,2.634624951458246489e-01,1.135656928416385991e+00,1.247410307405068669e-01,5.977885941301354089e-01,8.324229511036950191e-01,4.483590382023714405e-01,4.645358871686920965e-01,-8.657152235868424972e-01
2.571990182873584718e+00,6.490967713896751423e-01,-3.374677593235955730e-01,-3.046671618701612960e+00,6.265956883133446675e-01,-5.954917321061374558e-02,-1.486715537219897909e+00,5.832621334631692411e-01,6.448972230410282558e-02,1.263859094499333535e+00
4.144842684075993877e-01,4.538778816468286292e-01,2.804727682768096697e-01,-1.070599828584471780e+00,1.258793624856476168e+00,1.647516512754313434e+00,2.841046812335549787e-01,2.134802567609667800e+00,1.438871918627425917e+00,-6.997120729682279050e-01
1.017799177015596523e+00,3.115685765423463205e-01,-8.109713631857105864e-02,-1.296425277085460737e+00,4.293025540309641785e-01,2.359809590232358756e-01,-5.063058408798509769e-01,5.504534423890379280e-01,2.492563004221996503e-01,3.586464843356989007e-01
2.812735035676882767e+00,6.908574093321674381e-01,-3.872679552176580553e-01,-3.300323259027320155e+00,6.222748008313934154e-01,-1.552509952494626755e-01,-1.654358808358775246e+00,5.268605025907706629e-01,-7.166693565619231161e-03,1.431293380590263675e+00
-1.712785622598487489e-01,-2.119702858357032024e-02,4.359274512606897689e-02,1.663326871548597430e-01,3.129631797589704778e-02,1.084800915865553744e-01,1.320354831176083210e-01,8.987258200415963738e-02,8.579988445229635996e-02,-1.411419744129343845e-01
2.683077774490213452e-01,-5.937723804895617130e-01,-6.693854667255393354e-01,7.799075305990039730e-01,-2.127407250785096515e+00,-3.144598316707922780e+00,-1.146909688152593088e+00,-3.804216084550527288e+00,-2.698651825348073796e+00,1.842758158191427853e+00
-9.793963112713054420e-01,1.976495174721452919e-01,5.549654572509469252e-01,4.219722098685925182e-01,1.235944036928118939e+00,2.133108167751915030e+00,1.233086077216223764e+00,2.376988464312441707e+00,1.794696165231301599e+00,-1.631786015782076271e+00
2.797839543270481233e+00,3.235281649823009698e-01,-7.338763232895882949e-01,-2.679335110145297794e+00,-5.865604494423654058e-01,-1.879846522851073010e+00,-2.190877467251485911e+00,-1.600857854174646322e+00,-1.494488512578701522e+00,2.364337318003878696e+00
-8.392502387680780274e-01,-3.652695628517799720e-01,-3.701505634686937107e-02,1.248818377702486826e+00,-7.131910576732017892e-01,-7.086846538951873109e-01,2.550162505316203587e-01,-1.087027465800041170e+00,-6.487000238421138931e-01,-1.546458303663344504e-02
