1.645414340079774662e-01,-1.121415276075054424e+00,1.683464995088538974e+00,1.020919049230135656e+00,1.270812092803707438e+00,-1.095183593524105214e+00,-1.201702665503856959e+00,1.220577856179999365e+00,-6.586518716182024891e-01,-7.142186473050711193e-01
-6.695158165858322574e-02,-4.912795027895034417e-01,9.702870997908830120e-01,7.041907136393954492e-01,1.021972136106748863e+00,-1.264227821840529842e+00,-1.169522445293270208e+00,8.603926874022278515e-01,-5.660320803896267128e-01,-4.192520108158740988e-01
1.220332048756567422e+00,-2.391691200595434275e+00,2.134794034151263897e+00,5.706926665199284487e-01,-1.989164170054998904e-01,2.569467538101505522e+00,1.458282188575784399e+00,5.667124247382863134e-01,3.304108806211912275e-01,-8.581563208933711273e-01
8.937085130995632287e-01,-1.930809899837940602e+00,1.876551195799032401e+00,6.297457921501595779e-01,1.454751830854416617e-01,1.558285072594488563e+00,7.542265573087234554e-01,6.717489596252197437e-01,8.419764580489218220e-02,-7.627581264654406112e-01
-1.102762266081960041e+00,2.821280214314828783e+00,-3.082064384604108920e+00,-1.295536381268829862e+00,-8.922378055159156940e-01,-1.130967791022115865e+00,-1.626121697555439616e-01,-1.457323524696108041e+00,2.823456669144036035e-01,1.269916303243620925e+00
-2.350598002898117489e+00,4.105531706572073780e+00,-3.236275195111165903e+00,-5.069230105481202786e-01,1.197417761359048427e+00,-5.853923129750915777e+00,-3.686388595428464310e+00,-3.736334130632011363e-01,-1.077696096968410178e+00,1.277410754493838674e+00
8.606559837373775612e-02,-4.832934994626486014e-01,7.001477419139513492e-01,4.119790362086281910e-01,4.969713324123147258e-01,-3.864916277771351938e-01,-4.478059529474596179e-01,4.905341374226094286e-01,-2.536142787664625864e-01,-2.962126361774989336e-01
5.370220660711497729e-01,-1.254319064855732524e+00,1.292002861729554919e+00,4.896049225883035705e-01,2.402706468597028966e-01,7.665421180495151088e-01,2.884912352382029144e-01,5.384264860113684437e-01,-3.224067642197677580e-02,-5.288371534385273298e-01
6.389827910904489761e-01,-1.813374350780225130e+00,2.097882950472059527e+00,9.617249763327091472e-01,8.071057416673554918e-01,3.330233045174569306e-01,-2.183973448593866662e-01,1.100227924433190285e+00,-3.208153176432922971e-01,-8.696459615375264907e-01
5.195082272841926585e-01,-8.890410075154573377e-01,6.832380669502079451e-01,9.038157195556009715e-02,-2.944094022844140346e-01,1.326852009370092622e+00,8.468094348633897761e-01,5.633074666633811067e-02,2.543137640081486461e-01,-2.685925241032653399e-01
