-2.411634900453311636e-01,3.551976536940050222e-01,1.170029341639647225e+00,7.022090940761970268e-01,1.779136584305595070e-01,1.221492439221036008e+00,1.767326688243018085e+00,-5.643462564852935737e-01,1.395561805102393027e+00,5.839847026281984599e-01
-5.159520666240844378e-01,-6.444528966146726434e-01,-1.068033769388603726e+00,-3.525982241008922546e-01,-3.039125935517486554e-03,2.450009768499584739e-01,-1.578166919950758640e+00,4.072808444421073260e-01,-3.976524378171392149e-01,-1.457653459041425015e-01
2.129400443065876836e+00,1.434982892987304526e+00,1.293436049752110906e+00,-1.624658874332635117e-01,-3.220590117242492223e-01,-3.076546126059502839e+00,1.839494871880760218e+00,-2.727520578976751486e-01,-1.309471289825229423e+00,-6.151291275583780083e-01
-2.980590868153415451e-01,-3.558775261040008075e-01,-5.752478266378093785e-01,-1.820104821684325469e-01,2.728859714657159985e-03,1.692156236101966527e-01,-8.490464199395101330e-01,2.164082687680631001e-01,-1.901727863499938498e-01,-6.789963223249412261e-02
-2.597413765478859826e-01,-2.066281408016039933e-01,-2.381050919238036356e-01,-2.190850432447216667e-02,3.065373892841085496e-02,3.219989615168925567e-01,-3.449332210187798786e-01,6.959112033909861661e-02,8.362009932753716734e-02,4.364900715933670711e-02
-9.485872183117860512e-01,3.821848201118133170e-01,2.021237409650840533e+00,1.421497963177792201e+00,4.225210183461863278e-01,3.093022365898717929e+00,3.078438251828897521e+00,-1.052871123583253077e+00,3.044116277731584219e+00,1.288749779967270026e+00
2.460042704773727440e+00,1.880645382930682175e+00,2.060956277313211071e+00,1.066465185722841325e-01,-3.111855119946393411e-01,-3.178455411335900926e+00,2.975525281341694583e+00,-5.713176064396452425e-01,-9.759283330925492272e-01,-4.892594803050793750e-01
-4.088185396198207866e-01,-5.025115313865720079e-01,-8.256017608247331330e-01,-2.686514004450301085e-01,-1.881674258804033606e-04,2.078311967438636887e-01,-1.219464330510855898e+00,3.133697493501300668e-01,-2.955070286699332804e-01,-1.074259737338689180e-01
-4.140926833332119750e-01,-6.968962472745136028e-01,-1.314074838370700160e+00,-5.203018516936223081e-01,-5.152511316472071362e-02,-1.063599566417708919e-01,-1.952249959699931647e+00,5.334501983821975379e-01,-7.520047168014291072e-01,-2.954809029475268800e-01
-8.422045741607873115e-01,-4.475460766398352552e-01,-2.063986109204080099e-01,2.227658513022165720e-01,1.601642973892725141e-01,1.419190083338661257e+00,-2.695813506735197373e-01,-3.010036463235368775e-02,8.070297908679086030e-01,3.625115701701221993e-01
