-2.719926259590319084e+00,-1.453172902068682548e+00,-1.296932851744517112e+00,-2.554809131986591098e+00,4.071092038221342246e-01,-1.556792788745178457e+00,-4.886308763388963472e-01,4.900326338805217063e-01,-9.755586481246288910e-01,-2.337265856990618396e+00
3.835492363112430247e+00,1.594314604464932783e+00,9.587723106290091390e-01,4.606462209195872681e+00,1.628894546321192904e-01,1.751600394515207659e+00,8.621150416198264388e-01,-2.007306656680887813e-02,1.215409461988771200e+00,3.432435169113544404e+00
1.899955700265719249e+00,9.638560810680580904e-01,8.079513503285906673e-01,1.897674377824994263e+00,-2.013741255406929220e-01,1.037495586003176928e+00,3.608175671857915545e-01,-2.667355311092861059e-01,6.634078573944055535e-01,1.648034637306750039e+00
5.953304053091545978e-02,-5.880803155482420275e-01,-1.157353155168159287e+00,1.423885425568475638e+00,9.954177406412655360e-01,-5.705946718697300080e-01,2.465564543100499384e-01,9.036208437335356836e-01,-1.970597873763318686e-01,2.372441052549397189e-01
-5.466603623229122910e-02,-9.691961073830851481e-02,-1.555902919716395383e-01,9.808208208164995168e-02,1.178898385514592084e-01,-9.733990406375586657e-02,1.594359996929005027e-02,1.097273092509418180e-01,-4.346537349337546013e-02,-2.664805652281705683e-02
1.525855767011171205e+00,1.054562716857964322e+00,1.185395239471352724e+00,9.050401131085024087e-01,-6.161666950791274688e-01,1.106816910744049531e+00,1.830492170992297496e-01,-6.279430808488414284e-01,6.316116054408631442e-01,1.239336475667583759e+00
1.314176313814961805e+00,-2.424916381898384321e-02,-7.627961952448597538e-01,2.837357317277546365e+00,9.801537583644406304e-01,4.364823083530883219e-02,5.124683501010018905e-01,8.346487002868524518e-01,2.154247608584060614e-01,1.347340943689629977e+00
2.435899858990503208e+00,1.120794803194932188e+00,8.159836450472292002e-01,2.686642587914833236e+00,-7.194152878199142065e-02,1.218028588626445696e+00,5.063346134964676892e-01,-1.724259472936559567e-01,8.100424423352378112e-01,2.147423086448458918e+00
2.935393633026697202e+00,8.958905099384699700e-01,1.134847474967047853e-01,4.241048323380643303e+00,6.500493172273267284e-01,1.024225749212446468e+00,7.831814329894456472e-01,4.629522514263167410e-01,8.159254209267087221e-01,2.724270348227994631e+00
3.574493784741168412e+00,1.830492363564812708e+00,1.552821914019941518e+00,3.532387026973994537e+00,-4.066192073297128506e-01,1.968613854154886100e+00,6.723065017562273038e-01,-5.270999301749353938e-01,1.254144198697271673e+00,3.095396480896557279e+00
