7.914828509025930714e-01,1.877735797851527000e+00,-8.802156329929257117e-01,1.440660622134558144e+00,-3.092558236899496826e+00,-5.579694376286415292e+00,2.179660377315093267e-01,-4.604569213214641521e-01,-1.526636525772941955e+00,-2.593053756715678837e+00
4.943553009079350025e-01,-1.959718954668787372e-01,-1.312261103719366828e-01,-2.258407301053683980e-01,-6.344287783302400285e-01,-1.255872989454021482e+00,3.052595745496634594e-01,-1.079368530924367103e-01,-1.442584207622017001e+00,4.767820759039008705e-01
1.274347126459052459e+00,7.641692423371243548e-02,-5.161140442275916618e-01,-1.038814749834449519e-01,-2.186585278115159792e+00,-4.184545376559370311e+00,7.150391129190911688e-01,-3.545763807571686854e-01,-3.510890633423401574e+00,3.383043320403325560e-01
-3.045758556833209618e-01,2.563519174658709238e-02,1.099304941802765473e-01,6.093008618575716795e-02,4.810037405192196247e-01,9.286362106418879492e-01,-1.763221224377007901e-01,7.898365652560883354e-02,8.548066142728121264e-01,-1.480908099119357946e-01
7.954451154093765686e-01,4.071378848253172089e-01,-4.320668973030281079e-01,2.307523676607624308e-01,-1.705491355635219142e+00,-3.197354443317477202e+00,4.019161857073710320e-01,-2.685041964104546430e-01,-2.063067611322586536e+00,-3.393320771573961614e-01
-6.675661592992858662e-01,-6.232094920499621216e-01,4.486909816159715403e-01,-4.251759116204510969e-01,1.698102024186772141e+00,3.141816110383129690e+00,-3.025191502468935201e-01,2.622900399240297720e-01,1.630814587973818730e+00,7.159511247317900118e-01
-3.261760532267959922e-01,3.843425610700098582e-01,8.596688538988192518e-03,3.587497373460342143e-01,1.769029712612780469e-01,4.132767285510559607e-01,-2.329216379213678301e-01,3.774141829367819861e-02,1.042941597101748608e+00,-7.051899689317923103e-01
-1.864869393733357972e-01,5.720195393645800541e-01,-1.028044396859243981e-01,4.948156873630282226e-01,-2.326997491706841448e-01,-3.374196805864251858e-01,-1.766949557219669176e-01,-2.466006620323606471e-02,7.221532989933312496e-01,-9.427153456696163447e-01
4.481842493302485297e-01,1.628604907335669205e+00,-6.712941238342882144e-01,1.280694830010032481e+00,-2.286925333125825244e+00,-4.080212390742135042e+00,5.357791616266505824e-02,-3.349392167992121805e-01,-6.624883328624272538e-01,-2.334160547063618640e+00
7.522809486940815749e-01,-1.761620624349266029e-01,-2.370147593169513178e-01,-2.432944172877974098e-01,-1.081105743617182702e+00,-2.109890864399615928e+00,4.494456354122232655e-01,-1.802725635796199322e-01,-2.151630606580585692e+00,5.386024538459058819e-01
