-1.767008318036009107e-01,-4.892346062167806653e-01,-5.111231283428743083e-02,2.645497372269323133e-01,-1.871463712549271408e-01,8.712382606370423777e-02,3.530310514555078383e-01,2.582613302259306187e-01,7.828344295975137035e-02,1.931341013939043838e-01
-1.590857886853722647e-01,-1.863824525159926138e+00,-6.217620869999948008e-01,2.157252306071511860e+00,-1.179493233216518000e+00,3.486542794959783809e-01,1.292838547518037062e+00,1.915462120400525992e+00,-5.161989838527505370e-01,-9.265999427537991995e-01
-3.079027525598930226e-01,-1.000001939495978043e+00,-1.487295084121138811e-01,6.598586352619153494e-01,-4.308769014815023723e-01,1.798171383004935342e-01,7.162013816158986357e-01,6.244304472367365744e-01,7.561068059418400711e-02,2.224923860961635080e-01
1.703810578481465221e+00,2.891393241120281843e+00,-2.457590563909769488e-01,-8.897097098959470818e-02,5.075521810845491366e-01,-4.934285517498850915e-01,-2.153256020730965226e+00,-3.312565324208427420e-01,-1.507463743055224681e+00,-3.274031179965204430e+00
1.566816821147799299e+00,8.870858297327820496e-01,-9.426974059203768741e-01,2.307083951410151990e+00,-7.917732536542038124e-01,-1.173851112460360807e-01,-7.664255455482142931e-01,1.790341747072925482e+00,-2.116565648017978418e+00,-4.380684321982335483e+00
2.032951330450322447e-01,-1.226523402592416545e+00,-6.649977661207353563e-01,2.108215560087464358e+00,-1.055678312054729728e+00,2.394675427510465915e-01,8.195662831715929686e-01,1.818599292421727354e+00,-8.276131804251457558e-01,-1.605680266758297892e+00
1.534388280572810195e-02,-1.182709044477313620e+00,-4.911479546187585421e-01,1.628917414594025725e+00,-8.539941933623672599e-01,2.250291759559559790e-01,8.085994654343462429e-01,1.426210095168676695e+00,-5.117952529175168186e-01,-9.640359575866677133e-01
-3.209293083185920104e-01,3.115169709350951166e-01,3.925966821050260180e-01,-1.137548158373539398e+00,5.125070837769318821e-01,-6.959027920706926940e-02,-1.808675189215098733e-01,-9.498820153597041793e-01,6.368273745924203366e-01,1.278625098645998159e+00
3.255536657914520071e-01,-8.660656447758566800e-01,-6.207512463492367294e-01,1.895568799610732214e+00,-9.105956084981153831e-01,1.750182771467239384e-01,5.602641136575687852e-01,1.613946257109321047e+00,-8.727263467276521469e-01,-1.722331570562237513e+00
1.031788074507788089e+00,-7.702113786547847285e-01,-1.168632149361835459e+00,3.345342076647866758e+00,-1.483408703065565160e+00,1.798190019020440011e-01,4.230380619521950103e-01,2.780369425269021644e+00,-1.952057263579787261e+00,-3.931937595794534612e+00
