-1.019927065896818474e+00,8.231417717333572304e-02,-1.781982921874783576e+00,-3.643940926921584111e+00,-4.449460461648304110e-01,-1.414285122281562002e+00,1.227362187761186663e+00,-5.569678304025134086e-01,-3.758737237242894214e+00,-3.251439803445667298e+00
1.329726663631434436e+00,9.207598055724985908e-01,2.664712273623984995e+00,2.868960627878935465e+00,2.496655318679490976e-01,6.754843696683683341e-01,-8.619463566806804256e-01,8.602881309939318377e-02,3.184318398709123255e+00,2.829225835090266816e+00
6.037566422395516941e-02,-2.067382800737937454e-01,3.844023154227654143e-02,5.852065115468561007e-01,9.122015524624627059e-02,3.131357021931167051e-01,-2.176071067610132193e-01,1.586588365255182653e-01,5.594678449933350173e-01,4.692960210268263266e-01
6.809129807309898252e-01,1.349506895990806032e-01,1.252742133061103269e+00,2.085123997222385395e+00,2.360135126736881417e-01,7.283681803281354394e-01,-6.830354155283281381e-01,2.535959222618880959e-01,2.192369504433946403e+00,1.910271144470748084e+00
5.416095602788406627e-01,1.291423304463574562e+00,1.389723947384465808e+00,-5.088278225373245034e-01,-1.928434092237765463e-01,-7.663247796449346172e-01,3.069464573019705655e-01,-5.355356818017465992e-01,-2.326876477452624603e-01,-1.043000938905129099e-01
-7.833591145625190544e-01,-6.709305331961110119e-02,-1.411940984789960662e+00,-2.560212324176179610e+00,-2.998584732738295844e-01,-9.381476696547313976e-01,8.491063491617243386e-01,-3.466428847816366843e-01,-2.669384592065074280e+00,-2.318577425163785399e+00
-7.982315696517180426e-01,-1.017998045798439888e+00,-1.754150800194196114e+00,-8.705918637916696401e-01,-3.329245675729787545e-04,1.232750477436526243e-01,1.833325918743774208e-01,2.380492892796482463e-01,-1.134886417071934828e+00,-1.060342602841658044e+00
3.767707882129221475e-01,-5.611848731624682896e-02,6.497420830142788262e-01,1.393168278513752023e+00,1.726309704392107458e-01,5.516701975097697552e-01,-4.718612921749217870e-01,2.217576948673295745e-01,1.431431380512524276e+00,1.236370837492624997e+00
1.161541217638619415e-02,-1.036398838721489968e+00,-3.236163671469665659e-01,1.936831901360310360e+00,3.378722295113048557e-01,1.192884504571135151e+00,-7.575036821010321386e-01,6.510572393657748647e-01,1.771256627547062923e+00,1.456984294764934740e+00
-5.181378364337520942e-02,-8.991257530056306901e-01,-3.905451302856039475e-01,1.468317711476550658e+00,2.677257981016055721e-01,9.547402722104665340e-01,-5.862793114728429567e-01,5.341357951960189476e-01,1.316902175738954073e+00,1.073551265915974273e+00
