2.755776678054255413e+00,-8.112390771057158556e-01,-1.980369411005892477e+00,-3.280245590290777891e-01,1.197060143064302640e+00,1.903406346976681318e+00,5.788325753091057013e-01,2.867427784701475843e-02,1.985114662391714413e+00,3.372294380113417533e-01
1.757869769602109278e+00,-1.655417479505640443e+00,-1.733746921956052844e+00,-8.365819399688603220e-01,1.524046573223338363e+00,1.277563209775085973e+00,-3.897216329098357468e-02,-6.744584184989643738e-02,1.188346370170396904e+00,2.672200458232215414e+00
2.902395158276381615e+00,-5.523442410855150531e-01,-1.960843530115961686e+00,-1.789550005288930989e-01,1.058891407384695116e+00,1.987844170059647864e+00,7.179821496093270472e-01,5.295792330871876286e-02,2.111416451902107916e+00,-2.970404384690485955e-01
2.158977567522295526e+00,-8.020858133138426549e-01,-1.620349519665059690e+00,-3.487942295612385113e-01,1.049110194322628198e+00,1.500478473547439684e+00,3.937409806554696412e-01,9.917404682889232465e-03,1.543807870144587424e+00,6.237787625324291430e-01
1.809487016476992949e+00,4.089308174110510286e-01,-9.110223216059830653e-01,3.037144607946649089e-01,1.567567080946847824e-01,1.197339207071409728e+00,7.178420379350536340e-01,8.977198907908418013e-02,1.367941672795865093e+00,-1.811718538760470398e+00
2.717743427564191516e-01,3.490415133690422667e-01,-1.790841911065640946e-02,2.041807966045875722e-01,-1.686676390204630005e-01,1.638064893744826667e-01,2.109914139771127961e-01,3.515380623934129256e-02,2.251540207212978095e-01,-8.931558611472671938e-01
4.864080333337533979e+00,-9.926927303941336378e-01,-3.313861587151098576e+00,-3.368597826641808735e-01,1.819373006066949960e+00,3.335132989210333854e+00,1.179211471017150403e+00,8.370129018127311915e-02,3.533900811091204019e+00,-3.530774125566820132e-01
-3.212527165300062215e+00,1.960983052373471702e-01,1.998669245986648635e+00,-3.085679585464942698e-02,-8.945251547812491655e-01,-2.177113544698551451e+00,-9.436652306942174828e-01,-8.990441096963537604e-02,-2.365467952349788572e+00,1.225439860642193013e+00
-1.825642650650793453e+00,5.969305598899730114e-01,1.336554099628639802e+00,2.501124039674288424e-01,-8.327904815591748999e-01,-1.264281245194734504e+00,-3.621195316854684543e-01,-1.451297086630863598e-02,-1.311020800722388246e+00,-3.518867428923838636e-01
-1.892522977498180214e+00,1.880980675216318065e+00,1.907385215959460645e+00,9.551089485608326157e-01,-1.706786502502864344e+00,-1.380927794932308217e+00,7.738379016551122369e-02,8.005300273728926941e-02,-1.272610744871332411e+00,-3.090133627347247725e+00
