6.235529378590014549e-01,1.886817681904809363e-03,1.368789593120307568e-01,-7.801306160335399476e-01,8.506218064948044555e-01,4.833975088317982172e-02,-8.352470401483846896e-02,-3.288512661047298113e-01,1.116139319066381308e+00,-1.109930005539877307e+00
-4.908789850924674680e-02,-1.501618575494603203e-01,1.294432441941222089e+00,-9.846553469490522403e-02,-2.175044127590613496e-01,-6.123878930259502029e-01,-7.181854872495539999e-01,9.773379238491189946e-01,4.318590779551420566e-02,1.711983805649618162e+00
-1.146365553885536626e+00,1.131645167991016110e-01,-1.266425407629469646e+00,1.558528726575896473e+00,-1.446774791064470600e+00,3.842947880153556595e-01,7.170469521297974103e-01,-1.351655055670865913e-01,-2.153847632468783857e+00,7.774315080086247054e-01
-4.360200877492653726e-01,1.103327552802942646e-01,-1.067154674903023848e+00,6.645026669537560382e-01,-4.827533968347336168e-01,4.191549286153084530e-01,5.978306706030513951e-01,-4.781967054394438144e-01,-8.780009513106061814e-01,-4.330447827970258512e-01
-9.278320310291354733e-01,4.208507444152292387e-01,-3.889759697778015557e+00,1.612338161946998083e+00,-8.405566380612272681e-01,1.646792255054023935e+00,2.171107102217270324e+00,-2.197702375453537194e+00,-2.030896796698656637e+00,-2.936564035783571835e+00
1.758389213500744230e-01,1.841734356026198949e-01,-1.559193330666433619e+00,-2.427363548586258801e-02,4.241585674914434279e-01,7.586381418959002865e-01,8.636747033467047086e-01,-1.257467940300466935e+00,1.543168124199049973e-01,-2.301785097159892324e+00
-1.106084061689081022e+00,4.190209935979429257e-01,-3.917661558483427342e+00,1.833975044842332425e+00,-1.085014650734940078e+00,1.627738739248301147e+00,2.188749697789409865e+00,-2.095511148306699045e+00,-2.348834816580445128e+00,-2.605299325245350683e+00
-1.605708493333535491e+00,3.485650584371758898e-01,-3.427480302267504886e+00,2.385579442119466709e+00,-1.835765600095512262e+00,1.309309963264831511e+00,1.922583861521005577e+00,-1.394744089058969738e+00,-3.182916593788216453e+00,-9.693156295366082142e-01
-1.246003202077520244e+00,-4.701137502667043777e-02,1.027080315100172836e-01,1.512796633335079965e+00,-1.743132573747203873e+00,-2.720168395935227412e-01,-4.200931953071473934e-02,9.313747319849178252e-01,-2.192529484487699687e+00,2.686187321996503119e+00
6.210458693930676066e-01,1.111481047897896063e-01,-8.143776262764155227e-01,-6.605385323904378048e-01,9.568550070651558048e-01,4.914334814698245735e-01,4.447228682625927743e-01,-1.020559846590102016e+00,1.016194461615094413e+00,-2.288822068301894497e+00
