9.174671935402605172e-01,1.131578169573858261e+00,-7.081741897802792396e-01,-1.860190318285226629e+00,1.330137611834328215e+00,-1.869188488506812629e+00,6.586499229789737342e-01,1.757647878804580399e+00,-4.278268767735262657e-01,-5.232602869933089984e+00
-4.402318790841649315e-02,3.011028760574065433e-01,7.138872355840927830e-02,-1.042762336825008851e-01,-4.172851836341377740e-02,2.797899123348156492e-01,3.654667599763766206e-01,-1.125571668464607211e-01,4.306266337263337657e-02,2.412083637225250765e-01
-7.587749625582655977e-01,1.316134963123951174e+00,8.227190066927092538e-01,3.121086158221786366e-01,-9.600557073905194860e-01,2.750444865158525154e+00,1.971310804596320132e+00,-1.632442476970363820e+00,4.966135346684016350e-01,4.264992310907929074e+00
-8.241371586295584417e-02,4.016875724018231231e-01,1.165926469823619360e-01,-1.069967170550913116e-01,-8.818942570288140770e-02,4.371330158114432041e-01,5.031862305081019615e-01,-1.978504556316282859e-01,7.034443201695492198e-02,4.560533421797591247e-01
-3.697401725696944363e-01,9.476271829932861879e-01,4.331385512963040196e-01,-1.470733546985175666e-02,-4.487784529266216627e-01,1.504085782144208405e+00,1.302798371855643289e+00,-8.197859833883893721e-01,2.614131591296708912e-01,2.069763716068507620e+00
9.174027827968868343e-03,5.150655627830463823e-01,4.594175101802522310e-02,-2.929200917228705903e-01,4.461973281634416810e-02,2.507607015383499505e-01,5.694021495662174859e-01,-2.242327794136862729e-02,2.766226900259223173e-02,-6.631181629939497668e-02
4.675884242003348623e-01,-2.083291556271290812e+00,-6.409043080432839101e-01,5.004666723339581402e-01,5.125282538697903956e-01,-2.375443614131128367e+00,-2.636209448828572555e+00,1.106995665499328263e+00,-3.866996240826662268e-01,-2.592933411896363616e+00
1.693805261946228491e-01,1.178872583251391326e+00,-2.864646595577113874e-02,-8.716213984393510472e-01,3.058714960141141193e-01,1.737390206101347978e-01,1.205291455919956789e+00,2.474761128630588169e-01,-1.748394091831791120e-02,-9.929666885114500907e-01
7.324070717149330778e-02,-9.605910713793133215e-01,-1.671495423624488053e-01,4.237875594619335828e-01,4.084559055576075098e-02,-7.113449509178708663e-01,-1.121567055079566222e+00,2.237565812069615412e-01,-1.007867943964399909e-01,-3.885298971661894640e-01
3.433538270174575358e-01,5.577069684092127444e-01,-2.508998615478362226e-01,-7.692517233638955787e-01,5.061370173709176523e-01,-6.277318123722831489e-01,3.964558121162365945e-01,6.471262925859222470e-01,-1.515998950495485165e-01,-1.961981940260238311e+00
