2.264812749485912713e-01,3.362281820477424077e-01,1.392082777843901331e+00,7.752961967557551182e-01,1.359979638480297126e+00,9.826735534976778208e-01,-2.190279664852014641e+00,2.358541539164354273e+00,-1.665347881549741338e-01,-1.762332077682206455e+00
-2.682470581466392945e-01,-3.373706915003564233e-01,-7.561266641324085880e-01,9.202909834086256402e-02,-3.793224657118912102e-01,-1.016648840569856160e+00,2.582164634384057633e-01,-4.463128152289416728e-01,9.903115099330636051e-01,7.076188661604096986e-01
1.336835718122041605e+00,1.595543879648004371e+00,2.510135270627938731e+00,-1.882510926531699935e+00,1.548301458416972975e-01,4.859054166118383478e+00,2.005384045373826751e+00,-1.083765034367137670e+00,-6.053030358157299062e+00,-1.581983728893787466e+00
6.114434564182412712e-01,7.634169739788534415e-01,1.641570074483066799e+00,-3.025179171501651831e-01,7.515806148779318185e-01,2.303836703175166978e+00,-3.741348216923260916e-01,8.018547167496636874e-01,-2.330124357439236960e+00,-1.486290885106253290e+00
-5.122756674974939667e-02,-6.571577346708896983e-02,-1.632835400536113979e-01,-3.798322352405804000e-03,-9.849168428429548594e-02,-1.972659874757683451e-01,9.873049102485170758e-02,-1.348883840190606698e-01,1.723437483815662419e-01,1.643233509397566683e-01
8.425095490455708491e-02,1.489832877951746681e-01,8.684956519957673926e-01,6.852549234683729118e-01,9.896262813604672637e-01,4.233904825905403513e-01,-1.732353790274718364e+00,1.799344528427548884e+00,2.495650270379010660e-01,-1.197535559344535150e+00
2.952578407674534278e-01,4.016691895547727098e-01,1.277081421113958060e+00,4.021349092771800415e-01,1.031149524246513849e+00,1.192389041913139991e+00,-1.448231415893355578e+00,1.660846321473277598e+00,-6.948458904861591900e-01,-1.466378342766485599e+00
5.766423336817894096e-02,5.479524016114867280e-02,-9.748182167272917420e-02,-3.140703272776369515e-01,-2.771647649391694723e-01,1.756563709895291037e-01,6.249319292090352862e-01,-5.877583944916464631e-01,-4.438940601190586865e-01,2.497765490009304923e-01
-5.149496286189213512e-01,-6.352473596774589337e-01,-1.269683380661770888e+00,3.824688108882147164e-01,-4.773272870133616896e-01,-1.921651053259701314e+00,1.984617535754906736e-02,-3.786513014247100406e-01,2.062636046704867443e+00,1.077352639038232418e+00
2.385729286826827888e-01,2.549194821716040948e-01,1.054540510798449016e-02,-8.310080911505574042e-01,-5.757894749800759326e-01,7.950020808784993287e-01,1.502527196100161611e+00,-1.343539834886338324e+00,-1.468837060227231373e+00,3.937440729349112600e-01
