1.717632970728761588e-01,-9.598058016623223221e-03,7.517906848859494395e-03,3.743724462271365572e-01,3.749950642058150763e-01,9.240243167109121747e-02,6.116801793564371342e-02,1.726180268722771194e-02,-1.917366286887510762e-01,2.418029869098725360e-01
4.666709478741815076e-01,-3.332874006404638600e-01,1.406265878997547403e-01,8.473958070177969315e-01,9.484073377982563668e-01,1.375198347870881799e-02,1.369811514811548891e-01,4.000708229125528315e-02,-4.648194745019172403e-01,6.077559946209969421e-01
3.913161130717586200e-01,8.546782820841014594e-01,-3.258347701113920025e-01,1.337251220201577606e+00,1.055285843550812785e+00,8.875886755248395543e-01,2.226945989477470966e-01,5.899156673416246915e-02,-5.969378249015305782e-01,6.912870547470393312e-01
-1.308305608335534220e+00,6.405358507306666560e-01,-2.792786785010455408e-01,-2.538022175195889130e+00,-2.726212158852754808e+00,-2.655189865198268606e-01,-4.119615329231992584e-01,-1.187513827060147215e-01,1.356788914895638687e+00,-1.750901268467695004e+00
-6.028372011912579431e-01,8.287569085442328953e-01,-3.374697588344272026e-01,-8.746084625173407012e-01,-1.133837177713126865e+00,2.898365820403149273e-01,-1.390877646381062926e-01,-4.274634512568127598e-02,5.277025068599325852e-01,-7.213013250853879121e-01
-4.030861455369127988e-04,-1.179667824297003564e+00,4.615551937037097874e-01,-6.527302184404008001e-01,-2.713419739079598880e-01,-9.114521130990265174e-01,-1.123057669379426277e-01,-2.650678757769273086e-02,2.159432423945029655e-01,-1.895296314369470103e-01
-9.000013033089976355e-01,-2.967859339701318433e+00,1.141508012144710094e+00,-3.629342520895657120e+00,-2.656847379961741140e+00,-2.815496530916281159e+00,-6.074655433256912485e-01,-1.581600169351388141e-01,1.555980821000491066e+00,-1.750439473029375748e+00
-2.380865512594997568e+00,-3.503093625290476520e-01,8.491080251963145642e-02,-5.456376439294871261e+00,-5.308741052217818002e+00,-1.654177168151399258e+00,-8.938251875962038850e-01,-2.501152704156157647e-01,2.746015628947174658e+00,-3.429130780084043373e+00
-4.126280242774934548e-01,6.687741698488082198e-01,-2.707073641929036434e-01,-5.425589384448610275e-01,-7.528125751093011075e-01,2.767958776779941288e-01,-8.555106048067759317e-02,-2.698152144450709916e-02,3.426574244411124681e-01,-4.774542409987856395e-01
9.611070699122906680e-01,1.392471329899963806e+00,-5.237735618968584195e-01,2.893915382246695422e+00,2.429855181013065302e+00,1.634120374479825610e+00,4.797668252125751875e-01,1.290338762209036760e-01,-1.337040826469618526e+00,1.584664376727054957e+00
