3.879880792728319927e-02,-4.860866330168064353e-01,-2.768393862604122679e-01,4.586072391096762679e-01,-5.839026723980313832e-02,2.705870412337691988e-01,3.592166544900385894e-01,6.544081993525237007e-01,3.709081796038673356e-02,6.295497672214325768e-02
3.358248602489181112e-01,1.375166348534872240e-01,5.863573365295530193e-01,3.220306470683956257e-02,-5.882892200958392270e-02,-2.299089735032295023e-01,-1.950611135248024874e-01,-7.813778274840605942e-01,-1.378796162049540641e-01,-5.359422576656467374e-01
1.919065886507690166e+00,1.830312940533927346e+00,4.067716058319263972e+00,-7.624755034871937287e-01,-2.288242779959003548e-01,-1.932100156574952265e+00,-1.909000281489025674e+00,-6.014660443418351043e+00,-8.982324744500688185e-01,-3.322463332590857910e+00
-1.696959871013859367e+00,-1.410458062605638663e+00,-3.454135748378843740e+00,4.857217686635475484e-01,2.237216099163003569e-01,1.585345445079464177e+00,1.529858913842589763e+00,5.009943960287873921e+00,7.723022165455124544e-01,2.886184560051274328e+00
-4.715840259641326804e-02,9.538355796999475888e-01,5.856819426913124627e-01,-8.863827693416772568e-01,1.082823798049360603e-01,-5.437793639297079373e-01,-7.126885220035412694e-01,-1.333945260307576763e+00,-8.342561657301891809e-02,-1.668253063973911265e-01
9.293380672312671065e-01,1.157138169753620938e+00,2.155734410129699352e+00,-6.146204956539821351e-01,-8.298063906349704977e-02,-1.095941316415013578e+00,-1.130392542676782908e+00,-3.314399163678363180e+00,-4.635841407668571112e-01,-1.676316287650069903e+00
-1.152874990191860238e+00,-1.145237858859966540e-01,-1.767491134912332784e+00,-4.345765970144495061e-01,2.387087433079361221e-01,5.776044259210354470e-01,3.977082063499333131e-01,2.151990631384546049e+00,4.355684089909886425e-01,1.750920904648266774e+00
6.512148892412350509e-01,2.013251099166773805e+00,2.335987992823366000e+00,-1.520300982321269867e+00,6.543829119697854024e-02,-1.479738178321125197e+00,-1.706535228718069508e+00,-4.106283211699736313e+00,-4.518503516530324449e-01,-1.473762958917753885e+00
-8.116199413137916707e-01,3.241379398763547526e-01,-9.664563380073449839e-01,-6.727340380029436240e-01,2.096521259409198645e-01,1.670281125133983302e-01,-2.783746406703657694e-02,9.145256821880215492e-01,2.638860911988697433e-01,1.131951249782561675e+00
8.011345647403289583e-01,1.070099496105972658e+00,1.908177705189471496e+00,-5.956135971520718497e-01,-6.407242690562797716e-02,-9.877251925607966054e-01,-1.029658285469482459e+00,-2.964861224856793598e+00,-4.072993035665085082e-01,-1.463124017037119584e+00
