-2.710300340143754205e+00,7.767277788893139912e-01,-8.742990415216227440e-01,-3.932763380923558483e-01,-1.901463431073508459e-01,-3.238309861194764439e-02,-2.119123397329195413e+00,3.096529103663953730e+00,-4.090255742676378592e-01,8.863822686523916694e-01
9.195808736963154151e-02,-1.315853467133575871e-01,5.775492505767028106e-01,5.940872339170367999e-02,5.947344276189039936e-02,3.117236859523681361e-02,4.983770611038570442e-01,-1.006395529446836301e-01,3.735032695260285807e-01,8.655064077580792992e-04
-3.847565146021951765e-01,-8.349834284139027174e-01,4.797287111041425689e+00,3.579530414973376984e-01,4.492787907860145702e-01,2.655407441406106295e-01,3.530017938251273080e+00,4.793150865997439780e-01,3.172286421376668386e+00,4.037486218618980827e-01
2.213458177518534242e+00,-4.505436568102950678e-01,-2.429084674852353132e-01,2.407250456038679265e-01,6.268146517769898618e-02,-2.607977022099085274e-02,9.857701011300634697e-01,-2.536610004796123530e+00,-2.940760165509810342e-01,-7.779331015172309405e-01
1.541208521498021788e+00,-2.423214850698444667e-01,-5.408113027240608606e-01,1.363645020644078665e-01,7.675216553124364349e-03,-3.856056291879484538e-02,3.970664053064422161e-01,-1.769216316176940307e+00,-4.487263573320413590e-01,-5.626559287801585763e-01
-3.565797384625407074e-01,-1.585717080677962743e-01,1.242619695680545311e+00,6.240725164163084260e-02,1.063706214128863348e-01,7.026131249413201940e-02,7.779986377031211653e-01,4.183537221033075126e-01,8.373301295929564958e-01,1.932843717211612244e-01
-8.938482802018712370e-01,3.410071922337466477e-01,-7.300829930685023283e-01,-1.668421487679044024e-01,-1.054595282563010883e-01,-3.492724315284517073e-02,-1.042734713197605689e+00,1.017659207842242841e+00,-4.248496319977074220e-01,2.673803477131224127e-01
-3.531667285364499254e-01,9.331427479167886396e-01,-4.445345922614925449e+00,-4.154241550625331625e-01,-4.439531874609202733e-01,-2.419731400955043576e-01,-3.647737064386943118e+00,3.685279860863879264e-01,-2.896392087166865803e+00,-1.290996633155364059e-01
9.363259640488481583e-01,-2.341186714997096074e-01,1.238937246273013049e-01,1.208864328435331759e-01,4.844917727494273130e-02,1.408650041921331864e-03,5.934194322667706301e-01,-1.071194359792915884e+00,2.437032381633535971e-02,-3.162783130996961733e-01
-6.630734321207976123e-04,-6.097662109573644962e-01,3.175502452162938472e+00,2.669123943017750467e-01,3.072855711893949793e-01,1.743084686733804012e-01,2.471478598974163887e+00,2.639429807570281561e-02,2.084403287827009787e+00,1.795530418867365974e-01
