-5.666383381383225393e-01,6.701245179963155607e-02,5.248566089969886050e-01,-1.960626536783445673e+00,-2.000660743971693023e+00,6.615587017748519871e-01,9.545803607464168339e-01,-1.319173685639125848e+00,2.101032097417914191e+00,-2.776761825385731797e-02
-1.124760093148267082e+00,-8.399089315262654454e-01,1.665815507615978630e+00,4.419466165824691428e-01,-3.651338017815548564e-01,-1.303756495505702606e+00,3.278967002482330972e+00,2.918091797824310940e-01,-1.707861066614254630e-01,2.215783397116922515e+00
-5.010786274442999844e-01,-4.851304149730557014e-01,8.132777263321221417e-01,6.911048175543623717e-01,2.485749123525664017e-01,-8.792557684383236483e-01,1.618622755505574107e+00,4.618941960495658305e-01,-5.711631878662237760e-01,1.246100974192490884e+00
7.172617539734958969e-01,8.881367755785936069e-01,-1.288387483877015960e+00,-1.852091940263613568e+00,-1.073775379346751713e+00,1.779613156135609442e+00,-2.592530822657892031e+00,-1.240600889427167397e+00,1.681904460424299641e+00,-2.235836046252253073e+00
-1.409006366692684697e-02,1.546936557475854512e-01,-8.509364619247060391e-02,-7.303864769900132448e-01,-6.169388320300147610e-01,4.280557882394570579e-01,-1.939707393381762401e-01,-4.905554625158577431e-01,7.350637927835461660e-01,-3.578704729571925980e-01
3.697612460811019464e-01,-2.376546368455634273e-01,-2.181214828865032374e-01,2.143218870826931965e+00,2.024314009809053960e+00,-9.533131136923214122e-01,-3.470217649987209496e-01,1.440922151443324362e+00,-2.236343814886448733e+00,4.707599772328076027e-01
-6.356409553842468085e-02,-4.717034436022400912e-01,3.662275070685521161e-01,1.914666639515073321e+00,1.551785285158626904e+00,-1.214772555869268800e+00,7.888554911858628449e-01,1.285518173045650414e+00,-1.902630314730431094e+00,1.115430877776698804e+00
-9.936587715611872040e-03,-2.635391908203928990e-01,1.789796287895012439e-01,1.144742019583854908e+00,9.460705058880678475e-01,-7.004145741523438717e-01,3.933407048074345491e-01,7.687106661396183593e-01,-1.144331435212541326e+00,6.173809241611873944e-01
2.580331050566442991e-02,2.362725093857880043e-01,-1.773922603539981879e-01,-9.767451911290417899e-01,-7.959410197672828202e-01,6.135965291156234569e-01,-3.839484612478610837e-01,-6.558216608935979464e-01,9.722062628602798906e-01,-5.573402247903734841e-01
4.667266250672057470e-01,1.834427311543108674e-01,-5.853643976436143648e-01,5.519447757358930673e-01,7.633889959289261729e-01,9.697008926448069666e-02,-1.125770318825900063e+00,3.727270633651745824e-01,-6.657440350839036736e-01,-5.341348101153682304e-01
