-2.620256981971219035e-01,4.046670100026832362e-01,1.632211441779510830e-01,3.179800725987787235e-02,1.704084734201689599e-01,-1.793992026145524998e-01,1.292161851081711221e-01,-5.224717594814231036e-01,-2.912222982162929186e-01,7.181005948783690529e-02
6.715968672099776882e-01,-1.023813211586706240e+00,-6.418031948086485583e-01,-1.829728218288503849e-01,-6.536448515509051260e-01,6.025733327599851474e-01,-6.714323285808156960e-01,1.423125701676866584e+00,3.843971940987738201e-01,-1.413068127807609875e-01
-6.917777899285086907e-01,1.112085127186940525e+00,-2.988077173658025276e-01,-2.474267041970275582e-01,-2.583434332456757132e-01,-7.433665799703038056e-03,-7.699781512825479846e-01,-1.105127958788298725e+00,-1.951158211762469508e+00,3.291935789126817502e-01
8.580446621193871248e-02,-4.003678385642474996e-02,-1.597067892469164807e+00,-7.113838967312374750e-01,-1.553965401786938649e+00,1.044914468422629250e+00,-2.392704598934103810e+00,7.512355254870295429e-01,-2.405582568921217579e+00,2.717988308848162116e-01
-1.136700203431704193e+00,1.776269017026785413e+00,3.613358292668911176e-01,-1.951307878988443531e-02,4.027260121063991338e-01,-5.567366657098270499e-01,3.259553144205611791e-02,-2.136231964232431668e+00,-1.825138282117888755e+00,3.778564429977352979e-01
4.880999549953433658e-01,-8.470165623626837448e-01,1.251712012939546703e+00,6.472512718238062623e-01,1.192509880663223276e+00,-6.597399668702593756e-01,2.128173850034220660e+00,3.885505519201741254e-01,3.063105600391752059e+00,-4.314042419665515271e-01
-1.826606996662166749e-01,3.881513946597809905e-01,-1.656446058848330072e+00,-7.817103466991508487e-01,-1.599306432937051881e+00,1.005880488422314478e+00,-2.605361434096002515e+00,3.010915466586179257e-01,-3.071112980815895455e+00,3.887272067949369969e-01
6.712738592375919744e-01,-1.062072005842875644e+00,5.331521759147338398e-03,1.108447314178498816e-01,-2.555201221428692743e-02,1.890475399296415726e-01,3.137802409085462818e-01,1.179342218143124787e+00,1.432190292904596873e+00,-2.649850293472515994e-01
3.106842992215886334e-01,-5.438213124852477875e-01,8.748579502271123243e-01,4.474623942535885246e-01,8.348742526794522556e-01,-4.698451679604593312e-01,1.473571429515680320e+00,2.179588297310524891e-01,2.076291661506656006e+00,-2.895420265985094721e-01
-7.471454517829563269e-01,1.205643739576838236e+00,-3.986860122293320874e-01,-3.017252831505275457e-01,-3.527461669766669417e-01,4.050144326164396846e-02,-9.472693037267684302e-01,-1.165029495496249901e+00,-2.230396243947092572e+00,3.700738146386052252e-01
