-6.695474898576228018e-01,1.589100342955187761e+00,-2.158188015364074452e+00,-1.156988550521848236e+00,-7.811384017499141130e-01,-1.444672172805376853e-01,-1.478249682847589286e+00,6.257981267474154174e-01,-1.800918488774410908e-01,1.066264069906960543e+00
7.042515614722284489e-01,-1.473553624575484333e+00,2.024670435095894394e+00,1.153108777265263285e+00,6.191602889661695919e-01,2.119381225601803531e-01,1.380030765123191339e+00,-5.539444205809039845e-01,1.746605321984164017e-01,-9.111805111838420235e-01
1.647479404608299225e+00,2.187308755772634949e+00,-2.249438463278055522e+00,8.797735043739877137e-01,-4.315640634761003014e+00,2.203461939138093850e+00,-1.749206459318455531e+00,1.673203145327497587e+00,-1.178391929561339868e-02,3.856962879671521627e+00
6.459143729292393665e-01,-3.940150122088349471e-01,6.698367857757989707e-01,7.486980391704971538e-01,-4.116308321030501260e-01,4.845706151136405793e-01,4.198651360937710741e-01,-3.517119696533899109e-03,8.875727063098742819e-02,1.819425478602680890e-01
8.746943054188827116e-01,4.666016512822392936e-01,-3.329690115727184652e-01,6.912160943596475926e-01,-1.580612688123783860e+00,9.593330115287653781e-01,-3.149915491532470635e-01,5.222783789489555684e-01,4.557386583251470114e-02,1.309413067543554243e+00
-1.043339844807024130e+00,-2.737686468948862806e-01,4.654455131207037299e-02,-9.157192380351010241e-01,1.596060966656438262e+00,-1.058588403297421543e+00,1.258967337398122499e-01,-4.739571433481429286e-01,-7.545953385369619237e-02,-1.261307134614908732e+00
2.249497656883462149e+00,1.287607310688160256e+00,-9.649528832106193388e-01,1.749368844472682483e+00,-4.154584253451906406e+00,2.493724026569338559e+00,-8.874881645005080477e-01,1.389343888595858001e+00,1.106673566223243671e-01,3.460616406495903075e+00
2.353376921495250684e+00,-2.882572738856220562e-02,6.963769460666511257e-01,2.274030940508976695e+00,-2.938892450101787457e+00,2.191880254355038193e+00,2.870153572065642922e-01,7.284765781184846523e-01,2.184301816460675338e-01,2.158067537849087447e+00
-8.850242715469280874e-02,-6.399526187408165478e-01,7.685958108201741412e-01,1.212869350969298654e-01,7.663054072085559998e-01,-2.767123365555365089e-01,5.555086441363734640e-01,-3.651891512471737156e-01,3.961190656597953635e-02,-7.624777516128551369e-01
1.645546103620694423e+00,1.059281743438493795e+00,-8.514059311684083475e-01,1.241826870516124393e+00,-3.159224750057348263e+00,1.859775478225929479e+00,-7.529037394883340006e-01,1.078179475614844840e+00,7.219798765750330694e-02,2.656251147192407736e+00
