-3.102736790017480706e-01,1.185303161917731885e+00,-2.624650416805514475e+00,1.712498840378722464e+00,-1.642114006421721673e+00,1.893111573254431024e+00,7.634292834210734124e-01,2.137071981663797970e+00,-1.833760053122335476e+00,-3.318061393571640483e-02
1.168989812083810920e+00,-7.348778152735284674e-01,1.571878533746186246e+00,-6.170678712325002868e-01,1.491588864632567901e+00,-2.019491642529999686e-01,4.788737162986244633e-01,-7.696462181365197885e-01,1.405982588442469261e-01,-7.194540100403653549e-01
2.233157951831862942e+00,3.661255268653388351e-01,-9.427947852913725058e-01,1.589387201453072551e+00,6.219301369474359298e-01,2.902169046694067500e+00,2.506553513283352075e+00,1.984412824758165383e+00,-2.942389895304442060e+00,-1.775022714266452528e+00
1.284718722367486077e+00,-8.092012451304925191e-02,1.075311848844753004e-01,4.583900681014784761e-01,7.247018852445459292e-01,1.128008125278630480e+00,1.179811125592486354e+00,5.725659234956256283e-01,-1.163826853365289793e+00,-9.551663285785624291e-01
-1.264962016367142950e-01,5.241445037946668162e-02,-1.096675213003747151e-01,2.437916987176194303e-02,-1.272914167079474690e-01,-2.850077322549672207e-02,-7.619574656621498632e-02,3.037618687256376376e-02,3.396063412127682535e-02,8.398743414546504249e-02
1.269247570982124262e+00,-5.151406062147728671e-01,1.076360945787619539e+00,-2.277586815013079580e-01,1.263660653647663334e+00,3.059977752905813086e-01,7.742330147949392227e-01,-2.837510672703461023e-01,-3.603125332994500662e-01,-8.451596613876334319e-01
-2.051444741636543334e+00,-2.930977108047678747e-01,7.696985940619217592e-01,-1.392438473188071457e+00,-6.257351742577210718e-01,-2.585702060839448535e+00,-2.263711888431944264e+00,-1.738551288163200592e+00,2.624530525830611527e+00,1.620801959847796958e+00
-2.559885488321518299e+00,7.668874309180390147e-01,-1.564358674097697133e+00,3.384010169849697991e-02,-2.206215010997479631e+00,-1.122564739558044700e+00,-1.806191024900105191e+00,4.124225724435970353e-02,1.220276587423044568e+00,1.766145456536797109e+00
1.020819944324791173e+00,-3.067341053880021651e-01,6.258746904371605968e-01,-1.493046335614356748e-02,8.809401768858842185e-01,4.459460015133890343e-01,7.194393254232808177e-01,-1.823834924986567421e-02,-4.849510342805588015e-01,-7.040879598162254061e-01
1.611628146271512962e+00,-1.275427377278461227e+00,2.751755730602331695e+00,-1.260929193858506547e+00,2.386464537603296687e+00,-7.656481637662838624e-01,4.243242291781890718e-01,-1.573011484104408719e+00,6.696593712293913425e-01,-9.325079779873892694e-01
