-1.006494479451621599e-01,-8.617239271677645807e-01,-3.730887030944642913e-01,-1.902735862887980911e-01,-2.118840318304747061e+00,-1.017105228082743285e+00,8.950861033746692064e-01,1.374647516585932872e+00,-1.349909718589747953e+00,6.035264703067932945e-01
-2.067254190620646526e+00,-8.044329127056186746e-01,-5.590463131689572540e-01,4.773531612511013322e-01,-2.487191289526413385e-01,-3.342752650033266049e-01,8.342110776056961274e-01,-2.798067191092986628e-01,-2.421233698770564324e-01,-3.782708430180307668e-01
-4.958225441207934070e-01,-4.476490988186357933e-01,-2.411853660677649447e-01,4.837534843014830443e-02,-7.120137362300035244e-01,-3.900865170700329454e-01,4.646730862675592655e-01,3.627742510196463877e-01,-4.724281024106779525e-01,1.018611167070922613e-01
-3.895219944508503951e-01,-3.659103446892730260e-01,-1.954621086957448461e-01,3.430932560416707910e-02,-5.958189204930756100e-01,-3.237736098754135372e-01,3.798367402100940038e-01,3.090212627702129677e-01,-3.942983724414952373e-01,9.078516192128992246e-02
-2.050947963118392003e+00,-7.127042016765513521e-01,-5.187345025595974102e-01,4.957511891315604102e-01,-2.807368961366971463e-02,-2.277500347521887736e-01,7.389349037487544791e-01,-4.217053707685924357e-01,-1.013134142100735879e-01,-4.398462834163075486e-01
1.120440754256135207e+00,4.146402492492136105e-01,2.940194440248688479e-01,-2.642668781484266982e-01,8.010220022571068466e-02,1.551883919875930717e-01,-4.299512369199510742e-01,1.877008405972585559e-01,9.648463519057787208e-02,2.211698332171307124e-01
3.881919598726598419e+00,1.250483957468811358e+00,9.404215425309647713e-01,-9.638936744596089401e-01,-1.990969717746050582e-01,3.112457876705805870e-01,-1.296311182245109883e+00,9.643942915771813729e-01,3.155065215881200369e-02,9.069800921367381363e-01
1.882441207008748840e+00,1.208100462974740719e+00,7.090415453274382385e-01,-3.112284186861088431e-01,1.444546518823730752e+00,8.830478128169668706e-01,-1.253667435599610247e+00,-5.478739607410129109e-01,9.941482370779604061e-01,-1.513999420370005025e-02
5.367536021953389636e+00,2.721063804286779853e+00,1.717446993598275018e+00,-1.075275170818871251e+00,2.265458214044849150e+00,1.637376696075871774e+00,-2.822915965445627950e+00,-3.408063718835662170e-01,1.657420135541198603e+00,5.040092177004419360e-01
-4.227984045712897654e+00,-2.047410894508993717e+00,-1.312476406446153598e+00,8.718978557783029215e-01,-1.538722028945661568e+00,-1.172998364086000667e+00,2.123916519874754716e+00,1.064973008566758861e-01,-1.149438423235334072e+00,-4.695611501962846934e-01
