1.194837071272264906e+00,2.521266465950775970e+00,1.720596230824353035e-01,2.922503790955634173e+00,-5.749906701292595290e-02,-9.854855755669071904e-01,-2.661913031442769029e+00,1.209596252257674198e+00,4.776539351787027599e+00,-1.381300499620902844e+00
-1.603783195989610943e-04,-1.259288384373330461e-01,2.999121647468285141e-03,-1.899272866509654767e-01,-6.192890020291907938e-02,-6.628584796268302548e-02,1.854550529184205709e-01,-5.699006226915034889e-02,-3.122733007067683975e-01,1.970237566437144650e-01
1.132348484953423329e+00,2.159205872842941076e+00,1.686006852457163641e-01,2.422251542231334653e+00,-1.680188233251377339e-01,-1.055687110698137143e+00,-2.183422655405797830e+00,1.042173287303195695e+00,3.955524897372597160e+00,-9.482647107338029180e-01
3.760930342201638243e-01,2.878181028403613007e-01,6.632970078786461221e-02,1.565904056650719856e-01,-2.675352270049865533e-01,-5.776813290232246656e-01,-9.243562519939313438e-02,1.518772502076801423e-01,2.484558709664717591e-01,3.579392771900589687e-01
-9.539848146451467281e-01,-1.024242593092217657e+00,-1.611706670298488353e-01,-8.411535810761927578e-01,5.335453788819809473e-01,1.309754319500190167e+00,6.680272708918085778e-01,-5.183553481829357157e-01,-1.360167026258548795e+00,-4.468781738982939844e-01
-1.300431746452883175e+00,-8.073512750770159840e-01,-2.338712329650444732e-01,-2.579565443044669060e-01,1.017707286400509670e+00,2.096814823418744922e+00,4.276293974115075169e-02,-4.401533430883397546e-01,-3.929796049487868093e-01,-1.532076861877025964e+00
1.259915193781683929e+00,2.485798507340143626e+00,1.855891079769292629e-01,2.820912545538491578e+00,-1.458453010658620208e-01,-1.130541430333811270e+00,-2.552233347781599271e+00,1.197292783584573916e+00,4.607944829574984524e+00,-1.185717731887747650e+00
1.185055927005457477e+00,1.284701158070666205e+00,1.999112353404608466e-01,1.063563045717272004e+00,-6.566786578297106880e-01,-1.620457014895305248e+00,-8.480656004628460698e-01,6.495068618193490240e-01,1.720316023949649553e+00,5.357322581505468140e-01
-2.425272588734769919e+00,-2.278452687304662660e+00,-4.175681655304959716e-01,-1.647298894741002329e+00,1.516900103254515964e+00,3.501833698384040350e+00,1.218665610478513628e+00,-1.170538046469414617e+00,-2.650382130942046999e+00,-1.646130771011411920e+00
-1.732683650528217267e-01,-2.219292111675504886e-01,-2.840886469457068811e-02,-2.069541608979645619e-01,7.920099096284895224e-02,2.188996043602205455e-01,1.742415400661355696e-01,-1.103910500924631805e-01,-3.361221106773672473e-01,-2.489811461761198830e-02
