-1.996490612869747383e-01,-1.914515273016536012e+00,1.966965155609116778e+00,1.874786279762325369e+00,-2.168650292236271149e+00,2.102502278354851484e+00,-6.660504160414800756e-01,1.223814969121941321e+00,-3.198456376439353654e-01,-8.893598345223119317e-01
-4.316444063452995472e-02,-1.400160725908476289e+00,1.336896253633721443e+00,1.563433250337986635e+00,-1.337898557910307984e+00,1.391305046002857981e+00,-6.254166215464025402e-01,6.959067900674099638e-01,-8.018169738444214101e-02,-8.583252699695969046e-01
1.063265821963446545e+00,1.635740244936340071e+00,-2.562619584686356866e+00,6.756808033124883650e-02,4.006507897120133777e+00,-3.066536255617467788e+00,-6.314139857708718218e-01,-2.773910118558960303e+00,1.607650680629547191e+00,-1.044678566534212427e+00
-1.237060237421097608e-01,-2.631787910810386849e-02,1.465612340835479033e-01,-2.004314888609767809e-01,-3.216348697589594408e-01,2.010150310889576575e-01,1.535123133429623365e-01,2.510118560683232691e-01,-1.852084915914062047e-01,2.322939801165994356e-01
2.822231785624156331e-01,8.873419471162740102e-01,-1.099084146152327079e+00,-5.142007307356308843e-01,1.462760819719698624e+00,-1.244374689579754723e+00,5.360877446968809190e-02,-9.344655088536965026e-01,4.317879527488596159e-01,2.875072601558725793e-02
-3.028416475386283557e-01,1.483950079283064549e-01,1.620688019329805107e-01,-7.405810506586913977e-01,-5.998554938074009968e-01,2.899582211557243383e-01,4.796955657796063699e-01,5.214210958539255980e-01,-4.510239985929770379e-01,7.124005321975420690e-01
-4.668529561184912580e-01,-4.046605492010814098e-01,8.353483065816548203e-01,-3.978582033711762778e-01,-1.482867307734177853e+00,1.048623608457795342e+00,4.302923867463485097e-01,1.080826653797489323e+00,-7.023715834985732043e-01,6.704446720505571333e-01
-9.831323170723289540e-01,7.068721483427244934e-01,3.180343374540645085e-01,-2.668550806718132939e+00,-1.748971374380062116e+00,7.274783181712339841e-01,1.667156096719534464e+00,1.594262885022283083e+00,-1.461667287222836231e+00,2.464744870338843263e+00
4.964922747332244368e-01,-1.241693754008705186e+00,6.571806354468735512e-01,2.386532820221987983e+00,1.036746295757473846e-01,4.729281637556148055e-01,-1.273790016998843422e+00,-4.182034108259937710e-01,7.282624443718139773e-01,-1.842203900862803279e+00
-4.834130674601695432e-01,-8.761929133951733562e-01,1.287574622243337075e+00,1.248752297476006801e-01,-1.938313666573297400e+00,1.520052992650898327e+00,2.223920680791561799e-01,1.319105139683786732e+00,-7.323992609676471810e-01,3.854769939823019520e-01
