-7.566601744873721058e-01,-1.403914175264127318e+00,9.441393927085623972e-01,1.308407941483406278e-01,-9.194718935353896061e-01,1.786740808594715846e+00,-3.116427059475217032e+00,1.707341188844608171e+00,1.390788599846995988e-01,9.966302259470098956e-01
4.640388669673332633e-01,-2.623108260122297253e+00,8.323639501870130353e-01,-5.375763360737784852e-02,-1.731706369209668583e+00,9.289151691180813630e-01,-1.967760389842683422e+00,7.151988154731446778e-01,9.388621549476159345e-01,1.630434877984064723e+00
-9.909076724378990120e-01,-1.040931148325299649e+00,9.133218937389974146e-01,1.652837839414277310e-01,-6.785957978110302991e-01,1.876375679888387937e+00,-3.193203789979373042e+00,1.832468608107243879e+00,-5.232347129389408602e-02,7.919921227372410666e-01
-5.077176167071614232e-01,1.592458064506764082e+00,-3.931836896865419928e-01,6.852871761616793900e-02,1.052952450912848947e+00,-2.739380289794399737e-01,7.306249153592171419e-01,-1.363263744933539412e-01,-6.516944548480000377e-01,-9.619319701702151448e-01
7.314864969034021169e-02,3.328154916134809405e+00,-1.384503875113591409e+00,-3.691525618181468182e-02,2.192315414710448440e+00,-2.027916760628079462e+00,3.855541446265705829e+00,-1.779797546424110477e+00,-9.518677116118635650e-01,-2.150338536412005563e+00
-2.430564871377809411e-01,-2.340472815664987050e-01,2.154056426131246982e-01,4.038016710402157761e-02,-1.524300540913082480e-01,4.478842008281515574e-01,-7.595593557291889786e-01,4.387170647362491627e-01,-1.908934571340948141e-02,1.805741837690247875e-01
-3.337346754397527149e-01,-1.106859663399018645e+00,6.139662263407829057e-01,6.141572232287546146e-02,-7.268440304835633858e-01,1.071445344882405504e+00,-1.917455489636183952e+00,9.996973195600858952e-01,2.046868445250292212e-01,7.533243370288179586e-01
-1.911939872496065673e+00,-7.316869829949813608e-01,1.245028551163734454e+00,3.092072516400952709e-01,-4.681010627467877550e-01,2.878477842000828346e+00,-4.739750995392286725e+00,2.889922076934262840e+00,-4.762670954880504071e-01,7.066686716829984061e-01
-7.437676744397528905e-01,2.407568974819459307e+00,-6.062604267776400269e-01,9.982124655784407885e-02,1.591739217392993178e+00,-4.447307378017886226e-01,1.153519970381612803e+00,-2.375110387381979549e-01,-9.766524928371442815e-01,-1.457243777139610730e+00
5.102420268634834111e-01,-2.283447834623995032e+00,6.718459236044824756e-01,-6.367724984162438651e-02,-1.508249438681003918e+00,6.722467722835838710e-01,-1.494749427983983248e+00,4.825042204414627389e-01,8.557251160455306982e-01,1.406198778734577770e+00
