1.854269599379556377e+00,-1.454487962568483395e-01,3.471307814088848698e+00,2.072907194089832927e+00,2.924821936820458212e+00,1.912411008648990496e+00,1.388229906462768115e+00,1.276225451287083867e+00,-1.209370253134969486e+00,-1.461438545652459675e+00
-6.614711356680971210e-01,6.081552135260476916e-02,-1.460966455087830962e-01,-6.433390542154948655e-02,-1.014513503387560522e+00,6.845584256600487083e-02,1.286092632521131651e-01,-1.379950307092432660e-01,6.047456790696137396e-01,3.274429014780884661e-01
-5.685105241869359283e-01,4.332436056322996193e-02,-1.219570888194847491e+00,-7.315292332356533311e-01,-9.008392504990351268e-01,-6.930610383550110942e-01,-5.143167357573866783e-01,-4.363922232169414328e-01,3.461447132354725231e-01,4.756368286415091906e-01
2.206035509977880782e+00,-2.084868474256744153e-01,-2.055849936575320225e-01,-2.136978338073715900e-01,3.365144333435037272e+00,-7.044721542845983064e-01,-8.246303165873515306e-01,2.589658109704420230e-01,-2.126800658224486718e+00,-9.690442550748830097e-01
1.854740503720103961e-01,-1.763733954167363838e-02,-3.057455862280976031e-02,-2.618163934435062401e-02,2.825758804533882729e-01,-6.836295532226273342e-02,-7.692201865926544258e-02,1.791226093958109972e-02,-1.809213431788911919e-01,-7.911384808435079075e-02
2.185762921244446044e+00,-1.874156671321091372e-01,2.139225581348234151e+00,1.236492874004162523e+00,3.396115554897148225e+00,9.122614372133207583e-01,5.211289871595781165e-01,9.371654963671113281e-01,-1.735448375770297424e+00,-1.376062079792627735e+00
-3.661269379320419293e-01,1.178670577732826054e-02,-2.756433898231947843e+00,-1.689454942517738534e+00,-6.322207883359308722e-01,-1.800993537416152757e+00,-1.456990235104707487e+00,-8.535888170049549251e-01,-8.986786011215572301e-02,6.562165760193122699e-01
5.517940339650247994e-01,-6.134004098496936147e-02,-1.175639844324511296e+00,-7.483628843519486429e-01,8.120213768154560530e-01,-9.488690360932970913e-01,-8.483711661383245284e-01,-2.617913232143234126e-01,-7.103817059140120627e-01,-4.281169047734704330e-02
-4.620760881336140047e-01,3.881509382974420580e-02,-5.507085228213394190e-01,-3.222653523659689268e-01,-7.205492563613983270e-01,-2.605320383578983434e-01,-1.664104226462965186e-01,-2.267233246970687954e-01,3.512516996972092076e-01,3.083839894211654054e-01
3.083197995350865472e+00,-2.868425137348261655e-01,2.683032625869271603e-01,4.478436523530213154e-02,4.717869728429147536e+00,-6.027046205552288871e-01,-8.351644623101996956e-01,5.233376874702357906e-01,-2.884282168621516984e+00,-1.452992771060569011e+00
