3.538308349071332959e+00,-1.310881829750578431e+00,-6.070337685573842235e-01,-2.825920589994144194e+00,9.051928753132993943e-01,1.372097158810764661e+00,-1.871768141553184828e+00,1.295028901783915887e-01,-5.034795437689582737e-02,-8.565706297885308240e-01
2.440770924698847821e+00,-9.232676661344005886e-01,-4.626378785215287115e-01,-1.957828238359823558e+00,6.436617861725768552e-01,9.311154288919066824e-01,-1.295293346782647292e+00,5.955307863599464818e-02,-1.527486268652402876e-02,-5.468061402273299842e-01
8.039762629586185705e-01,-8.784265882514972201e-01,-1.478978560189703417e+00,-9.009073723914954313e-01,7.936879510053217457e-01,-1.579225677590476440e-01,-5.512715306313364927e-01,-8.803169995077049226e-01,5.829172914519722415e-01,1.151588064865350480e+00
5.491761335413931910e-02,-1.164350736222404120e-01,-2.313770511753962811e-01,-8.669447389507632662e-02,1.113701824817777825e-01,-5.644192759575145102e-02,-4.990018802328997916e-02,-1.485605025299434057e-01,9.758998169496448105e-02,2.095163985216986768e-01
1.749852358496643445e+00,-5.671772204934768524e-01,-1.128438383933653422e-01,-1.361386911010546319e+00,3.655060426221861114e-01,7.441855431583416225e-01,-9.080741314326771230e-01,1.911477246686183462e-01,-1.079386766533627917e-01,-6.116966357000147569e-01
1.057741967274127060e+00,-3.292593268921275573e-01,-3.683113230158024942e-02,-8.168684720701574475e-01,2.071800001333636565e-01,4.608321815458148452e-01,-5.459604898055414601e-01,1.368317389163833386e-01,-7.915402380581712527e-02,-4.012564426366927450e-01
-4.831883330682863464e-01,-1.175682591888839029e-01,-6.021745123738879713e-01,2.536979264093253139e-01,1.767706280932632990e-01,-4.273127971352841947e-01,1.912569581362603133e-01,-4.824242445858160089e-01,3.105012266648763397e-01,8.046843784049425574e-01
-1.772895742242539679e-02,-1.228209509669519160e-02,-4.050072793849524705e-02,5.756534291879555898e-03,1.455647022354103481e-02,-2.212533797891727549e-02,5.288614338373339406e-03,-3.018720287764907473e-02,1.955038539477639559e-02,4.800210565342094560e-02
-6.689769828556059172e-01,-4.520466359351910796e-02,-5.621416985803805444e-01,4.036552098824032764e-01,1.256635733699148216e-01,-4.965009831534765716e-01,2.903056883556924261e-01,-4.836893490491806502e-01,3.095288619675619080e-01,8.414706981769600747e-01
1.102474612798845399e+00,2.981493518748875027e-01,1.443022081692607816e+00,-5.655264704806213238e-01,-4.336126673058835479e-01,9.991732247972923142e-01,-4.298975732757389090e-01,1.147580742998142611e+00,-7.390681860164640682e-01,-1.905348316471542569e+00
