-3.907289485783428939e-01,1.045653538908961067e-01,4.080037344110787889e-01,6.819182478100603850e-01,-8.641770538901699661e-01,3.733624109939192026e-01,5.858886343456934931e-01,-1.372740182349564853e+00,3.695654652277057806e-01,-7.401829810028334178e-01
-1.228663398638609516e+00,8.437421621104008729e-01,-1.586153049897620348e-01,-1.847437448269604321e+00,5.400381435175271028e-01,4.367637114912675256e-01,9.923053340021313895e-01,-7.028485410543745537e-01,-1.755793759322897829e+00,1.049796520889270779e+00
1.114864684858593580e-01,6.780048091300805435e-02,-3.897566438313336823e-01,-9.514468518225964733e-01,8.642243335192261178e-01,-2.463285118356038916e-01,-3.283480989724276711e-01,1.076892376177901678e+00,-6.587111643050952425e-01,8.515706170902026528e-01
-2.950272390566739400e-01,2.423450349511269697e-01,-1.493573339361538577e-01,-7.517131932795991789e-01,3.811041978564633781e-01,4.796785398764052272e-02,1.726616561266879069e-01,1.101636976919897204e-01,-6.468220672477041910e-01,5.127585970307764196e-01
-7.581743239048011063e-01,3.820301239239026203e-01,2.902021431905720816e-01,-6.542001562143068272e-02,-5.436718943467374610e-01,4.679935749911538490e-01,8.411569352901895336e-01,-1.406542125455880310e+00,-2.979500531258854612e-01,-2.613787554353569353e-01
4.182383529712430104e-01,-1.768772635244672264e-01,-2.548959777114788716e-01,-2.264363749697151651e-01,5.141440119560627409e-01,-3.066524984036201884e-01,-5.199194563672967506e-01,1.013570085032007739e+00,-2.754025832084022046e-02,3.663025607040346077e-01
-1.599725054471174746e+00,9.176795626490312774e-01,2.998623522552401610e-01,-1.003216341103435827e+00,-4.410984766602834561e-01,8.276506060986782431e-01,1.590575133558817411e+00,-2.184501105326073667e+00,-1.261099202528489505e+00,1.805089517264336918e-01
3.588604378509789861e-01,-1.323080968716338623e-01,-2.731814872863216892e-01,-3.451246649107446718e-01,5.642399654839765910e-01,-2.909764255753133355e-01,-4.782262456289622099e-01,1.006225646802958007e+00,-1.338887560606472904e-01,4.419166783960884470e-01
2.751765707629442725e-01,-6.477190695928138064e-02,-3.121743367837516159e-01,-5.490094302379874280e-01,6.647198081294783956e-01,-2.756458463817740290e-01,-4.272627793622194026e-01,1.029020327796685175e+00,-3.105332150544120040e-01,5.794596690261205607e-01
1.776405262005936736e-01,1.407687362274208653e-01,-7.126805490066954185e-01,-1.769793207535933943e+00,1.584132827415232647e+00,-4.393684192145901890e-01,-5.772253766317352319e-01,1.945646639348663554e+00,-1.235083710955751979e+00,1.571590302994700483e+00
