4.191138146406207104e-02,-8.316705094982400348e-02,1.759472201897795296e+00,-6.058508134221908259e-01,2.309489759032733441e-03,-6.610145497324113606e-01,-1.668672387437161841e+00,-1.365250827336597972e+00,7.160437164583952629e-01,7.713583027149323312e-01
1.048464900873422728e-01,2.186474741498536933e-01,-5.509160247421261758e+00,1.518390777858843022e+00,-1.946241776653489519e-01,2.347307234592853842e+00,4.484026339324403310e+00,3.711177930169272443e+00,6.109422232230563715e-02,-2.455794629062512779e+00
-3.356497609629707085e-02,6.683343339104810821e-02,-1.414393478584586417e+00,4.868247024687360480e-01,-1.956937105360646596e-03,5.315209464851077259e-01,1.341004982484395480e+00,1.097187304061901569e+00,-5.743747900440996368e-01,-6.200964058124638356e-01
4.121185598324689781e-01,-6.181111049757177789e-02,-2.575807760959428205e-01,-5.820924243074164783e-01,-3.323392382531838996e-01,5.885471132864164012e-01,-1.068223717616702872e+00,-7.986866345068851514e-01,3.975595243393939882e+00,-1.847855075626291532e-01
2.716915421633940286e-01,-6.297518134127808032e-02,3.464143118944466582e-01,-5.417821028470759526e-01,-2.086580918506023841e-01,1.796043304335704915e-01,-1.155230091956596761e+00,-8.977432522818886707e-01,2.711055192957861681e+00,1.066069313162909121e-01
2.565110693278619958e-01,4.078146413551722582e-02,-2.001106059008727289e+00,2.012198073370856932e-01,-2.440767670041007198e-01,1.109441830260311512e+00,9.433032627166759720e-01,8.265392299064903137e-01,2.153134403637667393e+00,-9.295529638321449184e-01
2.451130357947067240e-01,-1.142931560945924102e-01,1.647545218786407473e+00,-8.974764902981311465e-01,-1.612508176622438338e-01,-3.769086473253386860e-01,-2.208549417290554207e+00,-1.769897780348542060e+00,2.678906757985834997e+00,6.869185116022605841e-01
3.124409920737959423e-01,-7.810421659070392042e-02,5.303839215151706643e-01,-6.634545245433901561e-01,-2.372841182252930226e-01,1.532489555728725195e-01,-1.443828634076252504e+00,-1.127317609557696443e+00,3.140717139389288537e+00,1.810114648325782394e-01
3.630690363020216416e-01,-4.631107158816952923e-02,-4.160658033041753079e-01,-4.549102247490400819e-01,-2.966094764957108443e-01,5.948553465905458415e-01,-7.758433914612704596e-01,-5.676216849318588276e-01,3.469408120119675587e+00,-2.464871628921941060e-01
2.220156188908657957e-01,4.833067583694029834e-02,-2.034719000594215288e+00,2.668329142959610656e-01,-2.173747061448535745e-01,1.082452054368826300e+00,1.080918179740246288e+00,9.330650498470627330e-01,1.810734258662670237e+00,-9.384998060706201128e-01
