-1.527779257432568150e+00,1.872012600556571371e+00,-2.674693728453751529e+00,1.992514313776254098e-01,-4.388582300593034669e-01,5.419850969424631071e-01,-1.134029101918551108e+00,-7.287575888695403403e-01,-2.948432265380787065e+00,3.802113698572339384e+00
5.105307249953291437e-01,-3.775057379552061443e-01,1.043631929341833020e+00,-1.445422185467794968e-02,9.760707625821335442e-02,-2.513647525944828209e-01,5.527943276956035490e-01,3.902412236708374116e-01,5.412210103006954709e-01,-1.170149203382401693e+00
-1.373168881965925348e+00,-1.565528579120867292e-02,-3.429855214378041417e+00,-1.777922150576166094e-01,-5.868401020719959948e-02,9.680917371337273147e-01,-2.209404898888626789e+00,-1.659442373941133919e+00,3.899187543205953066e-01,2.730093363742017942e+00
-6.933936925982783217e-01,2.241886505618769232e-01,-1.591735315544085871e+00,-4.100343367184611926e-02,-7.552121060103095251e-02,4.231148401002320369e-01,-9.530035232257854094e-01,-7.006750978014535391e-01,-2.185764437191219933e-01,1.472510101894430878e+00
8.256330518936114693e-01,-1.430253421391815882e+00,1.192584068966183519e+00,-1.956449039231106801e-01,3.199265151205564761e-01,-1.743463479285859430e-01,3.194895495174093769e-01,1.462491665275023056e-01,2.342691381045078902e+00,-2.224113694667176677e+00
6.669341304653053637e-01,-6.274682104814700567e-01,1.282219976972374553e+00,-4.710784551152448485e-02,1.540647771985173831e-01,-2.903328640514655778e-01,6.280176082564993267e-01,4.303529234372603929e-01,9.474570613920250128e-01,-1.582984038049527920e+00
8.750556755986859114e-01,-6.605153582178391325e-01,1.780663009792550877e+00,-2.760458922522816827e-02,1.699621094622502382e-01,-4.270284031946740000e-01,9.380587601167285072e-01,6.609133706070908776e-01,9.517646953475251692e-01,-2.011099067174060284e+00
9.920279853405920834e-02,-9.187998690868305618e-02,1.916005878562025699e-01,-6.701798377272492890e-03,2.262911765993852117e-02,-4.359677946131639698e-02,9.443209328911462974e-02,6.487172315310683890e-02,1.383289897808466784e-01,-2.348724071982775663e-01
-1.215271410439644484e+00,1.965354886353025909e+00,-1.839889335584976138e+00,2.585807104887642982e-01,-4.432534795943983696e-01,2.962387811801848736e-01,-5.682906309232829134e-01,-2.979979989360768133e-01,-3.197883956023189533e+00,3.217127527885058846e+00
4.049876451824265811e-01,1.273799297083754389e+00,1.778235213255208169e+00,3.191534772499053929e-01,-2.336273609919923278e-01,-6.449650831511062332e-01,1.541079888316472690e+00,1.240091993819542937e+00,-2.386950427832406962e+00,-2.915624358463736465e-01
