-3.916424491912023909e-01,-5.697185525880951174e-01,2.532759295693860491e+00,3.581717680108634116e+00,-1.993301463539496998e+00,2.580761857419766603e+00,-3.158412929729783603e+00,-2.097537159644881299e+00,3.133314699640616485e+00,6.122466782912707739e-01
7.057646180352374898e-01,2.536370030610858306e-01,-2.012621812762817874e-01,2.575652405898745667e-01,3.439846753771825250e-01,4.641050337923471325e-01,1.240197564370495720e-01,-1.463580549175503842e-01,1.127662382412879083e+00,-9.034020905755979491e-02
1.608093414130069343e+00,5.136151187653186234e-01,-9.567470434404046209e-02,1.145166152233472845e+00,5.136024479370061568e-01,1.482912493521963082e+00,-1.805295331341098264e-01,-6.600599454166936608e-01,3.132854206892758508e+00,-1.215838173055279470e-01
8.751074211049498786e-01,2.334089186022875739e-01,2.080913003577594955e-01,1.023418861907881894e+00,8.581833738719298055e-02,1.111974927874808117e+00,-4.302341704845626946e-01,-5.933155195354283817e-01,2.108797425915176937e+00,-5.762579423931129229e-03
1.795938898141382412e+00,6.848808014814441458e-01,-7.348440093186444644e-01,3.128144803873295077e-01,1.041119826239399915e+00,9.199188917686770273e-01,5.997796824079481004e-01,-1.720246203610667768e-01,2.523758571208012391e+00,-2.815912099165147064e-01
-2.743823046876856520e+00,-1.078077016322514847e+00,1.301719583639532773e+00,-2.024913619688921973e-01,-1.723898130202296874e+00,-1.195563228372092945e+00,-1.144803714495600699e+00,1.017068273839074194e-01,-3.577810442306049055e+00,4.717795437711089224e-01
3.633012741230555509e+00,1.157504786665531915e+00,-2.000236613528113272e-01,2.611972437650887269e+00,1.148328574879525110e+00,3.369107353787154313e+00,-4.284308740282484762e-01,-1.505721933238826971e+00,7.102796622417673511e+00,-2.709389107646623107e-01
-1.431651136219967757e+00,-5.098661496806848881e-01,3.820789746398881026e-01,-5.627552996216064196e-01,-6.782837700117566593e-01,-9.721378435111847072e-01,-2.181619817940974315e-01,3.204517607636730436e-01,-2.328129095052266173e+00,1.771769047273573094e-01
-1.658643824282888923e+00,-5.305785509021521129e-01,1.032986425803612412e-01,-1.174062447702049594e+00,-5.331843133485065778e-01,-1.524115885350373567e+00,1.803133739378691425e-01,6.766545703242767829e-01,-3.224167817404201219e+00,1.264776217085492316e-01
-9.503318594122920349e-01,-5.412028828102202205e-01,1.397946672490687492e+00,1.386897682830720013e+00,-1.302159149993544762e+00,6.962186713330099641e-01,-1.605113190237374532e+00,-8.170727732166526147e-01,2.313140116513650035e-01,3.832942254884478261e-01
