1.096742476226940211e+00,1.676370571411177846e+00,5.020178993816665214e-01,-6.713975683497899194e-01,-1.247045860905254600e+00,6.398845374395476515e-01,1.239307502551508344e+00,4.526748638835181304e-01,5.879568786596766072e-01,1.009757202944160381e-01
-9.330333052989507880e-01,-1.303063978116459465e+00,-4.506772224412797234e-01,-2.434586735965756088e-01,2.326306028864398634e+00,-5.029674821099222592e-01,-5.632712282678171700e-01,-5.502423500375278609e-01,-9.038950005650471242e-01,-1.022026774343799627e+00
-1.746265168387565736e-01,-1.843155882818601765e-01,-9.576797263764372237e-02,-4.398273356255973376e-01,1.047811641011764827e+00,-7.409779935007781981e-02,1.322308378513584459e-01,-1.829052949295582042e-01,-3.645531507219949008e-01,-6.443398660088095475e-01
2.985325986378931096e-01,6.082290031322988844e-01,1.075243671410182206e-01,-1.188313295557242188e+00,1.222524973881407018e+00,2.252818000468128634e-01,9.434689056555716213e-01,-8.062208807179824244e-02,-3.382731690425982984e-01,-1.128031535473561053e+00
7.298978546131099643e-01,1.377412439745600459e+00,2.839180464337547893e-01,-2.179417633226488960e+00,1.861369599346690551e+00,5.139080808998497396e-01,1.869147834505135330e+00,-4.995740777087565032e-02,-4.673094621998811204e-01,-1.923771458974731008e+00
1.773410437525248518e-01,1.529046425247180818e-01,1.038276443017541462e-01,6.735349515777129259e-01,-1.416505580239914686e+00,6.371936460771637778e-02,-2.710392085718362210e-01,2.317381238063064286e-01,4.826479675608990050e-01,9.150594986417838195e-01
-1.023440044021179524e-01,-1.663103785222447284e-01,-4.495286892871639545e-02,1.280313683179578887e-01,1.481430831944133275e-02,-6.303445247123143358e-02,-1.550567499959359108e-01,-2.898879618799430485e-02,-2.246679396336331153e-02,6.570619752070999686e-02
-1.158114951521170610e+00,-1.543423024262023713e+00,-5.735809512163438928e-01,-7.919068888422584607e-01,3.648190370900127100e+00,-5.994126334549617630e-01,-4.039615134989775758e-01,-7.822528641139353534e-01,-1.364631481479316566e+00,-1.831324873919056628e+00
-1.848282698516828804e-01,2.907613849840777753e-01,-1.945028452542530706e-01,-3.681288863034219094e+00,6.104186779686973985e+00,8.500859972862526148e-02,2.078352938251079252e+00,-8.454682446132397722e-01,-1.979454796979448927e+00,-4.377312201484357068e+00
1.413014097059617002e+00,2.059307510548084696e+00,6.660501895635927427e-01,-1.999146149675670725e-01,-2.639778128360749321e+00,7.906081159289709559e-01,1.195784919112349964e+00,7.180379997143472304e-01,1.087103064751949733e+00,8.943757205934964594e-01
