-6.000246352184596121e-01,4.083593021121618705e-01,5.538577132270837700e-01,9.515392247180019802e-02,5.547260223914941557e-01,7.580549300669336965e-01,2.566240889971045380e-01,-5.088240706182290962e-01,-4.163411583703928442e-02,5.209342794183979136e-02
-5.464901620701932972e-01,1.524031561117411560e-01,1.393872908235912755e-01,-5.641092341273973298e-01,9.236643016225469793e-01,2.403905063139971099e-01,3.692621508832034660e-01,-9.005390278410290161e-01,4.497719423934611743e-02,5.019542138200557835e-01
-2.871779952557179105e-01,1.543033649782449557e-01,1.966654527718575685e-01,-7.642269775281752830e-02,3.439176588595063144e-01,2.784707291223188497e-01,1.482240056902848491e-01,-3.254496526486794772e-01,-4.390480456431861481e-03,1.101139265156188263e-01
-2.434993014706942904e-01,7.678341855247301506e-01,1.226054014735045605e+00,1.823587025599525457e+00,-9.225763111833999996e-01,1.541995020685586582e+00,-2.676074866824649234e-01,9.924439410137457784e-01,-2.442687216004620632e-01,-1.225507189829767807e+00
1.413219165392907817e+00,-1.015165217434822242e+00,-1.393234442650876703e+00,-3.823266138420073901e-01,-1.204801368586854604e+00,-1.894832633347817596e+00,-5.714680974532263535e-01,1.092148221372802208e+00,1.182130534492397966e-01,-1.219561675020127377e-02
-1.044086446761208764e+00,8.815076519130872201e-01,1.248005855344748172e+00,6.723051102609352014e-01,6.394485216585974463e-01,1.669490695904942923e+00,3.410096972487468570e-01,-5.450294483133881762e-01,-1.369946110558147301e-01,-2.632606753903524166e-01
6.158495911477912532e-01,1.521974255410384336e-01,3.816243783493449282e-01,1.596034836061643425e+00,-1.658362254646192691e+00,3.931981383046715961e-01,-6.161325273333366770e-01,1.659869468137797899e+00,-1.730141693563748140e-01,-1.236368075680533529e+00
-8.418269316691052995e-02,-5.879661816694470300e-01,-9.953289178811254301e-01,-1.899519033651180244e+00,1.307754632257273730e+00,-1.216455191846528283e+00,4.343901721690111017e-01,-1.356225997413403217e+00,2.378234777031666414e-01,1.343281009345853372e+00
-1.398693508848132705e+00,1.187156071903543220e+00,1.682278624379754950e+00,9.191963230673440011e-01,8.446973166539981648e-01,2.249336633098528271e+00,4.529640185031058031e-01,-7.176777266638975084e-01,-1.858860123690244115e-01,-3.656310207215391350e-01
7.612710561828447409e-01,-8.558608417183486416e-01,-1.264379722525141858e+00,-1.122020269507333579e+00,-5.999116398928498739e-02,-1.654196664056839294e+00,-1.170513794548432018e-01,-2.698962022728545324e-02,1.803693772366416759e-01,6.332249241981399157e-01
