1.327895714468340760e+00,5.962574646165238468e-01,1.293996979388736257e+00,1.175712010472658164e-01,3.147906881633704135e-01,-2.019151682639769296e-01,-2.820786850257814282e-01,-1.108274943791303757e+00,-1.094083901629676392e+00,-2.655144466529227310e-01
-1.655608988964810457e+00,-2.072739712164533010e+00,-1.420682448272539311e+00,5.113164278537807306e-02,5.258609479491062055e-01,-1.642571174074110241e+00,1.781544951029918167e+00,-3.341173622648527797e+00,4.150885159060191398e+00,1.189324590038996821e+00
-2.348918655637753095e-01,1.718278908336486333e-01,-2.690850100598843886e-01,-6.204150233051775043e-02,-2.472500963856959222e-01,4.308736966142396874e-01,-2.483717959508877082e-01,1.181258496493018839e+00,-3.877950753656472238e-01,-1.320720324810470414e-01
-2.107842478134587250e+00,-1.399236415920028787e+00,-1.988413404203663193e+00,-1.192853255288994496e-01,-1.869026727384868747e-01,-3.246844097919956429e-01,9.347598821993209350e-01,1.506078547205408347e-01,2.685867836148049026e+00,7.137931055492044985e-01
1.035230985096717404e+00,5.949852684691494531e-01,9.899418611795811618e-01,7.230220314983359930e-02,1.555063165395307867e-01,2.803989058550837576e-02,-3.598916291231902265e-01,-4.016365797332720478e-01,-1.125777236873031217e+00,-2.910216304741910509e-01
2.250921726587614913e+00,2.132255833600204209e+00,2.030913802140215552e+00,3.248330264767599479e-02,-2.411864449831814250e-01,1.255940662990735035e+00,-1.684497843198195177e+00,2.106052153664228932e+00,-4.205761126758573276e+00,-1.174195945721322687e+00
2.247209821175462641e-01,1.386682081571953162e+00,3.263474293250728797e-02,-1.713436940826196797e-01,-8.349785545633578998e-01,1.798081690941047306e+00,-1.430740519482146755e+00,4.380664132480166728e+00,-2.880637286961793109e+00,-8.750959547609810096e-01
-4.426873688494424863e-01,2.471042085527542509e-01,-4.960086471351081716e-01,-1.055136314834993483e-01,-4.129709361667884271e-01,7.027016722581711505e-01,-3.855600292614812519e-01,1.953637688534976879e+00,-5.699995466387762777e-01,-1.993678464134342465e-01
5.923569753374658964e-01,5.448157044607503385e-01,5.368235141429722468e-01,1.097467644712547992e-02,-5.220167233954232239e-02,3.072696416033985356e-01,-4.257492918551781802e-01,4.962748660485297725e-01,-1.072598166717279700e+00,-2.984712587375591974e-01
-1.509236362312016411e+00,-2.839428408019140981e+00,-1.157403530364408795e+00,1.879006558322998677e-01,1.135614729511342125e+00,-2.851030294291247547e+00,2.645810268714991143e+00,-6.420808013849811147e+00,5.775345391478452939e+00,1.697505566721960069e+00
