-1.157738805424127104e+00,2.796357023404897335e-01,-1.052193321605103954e-01,1.176360621974861020e+00,-6.809837051857632328e-01,-1.574288341807746461e+00,-7.190763454818676070e-01,-5.732076726673438483e-01,-1.077740717830113937e+00,2.838818554065336008e-01
3.585950623655956848e-01,-5.618609712661357669e-01,6.193857753607252548e-01,-7.849059897517040030e-01,8.339917882564736873e-01,1.585562267960776817e+00,1.951224633256909147e-01,1.147839377877631906e+00,1.635888212566938282e+00,-1.055593875300561590e+00
1.094301642815863840e+00,-4.733679001711411649e-01,3.575769258515844595e-01,-1.296894024404616541e+00,9.177476128800746702e-01,1.970997735728283962e+00,6.675333539517424031e-01,9.686185580438564369e-01,1.591449795278682133e+00,-6.939889620778010304e-01
-7.687212206781309787e-01,1.195053492836619241e-01,1.183531965562530965e-02,7.225337223901462380e-01,-3.654137029292672256e-01,-8.924370913554193763e-01,-4.812989961585323329e-01,-2.455073040740319290e-01,-5.343165882671718769e-01,5.376553495202832794e-02
1.509247220660783650e+00,-1.434634253757500200e-01,-1.357982362865493009e-01,-1.337895862069933495e+00,5.979055226263793044e-01,1.541528395693893438e+00,9.502396840351420293e-01,2.958834917491886540e-01,7.992663366877564846e-01,8.006273902286335786e-02
3.168982894431358499e+00,5.403371183670636624e-01,-1.324235440148626042e+00,-2.064496152759232483e+00,1.521029832634011869e-01,1.292518833134703282e+00,2.044107052537739388e+00,-1.096931263890293939e+00,-6.274824575384716496e-01,1.881651648188124026e+00
2.084111729119610512e+00,9.140829225321409623e-01,-1.560762745746983926e+00,-8.633235822849464336e-01,-6.324758794547273855e-01,-4.407644736498353977e-01,1.376777241375161775e+00,-1.862136327858564533e+00,-1.943451772911894748e+00,2.375122642870279854e+00
-7.111367411891884593e-01,-9.935207320874549497e-01,1.374166426510377681e+00,-3.085782898785766615e-01,1.109438336415254689e+00,1.725115982825400796e+00,-5.093698758772082780e-01,2.027031996092075516e+00,2.530625025205858858e+00,-2.198299519326242013e+00
2.709723377953806800e+00,1.560102308538746929e-01,-7.544757899387479760e-01,-2.036096995294189860e+00,5.312617553999497977e-01,1.812188045151462923e+00,1.730094638344561009e+00,-3.131713780806725245e-01,3.018793200239743291e-01,9.858612777398447768e-01
1.451588386034112999e+00,9.495192115916681885e-01,-1.473365967227482587e+00,-3.244604955574482696e-01,-8.506890600496280763e-01,-1.029778671031639670e+00,9.770992132813339781e-01,-1.935733970130756099e+00,-2.210780726720881884e+00,2.291298411765739118e+00
