1.234673041292591478e+00,5.742250181435885059e-01,-6.026433619168560796e-01,9.151182824228959456e-01,-3.530233102911324305e-01,2.675871156146034102e-01,1.428255895778740014e-01,3.705816057737663094e-01,7.831123302585902834e-01,4.110998205866736588e-01
-9.288307061951777133e-01,-1.284057706100859330e-03,-9.046342385485078852e-02,4.739855952853083143e-01,-3.357616014237396196e-01,-1.299271055206695225e-02,-7.892006599467552008e-02,4.202053202206721960e-01,-2.444271045564662403e-01,-1.734590822901794782e-01
-1.418862980842558352e+00,-2.261876552243947125e-01,1.449307215458743581e-01,1.188840616315016141e-01,-1.998405924953666757e-01,-1.178834913103699311e-01,-1.354076261016269600e-01,2.779961840896955638e-01,-5.528358813250272563e-01,-3.356748980933711435e-01
-2.767808860544400229e+00,-6.527880200139745126e-01,5.498456533234585830e-01,-3.390680244185184655e-01,-9.445803959918111503e-02,-3.224556079639711581e-01,-2.781547202638006144e-01,1.989511765857537862e-01,-1.247745504834630204e+00,-7.215167911110155208e-01
-1.185785351463851223e+00,-1.572252786771492772e-01,8.096230040486669666e-02,1.851974965516996197e-01,-2.114203317588704556e-01,-8.461231535111746194e-02,-1.110575219243272183e-01,2.839487251331991313e-01,-4.365656789436178076e-01,-2.705042554585457282e-01
5.480195729030913121e+00,5.484566535051955682e-01,-1.492034657640210760e-01,-1.336773986797560987e+00,1.225856254522138311e+00,3.131419552997663502e-01,5.014599894047108153e-01,-1.601448630570684539e+00,1.875025507214920673e+00,1.193975081792357784e+00
3.352679506892244810e+00,8.746419319932920988e-01,-7.719867662456428858e-01,6.371885161932474562e-01,-2.739001043156111953e-03,4.272823050631720521e-01,3.424897531079811319e-01,-1.048093281953479672e-01,1.578565868753196710e+00,9.004407089948421872e-01
1.745960834733074840e+00,4.571652924950238006e-01,-4.041476996432222246e-01,3.363647086520430429e-01,-3.774327274479338627e-03,2.232492782423094735e-01,1.784683324300305463e-01,-5.185187541308716730e-02,8.234090175126026478e-01,4.694489923859130331e-01
-3.240193392558214036e+00,-4.052715018678754166e-02,-2.700625150851840295e-01,1.556192406952104479e+00,-1.120963112499484549e+00,-6.108540614722390849e-02,-2.776973993196439894e-01,1.407368939371400174e+00,-8.815253484724202560e-01,-6.164724054422496824e-01
1.377408069917524402e+00,4.644400263603693513e-01,-4.498717049176416682e-01,5.454474642036628573e-01,-1.478701718498914297e-01,2.214972943315112186e-01,1.476690321621116908e-01,1.275155014900380412e-01,7.326521795257596725e-01,4.030762866928626065e-01
