-7.537829752206258727e-01,-1.805340652726211692e-01,-9.094908801943447918e-02,1.774212947692010989e+00,-1.287500177215210373e+00,-6.581811797970814615e-01,6.480183942700031841e-01,-3.272166745941997718e-02,3.085896418284581055e-01,-6.902411844144412667e-02
-1.023352700360930845e+00,-4.348457908921650739e-01,1.120365334187872985e+00,1.626602952713201100e+00,-1.972879581737358778e+00,5.234635626756455329e-01,1.149090561271918665e+00,1.264732687721840110e-01,3.239860264191850581e-01,-3.195228319992981514e-01
-3.495251133258261977e-01,2.182799742893809514e-01,-2.021793639695675271e+00,2.067449903589715365e+00,-2.390052106256598252e-01,-2.560447398439351208e+00,-1.281608572879063546e-01,-2.871621967174072809e-01,2.942275146623156146e-01,3.273861475896018280e-01
-2.183190530259041529e-01,-1.363104223592287445e-01,5.244398323077362756e-01,1.675439840245122602e-01,-4.725054835784385232e-01,4.368394502155582559e-01,3.069459875870361731e-01,6.619721842709062887e-02,4.732721353001127090e-02,-1.199837137873509263e-01
-5.449356320623418570e-01,4.112576312473737450e-01,-3.617171359266598607e+00,3.515721472878537757e+00,-2.885265363235986480e-01,-4.521722826322527311e+00,-3.005075499340726930e-01,-5.116018753609300473e-01,4.942268774133348752e-01,5.948463562425650997e-01
-5.163565287321226771e-01,2.111038958927795861e-01,-2.256807035749099910e+00,2.595244479767932599e+00,-4.851014745861970678e-01,-2.950922981027994663e+00,-3.126626824952099398e-02,-3.239282542410140131e-01,3.789318182287241266e-01,3.511206839935206991e-01
-3.174509475502984568e-01,-2.995956369942234243e-01,1.427208818857231609e+00,-1.742936773601874989e-01,-8.072508791278538709e-01,1.392372163207985070e+00,5.902332134451968582e-01,1.875729063522905415e-01,1.807463789974129639e-02,-2.951267995578757408e-01
1.310164784541126393e+00,6.850412103027645472e-01,-2.275545719708941483e+00,-1.553565209475711084e+00,2.677934574250508515e+00,-1.628473032534567766e+00,-1.653281655203172829e+00,-2.774930362181868837e-01,-3.505680029673572951e-01,5.617872138632374890e-01
3.996268180210711951e-01,8.741901831755970187e-02,1.025813860057226135e-01,-9.748027288008001001e-01,6.727518860005978762e-01,4.108753728977886932e-01,-3.317832347143893634e-01,2.481704994965934843e-02,-1.677528393402856199e-01,2.672443382383256349e-02
1.585282628380518255e-01,-9.727797210219072399e-01,6.644778070235219936e+00,-4.539247753542911212e+00,-9.274317352995440356e-01,7.686591053445785526e+00,1.298354370149600756e+00,9.172106256164824778e-01,-5.707415022439120689e-01,-1.188343808368436116e+00
