-1.720528510618325235e+00,-5.595976566160129062e-01,-1.246289050988362179e+00,1.417319155672776221e+00,-2.617897458381550191e+00,3.915284277630349252e-01,1.241662233629486689e+00,-2.224026143899072938e+00,1.117823522956622045e-01,2.492341780586462718e+00
-1.264395458020183549e-01,-8.473894166302490261e-01,2.422464080933731667e-01,1.106060956371392123e+00,-5.619137840267999229e-01,-1.597910955430829505e+00,-9.798740240404749668e-01,-1.827262355478516953e-01,-7.522770690525892867e-02,3.307405597501716921e-01
-1.117139217707089349e+00,-1.097158765636798705e+00,-5.053801757463972644e-01,1.832135353018526258e+00,-2.036121788238079322e+00,-1.226286066204247405e+00,-1.686568651248459560e-01,-1.461612480763763378e+00,-3.363795861552383408e-03,1.752596913554460123e+00
3.402390418944965855e+00,-7.406395001724708216e-01,3.229428062988085824e+00,-5.072937915550030930e-01,4.330325139481156604e+00,-4.501202178271882737e+00,-4.909500193865632411e+00,4.353885199472962597e+00,-4.122300640105647784e-01,-4.590543301661565323e+00
1.422561554456714727e+00,1.090016077142289763e+00,7.707054888651582170e-01,-1.951415161952630761e+00,2.452039800436116579e+00,9.419529928796095408e-01,-1.932180293763829937e-01,1.853867060279777101e+00,-2.749936970810931691e-02,-2.175538358660792149e+00
2.405570153778934017e+00,2.864551804168309901e-01,1.947857280836892135e+00,-1.365343680710016550e+00,3.432929253956857885e+00,-1.548025676246694848e+00,-2.394909239387965183e+00,3.097676470838597762e+00,-2.076165495743141631e-01,-3.393906411014866009e+00
2.600046778397925529e+00,-1.240124840267985973e-01,2.284873538052929920e+00,-9.368795446032293084e-01,3.511722462202884643e+00,-2.548038557074384425e+00,-3.164595429295892881e+00,3.337733935470468261e+00,-2.692782207566692954e-01,-3.588912094229201877e+00
-7.317523788395595696e-01,-2.559049468110894399e-01,-5.226418553165166347e-01,6.250441243717383966e-01,-1.121615342382876523e+00,1.303968056439891166e-01,5.043014983554057196e-01,-9.463215750726119424e-01,4.568882754804828861e-02,1.063287026612782737e+00
-8.970260890120744790e-01,-2.760274018308876975e-01,-6.562857168833123866e-01,7.193983412159554724e-01,-1.357675763934338198e+00,2.358621824334930228e-01,6.682559975908334282e-01,-1.159156730120834533e+00,5.990732788335170061e-02,1.296544818320959358e+00
3.370589042712494710e+00,7.969935263271736570e-02,2.862447778785966790e+00,-1.513342298854237988e+00,4.662655699557799238e+00,-2.818019030378792422e+00,-3.782989843721950685e+00,4.332646724100817970e+00,-3.241945117234277807e-01,-4.696526866011502044e+00
