-1.622807612701663293e+00,3.336405703858373872e-01,-2.741374511102896427e+00,2.331590195005485422e-01,-2.733456652628538208e+00,1.788656182989480703e+00,2.040200170107557831e-01,-1.742079553715978335e+00,1.536076207659595738e+00,-7.236213591854326888e-01
8.515208794815615212e-02,8.145631880776910139e-01,6.009304951156724250e-01,8.426411347854585732e-02,1.891264954464146442e+00,-1.460453356914236611e+00,-7.267768531646450203e-01,2.573747295339042562e+00,-7.292814758514749585e-01,1.010697761371585734e+00
1.382751611739178266e+00,-4.751764573987853346e-01,2.230990441170244587e+00,-2.208069401761587336e-01,1.928125241410943769e+00,-1.210547256000519045e+00,-9.561868831297115623e-03,9.148924812001044682e-01,-1.160032454075650588e+00,3.934194273094583361e-01
1.219324081901898671e+00,-1.973493838955946433e+00,1.113380585957802094e+00,-3.749887772378551754e-01,-1.565076259569743389e+00,1.485616183192026485e+00,1.329337626883143830e+00,-3.830756233194784866e+00,1.889407077201830099e-01,-1.470335261155024220e+00
1.375763949961666066e+00,-1.131051688528701415e+00,1.858102158027587159e+00,-2.960340366089584396e-01,5.356149790321319548e-01,-1.232708797711875581e-01,5.569929306263581292e-01,-1.053584852561154861e+00,-6.409790389352237883e-01,-3.781240098696386776e-01
-1.878015669354131223e+00,4.311583160727877617e-01,-3.147745462902121538e+00,2.750508064636797423e-01,-3.068701116429458864e+00,1.995958364576039035e+00,1.973367095245467939e-01,-1.881650805852606911e+00,1.742524994112365722e+00,-7.847568716669790501e-01
4.314499826794428117e+00,-1.462285991828442988e+00,6.972389533937068506e+00,-6.866052157736425299e-01,6.058984396882356016e+00,-3.810643384768010122e+00,-4.736778818216058617e-02,2.915451351045716955e+00,-3.635447899619327128e+00,1.251374836384719913e+00
1.445973756910136299e+00,-1.814392830041027804e-01,2.506290602924978739e+00,-1.943171570805199422e-01,2.678940576262800466e+00,-1.784015293795834456e+00,-2.814836604999417791e-01,1.897852959972599951e+00,-1.459006002041965733e+00,7.801982173928080355e-01
1.963290978751491167e+00,-3.980416702660213302e-01,3.319622372917935937e+00,-2.814289076935512779e-01,3.318730981040410200e+00,-2.173134695602363387e+00,-2.516454233931044171e-01,2.124295523018913556e+00,-1.862728454559422264e+00,8.819924870524940008e-01
-1.871538904252936231e-01,-5.539461675941420582e-01,-6.415941313750170849e-01,-4.181617560347111739e-02,-1.559679678146987492e+00,1.179282973729660622e+00,5.333635050738690930e-01,-1.968303625873411455e+00,6.390041514846853676e-01,-7.760239681363259034e-01
