-9.154727029596156918e-01,1.983015642675563406e+00,1.473475551137718220e+00,2.604301807139879799e+00,1.459596122925956641e+00,5.327203378753804230e-01,2.315953483273527347e-01,1.231700893567864163e-01,-6.597182915490383825e-01,-1.726730497788562024e+00
1.844331062854301928e-01,4.105077731924990481e+00,1.988392217607849233e+00,1.725734355407747778e+00,-3.593126223976135236e+00,-2.364803026615320825e+00,1.978047659406227510e+00,-1.617607635524701104e+00,4.518130550518993371e-01,-5.319056740406806760e-01
1.336752733683756134e+00,1.673707242983412113e-01,-5.976674070814665951e-01,-2.272563745757848697e+00,-4.374500755372604743e+00,-2.312858068126178779e+00,1.038544402903558206e+00,-1.262883011674703848e+00,1.180147752139599548e+00,1.923122046266132035e+00
-8.340194083906862788e-02,-3.763586300651607375e-01,-1.483454537068235601e-01,-4.101618772484202924e-02,5.409217705380009455e-01,3.276822149141780938e-01,-2.292671823125077557e-01,2.081789256579761327e-01,-9.953640654410159105e-02,-4.852035423447972895e-02
5.497102505793097921e-02,4.154745977485420072e-01,1.827070644960019363e-01,1.106705086905754171e-01,-4.791369978087136605e-01,-2.998778897861544834e-01,2.263605064922132593e-01,-1.964090045336682466e-01,7.745752200196891202e-02,-7.167110435470024597e-04
1.229093607389879494e+00,1.391062082491643759e+00,7.810299841154877409e-02,-1.471469355419839253e+00,-4.928269675997023924e+00,-2.746596461410638845e+00,1.510982269574348447e+00,-1.598629701675124970e+00,1.172687598885434390e+00,1.526609738129605098e+00
-5.111306798175052624e-01,-6.119327942180123880e-01,-4.944752699780163852e-02,5.952160716699146370e-01,2.073964665718301514e+00,1.158960683516282231e+00,-6.433900324194562481e-01,6.766321903807697158e-01,-4.900415127028978635e-01,-6.283234650612449235e-01
-4.096363513505442144e-01,5.083870781831374419e-01,4.670823294444883533e-01,9.760112442995543258e-01,9.306312177313597056e-01,4.282723988860858144e-01,-6.669130038224548029e-02,1.891012800521992554e-01,-3.220234394160197966e-01,-6.986329459826060573e-01
5.909853535176594619e-01,1.192482394161077819e+00,3.031934673244843226e-01,-4.459374986941471719e-01,-2.753149104522464086e+00,-1.583058716928145371e+00,9.618800675361190988e-01,-9.538176636205779602e-01,6.009335060552474239e-01,6.317738457083135195e-01
-1.045210743111809615e+00,7.393191702065941007e-01,9.087767758637901316e-01,2.211652792299330983e+00,2.783125493623213931e+00,1.372334289143619435e+00,-4.209118285655856773e-01,6.797587806811016264e-01,-8.611554064947599674e-01,-1.673648230454490626e+00
