-1.273603578838198302e+00,1.880771409291359442e+00,-1.526116478133144216e+00,7.612305746046994503e-01,1.524150616751855702e+00,-1.206394182024654427e+00,5.309321645585312055e-01,-3.436428336189601418e-01,-2.370681885071556305e+00,-2.903941232241932013e+00
3.469065933271978097e-01,7.731787957432429970e-01,-2.167840978329341084e+00,2.208324744193671307e+00,-1.735313989712386484e-01,-3.504357127454681975e-01,-1.515462721395662016e-01,-2.476755593633529262e+00,-3.826549605540906285e+00,3.128329381199861814e+00
1.832733659360866296e+00,-1.922635187264938539e+00,6.207810215291748035e-01,3.775485991557245291e-01,-2.045945278091898967e+00,1.321972068676463996e+00,-7.682445136390293472e-01,-1.072784978482202112e+00,6.844435445475575142e-01,5.604025661951103743e+00
-3.543076536414362376e-01,5.863917053933992429e-01,-5.515222719532548723e-01,3.304869986827517758e-01,4.358824791341413540e-01,-3.689816301220281147e-01,1.473610620368190627e-01,-2.219191014705895471e-01,-8.792971299352683179e-01,-6.929874200805066220e-01
-4.109321080261358894e-01,6.669147109284293551e-01,-6.131508261718586761e-01,3.585129997681031910e-01,5.030643023422071147e-01,-4.209824412226474966e-01,1.709830137733454603e-01,-2.310065615799130889e-01,-9.739258764626130827e-01,-8.277264259851518924e-01
-4.219180005550217105e-01,3.329432568236278533e-01,7.750533841716833461e-02,-2.930122348478368943e-01,4.503878778630923674e-01,-2.464015898698534712e-01,1.774506445056561743e-01,4.662616188366517922e-01,2.239907160601763703e-01,-1.489529893796412319e+00
7.126496665358438287e-01,-1.571627423915878285e+00,1.897500560280549919e+00,-1.401703683769118358e+00,-9.504408988841115402e-01,9.493231974138344187e-01,-2.942858945112304392e-01,1.230523341268395354e+00,3.132998506979072229e+00,6.807932978991900752e-01
-1.287766009668493417e-01,-3.743000600542427392e-02,3.031182053334120496e-01,-3.507373395157860063e-01,1.113299003578457208e-01,-1.754150528813163074e-03,5.491059432571977067e-02,4.203486900521435365e-01,5.521359794637930030e-01,-7.074628804879177224e-01
1.401820770334248678e+00,-1.652512965226490049e+00,8.404618270235653110e-01,-5.310341460559996063e-02,-1.599097729246229171e+00,1.107251514516483182e+00,-5.866338575756062657e-01,-4.567763132108139668e-01,1.156465633621977629e+00,3.955607458821908118e+00
4.777957852069713018e-01,-6.803377486512839356e-01,5.218020713702947733e-01,-2.381487674710887625e-01,-5.670452503127800803e-01,4.392499128814021381e-01,-1.993166815725308794e-01,7.845249903586519469e-02,8.015595395986102600e-01,1.135312466877520077e+00
