3.462942848780947269e+00,-2.090971625934124223e+00,6.972488559487766135e-02,-1.766980131479060079e+00,3.111971123607772505e+00,3.807447139216357801e-01,2.332188884908340754e+00,-1.772840072129224120e+00,-2.622857172718433105e+00,-8.265483623790099710e-01
-6.627808002981812052e+00,-1.269450949315634070e+00,-4.475264979019796030e+00,4.786534222108921988e+00,-9.318636482185527203e-02,-1.510166944296530200e+00,1.199876580429277473e+00,-5.621000623086466197e-01,-9.112285562772183267e-01,1.500035472069088383e-01
-6.975287124353884316e+00,1.515557977577687954e+00,-1.452620857278603683e+00,3.401151697154081610e+00,-3.101986154976215104e+00,-1.267547609740201864e+00,-2.052117008747936566e+00,1.575798300725344880e+00,2.257555811857783645e+00,1.429062241773225939e+00
-3.434405749259934915e+00,2.219248141036669619e-01,-2.260127997325197313e+00,1.554290046318138385e+00,-2.511334092164592580e+00,1.867778597649083272e+00,-5.544979564487200197e-01,-5.666940218393266004e-01,6.126966465663880035e-02,-6.334895446645993911e-02
-1.211448013482488761e+00,2.551420448399242868e+00,8.919542012570276235e-01,1.587964965897464609e+00,-6.133867045789899164e-01,-2.172532863094528643e+00,-9.441777859305497955e-01,1.329422928322550046e+00,1.675085239472196230e+00,1.089142312021464054e+00
1.606002449415463884e+00,-2.136307979519603606e+00,6.811754803260261504e-01,-9.424748568308108920e-01,2.776170893693966413e+00,-1.617091602790833083e+00,1.088762137139965169e+00,1.553956165831332781e-01,-8.230059920472223567e-01,-3.146409232610433149e-01
2.901153646808924513e+00,1.052765884004285279e-01,-5.546497015455231328e+00,5.329387268141414502e+00,1.194731032510731872e+00,-5.570022122083567728e-02,3.322093284400242208e+00,-1.155580999578788237e+00,-1.468200246854176383e+00,-3.525930726381491631e+00
6.238257734562423273e+00,5.083979822920270397e-01,5.965254621685934566e+00,-5.406716069160118820e+00,1.769095800598844193e+00,-7.525176488500493477e-01,-1.235966565602508727e+00,1.381628137131013512e+00,1.137019472969279743e+00,7.053423226533130919e-01
-4.074237349296821797e+00,-2.274391498687746704e+00,-2.031386866908388433e-01,-5.501381828326205037e-01,-1.236728019805947376e+00,3.094608549418584875e-01,-1.469769717430782219e+00,9.060968892112695183e-01,7.856143471614093210e-01,5.595203274803416393e-01
-3.162408775385341375e-01,-1.256215389870170007e+00,2.182068286182993866e+00,-2.898163767741766872e+00,-3.693926198858920040e-01,6.386527187556534368e-01,-1.394251612847849930e+00,6.250016081665931145e-01,5.725569743600125161e-01,7.571973442952694144e-01
