4.632292537380350517e+00,3.190606510010736585e+00,1.805177627716550992e-01,-1.286677686294055212e+00,-1.211846720225107310e+00,-1.086667757867741946e-01,1.001721960589347482e+00,3.582095682919506530e+00,1.859365031122522050e+00,-3.494131780391238173e+00
-4.370157231523989161e+00,-1.566514941557191065e+00,-1.292159482264276571e+00,-1.724283632807150468e+00,1.442852938806801211e-01,-1.551514367052986287e+00,4.451488004947233845e-01,1.806212562913961150e+00,-2.560155731902490572e+00,1.800511012848708070e+00
2.417483062258820148e+00,-1.682868810791302128e+00,4.906035083602700020e-01,4.213631932617846410e+00,4.310482690684820373e-01,1.299448085923311069e+00,-2.997911619831502561e-01,-5.691909795266221650e+00,3.282498873607790912e+00,7.334970207646838158e-01
2.387696813750793901e+00,7.257105569298410330e+00,-3.050683709072672833e+00,3.358671030140174096e+00,-2.762766373249947449e-02,-3.617291733491490469e+00,5.333496611832517331e+00,4.116083007822672002e+00,4.908662495370002432e+00,-5.827569016102293276e+00
4.381988856465014237e+00,2.125758122733546251e+00,-3.058376763344862748e-01,1.538537692472703722e-02,-7.220952307467918274e-01,-3.640890919699718009e-01,1.371384792624176452e+00,1.695971887294995373e+00,2.881964838593958245e+00,-2.863730878101641952e+00
-5.827067915208197668e+00,-1.106752532857098625e+00,-3.888171917437138969e+00,3.370934838545791568e+00,-2.448602421391882888e+00,-3.705388064278837490e+00,3.656698860299818499e+00,3.021006480236167135e+00,-7.813297771988624296e-01,1.977358889856427382e+00
-3.761431876992989309e+00,-5.129698415936259082e+00,-1.869309480844898452e+00,2.987887811629896806e-01,2.130706176649170835e-01,-1.449012105518745264e+00,6.177917441390352593e-01,-1.971461039659747616e+00,-5.865233975012342782e-01,3.669526285722611636e+00
2.287006562403929966e+00,2.086276867634543564e+00,3.327245924961585111e+00,2.296218463924315056e+00,1.078537150264850197e+00,3.540650114962152539e+00,-2.921919653059467770e+00,-4.341754008530440245e+00,1.925675516225655304e-01,-6.536448651229574969e-01
-1.966967899044529677e-01,1.667121089324611560e+00,2.208127373817387440e+00,-1.200857145782883828e+00,1.201423763264691136e+00,1.906625992684923387e+00,-2.304041887089243623e+00,-7.774060119380994394e-01,-1.942509021327661456e+00,-3.487890945710252488e-01
-1.443362069110729617e+00,-7.244480316745151027e-01,8.187814479457727890e-02,3.453535559268388955e+00,9.359313036707198608e-01,4.723588732295520565e-01,-2.494367491017150940e-01,-4.041439138263320352e+00,7.309957573053960100e-01,1.282614482088155095e+00
