-1.185413366203653229e+00,-2.187652931186587324e+00,-4.428113338319539238e-02,-9.828428701474910545e-01,-1.320611407057385556e+00,4.959073074168360851e-01,-8.305190334108182304e-01,2.597759388296092098e+00,-8.521443370404794271e-01,-1.493781107092468474e+00
1.301423896735917296e+00,-1.417808823933282447e+00,2.050825128288245036e+00,2.090549365209517951e+00,1.767055640008694084e+00,-2.804748810607562426e+00,-4.377229014043877708e-02,4.809050143073123174e+00,1.505657603919349441e+00,-1.372428737935344589e+00
1.482194996060685055e+00,8.224023011895795765e-01,7.912048963100319909e-01,3.030699142136400237e+00,6.662569941466179868e-01,-3.337749016876416785e+00,-3.877011906025203403e-01,-1.442433925887729451e+00,4.095044896938936141e+00,-1.168893290252081441e+00
-1.247734979104252018e+00,-9.460835236082476563e-01,-3.490441745409020302e-01,-1.503194435485545766e+00,-1.264759759726069799e+00,1.647249490384392168e+00,5.652221092329692310e-03,7.529210735508802266e-01,-1.179884723433660021e+00,1.204859020683144849e-01
-2.699929394482355471e-01,1.949839091175975092e+00,-4.252693669087784789e-01,-8.939402622500898232e-01,8.727014554710165184e-01,2.137149741582616169e+00,1.236723675720992510e+00,-2.046085059968633768e+00,-2.014469221735349702e+00,2.491013972402035037e+00
1.946102070894785374e+00,-6.965978176901790331e-01,-2.202381963175189750e+00,2.245735480213873481e-01,-4.436646716214733693e-02,-3.083768476945821124e+00,-3.217118498505297630e+00,-1.866987127573719984e+00,-3.329674191333846789e-01,-3.749786389620369143e+00
-3.497458009472712348e+00,-9.169551152413356609e-01,3.665394770692814941e+00,8.723520633595299723e-01,-3.646707233795832614e+00,2.428321132628495693e+00,3.821727921469755263e+00,2.097017495771960505e+00,6.630518911387445868e+00,3.178572125597591835e+00
-8.652222136481295678e-01,6.852289132851610010e-01,8.961487626011442886e-01,7.123609068429714863e-01,-1.885894126627906342e+00,4.803913557748903940e-01,1.480060580622191146e+00,-2.005647372853406107e+00,4.120980614085100413e+00,1.533785458892721110e+00
-4.366563017703652960e+00,8.825488339219765832e-01,1.939580611556330769e+00,1.227963777686222668e+00,-2.994432207631606335e+00,3.051637315653996652e+00,2.438575198980973635e+00,-1.970257283414898364e+00,4.065561113066181065e+00,2.307398961182740571e+00
-3.035564377440725936e-01,6.151137266534774106e-01,1.617662780075013629e+00,3.939203828559680876e-01,4.663179831400221520e-01,9.476875590988053100e-01,2.103055674793100849e+00,1.192722237320628098e+00,1.159230368336390038e+00,2.350795499148389478e+00
