2.379723818307264871e+00,-2.832606109319890209e+00,-4.096249239462997904e-01,4.785816280778451670e+00,4.673506690899164262e+00,-1.791907885950912771e+00,2.691742300897403517e+00,-1.063111738140207319e+00,2.928301705552742717e+00,-1.647646902155864179e+00
1.707128806472191895e+00,9.800250422091350000e-01,1.254756605640856115e+00,-1.502841963025046690e+00,-4.448987399898227113e-01,5.398574010468240036e-01,-1.794760921278505394e+00,-1.022650362273358260e+00,-8.080716872768658465e-01,1.166909749696364740e+00
1.779165507856993234e+00,-5.297698525231830935e-02,-2.824583793512660534e+00,2.090451310140083230e+00,1.693955744088391890e+00,8.419189297325815335e-01,-2.555176893805714666e+00,-2.840482814690571178e+00,-8.997969431902985704e-01,-2.587403823118594737e-01
-5.195868530189361456e-01,1.082942966558583686e+00,1.534789614206050867e+00,-1.066311675941954196e+00,-2.783778780745760351e+00,-7.523098813920423567e-01,3.341214895947227093e-01,2.942081635591905719e+00,3.637653465335762837e-01,-7.233025476171671686e-01
1.890155813011807240e+00,-1.437807174209882133e+00,-2.415445770645810342e+00,2.413184344848133822e+00,2.126526685582223575e+00,3.668025675655324225e-01,-2.279240128232689067e-01,1.814443926644305982e+00,3.388644079482307170e+00,-9.916925066753763396e-01
-1.248743358130481207e+00,2.925021742744110531e-01,1.361038886347657240e+00,-3.334371586594250481e+00,-1.842767861378313832e+00,8.519586072623571704e-01,6.925893948100207975e-01,3.937325029766168605e+00,1.825029055472644712e+00,1.174301901692559769e+00
-1.500716896129346001e+00,3.357781148812151173e-01,-5.906538823031515228e+00,2.861372397475371532e+00,2.242041184193630521e-01,1.275188034371354640e+00,-2.808590722181163457e+00,-2.703556615202901803e+00,-2.594404473237989173e+00,-1.407437898256950204e+00
-1.600914423921648844e+00,-1.166387119420654317e+00,-9.138162142235004559e-01,1.141245768656068860e+00,1.041352084269672851e+00,-3.597815856481721974e-01,1.891926947285908156e+00,1.850324935328558351e-01,5.809061523012332140e-01,-5.857347338115084234e-01
-1.028229631389117715e+00,1.059782300332006155e+00,-1.665978528529078906e+00,-4.383683780751441716e-01,-4.648983288927794888e-01,1.071428886022069316e+00,-2.223032163413681594e+00,-3.526581361018279459e+00,-3.554144319725955015e+00,6.876339076963905450e-01
1.160624329392693888e+00,-3.871408059579757310e-01,1.357205277804375498e+00,3.828257889071696507e+00,-2.410275922978805330e+00,-3.688322805730545717e+00,3.186450915848822785e+00,7.966606041663050419e+00,5.097213642450947546e+00,-4.860237102828006250e+00
