4.997844664874597775e-01,8.341056267114581591e-01,-1.118383472719750582e+00,7.097085075773235108e-02,4.081089935313985673e-01,4.823248687437620141e-02,1.909667991119177843e+00,4.602536556721408267e-01,7.609763761144630045e-01,5.047072074845413425e-01
5.991086131440653162e+00,1.450275419701591573e-01,4.358096127426464017e-02,1.225840216568142127e+00,3.342300715826160395e+00,4.053260257779342624e+00,3.377627763152081464e+00,1.242475683401307984e+00,1.332884991503226146e+00,6.205966814579992885e+00
-2.519388055954980388e+00,-1.063359838132668989e+00,-6.135253322539717669e-01,4.912387470733127759e-01,-1.419285793366528603e+00,2.444631807447943395e+00,-2.431645867409984785e+00,-2.700825336064063276e-01,4.305049812956668331e-02,-2.504955575752633390e+00
1.885788040857939496e+00,-3.480897217360906515e-02,1.733511956265637810e+00,-6.317485892297751704e-01,1.104146836649287255e+00,-2.230207473190130685e+00,9.371049771716284393e-01,-9.425186156486242695e-02,-8.768798124892616119e-01,2.015051763885501224e+00
-2.166057364221080750e+00,6.316405262509483531e-01,5.644281455466188646e+00,-5.146922879441687471e+00,5.252801299930036194e+00,-1.721013192386388280e+00,-1.987187397322400795e-01,-9.073942858853458748e-01,-5.219564854500424733e-03,5.329473987749872022e-01
-1.893405396510080108e+00,-3.392913360279278812e-01,-1.024384778012394026e+00,1.902292461158594516e-01,-3.162207707181226901e+00,-4.827739630741467280e+00,4.432358075512314866e-01,-2.967720950729879625e-01,-1.765634117202374398e+00,-2.712694019898624909e+00
1.848209850947151622e+00,6.624003971788130496e-01,-2.633820697363207675e+00,1.825051411055125250e+00,-9.744829030187398544e-01,8.219307209411377269e-01,1.741318579965417168e+00,7.315177784376594161e-01,7.994570362454422874e-01,9.466911471209475959e-01
-7.845428930224550568e-01,-2.002743580659457567e+00,-4.154402326269668322e-01,4.373158253907380999e-01,-3.352472151174121784e-01,2.588131679601064050e+00,1.161643668069847646e+00,4.814536757719952709e-01,-4.987438953918520435e-01,-2.927371115199264295e-01
-2.076373490851302073e+00,-1.322192623699620206e+00,-1.919084467036367814e+00,9.193564099721358573e-01,-1.999156759673837103e+00,1.601645324796220571e+00,4.816006221536779375e-01,3.475153233112117657e-01,-2.679083458368443083e-01,-2.189683907657644646e+00
-2.324167439438738381e+00,1.191851586134188068e+00,2.265806412760287714e+00,-3.035627209670237914e+00,3.483023743955360185e+00,1.263562486217800762e+00,-6.003403512788284546e-01,-4.070292046302483868e-01,1.461272597102827087e+00,-5.337733807977406153e-01
