7.723574564914433616e+00,7.054454517468419783e-02,-1.758548484043214621e+00,2.973584420517515703e+00,-2.088541512426578262e+00,-5.606483665838922548e+00,-3.681084741038906927e+00,-4.880770670260721644e+00,-1.975265424817596038e+00,3.921669891995310575e+00
2.424121271205690320e-01,1.555046654580419241e-01,1.443943311603037349e+00,-1.011253053639185051e+00,-1.350672778284970343e-01,3.839228634109754790e-01,-9.370476645549849493e-02,1.237990831798448710e+00,-1.586177121876605201e+00,2.033487116193625766e-01
-2.250547801057355635e+00,-3.427948593703529223e+00,2.133224950274466014e+00,-1.558099013594984816e+00,1.388312547344074943e+00,-1.613197368626633876e+00,-3.652100776929293691e+00,4.777331591145226874e-01,-3.338612006949441380e+00,5.631831626786480527e+00
-3.932952398685658491e+00,-2.805504557349404404e+00,2.232125953545256447e+00,-1.226863116102892004e+00,-3.475628562494440521e-01,5.424015068814139084e+00,1.254561682649189880e+00,4.598039652309661385e+00,1.912124849324210007e+00,-1.714748476125156795e+00
-7.947113383635326933e+00,-4.492696541370327923e-03,-1.176581401941639182e+00,-2.143991380689346471e+00,4.395787704230969872e+00,-3.638029722417737144e-01,8.527145254941012054e-01,-2.198454110517939486e-01,7.546902859894519811e-01,9.590675934335334274e-01
1.475930591058111974e+00,7.430780270386109221e-01,1.333654717337963147e-01,2.051703695194469490e-01,6.177990738706118368e-01,-3.553854140798228034e+00,-1.833083427709573110e+00,-2.391981869313154707e+00,-2.579079252712141557e+00,2.124570891857922916e+00
-5.891870194738872968e-01,-1.333461571154931358e+00,-1.223769047923295217e+00,-1.710102107816604766e+00,9.219016192791262831e-01,-1.006691707625779530e+00,-1.349099565892304176e+00,5.817208711054127068e-01,-1.148592183874748818e+00,4.807262175866361176e+00
-7.142549649142212687e+00,-1.534127073830273913e+00,-2.135579839225966836e+00,-1.942671875071009246e-01,3.010260268206360834e+00,1.024242790868250097e+00,9.161142944828295498e-01,-5.123777000784542901e-01,3.625039866597862925e+00,-7.552125565684475461e-02
-6.416248214176789588e+00,-1.543443204644518341e+00,1.853662716525072973e-02,-4.024190320367970752e-01,2.222023474748036964e+00,1.932347253797778608e+00,8.851727658268306875e-01,6.647367115413627126e-01,2.436698322704749842e+00,-1.232391718859841889e+00
4.877883473379913681e+00,1.307225539560595173e+00,2.266738170302649902e+00,9.775688467449127339e-01,-2.555168927272723600e+00,1.265926902642835472e-01,-4.239685694709960373e-02,3.178006152593715328e-01,-1.774215855317199164e+00,-2.293503438503706970e+00
