5.621102898003683457e+00,8.159096774681201536e-01,-1.441714834416639279e+00,-3.847258586532634750e-01,3.578347315423521802e-01,1.960390020962702762e+00,3.164047036940716318e+00,-3.750575673572241975e+00,8.193193759421273370e+00,-3.267260029715454372e+00
-6.097754877117337102e+00,-4.614772161211297075e+00,-1.586645450554323933e+00,-5.422463610901151476e-02,-1.484315393617259282e+00,1.293589154208950376e+00,-1.779888650467699396e+00,-8.106349569772102193e-01,-6.451407632637653933e+00,1.748312142498500421e+00
-1.921942784516650349e+00,-5.932291487756355952e-01,1.476385940395825713e+00,-6.264268060279072348e-01,-6.813940596362653146e-01,-1.048403142881430883e+00,-1.661002581742494488e+00,3.038355291816831283e+00,8.311574081304542450e-01,2.518164030566881761e-01
-1.022903112225980182e+00,-4.082245878529791483e+00,-4.153100203824364733e+00,-6.650500533092085220e-01,-1.197119018117705380e+00,3.798403429633819606e+00,1.565871366149415023e+00,-5.884141378549296419e+00,1.765993191884763336e+00,-1.185044188873564774e+00
3.103916997265314670e+00,-2.688845863267025349e-01,1.131924958235170919e+00,-4.545748588433417003e-01,4.576490977398531279e-01,1.105578233739268335e+00,1.738208252021461231e+00,-1.260704687597451690e+00,8.236523043108803677e+00,-1.984391295947402156e+00
-2.203308452016291330e+00,-5.670533486649046440e-01,1.899454988264221766e+00,1.029707007792168838e+00,1.093297438318136416e+00,-4.343437131776912152e-01,-5.272127440641387608e-01,3.400404526480358958e-01,-4.077107158409386756e+00,2.432353061866031396e+00
2.579796629285172838e+00,2.077743559684610997e+00,3.395892371062514403e-01,-4.264308789469223315e-02,1.213296428843974040e-01,-8.842619756896024086e-01,3.382145388008596099e-01,1.217393644730712765e+00,1.633919485119321058e+00,-1.189161819421270749e+00
2.133371263885074365e-01,-6.096465186847870310e-01,1.635327059253758764e+00,1.194626239271977253e-01,-3.436087380834595972e-02,-2.232325149557656818e-01,-1.929665732445837167e-01,1.356742288592569956e+00,1.157622135855659318e+00,-5.138022677461990817e-01
1.680777550237600337e+00,6.279411394489160525e-01,-1.687578948454526717e-01,1.191339981011588556e+00,7.801869077899520333e-01,3.127146915834197460e-01,1.131116929337186772e+00,-1.386054096795946045e+00,-3.182898607630355592e+00,-4.197884812803398535e-02
1.073705876699742046e-01,-1.601107377912759810e+00,2.834772766495075036e+00,-3.478754615665083372e-01,-7.685248959598208751e-01,-4.360655807555225416e-01,-8.022178208139083555e-01,3.288344822799020406e+00,3.622551203409598131e+00,-1.642803573129604011e+00
