1.580301731318084713e+00,-4.000067896224158481e+00,-3.086631043655676532e+00,-3.786638849361667170e+00,-3.011157136505557386e+00,4.747868499973247225e+00,-4.026213994225305903e+00,-6.822113037426844606e-01,7.442081520403753814e-02,-4.202584328947724934e+00
5.042955160992561581e-01,-6.018145953291382799e-01,-6.447204370498054171e-01,-6.119329466704773735e-01,-1.315931274887051750e+00,1.076279101018900564e+00,-9.205077930200461500e-01,-4.561902667208829198e-01,-2.500890501133161692e-01,-1.110155823956612053e+00
5.708520560934733368e-01,6.045270369328037408e-02,1.567561861549438884e+00,-1.459371176507848755e-01,-2.246734036232099552e+00,-9.172393335821004134e-01,-8.201477986744142301e-01,-1.910033967720991877e+00,7.855953733240755854e-01,-2.317301095526131949e+00
-5.891893236990519006e-02,-6.090395088268765189e-01,-5.694681592619422750e-01,1.083184648715266318e-01,2.229858367943740927e+00,-7.638791811757648098e-01,1.063658726684769462e+00,7.291960337226617295e-01,-3.369600468486266820e-02,1.078593074010980146e+00
-4.758528686264708041e-01,1.077972072143158488e+00,9.193711478552635263e-01,-3.365853786317046792e-01,-2.126711413695130837e+00,1.623954090776923653e+00,-4.835334244857222852e-01,4.667691947012020393e-02,1.260895077837049350e+00,-1.808700863559086214e+00
-6.700547734021405910e-01,2.975494961846632536e-01,4.253124192844226492e-01,7.512048976270493950e-02,1.528397270318402335e-01,-4.406294601568215841e-01,-2.030876631093646356e+00,-2.566500658013178005e-03,-1.317540331361904737e+00,2.600443754530252782e+00
-7.057855162538061444e-01,2.260288180654221879e-01,-4.803251190798182302e-01,-2.080216936718645382e+00,-3.895966890951259476e+00,5.154029168844360242e+00,-3.405419698795258299e+00,6.799431773741314577e-01,8.233690163706126608e-01,-2.240530576191446688e+00
-6.024091398096977912e-01,3.115061840435656926e+00,2.210025048768677891e+00,3.082516641492855092e-01,-4.199311779764493657e+00,2.731019480529698118e+00,2.139991656654039787e+00,1.415721950162536213e-01,3.807958116535468562e+00,-5.513504548239645864e+00
4.789245368967029459e-01,-1.083273177989807490e-01,-8.674792546329462839e-01,-4.722186159941446637e-01,-2.958799839846932400e+00,1.757291800695251593e+00,-2.752579273230854273e+00,-9.272554370537489099e-01,-1.833634814575119565e+00,-3.644491073461941788e-02
1.558606545035613244e+00,-2.144448114805098005e+00,-3.379307343357131010e+00,1.066269170268237199e+00,3.174652316944701180e+00,-2.410179180949141298e+00,2.746292896038065035e-01,-3.700023568324073420e-01,-4.733426193913762958e+00,4.628069375220324133e+00
