7.567657195709754925e-01,7.076814537315867515e-01,-3.014756751918906907e+00,5.329475655065993855e-01,4.853569798129973856e-02,-1.825807405594020993e-01,1.162821445848927659e+00,4.076856933360646362e-01,4.537564803003090730e-01,-3.064108075909430351e+00
-9.337644088641283702e-01,1.030366333234900678e+00,6.386273581503290053e-01,-1.969112379304315263e-01,1.782641221893614514e+00,3.179972054883346999e+00,6.249809155979524355e-02,-3.025860978228193110e-01,1.403521921663892780e-01,1.067558200042120431e+00
-8.860488521699516618e-01,-2.167247388522644869e+00,4.241754049019684558e+00,-2.065101981820500754e+00,1.735052658748097443e+00,4.088452244161402405e-01,-2.842535804162381829e+00,-3.007533504053860191e-02,2.879905096110144114e-02,3.127431519170543517e+00
5.427422683109374146e-01,-8.375887443396814458e-01,-2.427142457878743276e+00,2.504513594400386012e+00,-4.897697938969209019e+00,1.613524678282138858e-01,1.854812453145234519e-01,1.452641318976698737e-01,-1.097619745959331095e+00,-2.947106799823461909e+00
-2.750064086859838053e-01,1.262804239807088447e+00,1.179945259491240961e+00,-6.873699611217536365e-01,-1.659277342835124180e+00,-3.637754948772057517e+00,2.395947815470060416e+00,-1.452467649613764511e+00,-2.059602967358195258e+00,5.368171811008084049e+00
-6.968583414536356768e-01,-4.307113979364173950e+00,9.313783792049984411e-02,-2.824633470925730361e+00,-2.544899783000338811e+00,3.478666380887727172e-01,-2.006723596963626566e+00,-5.688715442013309032e-01,-3.353482564382966213e+00,1.674937120821073488e+00
6.312620534907227299e-01,-1.233111031832311522e+00,-2.513970269471180519e+00,-1.578549208791410585e+00,2.188961139705584369e+00,5.645101379808676878e-01,-7.092595312469164304e-01,8.848099823649073770e-01,7.613561661504522071e-01,-3.687266231705869757e+00
9.467550032073829280e-01,2.480045552212513105e+00,-1.382495452123412516e+00,1.675973704569252209e+00,3.064785157001317373e+00,3.562647196309007835e-01,7.756933727307966375e-01,1.125434321634395163e+00,3.321055227894299744e+00,-3.969749314376760374e+00
-1.880778255993510228e+00,-4.190847789631841458e+00,2.006006058109360612e+00,-2.470379425147768870e+00,-2.655502866917413218e+00,3.436196698434313745e+00,-2.773903369957221088e+00,-1.050785335191883663e+00,-3.871042030227040520e+00,3.718052785408015204e+00
-8.449201099122281011e-01,-2.500576643433964019e+00,5.744376778370893000e+00,-6.327197047749345549e-01,1.503012391644906076e+00,1.228389311701710840e+00,-4.335607435916396746e+00,5.466613313595818369e-01,1.306042245290815362e+00,2.015771668615646828e+00
