-3.353278733729052608e-01,-2.358413564486015801e+00,-1.384580386191135215e+00,-1.728867338273145426e+00,-6.914096801717308782e-01,4.739236233803846843e-01,-2.244308268737554846e-01,-1.266986168548894121e+00,-7.940246444404874815e-02,2.443518795259719045e+00
-5.655216736580636727e+00,-2.681943924751092112e+00,1.692401613536890004e+00,-1.459305055527311712e+00,1.422282134641715157e+00,7.680746879073732103e+00,1.809528724299966029e+00,-1.562789257765535123e+00,4.160262854104590957e+00,3.816843556766414736e+00
-5.236861181736148785e-01,-2.775110853234189268e+00,-8.887232192774713324e-01,-3.501645680985708609e+00,-5.330905171784234842e-01,1.832264630614703904e+00,9.343482685701997026e-01,-2.799167432848125969e+00,1.155152366347293569e+00,2.759762609947077117e+00
-1.013613166472000060e+00,-2.542398118768031789e+00,-1.043078527392703903e+00,4.269217877671678707e+00,4.528609921083103451e+00,-1.307402872391603132e-01,2.833082737579471377e+00,3.556958054780432477e+00,-9.945497986519831191e-01,-3.965925312639342337e-01
-7.595752193541532860e-01,4.625305597594456253e-01,1.079881132536296695e+00,-2.004508093648232236e+00,5.128726117387141237e-01,2.682912282925530079e+00,1.197888870336554223e+00,-2.101159438796056378e+00,1.698599526586048292e+00,2.184983292151509993e-01
-2.154146225512246549e+00,-3.116039770730938852e+00,-1.256375358092408856e+00,2.500696804150190022e+00,3.081533046557406230e+00,1.529199204098190989e+00,1.576766330403059246e+00,1.986470040138682780e+00,-4.032868472661179648e-01,1.736857166399688790e+00
1.049261655743617627e+00,4.174406172793970526e+00,-9.802203238839702903e-01,-3.804436845605763118e+00,1.682176043278863942e+00,3.685554518401811919e+00,-9.181560740794865172e-01,-5.816992140672251566e+00,-1.588822095805511037e+00,4.790034682677717370e-01
7.183882509629968549e-01,6.120395068431464525e-01,-1.280455919141437970e+00,2.088454692076183505e+00,4.741112998650472754e+00,4.488074794692513692e-01,2.136088421258978354e+00,4.979239745157879593e-01,-2.054588090004261236e+00,-1.288688271951671460e+00
-5.542376881055699478e-02,-2.786876996519027205e+00,6.287165421110185726e-02,-3.917379015597975300e+00,-1.274155315171941805e+00,1.105428383503269663e+00,1.619341624072961672e+00,-2.599345360488590995e+00,2.186499568729782350e+00,1.818152061225416727e+00
1.251054642751691759e+00,2.961275997301348717e+00,-8.923578224259703928e-01,-3.304782339927196944e+00,2.429871732172002030e+00,3.063779966180796954e+00,5.588795836103108705e-01,-4.967297162408801370e+00,-1.172413683406737572e+00,1.967202885450713978e-03
