3.125650447275821975e+00,-2.877572946308901702e-01,-2.905306838809333492e+00,6.350081047850992810e-01,4.515985436993761315e-01,7.672470540734432909e-02,1.826935834079814303e+00,-1.076807392646852435e+00,2.362544373954324595e+00,-6.349114166315232843e-01
-1.385473718184473846e+00,1.370031975812624259e+00,1.760253203841703140e+00,-1.844038273667164551e+00,-7.555662825251695525e-01,1.873180440807181935e+00,-1.818624066397509287e+00,8.076983260359449357e-01,6.548060954528696076e-01,2.213385918129745722e+00
-1.433516094625373771e+00,-2.373752795541251182e+00,2.994683326583811311e-01,3.261742957612122851e+00,5.711986672877762405e-01,-2.613962932527156280e+00,5.229243463337130970e-01,5.496529195672613666e-01,-4.945783748424369186e+00,-2.256884152721032155e+00
-2.090422121378120668e+00,7.771640331411384661e-01,2.736545637447159507e+00,-8.981505553022656185e-01,7.753365482624688942e-01,6.776144116246923810e-01,-2.545877864351751896e+00,1.430376052890355520e+00,6.581651235641501341e-01,1.471687369132003598e+00
-2.442011415941392372e+00,1.030325505487800442e+00,3.106047605360565012e+00,-1.664046209548087907e+00,-1.354224004221649569e+00,2.302713218564226838e-01,-2.537865880535475682e+00,1.006332105059327464e+00,-1.427311797013739003e+00,2.396966750414887493e+00
2.780954915878963707e+00,6.702535077843232436e-01,-2.719910202571628410e+00,-6.277578327329051966e-01,2.770577547582183664e-01,1.937436328911353867e+00,1.531924019643159163e+00,-9.483355269195361537e-01,3.693058592947924268e+00,6.172713721765488160e-02
-2.413426230929617056e+00,-1.075220232208298876e+00,1.218436878114937283e+00,1.488796242612513199e+00,1.082583183192697973e+00,-6.028973863008081358e-01,-1.938474787488743689e-01,8.641148709000641137e-01,-2.711358342619066608e+00,-1.818300583282342231e+00
2.622400977277834055e+00,-1.559906844422769279e-01,-1.123855125779080533e+00,-9.192095502265164031e-01,-1.348260792830559884e+00,-4.763512649749228167e+00,2.021925153842628387e+00,-2.730855136001700600e+00,4.210496437051569618e-01,-1.440404029191288959e+00
-1.268900013831363971e+00,1.547435173046195489e+00,1.391483302506112851e+00,-2.330131968805431164e+00,-1.316660594286480412e+00,1.879200237612699942e+00,-1.144517570036132303e+00,2.550964919964196498e-01,4.941826598765883261e-01,1.814329651640261387e+00
-6.328706280295692821e-02,2.385744578524680470e+00,1.248303342645407987e+00,-3.661084779979941750e+00,-1.555308486813742341e+00,1.577683743828071528e+00,-1.245015687309090291e+00,-3.881999020486587293e-01,2.769472469807220616e+00,2.572513214933655146e+00
