4.568877100253864398e+00,1.893356811736183420e+00,-3.357881527484181117e+00,-6.675580504324721831e-01,3.760553981934047663e+00,-5.617327840929892346e+00,-9.894077911093873468e+00,-2.034754907427189341e+00,1.896458163180082535e+00,-6.829026675964886550e-01
2.106870605833472077e+00,7.923485868714600366e-01,-2.232465232340852701e+00,-1.134683733845228470e+00,-4.750164285607438863e-02,-3.380529517328651146e+00,-8.946922395207589362e-01,-5.933619183146112697e-01,3.256969460751115708e+00,-2.662284860689324351e+00
8.595767238129273125e+00,-2.479274313223762238e+00,8.071136560165658835e+00,-9.480020015647434573e-01,2.451666853185603401e+00,-2.408377098075731748e+00,2.030306457477764059e+00,-2.687647844118632889e+00,4.061841617113049807e+00,-2.041650289230634741e+00
-6.637925147802720138e-01,-3.050736059965051261e+00,2.702156465358274584e+00,-1.641323317266702775e+00,-2.163954824172409364e-02,-3.434369619190133172e+00,8.966266905176205171e+00,3.298883902718774408e-01,-3.190787148027703080e-02,5.191194278379863469e+00
-5.904604772570107851e-01,9.423670544876208144e-01,-1.360363727579588788e-01,9.897132502690175748e-01,6.255749181074465870e-02,-6.677257809559308255e-01,-1.183092817703228938e+00,1.829263552127448289e+00,-1.509439819216510159e+00,1.389720890888223703e+00
3.101041437865056594e+00,-2.853212015576649940e-01,3.579969758318573003e+00,3.461205720388788598e-01,1.833431968351125763e-01,-1.543268367504451177e+00,1.736701192616150191e+00,9.007978609811497783e-01,1.186453656432449488e+00,-6.346247056661721286e-01
-1.387340298134292382e+00,-1.896037741564466500e-02,1.466537134499505957e-01,8.212947810636067603e-01,1.402887691327489583e-01,5.380114810382155000e+00,-3.097845102570773168e+00,-1.556570051928723331e+00,-1.700488338993491055e+00,-1.233478088734089706e+00
-3.250245600284344505e+00,8.944931317804365456e-01,-5.193808121151186619e+00,-1.096828100097681613e+00,-2.634751004045388534e+00,-1.302919735749609176e-01,2.175801751131513306e+00,3.627491129700797234e-01,1.730001665721421666e+00,-2.447494930482270625e+00
1.704635321647432145e+00,8.009345677117252205e-02,2.382838241618521202e-01,-3.011485373688952971e-01,4.515746750240701157e-01,-8.912648906312281571e-01,-8.917070917042787537e-01,-6.540392167635815657e-01,1.263630470044089238e+00,-1.195970468767181494e+00
3.046371143826612560e+00,-4.438705452912145577e-01,2.747314196201367853e+00,1.479248969431401495e-02,1.382534775271168526e+00,-2.995479600753809368e+00,3.084585325447017912e-01,3.763002521020744062e-01,5.365425943882200510e-01,1.340546002594800168e+00
