1.179148781101423626e+00,7.345613331988083416e-01,3.417900080036774479e+00,4.483342184500318517e-01,8.260119482340628760e-01,9.663363705864840281e-01,-1.988062283349047998e-01,5.877449467112234871e-02,1.021988578501248579e+00,-1.942397468460481669e+00
-3.831982816013400073e-01,1.117658481047997476e+00,-7.802653591354746787e-01,-1.683460422881904783e+00,-1.296036260514728422e+00,-1.864187608895876147e-01,5.382303836643533845e-01,1.765435284568164009e+00,7.256741179360197691e-01,3.501018545186447284e-01
3.520704580903610825e+00,1.207428411700084414e+00,1.149106573501041062e+00,-3.825100776732114904e-01,-1.915371335687279242e+00,-3.274806662238536781e+00,-3.976949006679627807e+00,-8.661168896316199239e-01,-3.262637486819707888e+00,-3.905592563674956663e-01
-2.173546576414630671e+00,4.717373005648747286e-01,-5.730824432694697990e+00,-3.389567440989059932e+00,-3.031403377267753108e+00,-1.219970946310360516e+00,1.776140865976829852e+00,2.062145861724665075e+00,4.006990197075850357e-01,2.817926782448724854e+00
-1.088747763369071642e+00,5.172627608425104384e-01,2.734425813342498124e+00,-3.271143236479833183e-01,4.407171464458989885e-01,2.066420582208188250e+00,1.104582617356706153e+00,2.125130898232630017e+00,2.358567825378324212e+00,-7.909059680213652577e-01
1.667124219121845830e+00,1.002358347957898577e+00,-1.613224776660352244e+00,-3.131810778065299505e+00,-3.269767160220530489e+00,-2.171090773039697552e+00,-2.868057032096154590e-01,-4.496641081284306063e-01,-2.155291131144279060e-01,1.407669444938571823e-01
-7.236302576459980873e-01,-2.233820660337123787e+00,2.138770940075101379e+00,-7.620535272034767438e-02,-9.979174450226911963e-01,3.739400924725977404e-01,-6.342027071330584853e-01,-9.145254707164858221e-01,2.900514760381859292e-01,7.312103050651271863e-01
-1.877992785542698773e+00,-9.583625912133529878e-01,1.770711186698141759e+00,2.708744417508269109e+00,3.618870217454689175e+00,3.145364616249295420e+00,1.808642139679308203e+00,1.708852183775257938e-01,1.756746867630357478e+00,-8.825652474408425263e-01
-2.248510272714089986e+00,-2.075802744043045767e+00,-1.354320843856607892e+00,2.014422564189222165e-02,-1.002345197452217729e+00,-2.446711557916267377e-01,-4.467021471065030225e-01,3.810643430007917276e-01,-8.161738726123879406e-01,2.602129238657513888e+00
-1.400156007744281172e+00,-4.629493594062377149e-01,-5.516546789659000360e-01,3.324957648596146842e-01,3.893957482864683906e-01,6.401888571886480417e-01,5.024832600319100173e-01,8.220287530384825514e-01,2.659386037830082650e-01,7.959450289391640787e-01
