-1.183350332904315461e-01,1.644295438511728991e+00,2.911102463515534033e+00,3.483328727340970765e-01,1.332601856991449285e+00,-2.041502633562740088e-01,1.957394834410305595e+00,3.414546330232136051e-01,-2.410151080746414376e+00,5.490381034953852879e-01
6.338740764693648888e-01,-5.921594572789663502e-01,-3.279680637884786698e+00,3.608894274031420046e-01,-1.371446918687611705e+00,6.568691051987131102e-01,-8.617826516426753125e-01,-9.002603425179318553e-01,-2.360572448394623879e-01,-1.729099042358900329e+00
4.423233087186313917e+00,-5.507914693398086925e+00,6.234297872329493728e+00,-2.002165953049670044e+00,1.749502586165722073e+00,-4.199999368803633004e+00,2.115339819660327247e+00,-1.594078187596979501e-01,-9.003850444217718074e-01,-6.910464888609078038e-01
-7.809610766677766991e-01,2.436334701520181056e+00,-1.049618284868680390e-01,7.286112135082024599e-01,3.229724683075296254e-01,1.033563444716514956e+00,7.919879773759597175e-01,-1.487064000913302375e-01,-1.545075137798343379e+00,-1.002863949158535051e-01
-1.109979490973510119e+00,1.162516388700874259e+00,-5.837832050894047331e-01,1.360536448888928884e+00,-6.036421342132931578e-01,5.401729322170190084e-01,5.680257978840375088e-01,9.310150685105943458e-01,-2.860552445912804664e+00,5.601425642206901978e-01
-1.117517613583211444e+00,8.927169794427778360e-01,-3.081374799320213964e-01,1.141645466603291359e+00,-1.232913535652860215e+00,6.416086294995717587e-01,-7.961221971826469845e-01,1.487748522636424209e+00,-7.569901411515845835e-01,4.841527267324274297e-01
2.340839283567243356e+00,-3.259117821666024817e+00,2.833703433490638357e+00,-4.861136712401488424e-02,-2.302697762217361943e-01,-2.226888299544232286e+00,1.039115341856846175e+00,8.100182599655854077e-01,-2.535372729041574402e+00,-6.297118752953041465e-01
8.507762876409863395e-03,-7.885545553974673272e-01,1.236322552834300481e+00,1.074819921300776748e+00,-1.098543166498537005e+00,-6.034369853243956028e-01,4.400680102384599279e-02,1.823619411778812038e+00,-2.338208876712174700e+00,3.760887982372850269e-01
-6.691598069493176482e-02,-4.691542386518299246e-02,-2.665146572481858822e+00,3.702026767469651092e-01,6.059396546024349295e-01,1.104044225055179074e-01,1.904848197195556203e+00,-1.554888451585570763e+00,-3.359626527930385187e+00,-2.018331314064398807e-01
-4.091220299567007501e+00,5.537841450921876962e+00,-2.255725077674980650e+00,9.634897792256862381e-01,8.957879850342360950e-02,3.151893974900445983e+00,-1.141599581834942034e+00,4.129300831598708976e-01,1.998337272847765078e+00,1.788384338568415721e+00
