1.461698588956872547e+00,-5.729696907418848628e-01,-7.373347307336193257e-01,1.224578221680285406e+00,-3.509687549444966415e-01,3.459288433623062708e+00,1.834921145249263641e-01,7.085576654582068645e-01,-7.755494508876799031e-01,1.672205524686819267e+00
5.030768255821396195e-01,-9.867078416604350144e-01,-7.304370171112826160e-01,1.119916918764531921e+00,1.162688775723947465e+00,9.873199727362950151e-01,1.648237628249279441e+00,-7.219980063817739158e-01,-1.568815734246642002e+00,1.611180987592711666e+00
1.066522235932092944e+00,8.558156953240665388e-01,-1.462015155328425298e+00,-2.375664149988445661e+00,2.385329681770713695e-01,-6.809976487898557806e+00,2.311455436620387882e+00,-2.804301776032342541e+00,-2.787666189642907799e-01,6.271010715632707733e-01
5.846567671171958303e-01,-3.537303324061297216e-01,-3.028682435518378568e+00,5.704124622167205061e+00,-4.810884150720247554e+00,1.938143336211333612e+00,-1.157975273232661140e+00,-1.553486241580836147e+00,-3.434135781837824197e+00,-9.935126571943827756e+00
-2.947174451511361148e+00,5.163632169582419440e-01,1.650693956950379571e+00,-1.663037235480018028e+00,2.201287668541935361e+00,-3.950392423219946103e+00,1.008981361541146704e+00,-1.168645849406444004e+00,1.102701868306674715e+00,3.294666831562588216e-01
-2.579730196717838098e+00,-1.689001297496780518e+00,-6.299409573363571324e-01,1.142822326044655057e+00,7.702619845775948715e-01,-9.800372703535096264e+00,-1.771053950522331333e-01,-3.593765763977410987e+00,-3.416569343533057967e+00,-1.159059832361401376e+01
-9.782372027843183604e-01,-5.123533604842678280e-01,8.303189151516213728e-01,6.788356448551520206e-01,1.638456569346512515e+00,2.654352919408560219e+00,8.617419176988766472e-01,4.405654415136450730e-01,-1.479805464911709834e-02,2.767956225794089065e+00
3.555970731170823296e-01,-4.901299218860035167e-01,-3.091328597533955502e+00,3.452859093331726470e+00,-2.268889024265329013e+00,-3.298590560768436930e+00,1.331736038662138633e+00,-3.546862587785633902e+00,-3.711637150642786764e+00,-7.454535717888558288e+00
-4.059057777758997565e-01,-2.046847605585880303e-02,2.402616207023647199e+00,1.339405591664177386e+00,-2.577233755737855070e+00,8.510639772712485396e+00,-6.010511893580213538e+00,5.501678328852299238e+00,2.401375055037910045e+00,-2.596169303821057817e+00
3.689813200996218345e+00,-2.063789937816821185e-01,-2.061692241439438522e+00,-3.094665335510931592e-01,-1.005680439512140589e+00,8.057398381750205951e-01,7.892356478166502320e-01,-1.616229615123573188e-02,-9.201864629501544934e-01,2.619053983498514704e+00
