-1.779675165412109239e+00,-1.215256658265081863e-01,3.581813877644564603e-01,-4.980076952927343648e-01,5.520168119748854352e+00,-2.504702636973910046e-02,1.175005363588818241e+00,-1.540145191913714129e+00,-3.160221127790880047e+00,-1.903088826371317932e+00
2.024474592560991049e+00,5.113570148181921515e-02,-2.315760173152351165e+00,-1.902743409498102167e+00,-1.809794274181607099e+00,-5.850293268189366014e-01,-3.174381242317522167e-01,-3.866066798379244496e+00,-2.806999117320534420e+00,-4.008248781384453174e+00
-1.304395943345974196e+00,-8.708903291535778912e-01,1.414660947480236075e+00,1.783220406455563900e+00,1.422936240865906310e+00,-1.277694550590386280e+00,-2.882295523462422016e-01,7.336648301683781348e-01,3.245228993585081767e+00,4.684162097743265640e+00
-4.863908538175395257e+00,-2.794869772135155639e+00,2.533889366360726036e+00,2.325448653610097338e+00,-2.236523427299910161e-01,1.148157366838948867e-01,-2.050307545116528019e+00,-8.011010971353766941e-01,2.339109252565728658e-01,5.386281368137851189e+00
-1.757445745111983371e+00,5.618418299126303195e-01,1.155854833441609220e+00,5.750662573313607417e-01,1.991309460854475688e+00,8.778694672795535059e-01,4.844934231883866182e-01,-4.445387137504303032e-02,-4.738959721508165579e+00,-2.264593661493139010e+00
2.120464103461853433e+00,9.994203892872497441e-01,4.465598202975544773e-01,1.885740564201578762e+00,2.527503325340899387e+00,-3.513670878238772666e+00,1.044915794049077640e+00,4.474702065279374530e-01,4.022218846240189549e+00,3.461257778076566982e+00
-8.073765193034160292e-02,-8.535783460507438969e-01,-3.185410306703914673e-01,-5.845832050321539963e-01,-2.380044189836396207e+00,1.065846600354903861e+00,-7.658467622246809547e-01,1.436257271407866520e+00,3.336917737213939361e+00,1.857473413916392202e+00
1.083002753154604036e+00,5.002626669881851118e-01,2.198846381537533645e-01,6.876176441387330529e-01,-2.519269548474544429e+00,2.793550631488028735e-02,-2.847112374450052608e-01,2.039034071538578630e+00,2.384785163775220873e+00,1.538880070926868626e+00
3.165313894990793742e+00,3.943241348819468861e+00,1.034294941973659121e+00,2.425549523961799014e+00,-4.309925238874445785e-01,-1.532109045631522948e+00,1.592879072820813313e+00,2.184389007839022678e+00,-3.621940144106669202e+00,-2.806962666230424119e+00
-3.659047838725820512e+00,-3.494558298708555499e-01,2.801081714507192899e+00,1.759041915283840352e+00,5.786244946104789122e+00,5.679607986854514623e-01,1.024166527291003437e+00,2.865984989251233017e+00,8.319834018089252714e-01,3.248321822308124496e+00
