4.172774017035802530e+00,1.638924422380805046e+00,1.334567515426816620e-01,2.274891604513625154e+00,-4.886617691695565036e-01,5.054807513005649788e+00,2.256415756240325088e+00,2.826811772421982560e+00,4.122065851179019802e-01,-3.753157528681029476e+00
2.498752992445469445e+00,1.222955006480970663e+00,8.951537639951676617e-01,2.813249921482842808e+00,2.782792351447274992e+00,-1.337022216110015926e-01,1.526428900272318590e+00,2.587291989699752381e+00,5.722643266281861596e-01,-1.193350825317843977e+00
-2.629891415928668152e+00,-1.931999850732917690e+00,1.200173370464199252e+00,-1.014706380053519430e+00,2.192590794462301318e-02,-3.398515835083290693e+00,-2.116674594216228833e+00,-2.878373094041226210e+00,-2.887816847484550031e+00,3.276439929024710818e+00
-6.091343494011512760e+00,3.856017085590656146e-01,-1.565498515586608130e+00,-2.153837591454249356e+00,3.508752736586318033e+00,-1.035498089666523569e+00,2.232992113092735043e+00,2.826485536838956314e+00,2.373914900286068441e+00,4.077750164528273769e-01
2.118503160997447399e+00,1.150650392707891934e+00,-1.024690632908164423e+00,7.544681928890841771e-01,-2.388179476043067240e+00,4.099068414503547197e-01,4.063203877718141399e+00,2.084648089721856223e+00,5.746400823786641077e+00,-3.876415914045517663e+00
-3.169082274456964665e-01,1.932052340528562340e+00,-2.064571857886661199e+00,-7.060228516814353039e-01,2.828789059979931242e+00,3.623043153148665318e+00,-7.261489134214502705e-01,2.503167252704044721e+00,6.452942168064590422e-01,-6.714440237943578582e-01
-1.615399906160042365e+00,8.647276981527526329e-01,-4.441017109363811777e-01,1.310003876501964482e-01,3.791984473857742621e+00,-8.516010232233572896e-02,2.043000921088534427e-01,2.135887540804995766e+00,9.066341533877864123e-02,5.307924785580860894e-01
-5.529720811027609706e-01,-1.372653401936874573e+00,2.236039600214383860e+00,1.318201544706100625e+00,3.822287447415183004e-01,-3.748974423029407976e+00,8.173171492187337739e-01,-8.719534381119654620e-01,-1.347025606265284114e+00,1.219964836485000426e+00
-2.579817005566005239e+00,1.166443591021011583e+00,-8.832892295282439576e-01,-5.355519069908563079e-01,5.373161637278019320e+00,1.994234189050103634e+00,-1.295539849254236486e+00,2.467847241605692687e+00,-1.994700079249515090e+00,1.335691506610616086e+00
-3.308836883021104125e+00,9.600126169043086133e-01,-2.676314294096222568e+00,-3.081258180771354827e+00,3.088385131056953004e+00,2.852225504877485385e+00,-3.824150835130542436e+00,2.212352547418534598e-01,-1.532032003535368725e+00,2.197659728918460509e+00
