8.224136763885945278e-01,3.646435915996804500e+00,-1.891051846679279613e+00,1.250391344012711459e+00,2.186893097286987331e+00,5.866662952298443701e-01,-1.032513692944171613e+00,1.630978815697880835e+00,1.987879329945788420e+00,-1.657821124897029819e+00
-7.328698157134512225e-01,1.742520351329164718e+00,-3.428544155826992679e+00,-1.160849337996352704e+00,2.782657271038301072e+00,1.182007287305581578e+00,-1.329203108530822020e+00,1.155651786135868830e+00,5.472935959522669869e+00,6.334100868191424594e-01
2.432015204828306132e+00,-2.328827692265604377e+00,2.710038150137919821e+00,8.072495439057882916e-01,-1.153128507109930201e+00,7.496711330469225665e-01,2.488940938198212827e+00,-1.972485405823953819e+00,-7.119901634638101662e+00,-1.004259911051201160e+00
-1.591901799130025497e+00,8.811800399281012330e-01,9.926996770266086623e-01,1.876073286686060326e+00,1.464252804414665654e+00,-2.213633842341381497e-01,6.901338889338206606e-01,2.186602874899173710e+00,3.529219942681076083e-01,8.601477980014021751e-01
-1.392645532553331567e-01,-2.834299657742973100e+00,3.465734655276558662e+00,1.528081576995899526e+00,-2.437056703441291106e+00,-1.670690347538798415e+00,1.217858742450810494e+00,-3.384744665902921779e-01,-2.306590715847181894e+00,2.091042161430628710e+00
1.274316617296201493e+00,5.205654312941377926e-01,-1.255030329150925716e+00,2.284833817231432640e+00,3.195678387197450565e+00,8.238132746068255186e-01,1.223861182043635976e-01,2.060439337828612327e+00,4.861477535837070540e+00,3.040394264667763302e+00
4.398265781103516403e+00,-4.190820780508243359e+00,-1.866645798298136386e-02,-2.026983325063705266e+00,-1.111613289797186210e+00,2.041408389565962711e+00,1.692880951598073613e+00,-4.307680142255083666e+00,-4.236924430238641293e+00,4.679443409306016655e-02
2.470342522062935586e+00,-3.453754753407492828e+00,-6.433349367835126120e-01,-6.223388153006403911e-02,1.604982808025049668e+00,1.704708482441037898e+00,1.392885914873003061e+00,-1.037736525494742601e+00,1.886426544278970940e+00,3.740915276946077839e+00
4.377537420250250388e-01,1.289623881175703257e+00,1.989787086778029845e+00,8.032152312918438009e-01,-3.089572654107960670e+00,-1.770131684181128984e+00,-5.142138330184560235e-01,-6.773509215764262903e-01,-4.237936333703500758e+00,-3.098512619831370607e+00
-3.065615948945121794e+00,-2.907013880255331806e+00,2.261135799286257075e+00,-2.613819314403721616e+00,-3.575664607022359220e+00,-1.374578573812859084e+00,4.633283669167808094e-01,-1.815587457792406934e+00,-3.491849413940930180e+00,-1.912178625774088037e-01
