8.337208006130548688e-01,3.704916063824970629e-01,-2.301854787874657582e+00,-2.225703051425536927e+00,-2.778360298112382054e+00,-1.360134498434049100e-01,-2.722007735875627832e-01,-7.676550817757321621e-01,-2.532463753519971772e-01,2.248743074283217513e+00
-5.193396899802891209e-01,4.973654822859667202e-01,-1.553039004951224378e-01,-9.215677012632945697e-01,1.153039716933151881e-01,-3.224100895163735991e+00,-9.802509330121463860e-01,-6.296389643049804530e-02,1.501558542952655007e+00,2.188400235526345217e+00
-5.071666343193927950e-01,-7.986148807785176107e-02,1.175515299270287972e+00,-9.348388343029006009e-01,1.403487211127330880e+00,-2.430209503544039862e+00,-4.121467492731004434e+00,1.443395057617664401e+00,1.963173607396678788e-01,-1.868310420483755729e+00
-1.940460325967210853e+00,-2.113497865413167531e+00,-1.972427544590026560e+00,2.740616338707257515e+00,-3.250893208259645117e+00,6.691033423671002289e+00,4.093819020322235325e+00,-1.082472642010526842e+00,-1.411437308965774573e+00,-2.979424872059263318e+00
2.611900231116496496e+00,-4.561489102800221351e-01,4.250836516059681713e-01,1.032003004082149955e+00,-9.469663084603787695e-01,5.728409717544371560e+00,3.548800631693329599e+00,-1.011762893698804788e+00,-1.230218923498344052e+00,-1.048927774456215101e+00
2.072534658252235928e+00,1.437216620184539551e+00,-1.338063246641715276e-01,-2.649231073079485910e+00,4.672501688718355695e-03,-3.267679153300454331e+00,-1.372888351930415141e+00,-2.685392504260765145e-01,9.661639717046393017e-01,3.640215124549778913e+00
-3.706885800769044170e-01,-2.993146694026667665e-01,3.038504875478792222e+00,-3.665221660865494169e-01,1.975460869901536576e+00,-4.218735156473021775e+00,-2.932931802540395427e+00,6.647345841885263784e-01,3.889035309857240552e+00,4.330798410614617455e-01
6.235401699157915090e+00,1.862904221788491466e+00,8.539360524454070456e-01,-2.747089429952276340e+00,2.957357068916239839e-01,1.588263654200115393e+00,5.946353502533970881e-01,-6.467312525110259225e-01,-1.306901600055835555e+00,2.526324485669891651e+00
-1.736653494935360253e+00,-1.480540989856961032e+00,1.002010252356100084e+00,1.746373077853529132e+00,-6.160064981501561787e-02,1.279286958047475053e+00,1.905933257347523224e-01,1.514935393064154590e-01,1.190654429360342048e+00,-2.353067996639890858e+00
4.105336622987259432e+00,1.524234768223449166e+00,2.164531459041874051e+00,-2.792893713423565849e+00,1.552488070204438353e+00,-2.793813957403080472e+00,-2.134950710340744351e+00,1.011311770408979127e-01,1.455141726132319402e+00,2.754795387615822655e+00
