-6.782672655774208970e-01,1.161854347810241106e-01,-1.084352864491774593e+00,9.590910271840694667e-01,-7.000420116802262838e-01,-6.591079587346109214e-01,1.569914663348878969e+00,-4.752476435790135012e-01,8.668319302472125010e-01,-1.771458486586241221e-01
5.747202908797061305e+00,-4.852733928888286030e+00,4.993717115010580798e+00,1.900591983260553786e+00,4.408578438257313437e-01,-3.192512206241948647e-03,-4.517987457066794832e+00,-1.158900133625809570e+00,-4.246752479597561525e+00,-1.113248234283481519e+00
-2.956397523684898498e+00,1.999000151467906772e+00,-2.369590394866186500e+00,1.729078691248386868e-01,3.692260083592386888e-01,2.335208799116861300e-04,1.622977566825789530e-01,3.729418651284401864e-01,3.189429572270256585e+00,1.508128445113275706e+00
4.252597934208473873e+00,-2.665310964366570889e+00,1.347596001249764308e+00,-1.092380661043086398e-01,-2.055825386997794713e+00,6.123939821927237848e-01,1.572759521096801949e+00,-2.004983983322894403e+00,-3.821245419984369285e+00,-3.008438061071317282e+00
-1.437764164011974266e+00,2.286601286940378230e+00,1.629716029941552291e+00,-3.419127367651831673e+00,2.576183514138683961e+00,-3.435542624508661769e-01,-1.981881554098026355e+00,3.075873266491175873e+00,-1.094949278666665915e+00,1.628505938160118571e+00
1.431458060470797822e+00,-3.697808324400634339e-01,-1.218105801268882571e+00,4.366333803400462843e-01,-8.633203365458719247e-01,-1.837554362640868799e+00,-6.446742016330051506e-01,-1.826884971998322227e+00,-6.620537721718973145e-01,3.662035373200644983e-03
1.933038944879451826e+00,-2.618150458076012210e+00,2.179033140025754545e-02,3.745759285345792833e+00,-8.582886317695688216e-01,-1.415031677658047826e+00,-1.549178477778190510e+00,-2.307159094525369714e+00,4.480630864636414579e-01,-2.112385084212775599e-02
-2.507412988471967807e+00,1.735168117731620940e+00,-1.540361274218371990e-01,-9.787663618517987718e-01,1.536676333392498872e+00,1.215883288847075194e+00,-1.143531231232273182e+00,1.801028534372792755e+00,1.988935920646202504e+00,1.519306342391230302e+00
1.925144511295235450e+00,-2.443718901669097665e+00,2.162151528514981713e+00,2.120238985049751168e+00,-1.781298292660120630e-01,-9.170965184370341028e-01,-2.577252372445910655e-01,-3.888181230300935542e-01,-1.483342153983754574e+00,-7.692400212150746208e-01
-2.701542129258153402e+00,4.241845674254433263e+00,-1.742397038958742428e+00,-4.793675960138415348e+00,7.401026912699267823e-01,-7.400586517619677229e-01,2.087058616976015468e+00,2.119135542550477425e+00,-4.746856967675472383e-01,7.058955172440324333e-01
