-7.189680941430371952e-01,4.019197831265850063e+00,1.633890586653123922e+00,2.353620045390412585e+00,-5.267277659387968214e+00,8.376507019400560861e-01,-6.667852472130793906e+00,2.509572623817339476e+00,4.722750900113307226e-01,1.580347309315058624e+00
-1.514574457406091312e+00,3.866987741628021169e+00,-4.253856504459115895e-01,8.625131282527641607e-01,-1.511270016451126796e+00,-8.869060235534862446e-01,-3.523424202792255322e+00,6.275633361281213185e-01,-1.584569597034569455e+00,3.159847834536562150e+00
-1.792345774163796313e-01,-4.764432791282054991e-01,-1.861419562240434145e+00,1.789691765284496250e-01,1.896759531984329339e+00,-4.191425630785678424e-01,2.084899358895154542e+00,-8.658689475272268732e-01,-1.306522275705164438e+00,1.256587595221660414e-01
6.157948908839208091e-01,-9.864162907183049445e-01,2.840761803365460803e-01,-1.557121904355532660e+00,-3.171052254786062008e-01,-1.998349487963613447e+00,-1.301015712656179879e+00,-1.383784286718247714e+00,4.054571049446257236e-01,-8.353690041871290051e-01
-3.041020022158708036e-01,2.096109735565232501e-01,1.762464402032813737e+00,7.631319289850203580e-01,-4.538748550945876370e-01,1.909622578830412198e+00,-6.805554228702331843e-01,1.473923589580886873e+00,6.399240270442276834e-01,1.891647288205610400e-01
-1.108052279615831859e+00,2.963510289587445445e-01,9.516062739425341643e-01,-2.587958468049615934e-01,1.461827945949099483e+00,-4.616608729662707855e-01,-2.096041473446025094e+00,-3.195223179517785450e-01,-1.467849605815747305e+00,1.496681241926533401e+00
7.526875900328043878e-01,7.135294297101900385e-02,2.248545605444589035e-01,-3.760229826857470758e-01,-1.797185382507133777e+00,-3.310873699718055452e-01,-3.470878013388516981e-01,1.124753047292696151e-01,1.322063697896909806e+00,-8.537358011338167518e-01
1.188664113681673573e+00,2.565290217435379772e-01,1.909175334972155191e+00,1.021646282314546017e+00,-4.796935919818510641e+00,6.778177113608522264e-01,-4.136521590526209380e+00,1.414584509520876221e+00,2.425144944224550958e+00,-1.953446636931052138e+00
-1.169503778127882754e+00,-2.132302124647525998e-01,-2.493317498850132985e+00,1.694616724798032381e+00,3.983013552142514513e+00,1.340761815603807694e+00,3.718584378544538716e+00,-1.147068814261011926e-01,-2.831297456585010863e+00,1.175832554057602675e+00
-4.853579268983335693e-01,1.635597840595776731e+00,-2.218899029852140714e+00,2.266812328457490366e+00,-1.356475447070968343e-01,1.395015743294779842e+00,1.812236544927597226e+00,1.040121588797246366e+00,-1.044182220802360561e+00,8.097927404033359311e-01
