-7.728001432614260979e-01,-1.765837877433938718e+00,2.130341849745261751e+00,4.768850139236291974e-01,-3.217697087353666330e+00,-1.537568959321772954e+00,1.969631249283138708e+00,-2.331313092343131554e+00,3.835423798906614223e+00,-1.501105069721873519e+00
-3.425535875781118844e-01,1.334646576978983035e+00,5.692531009012626875e-01,-3.797110853566586508e-01,-2.115469963447191848e-01,2.043500154809395397e+00,2.421503653571546177e-01,-2.134050989986298053e+00,-1.706992813810364495e+00,-1.068819102915153252e+00
5.815480347452217647e-02,-1.319275870546494422e+00,-4.533431455581232505e+00,-2.099816233813558863e+00,1.933126989590426836e-01,-1.788647355869836364e+00,-2.783765146597282913e-01,3.601307435532231871e+00,-1.990283528896427345e+00,2.935202712669262581e+00
1.517293759943336262e+00,2.392533322272423213e+00,-1.082438560911053171e-01,-2.899629700969024171e-01,1.908454513534751928e-01,2.354363956072394792e+00,-8.636063536178421041e-01,-7.556735930764988396e-01,-2.135299466089625398e+00,1.130881867981366584e+00
2.192852587838210798e+00,2.160998986167525615e+00,-9.528218441118398996e-01,-9.606523746533687236e-01,-2.564161411934164470e+00,7.162165055709655004e-01,5.911294866924889924e-01,-2.167823713212361003e+00,-2.218760322245958871e+00,1.370735526571376539e+00
-2.086300777562306585e-01,3.913724068458893646e-01,-1.752958321276991249e+00,-1.297525351952095507e+00,-4.586998797978085740e-01,3.427821444385641958e-01,3.829269766760877713e-01,-3.636794134870402484e-01,-2.370711552923232990e+00,2.902150032051353246e-01
-2.157121787844646921e+00,-4.915212727603504028e-01,-4.972581949217760311e+00,-1.365606393594829937e+00,3.105213722802257159e+00,-3.210782867775492821e+00,7.821981945575890993e-01,1.280003121734322402e+00,-6.896926804652166787e+00,-2.565147779404809647e+00
3.179244343039135501e+00,2.609790626924322066e+00,2.267736459156711071e+00,1.892706735017988029e+00,-1.305421286789359758e+00,-2.686891426580106934e-01,1.243477327624833983e-02,-2.519138493197151440e+00,4.715952506517544496e-01,-1.075305002215738437e-01
3.640492730090869156e+00,2.672394869198855272e+00,-3.133132117110131731e-01,1.428193002412359858e-01,-3.496290032538514336e-01,1.581575295539543680e+00,-1.621214077077831828e+00,7.700160711574097760e-01,-7.537217848656635466e-01,3.611795194232981565e+00
-4.274763536117499818e+00,-4.180824599611878689e+00,1.290742143008708043e+00,5.384408564572104594e-02,1.747133442950804305e+00,4.812431558006519117e-02,-7.614433308298575176e-02,2.444167097362780261e+00,4.295590156197629739e+00,-1.502522400931013635e+00
