-2.138380517975709272e-01,1.662430785592937443e+00,7.464421982998493688e-01,-5.957364762291579297e-01,-1.375200521054874558e+00,2.031962109039628928e-01,-2.575505111931033042e+00,-4.984151423106321643e-01,-6.358310489618009820e-01,-2.774028704016488600e+00
-1.070658455080824911e+00,3.722868244075493438e-01,-2.866339633799580788e+00,4.865263435212080267e+00,-3.080586255937698414e-01,-2.941088512744539640e-01,-1.721264062718811827e+00,7.940847575753424259e+00,1.454280843432946169e+00,3.538722987378647988e-01
-2.102914067282737776e+00,1.955106112520613504e+00,-1.112016272315357490e+00,5.077324138234889261e+00,-1.617057570340596939e+00,5.897320156737558827e-01,-2.998207449005421577e+00,1.804424289293015127e+00,6.708849965582899255e-01,-2.722472967382083997e+00
8.648604644644496409e-01,-1.677145822533250286e+00,1.536673717133985040e+00,1.717350269377550198e+00,-1.273929720885514261e+00,-1.177269123992941369e+00,4.871392273119252159e-01,2.733068164545156442e+00,6.859229724894188029e-01,8.571154148658335359e-01
3.859556729099206329e+00,-1.826333694292309850e+00,2.438676697584323705e+00,4.026590781549137077e+00,-1.308106704867292525e+00,-5.212252896030690863e+00,6.961490183484722039e-01,4.327788555615517119e+00,6.092362315907855486e-01,1.126818703014496270e+00
-2.064912929676315123e+00,4.413528134765896116e-01,-9.317168826623425382e-01,2.737794105834878700e-01,-1.336334509423898975e+00,2.221575740778649610e+00,-2.253408844754013707e+00,4.077678176991605064e+00,5.666452999860305262e-01,-1.074903935765049168e+00
3.635834122230971577e+00,1.104485753397254744e+00,1.879476085493799076e+00,3.112692393165849669e+00,5.882884081466834836e-01,-5.225813220491693833e+00,9.381669071089139278e-01,-5.574638586558351427e+00,-9.668385517180124733e-01,-1.032975949077969080e+00
1.753536446026396689e+00,9.332264801865650661e-01,1.358407958465291276e+00,3.526957579883881255e+00,1.729048582633767872e-01,-3.191519381058908422e+00,7.051553501743618169e-01,-5.254847619834427164e+00,-4.891808521372942864e-01,-1.101594812316154526e+00
1.951461507769190806e+00,-1.298018508602862831e+00,-6.839256331590648497e-02,1.031138414872882159e+00,-1.170655006680450860e+00,-2.246890922379576772e+00,-1.283522935400851939e+00,9.940724973545698617e+00,8.541142846686951007e-01,1.146942205250079505e+00
2.385942769892451132e+00,-1.005535147569433407e+00,2.128951755542312085e+00,-1.936610985714579458e+00,-1.218693799973926906e+00,-1.898280461720949219e+00,-5.181413230603367781e-01,3.065899827942526024e+00,-3.127989237234893305e-01,7.070549325754763026e-02
