3.006737987823630665e+00,-2.731329534216579535e+00,-3.933897819902844040e-01,1.773199791030264150e+00,4.792990765498847949e+00,1.298994174560508919e+00,1.257432386920932232e-01,3.140941219962548381e+00,-2.621603593995594395e+00,1.617444915789820303e+00
-4.688941054129640129e+00,1.140651415368700405e+00,8.656811541299752832e+00,2.874304351509352262e+00,1.273490683269314250e+00,-7.316164993054173893e-01,-3.290173053872692543e-01,3.893526774660121870e+00,1.289265651112697642e+00,-5.069356271853235896e-01
-3.481627973296649969e+00,-5.016503637227159196e+00,4.825434008937826924e+00,2.886003684793793322e+00,2.826898565939327757e+00,-1.405117385474385028e+00,-6.198158789358169107e-01,-1.486069570714289911e+00,5.630588878803095554e+00,-3.608183069984125524e+00
-1.189214294864184618e+00,-1.216529880608653968e+00,4.852235070149195195e+00,2.046822857520652628e-01,2.983945985057515626e-01,2.736279105765545561e-01,-9.797227291089032342e-01,2.306696356730709052e+00,2.789821344402768855e+00,-2.446924190619505168e+00
-7.294669036062503276e-01,-4.900643730099945472e+00,5.253507167407303946e+00,1.574985884326473018e+00,3.186367539733433230e+00,6.869180280199661537e-01,-6.690412600645788688e-01,4.732063310102724962e+00,2.381311467168287788e+00,-3.973787937080795363e+00
-1.676937581774964769e+00,-2.599336807275539840e+00,3.051197481209334317e+00,2.005467737815442408e+00,2.332308041848989433e+00,-1.822045598382801279e-01,2.031850793207468919e-01,2.610479215207322845e+00,5.214493450454460444e-01,-1.727625239528852275e+00
-3.473966301783026900e+00,1.225382845908188356e+00,-1.314585740915438783e-01,8.657747192241632694e-01,-1.628883069771343894e+00,-2.227743973667922539e+00,1.749392764049314541e-01,-5.927120403212551736e+00,2.909581527526477362e+00,3.546635340493395350e-01
-2.336856338691152501e+00,-7.354189490536398033e-01,3.422298855091989278e+00,-5.645889704237336826e-01,-1.738427422501146680e+00,-5.855110396307982024e-01,-8.283924034438381323e-01,-5.880639821604345396e-01,4.164682092350194154e+00,-3.249412125687597630e+00
7.341390974905828148e-01,1.394746235045912774e-01,-1.084920259634575279e+00,-3.895342764457523921e-01,-8.123073549793236037e-02,5.860819431346481201e-01,5.547842800287580145e-01,2.374746210213063868e+00,-2.340203730816402317e+00,-5.397937001637372056e-02
4.457269925212726802e-01,5.191383183125773959e-01,1.253081918436138587e-01,-2.677501795054783251e+00,-3.131607755287865391e+00,4.976354681208113862e-01,-7.059039232216449689e-01,1.785626186601163012e-01,1.860071833432296984e+00,-2.435029561399653542e+00
