-7.003943495887964277e-01,-1.691674966064882879e+00,-3.377892756124117879e-02,3.220051027199401172e+00,9.372649883567396589e-01,-1.740997224050935266e-01,-3.723847803253874655e-01,-7.454130037853567980e-01,-1.761597436739882117e+00,-2.280639656944263294e-01
6.152057961674705089e-01,-2.536294032514690433e-01,6.041973888985183727e-01,1.235222110924155015e+00,3.807885571282688120e-01,-1.232395697579666827e-01,7.785110241164968636e-01,-4.186758027919423863e-02,8.409513593721174018e-02,8.794410972407843419e-01
1.806311375315936829e-01,9.880118679979918994e-01,-1.125778097314318049e-01,-1.630137793535266777e-01,-8.117657356953617009e-02,-9.798611034104776074e-01,3.919126333169730136e-01,1.162738298325536768e+00,3.232413111292712360e-01,1.885247500147367861e+00
-7.964842525527953132e-01,1.837011441857953731e+00,-2.412569119108773030e+00,-2.985007386426652864e+00,5.328760214203105416e-01,-9.797454762808280870e-01,-6.771398890050115416e-01,1.068053273276218018e+00,-3.074616867375515872e-01,-3.182532016749964221e+00
6.690352761588752584e-01,-2.752184235125097800e+00,1.633938703863274222e+00,4.137707777122630048e-01,-1.055499253896319267e+00,1.986448952083994746e+00,3.570374717578844059e+00,-2.512448436411941488e-01,2.921426749835872805e+00,3.620349483671972290e+00
-3.740068371482009990e+00,-1.868821624229557443e+00,-4.041988070697108526e+00,-1.299064094579106543e+00,9.267122008553758672e-01,3.760835671936138547e-01,-2.233400117901584103e+00,-7.609257090069997398e-01,-2.599201787780775597e+00,-6.728697103534571511e+00
-6.434505111663818555e-01,-1.789464885395355198e+00,8.860064722392169134e-01,9.279079861090078207e-01,-9.013310295178387221e-01,1.275340749974975818e+00,-7.231876087056615665e-01,-1.168349893334021949e+00,-1.736330028596527464e-01,6.857480929549399917e-01
6.496445441218713368e-01,-2.938328661760687965e-01,1.341816874417874894e+00,7.358824453309831259e-01,-6.211075930047860183e-02,1.214574494877450617e+00,-1.874461170124542386e+00,-2.185370505387157714e+00,-9.834338102927087100e-01,-2.518098542920704119e+00
-9.522965058758064982e-01,-3.175356341565267471e-01,-5.764554905814829322e-01,3.567821008268892147e-01,-9.732463871612795359e-01,-1.681189479040610557e+00,2.953302383030297129e+00,3.455905679143988163e+00,1.918223613109579562e+00,7.854475863757772736e+00
4.597544607037988840e-01,3.472810608246358122e+00,-9.299861686815475981e-01,6.055276388434693846e-01,1.376480947910432739e+00,-2.982314309224462168e+00,-1.869479765517559455e+00,1.412020067123672007e+00,-2.112415172071417491e+00,-5.979059558042685296e-01
