3.909268807151584646e+00,1.749708196541710725e+00,-1.510186995276917132e+00,3.522731574781556851e-02,-7.412885102493600442e-01,2.576538049821705534e-01,7.355882210125788134e-01,-8.298751735771336957e-01,3.822991051577435684e+00,-1.190409217106478845e+00
4.562456876819165785e+00,-1.126312476678497237e-01,-2.408199942838117558e+00,-2.128665646131842948e+00,-1.738924155185796128e+00,-2.580796106571568327e+00,2.489273544962060658e-01,-2.220365496651116377e+00,4.423844781111326618e+00,-7.578834428790265365e-02
2.038931885057282400e+00,3.143573444778458015e+00,-4.293419133609137184e+00,-2.903839631505605201e+00,1.087716865036375768e+00,1.190574488494966277e+00,-9.164793343199797993e-02,-1.939515256458402392e+00,5.962207320977078062e+00,-1.540888826299702474e+00
-1.312224765897556100e-01,5.132752246681419273e+00,-3.278232413226976893e-01,-2.686237989776198987e+00,1.431289557650092359e+00,1.388166523447673217e+00,-2.833237723407513897e+00,-4.793042888156984205e+00,-6.252425711457343382e-03,-2.848928250705489607e+00
2.284714947959713527e+00,2.155271061498219787e+00,8.185253271930977848e-01,-3.232943803695325080e+00,-1.326438578310539462e+00,-3.486418143964813865e+00,-3.058681961951926986e+00,-5.980307337434933146e+00,-1.145058712766330977e+00,-1.435097149512006620e+00
3.183836831436100301e+00,2.329693928239887413e+00,1.865390566560150232e+00,-7.292922350967490086e-02,-1.574145819102666932e+00,-2.098297715895293791e+00,-1.506997666320588625e+00,-3.383908703524839190e+00,-1.218294023116052172e+00,-1.735988115701286638e+00
2.696367326066803738e+00,4.052638880625226925e+00,-1.463251823517792483e+00,-1.298402975913654389e+00,2.404748150421339992e-01,4.482963347453968739e-01,-8.310658071568303162e-01,-2.711522869348230724e+00,2.873901124919343797e+00,-2.370032717396984179e+00
-1.194092026222010272e+00,-4.916341567230455567e-01,-2.749714887915470918e+00,-2.623630941442478548e-01,1.466379641334051076e+00,2.457343340010652355e+00,1.483534843083344157e+00,2.316419227848151241e+00,3.255643272709792146e+00,6.091883075662969382e-01
1.853325743422066463e+00,-8.552765501561471195e-01,-3.645302725714937520e+00,-3.521722589412902060e+00,-4.165054335392357476e-01,-1.747826251022465360e+00,3.846454752585515280e-02,-1.735275788354779802e+00,4.557711714755260601e+00,6.908567939943929259e-01
-2.644242012177274059e+00,-6.281213388882300741e-01,-2.271486783258418463e+00,-2.059109421055420164e+00,1.413821445685151224e+00,-9.634986581214242951e-02,-1.213904502171476024e-01,6.657404867751688382e-01,1.118533092409763618e+00,8.207650758387903256e-01
