-3.220796639300606001e-01,-5.806623876907772708e-01,8.196189237263825644e-01,-4.315695387117075010e-01,1.437496678665520999e+00,8.052010483208743574e-02,1.227574311444344701e+00,5.745523164408794514e-02,1.105507849717777491e+00,-8.584411317448097378e-01
-2.864654148303497738e+00,-4.189889783713912408e+00,-3.213900754768976853e-01,3.507540442864637509e+00,-1.187233134623218334e+00,-7.086663424798433919e-01,1.058588212210220814e+00,3.142035553413740079e-01,3.482574244429983423e+00,2.401260197716917677e+00
2.825799962487604011e-01,-3.976486729765797534e+00,-1.389228402822076491e+00,2.122152466803488124e+00,-3.269108414188868661e+00,-8.215846081937796530e-01,-2.720845813202211527e+00,-8.874996262164428495e-01,-1.541807414770191897e+00,1.076996959460342351e+00
2.336726309380529720e+00,4.155358009637697414e+00,-3.332758925833247510e+00,-4.455091549598499512e+00,1.244000663544203356e+00,-1.119577416733047226e+00,1.541408905937435625e+00,-2.172276504657746354e+00,-3.009801975444362121e+00,-1.458923408772138108e+00
-2.273910389265163978e+00,-2.270842343962367504e+00,1.170521501196108982e+00,1.800537502842664561e-01,1.967503315936828256e+00,1.681781380905083001e-01,1.119973554866109389e+00,8.242833257750192821e-01,3.201658205068392604e+00,-1.042711538549785599e+00
6.637253356487984313e-01,-5.006876406101710142e-01,4.463115861889719760e+00,1.451434260632186612e+00,2.005983975685044829e+00,1.198977442336622401e+00,2.717947287234079745e+00,8.839228432326631246e-01,1.895027389006503027e+00,-2.226255985225690515e-01
-4.797328781617602456e-01,1.238408444721973978e-01,2.475267295280091595e+00,7.391975718889629565e-01,1.448025733704821683e+00,8.207949560099107034e-01,1.507997175015505231e+00,9.923880845521384497e-01,1.856797966391619870e+00,-7.920433292513831547e-02
-1.922416029790340097e+00,1.545426799415628771e+00,1.828373843471924776e+00,1.209215338333595513e+00,2.259076754680601762e-01,1.310709378081770904e+00,-8.301418651210406008e-01,2.303649489629051583e+00,2.021457168727622378e+00,8.282511454674423845e-01
7.440454574570837032e+00,6.766185420546120710e+00,-9.483244755551867300e-02,-3.875256576504967576e+00,4.819621432045195775e-01,-1.232562555978977681e-02,1.973263288648794411e+00,-2.793268305435188115e+00,-7.009949184436594649e+00,-1.134544898494842746e+00
1.053213633434459062e+00,-5.022410934622545398e+00,-5.179900731235206335e-01,3.216514288049036274e+00,-2.576045132171492114e+00,-1.282648082483826890e+00,7.189626697779506470e-01,-1.817538342326488587e+00,-5.165059230390914857e-01,1.971890165015422136e+00
