8.272462988131517037e-01,2.819847103909798314e+00,-2.803494028978319008e+00,-3.760366651296696894e+00,-2.299205236199552083e+00,3.358258806923004602e-01,-1.537626605363084931e-01,-5.411879596973396822e-01,1.003946928545055961e+00,-1.895024920755131514e+00
2.191534072531650779e+00,2.845484039892696160e-01,5.218651798214288817e+00,-4.484286320408530813e+00,-2.129026213858447480e+00,4.846721465563235576e+00,3.313220483967247443e+00,2.679474678231320794e+00,-2.975390870192745396e+00,-1.813318344836828633e+00
-2.647229652106326547e+00,3.969625064199406861e-01,-3.225460442622576362e-01,1.325586233929721081e+00,2.960699607578781922e+00,1.399771450863501965e+00,-5.114480546846267295e-01,-1.069171622241649855e+00,1.809418574744939390e+00,2.988459653283011441e+00
-5.876562497006907471e-01,-2.213982061050207562e-01,-1.480744684528661148e+00,1.948887409817105620e+00,2.073088558261068082e-01,-2.722044716052022029e+00,-4.913648336711270437e-01,-9.209939815017924580e-01,6.135976780280025800e-01,-1.336303460742251925e-01
2.088296861135356508e+00,-2.099162000686268126e+00,-2.562776037155355957e-01,-1.511559997712796921e-01,-8.411497821850105749e-01,7.603456422609462528e-01,-2.119031300215575619e+00,1.294649726809151913e+00,-7.878135707177388314e-01,-1.062863011763961196e-01
-1.650817072886181514e+00,-1.106470278732956114e+00,-1.406494732501695655e+00,4.929830422742017326e+00,3.911965014796625173e+00,-3.406742511289896136e+00,-2.552748166169917177e+00,-1.480225532094038954e+00,7.145279863866922376e-01,2.864904159814695817e+00
1.227652658028187904e+00,7.182942429806440376e-01,1.831472952036758972e+00,-3.798362486457177667e+00,-1.338637066777655704e+00,4.084800072424032535e+00,1.063347882952804468e+00,1.429281046318480852e+00,-8.440687604480219264e-01,-6.461415781257516810e-01
-1.165024028595511130e+00,5.608119848786852213e-01,-2.371445598513179931e+00,-2.245302467490888354e+00,-4.055333042615818506e+00,1.324943510585904427e+00,1.927547063898740642e+00,-5.158617221504775419e-01,2.878481090495302652e+00,-2.171874463781023668e+00
2.263659216994366119e+00,-4.851513752202919472e-01,-1.001399754915661688e-01,-3.467099074105602696e+00,-3.779444597154965280e+00,2.377227208474683273e+00,3.552586194133665609e-01,1.539845469817225032e+00,-3.975746123862180514e-01,-2.379274152558472633e+00
5.331984809018133209e-01,3.640759343192113917e+00,7.465490316229835832e-01,-2.930592899481920810e+00,-4.461447388723981944e-01,-4.673351941083895289e-01,2.013258731416073921e+00,-3.815459480468196829e-01,-1.206532426134907521e+00,-1.680281513066943955e+00
