-2.615009141467192322e+00,2.309926405183008402e+00,-6.532797447597016305e-01,-1.431781596991921424e+00,-2.805677245080850923e+00,-4.200319367996249831e+00,-3.683685037148637154e+00,-9.180906032592300869e-02,-1.253134919858630791e+00,-2.095874336146532624e+00
-6.356022100699895705e-03,1.490333365929837062e-01,-1.318122726629787689e+00,-3.224443738378702379e-03,-3.267376199933164083e-01,-4.138328286155423807e-02,-1.161915714702964397e+00,3.077629968612338174e-01,8.708219003586875617e-01,2.382208762096653387e-01
2.707431635036050555e-02,1.157343335890503644e+00,-3.710525830068070463e-01,-3.629110741790246841e-01,-1.641491754903253275e+00,-2.493648663454967052e-01,-3.851171368370832848e+00,-2.158618709378558043e-01,-1.839228604723892602e+00,-5.541508724518220408e-01
1.052998103461319834e+00,1.278467796711159510e+00,1.383787781870609301e-01,-5.708243885798832906e+00,-2.964371730313843933e+00,-2.390046913781183058e-01,4.027984795347314684e-01,-5.726668468872944118e-01,-2.335517393187588997e+00,-3.660679256046706520e+00
-1.151540132899570468e+00,-6.493962707996913108e-01,1.974338906638659186e+00,1.443613953732928890e+00,1.042709046306173226e+00,-1.218689808381410389e+00,2.263864313316987786e+00,-1.368828708466835464e-01,2.151113871351285345e-01,2.482948212478833239e-01
7.282496037245428377e-01,-2.730025980178039657e-01,9.437817198047795952e-02,-3.520254462408147766e+00,-1.812615983939165565e+00,-3.158116709418428147e-01,1.706231344757767054e+00,1.162402828985920067e-02,4.439824836722237045e-01,-2.269256539251467419e+00
-7.660022979811458299e-01,4.216214737598334428e-01,-7.389285891128808403e-01,4.248188267123342299e-01,-7.718276558823466971e-01,-1.108567689568114467e+00,-1.964689882719195424e+00,2.197823824529193115e-01,4.077689828713715881e-01,-1.606276124128308558e-02
-6.752302572957692428e-01,9.508756766191686083e-01,1.116152696482666462e+00,8.197246008278376017e-01,3.192850433831015966e+00,4.822403876690013469e-01,3.487477576667601387e+00,-7.300662170179491595e-01,-2.163903999140705636e+00,9.751392835954142413e-01
2.091773253492523299e+00,-4.255017839182563266e-01,3.267704427283619206e-01,-9.068618412576712196e-02,9.206669540321028578e-01,3.078630558457754685e+00,4.739013561969609434e-01,-3.199255293350454776e-01,-1.255683473705965003e+00,7.093388415228709665e-01
1.055206791287357504e-01,-4.895724878796657853e-01,8.271739908912022210e-02,3.793802545506967050e+00,1.197381032516895427e+00,1.120032625823773831e+00,-2.609540819708703996e+00,1.377435508810176956e-01,-4.431763062955840216e-03,2.385686378440701638e+00
