7.182208430735803617e-01,-4.344063080793426068e-01,7.761407103758456438e-01,8.118522922226475425e-01,1.236588967050595400e+00,9.832949063398259415e-02,-2.868782868145381304e+00,1.348395316334726424e+00,6.450169382769224691e-02,-5.030961321810111242e-01
1.624904363563026699e-01,-1.225258560699189037e+00,-6.654997319674375855e-02,-8.448693695217861510e-01,-2.811248235350302105e-01,-3.221306913970154451e-01,-2.304328178057677215e-02,6.026683550647869980e-01,9.508120610213844914e-01,-2.185288045269291324e+00
-1.970644928424087450e+00,-1.586949063013035843e+00,1.922798079083865463e+00,-7.244709600343252065e-01,-2.085076538398242252e-01,-1.547196888325689468e+00,3.064144939177627092e-01,1.798421601769784495e+00,-4.482633069542314996e-01,-5.041382108222909331e-01
-2.218709372347432485e+00,-3.885695203818182453e-01,2.275252331205084744e+00,-1.663851036847369569e+00,-1.036465995266116824e+00,-1.482912203647259286e+00,2.907269872699892233e+00,1.699493539850220891e+00,-2.440324384791858758e-02,-7.942360751130854712e-01
1.608779456994162693e-01,1.776665091126662155e+00,5.183278080937611776e+00,2.148260152071236329e-01,-3.716175213776943487e+00,-1.573731838664912841e+00,-1.910502293049837874e+00,4.310925293763098409e+00,5.155300095366534663e+00,-6.016213393615870153e+00
1.458084506630768828e+00,-1.549260311973372328e+00,-1.414350159855331857e+00,-7.456144032855754888e-01,9.696330857296563410e-01,5.636390603437582136e-01,-9.583512358248564844e-01,9.408793234989093479e-02,7.676309066423744332e-01,-2.324471443888568079e+00
9.286358228517932467e-02,3.802133657649704457e+00,4.878890751795288416e+00,-5.170104728173436914e-01,-1.011466504288976997e+00,-2.960837876536572821e-01,1.284986208515737305e+00,3.819040217871991327e+00,2.168104658534246276e+00,-2.160052209595132222e+00
3.239776527099951231e-01,-2.855699151733599450e+00,-2.250955192564752849e+00,1.010988127479758969e+00,5.965802433702049878e-01,-9.736751724419778764e-02,-3.167006161662105690e+00,-1.338561412095392811e+00,-5.297532806880541623e-01,1.573000678562922472e-01
6.676711158423860315e-01,-3.250628417484269672e+00,-2.215531362386399916e+00,1.809602054191383536e+00,1.334895681600565265e+00,-7.294276663807996997e-03,-5.124040798174804401e+00,-1.053926259525912901e+00,-8.105892449515371689e-01,4.813749732607841003e-01
1.286092975848345921e+00,2.240257021092861400e+00,1.593274724559934574e+00,-2.654955273375007030e-01,4.598476295547284654e-01,7.338919891984978516e-01,2.503583626898303605e-01,1.645648696284304435e+00,1.132129825984064420e+00,-1.293242435886256647e+00
