-4.291667144167602643e+00,2.274721613250582308e+00,-2.331559627585157557e+00,2.617897396171568136e+00,-2.336362316157136743e+00,-6.331084925603004621e+00,-2.469695199479490011e+00,5.822347300284376193e-01,1.808326117908213293e-01,2.799370167518218100e-01
5.936548105908572293e-01,-4.677932405176234987e-01,2.716859724731311765e+00,7.394310012622207218e-02,1.266281754224390266e+00,-8.126955374156531464e-01,-7.441563262282193669e-01,-9.896251310230799181e-01,1.528722290061856892e+00,1.180380144611836268e+00
-1.612790175571575224e+00,2.225509745385064964e+00,9.896700361861678896e-01,-2.987887219260227933e+00,1.635643771448683226e-01,-2.895093017260601087e+00,-1.156303779864775283e+00,-6.485410011141471420e-01,3.856871841159049463e+00,3.169183012142537947e+00
-2.403018585014353725e+00,2.757401020075799014e+00,-2.873240403598359971e-01,-1.433808706358815632e+00,-9.024175315526886676e-01,-4.661343641942996996e+00,-1.871482915029113014e+00,-1.035210315978445594e+00,3.637236416897747127e+00,2.597314676213629436e+00
-2.554840821563981734e+00,1.249752432907718092e+00,-7.062593005790773759e-01,2.268521250889482532e-01,-2.098780096302511333e-01,-2.483393486510969250e+00,-7.539350622580680561e-01,1.720430779151658873e+00,1.292682017624991186e-01,2.735484058811040176e-01
-2.985243080546008954e-01,1.227438108603812639e+00,-5.438140419102916567e+00,1.574638172334532182e+00,-4.015300855562949245e+00,-8.608878990290969035e-01,-6.121684832581310298e-02,-1.747405185011988493e+00,-1.375578291616612603e+00,-1.725855010698292169e+00
1.428990366538837264e+00,-1.310254575934764798e+00,-3.739614298034023232e+00,-1.338507970429418936e-01,-1.912429793974253167e+00,5.004747762078364914e+00,2.490140911057015849e+00,9.774881742118916028e-01,-4.423078426892112169e+00,-2.617395613175128588e+00
-1.237064695977723616e+00,-6.922337878039168668e-01,9.933440128984678541e-01,7.644487413507298212e-01,9.605331026278476347e-01,-1.073120030310976275e-02,5.324806047386480834e-02,2.358670086706228464e+00,-1.614929182083054915e+00,-3.734121539086761032e-01
-9.675450505007072710e-01,1.950450542933731102e+00,4.783677349180567973e+00,-1.936152601062313572e+00,4.113356001156836861e+00,-4.012644842929013578e+00,-1.787681452541439509e+00,8.406897857415573938e-02,6.392085533446612011e+00,2.786740357163672854e+00
-3.793925248950679396e+00,3.807599922425370487e+00,-4.534940300177225936e+00,-1.224098368743253618e+00,-1.995975474102933189e+00,-3.728960036782705156e+00,-6.548093325394993558e-01,1.635880686524046279e+00,1.452050034235654152e+00,6.787070281678142525e-02
