-1.943080837379198123e+00,2.217378150341057452e+00,6.178253113838749755e-01,1.391254218084229111e+00,2.058554634265019612e-01,-1.564106462094700500e+00,-2.924638360086221134e+00,2.073502818730919905e+00,7.796683358435108069e-01,-5.141931069352648542e+00
2.827238282477897435e+00,2.903945315058174437e+00,1.851379845128626966e+00,4.282218532682991352e+00,2.445112343026571988e+00,-3.008393685863017808e+00,-3.795029526240156770e-02,-9.549059546710867430e-01,-2.981952689144084179e+00,-1.608111607486767181e+00
-2.131314173980263238e+00,-2.953077828422857820e+00,2.227590420500391577e+00,-5.743853442668751974e+00,5.930568815384715808e-01,3.594678598157797556e+00,2.660502908803157762e+00,-3.955494533061660434e+00,4.073994641443203335e+00,3.990693528999143425e+00
-4.283547280879249075e-01,1.080065154758084400e+00,2.150409964668455576e+00,1.312661766777351469e+00,-9.688594715748388708e-01,-1.447233149503892147e+00,-1.525191666188393746e+00,1.347722614187288670e+00,-3.158111472909767015e-01,-1.975810724210385061e+00
9.666585454420956180e-02,1.824898129155613002e+00,2.271529276397669772e+00,2.571776049766172356e+00,1.144126724692817954e+00,-4.966694009776634333e-01,-7.827955190375741612e-01,-1.039094975378793251e+00,-9.843715030005883992e-01,-1.244254515952657680e+00
-3.199142414265187639e+00,-5.468422815053126662e-01,-1.117914656908883364e+00,-1.585939707230834994e+00,-3.239754045927512038e-02,2.901760541746658983e+00,-9.938992170137470605e-01,-3.717990740712115993e-01,2.363173053111278232e+00,-7.348891393741079359e-01
1.267015619798509851e+00,2.382419604058378493e+00,-2.468325695186548874e+00,6.954312427586627265e+00,-1.178015408544519360e-02,6.974638284106513542e-01,-1.990047559517734932e+00,8.521297655073069022e-01,-4.658320850949619008e+00,-7.532170599412084666e-01
2.327772258911495751e+00,1.565205880786341430e-01,-1.170417363566009783e+00,9.902086008748308688e-01,1.300774221933331143e+00,-6.562134632632876663e-01,1.436717384362762528e+00,-9.754724328611213968e-01,-1.665441072639572972e+00,1.392702345913607864e+00
-1.951100890675184552e+00,-8.371318157799789716e-02,1.402640351278365394e+00,-1.487077629787353805e+00,-3.671593848052199793e-01,3.320061396921411556e-01,-8.155738835282712040e-01,2.085907414549304228e-01,1.944530295089956784e+00,-1.301546880494128366e+00
-4.791860230944080534e-01,2.246988701321757986e+00,2.415120743258182046e+00,2.098657703496540350e+00,6.452927574707196801e-01,-1.916801426624770155e+00,-1.788355197754296189e+00,6.195469632155972128e-01,-2.756056299209218574e-01,-3.403209422164922060e+00
