4.948060124544829685e-01,-5.536790058932028469e-01,-2.968845820808423408e-01,-2.381538159056636239e+00,-8.219419363626312425e-01,3.081737900235494987e+00,2.299643542778854854e+00,-6.564097627218095088e-01,-1.063873953670442796e-01,1.968664996047259308e+00
-2.487349655512012703e+00,-3.330819153107693165e+00,-3.867259605821937729e-01,4.750698468613766545e-01,-2.383408155325646982e-01,7.003880779080909891e-01,-8.144637980608976369e-01,4.413198795088129067e+00,6.907005561358571244e-01,-1.493806431931575140e+00
-9.572987689361830421e-01,-5.192132612441502815e+00,-3.240983753439774073e+00,8.914672389693297783e-01,2.331477933104497691e-02,8.910745666055452929e-02,-4.075592891574715715e+00,5.827977445777103860e+00,2.575739725511779987e+00,-7.929811072124121063e-01
2.110075661602003549e+00,9.590650519296149978e-01,-1.303614855017732443e+00,-1.173529051823651193e+00,2.015140332178316118e+00,1.060288388132380355e+00,-5.556252135785370028e-01,-1.480330601957711156e+00,1.996394226155888685e-01,2.125699326187374893e+00
1.925843912963214333e+00,-3.207329211593869189e+00,-6.251424120687560482e+00,-2.148142988886619698e+00,-8.914603966112938371e-02,2.007454492860370809e+00,-4.513700166225574351e-01,-1.905313900620507761e-01,3.021623352470113488e+00,3.499379371149879070e+00
-2.278617110410052771e+00,-5.056046320794101989e-01,3.388442884485969753e+00,-3.105071206575185094e-01,-3.694906250311660312e-01,1.766932899625187403e+00,1.408811917470736752e+00,2.489817523725767590e+00,-1.554674100265773129e+00,-1.456775382878439995e+00
-3.051554067486293320e+00,-3.237765368940645150e+00,4.596609360112096532e+00,3.442255377739190436e+00,-3.893419210588429102e-01,-1.344328244597931210e+00,-5.594348672084592522e+00,9.035540979133203976e+00,-5.932454750732216731e-01,-5.238039748764992787e+00
8.353352121573718314e-01,-1.317742306862912161e+00,5.287416326554316370e+00,-1.776289179517287931e+00,-5.175846264761759796e-01,4.861523506815409235e+00,-1.997554302675119686e+00,5.188812047741670597e+00,-1.758821398388360047e+00,9.501866027249628033e-02
-1.649122937198721051e+00,-2.752717496509199613e+00,-5.040019723778366156e+00,-2.159181427200148606e-01,-7.109786588351507675e-01,-5.160390811637182162e-01,1.713711035961821505e+00,-2.997072858146710428e-01,2.266526668695927338e+00,5.623030705539447949e-01
-1.142724288005730893e-01,3.379916319213371323e-01,-2.403451292551137541e+00,-2.785623924017011643e-01,4.444955686392636496e-01,-6.260870846812992552e-01,1.555613476387230243e+00,-2.244159368405526767e+00,6.670955824247746246e-01,8.549854191759305166e-01
