-5.089649200758055159e+00,-1.281583441093925302e+00,4.707856853890753257e+00,2.493205498891464700e+00,-7.284379685951818395e-01,-5.499915596497711334e+00,2.902799455127908157e+00,-1.774659566084589635e+00,-1.143546169255688527e+00,1.418078991474934325e+00
5.029016581567908872e+00,-4.178927842706951168e+00,1.512860589814665202e+00,-2.176608452348016698e-03,-3.268724249536170134e-03,-7.573830422482121794e-01,-2.891827570675574943e+00,3.979609904625172057e+00,-1.912349541102715822e+00,1.701416332936362075e+00
-7.665188004792455878e-02,4.511452220679741387e+00,-3.324062412283648182e+00,-1.304029433203266475e+00,-3.470211502314879404e-02,2.268254808675469913e+00,1.704172104877560878e+00,-1.913019149229431060e+00,-2.260273481278371133e+00,-1.441111663043225022e+00
3.949975191516261752e-01,2.836569217344486749e-01,-1.710069991207389117e-01,3.396364664539787137e-01,1.414115727157022162e+00,-4.739910725533027502e+00,-1.855390674403731177e+00,4.559288780339292302e-01,-5.154290712788021089e+00,-1.313883157083491904e-01
-5.890177114744833631e+00,-3.390538781916919708e-01,2.911104724432569402e+00,-5.047557302364200083e-02,1.102112311010274404e+00,-3.450191056961442904e+00,1.329602111061846781e+00,-1.608885970538690202e+00,2.846206013965162374e-01,1.434666825285383140e+00
6.068807846689517227e+00,-1.965889524694299562e+00,9.218294078047017948e-02,6.006861158235241582e-01,-1.942205162268944907e+00,2.205789394964719818e+00,-2.402919105078191453e-01,2.637859107694453975e+00,-1.581327282416892688e+00,5.402439222212346293e-01
1.660210916085245625e+00,-3.917387454205045749e-02,6.273265419084664840e-01,9.935099584724516042e-01,-3.323871962822230408e+00,4.851162334108991558e+00,3.804544110767647425e+00,-4.652967692245582598e-01,2.820427486680019413e+00,1.048460001644724859e-01
-2.872405893292562240e-02,-1.556615277522712670e+00,1.394258053060093427e-02,-2.480756654512123127e+00,3.937478699901841850e+00,-4.191565187650719615e+00,-4.955963596755683653e+00,2.409760984078226809e+00,-3.922310572072668755e+00,1.481156679179174374e+00
-7.780484606514000978e-01,-1.601188761673072225e+00,9.418389833600704364e-01,2.085530688698002066e+00,-5.460610107277898972e-01,-9.745574129574944289e-01,-6.225120545051753274e-01,-2.882849269569874862e-01,3.812579695411152159e+00,-8.994460107223745116e-01
-2.678352533002089642e-01,-2.792123052055932586e-01,-1.385154850367931845e+00,1.063110557621402830e-01,2.550821756440236232e+00,-3.794421512754285963e+00,-4.282979466207988750e+00,5.464900461915327412e-01,-6.181510654493538315e-01,-1.273688062127894982e+00
