2.212655947042070803e+00,5.608119589574020125e+00,-8.864536064770379697e-01,-1.655956148895587177e+00,-1.044102325936807851e+00,-2.350161367561556691e+00,1.196211102322861874e+00,9.516782519064015400e-01,6.620138117401491717e-02,-6.114670941093075518e-01
-7.071164506098581715e-01,-1.516911054539662018e+00,1.479531378782139583e+00,1.217648782005598784e+00,-8.031182056365679944e-01,2.899616386379356037e+00,-3.773507604101712931e-01,2.572457678011391691e-01,-3.055780051953433940e-01,1.789604425795596310e+00
-2.098760932294013060e+00,-1.179989448536590935e+00,1.635218740748049848e+00,2.705108832600610747e+00,6.088402092995867099e-01,-4.022145779027381352e+00,4.821910684097540090e-01,-2.068872861058013157e+00,1.112941947814955590e+00,-4.596798108744323486e+00
-2.281789404080479533e-01,-2.036851567386304573e+00,-1.030460604461103102e-01,2.749103322722020737e-01,1.354960085802430214e-01,1.838958652593244203e+00,-8.252959903632997030e-01,9.247765267678634271e-03,8.206048708266555636e-02,9.592046477845650454e-01
-6.811132321066337703e-02,3.938982967052375717e-01,-1.564879877464462887e-01,-5.309267301918846327e-01,1.258069520779916406e-01,-1.144634425914368592e+00,1.248432828540161132e+00,1.300971617821221615e+00,2.194727993298897673e+00,-8.476283641357331700e-01
2.389256479748482764e+00,8.436252850879100151e-02,-4.441398691092403261e+00,-2.946521132870126625e+00,1.817063165129135793e+00,-8.842492263090940829e-01,-2.401747656501690642e+00,-1.435061575754741359e+00,-2.147308862247934158e+00,6.451663708057159274e-02
-8.305625305390899049e-01,1.742296145096960958e-01,6.599983534893554271e-01,-1.551498538395587046e-01,2.320596710112099170e-01,-1.005292861186147135e+00,1.474580318015911828e+00,8.724608830042838159e-01,1.059996079576781103e+00,-4.281315261558292784e-01
-1.874039423083500244e+00,-4.581915016092565907e+00,1.826392869220269111e+00,3.777357635008817827e+00,-1.852150441605860676e-01,1.212932117476230420e+00,-1.789721413801815597e+00,-1.994242697940071807e+00,9.149027760688723809e-01,-1.757121657634733491e+00
2.247787547782634121e+00,3.314102475364621991e-02,-2.638514363796515827e+00,-4.015375283336561019e+00,2.333967704136246935e-01,5.956380749356861237e+00,-1.433143234296297974e+00,1.689563169964376277e+00,-3.653743449007042177e+00,7.080345268504035339e+00
3.403745514872164035e-01,1.528708674999124661e-01,-1.483220297209465244e+00,-2.413923052792160906e+00,1.013298771655877228e+00,-2.919707901229496305e-01,1.083979639085321356e+00,1.654766920854548129e+00,7.816840797103012939e-01,9.974796287262306382e-01
