-2.063514052215705163e+00,-1.044997279667319035e-01,2.698197429464977315e+00,-9.579041984293416023e-01,7.240618551369437661e-02,-3.083965804110475051e-01,3.115915495353068776e-01,-2.859599822171492445e-01,-1.362753312178067722e+00,-9.152570603642887770e-01
1.019675555414900625e+00,-1.367260202487729615e+00,-3.893033758137551370e+00,1.030314471099443407e+00,2.655498031090434807e+00,1.033078629642512514e+00,3.467823263622530128e+00,1.672925440692693000e-01,1.221406431392297876e+00,-2.493515935254726479e+00
3.369557575458079768e-01,-1.444212394301506164e+00,-1.131197495147558740e+00,-5.728677520075949881e-01,1.543343506756091055e-01,-1.660816778948494443e+00,-3.633721673967155175e-01,1.020392769332535199e+00,3.253950647151321984e+00,-3.785675995637165947e+00
4.258835578326108262e+00,-7.189188803289816576e+00,1.007857442647946078e+00,-3.331425099801348377e+00,1.166658173760785733e+00,6.476561590159896076e-01,4.856682917339600891e+00,1.295629587148500406e+00,3.625920690650471734e+00,-1.137341704367609729e+00
4.733432240841645156e-02,2.764171525289228715e+00,8.471249109998146842e-01,1.213185378062977549e-01,-2.011151872979567656e+00,-4.363662534784383595e+00,-3.590224118506704531e+00,2.644503215915347205e+00,2.246396052234030272e+00,5.699238462171642539e+00
3.397110027360966900e+00,-4.455556866766655411e+00,2.351536852682461820e+00,-2.288741361138672659e+00,-4.483395445948556990e-02,2.717207137679163331e+00,3.204955718804872067e+00,-5.406822655458529692e-01,-5.547940088084886145e-01,2.351235538180900253e+00
-1.461264098771083653e+00,-4.144193360913428492e-02,-1.700406322397012726e+00,9.148356477741421688e-01,2.000864601871015669e+00,1.441372675313151053e+00,2.096677046099089559e+00,-1.046167262615369964e+00,-1.167112509147566923e+00,-3.811043525503650997e+00
1.476915802248557785e+00,4.477014897604051358e-01,-9.926164218933101191e-01,1.217168735915770406e-01,-6.507362151525771798e-01,-2.224373040228806886e+00,-1.095999266802619498e+00,1.840477302381886338e+00,2.572138572875476648e+00,2.869505518998673566e+00
-2.186945171679830491e+00,2.091257138965936679e+00,-1.644380689775930549e+00,1.497384562537937391e+00,1.801507811119523739e+00,-8.374808361861374451e-01,1.172147418251844098e+00,4.051235330048624794e-01,-7.133781839888599929e-01,-2.826065219420701990e-01
4.845035426056126804e-01,-3.644302011395387453e+00,6.339886774925690416e-01,-1.169245770039030186e+00,1.239404926075655888e+00,3.654097883504914268e+00,3.136091994495897151e+00,-2.130543900297869442e+00,-1.492064390015889419e+00,-4.910499193050601896e+00
