1.133748245093843421e+00,-2.530419907469826146e+00,1.037259957407855315e-01,-4.284953659724738628e+00,7.498405091819513313e-01,7.795901048640170306e-01,2.981817096406339296e+00,1.610604304403280063e+00,-5.391656022160615236e-02,1.477678970858802954e+00
5.596386720231727452e-01,-2.935019698210156847e+00,-1.089653125643624154e+00,2.657760167299664911e+00,-3.709270940655208015e+00,-1.842630572058221228e+00,-2.059644117567488220e+00,-4.388565552307371886e-02,1.925504472721220051e-01,-1.538001185558919071e+00
5.479162469003884262e+00,-8.390096673379551229e-01,-4.514457636987435407e+00,-1.095255443963222497e+00,4.628078517158837002e+00,2.119400780164099052e-01,2.685053986890172162e+00,4.021704403923698656e+00,2.221652163327456908e-01,-1.831658760730951352e+00
-2.907601676760299902e+00,6.788201211539711899e+00,3.100514565003529732e+00,-2.880270855164613897e-01,3.543956646123164411e+00,1.735402572299108659e+00,9.718206815306595914e-01,-2.512540108674663930e+00,-3.061539695762073299e-01,1.193117061552497082e+00
-2.566292417313624341e+00,-5.272720807243808094e-01,2.308198945352772036e+00,-9.485044705104492824e-01,-2.074841428310507219e+00,3.211048775463073990e-01,-2.971489635086996262e-01,-1.484351015307275423e+00,-2.138761267508089980e-01,1.471102054296819617e+00
4.088372509256709364e+00,-3.903447738783561327e+00,-4.663091556835851748e+00,1.373922087003952575e+00,4.079826386455092102e-01,-6.465338140585890070e-01,1.576891302494251246e+00,3.154751677126773401e+00,-2.730624149994482774e-01,-3.173549413495334814e+00
3.625121317186288827e+00,-1.917121033128923457e+00,-4.023199111926839322e+00,1.234461113092206741e+00,1.705804491145902713e+00,-2.062632929294371809e-01,1.795988682575096140e+00,2.667403587854082936e+00,-2.739204183746767329e-01,-2.854879426435197765e+00
-1.575067174357763111e+00,2.652257771811265208e+00,2.090950888857925349e+00,-2.232971249719555296e+00,1.779678360598337061e+00,1.131627154140373959e+00,-3.132899147995433231e-01,-8.256600940861695825e-01,2.214955635834757186e-01,2.473848687545394665e+00
5.006980328740634478e-01,7.684391067282075882e-01,-1.345910640403582548e+00,1.736071364102454329e+00,7.795775098502162326e-01,-5.525674153324880433e-02,-1.440442129132327276e+00,3.468550323222034382e-01,5.811445594905340073e-02,-8.137893997308062177e-01
1.081549293629003650e+00,-1.276952207937592565e+00,4.944477220414660312e-01,-2.026129158335266300e+00,-4.555520755797953791e-01,-5.624283135588684646e-01,1.028346393445630280e+00,5.457753219850309812e-01,4.021312452992789055e-01,7.731244410288390378e-01
