-7.558602190818526356e-01,1.051132794133462722e+00,-6.342372354932229728e-01,-1.578972967070273015e+00,2.423958987070281790e+00,8.121320016647566309e-01,-1.645891429042943388e+00,-3.649683638912658568e-01,-1.625436753328406425e+00,-1.739528376696195755e+00
2.088968642968386025e+00,4.675816030346402918e+00,-2.747885472597676459e-01,-9.248945398771967197e-01,7.792048485548723757e-01,1.364282571906357600e+00,1.573052941456013709e+00,2.034055676887323860e-01,-2.615368062071390831e+00,-4.014182222927999977e-01
-9.432235548776122247e-01,1.561364823450311690e+00,5.590157663653929632e-01,2.332764162583954026e-01,-4.081314134302826968e-01,2.545680875371547192e+00,-2.797520030315440165e-01,1.685796640566274318e+00,2.127934530877250374e+00,-8.687372320138310455e-03
-1.430522809193551348e+00,-5.547641827775029455e-01,4.914979188979188285e-01,8.801643234244065361e-01,-1.118275190295999755e+00,2.084109318056699411e+00,5.175397635718945732e-01,1.402463637510450001e+00,3.891677531218771247e+00,3.523320707980559519e-01
-1.927616030298919814e-01,-2.513460527567046854e-01,-7.462057344982747642e-01,-1.239042122451555983e+00,1.564692695238742326e+00,1.210288108798747819e+00,1.230457032131796469e+00,-7.948576024733623457e-01,1.061821514243738607e+00,-1.711448704456135728e+00
-1.365997539068596778e+00,1.180516447037440519e+00,-7.824663727809846314e-01,1.551735074178357099e+00,-2.304353484496645676e-01,-3.946169587995978500e-01,-9.543315634529949687e-01,7.075752997532099853e-01,-2.445600973871302042e+00,1.678644171431145304e+00
2.036334822370774678e+00,-1.191211209723051612e+00,6.030441679100443375e-01,-2.060093076591283712e+00,8.874236068917511489e-01,-1.136398609313518548e+00,5.569835718756210863e-02,-1.530428986209675823e+00,7.888952040552399403e-03,-1.852970143716214046e+00
4.979208594000184562e-01,1.469628484973952709e+00,4.655979273841296395e-01,2.375720412563979700e+00,-2.507580766012796225e+00,-1.168157883320925183e+00,5.915175850190147744e-02,1.225904699004932930e+00,-1.736668529211750744e+00,3.027516900994033033e+00
-2.163004512987048988e-01,3.376631274289870976e+00,-4.760955916802539489e-01,-2.771133328776415050e-01,9.480337094672859344e-01,1.736128569529988619e+00,-1.587721363759835025e-01,8.166859361388077998e-01,-1.695892356399346435e+00,-1.784056796606792450e-01
-1.676645885305902084e+00,-5.002523601395125752e-02,-6.445205042254081862e-01,1.402267328703386440e+00,-4.807456186756680627e-01,7.603855297480336395e-01,3.950907972464935414e-01,7.396525899074277710e-01,6.819138847955052984e-01,1.062383680652684514e+00
