9.093042093591476860e-01,-1.393384588816050762e+00,-2.351946515090892920e+00,-1.302478852557254374e+00,-1.875261179623475272e-01,5.169935180560751853e-01,3.983384068590377858e+00,1.328559705954873937e+00,7.007950726078735482e-01,1.434666536861679331e+00
2.713922579692727988e-01,1.223228535719271814e-01,-5.564657725564514656e-02,-4.144056816576786595e+00,-5.482852516098335460e-01,4.038821515831396702e+00,-1.232388494060070894e+00,-2.549796524527979447e+00,2.210903370776838628e+00,4.872385171574565577e-02
-3.499352654211255853e+00,-1.116189467751780962e+00,-1.364272278654754977e+00,-1.258453691730195390e+00,4.401990867398088980e+00,-2.597756279617494002e+00,2.911032845252948587e+00,1.267006432399756966e+00,5.293611074539934513e-01,7.062949079385793638e+00
1.999670471182120490e+00,-2.469481286508359297e+00,-1.741994127139777415e+00,6.503430678908211915e-02,4.982402849752467944e+00,1.027207830060213212e+00,3.076314433930050996e+00,-1.117506251401778172e+00,5.146574908465656684e+00,3.826480289581900784e+00
7.687708028362425505e-01,1.154454310998668243e+00,1.964756956279981037e-01,4.444372241790637723e+00,-3.216770927656495527e+00,-3.534737042996947576e+00,4.005084151848650187e+00,4.303234603996867413e+00,-4.204840138212238898e+00,-1.860477592556557758e+00
2.199070506699599470e+00,-3.885469226403057141e-01,8.100970815506719491e-02,1.935746023488731371e+00,-8.232685960826163774e-02,2.630913909272805662e-01,-8.369397030742253829e-02,-2.386460351026010729e-01,8.511053362488329999e-01,-2.011803630858715941e+00
5.857370352510894440e-01,-9.937424802080428998e-01,-5.657677842102522003e-01,-1.429560733624419377e+00,1.247887239990183694e+00,1.589319934098705422e+00,-1.350176337696102902e+00,-1.683839623133343899e+00,2.089974389473272964e+00,8.387244885909458936e-02
-1.597354692145502186e+00,-1.235404528051308848e+00,-1.190177609881330811e+00,-2.706141802152490339e+00,2.840750322133008599e+00,4.891773564624388171e-01,1.969078678109981440e-01,-9.294866394503693563e-01,1.888363847640770476e+00,3.702118692249316556e+00
-2.701218546198819181e-01,1.453765556764602396e+00,6.065481949224293956e-03,3.682733480014411143e+00,-5.688483523896131544e+00,-4.102030747777784647e+00,2.086053949730402923e+00,4.947499560491574577e+00,-6.799734864317958483e+00,-4.036656454696487373e+00
-9.014528263674198572e-01,-1.966445026669714213e-01,-1.380859344199991678e+00,4.118433785195092511e-01,-1.504828746531632122e+00,-2.217421448511494475e+00,3.333949738138131114e+00,3.071410402443747856e+00,-2.666882081789189396e+00,8.513967599766063543e-01
