-5.501175550235593015e+00,2.800435973123767130e+00,4.323396299675210663e+00,-2.065328101548996043e-01,-5.494933627486847882e+00,8.199262536689010616e+00,-4.056627027648282535e+00,3.034249312940521470e+00,1.852068168258322878e+00,1.794874865942281517e+00
-1.295367130245525189e+00,2.196605311904221924e+00,-8.420620495319802723e-01,9.899781627279043983e-01,-1.151786365920342448e+00,-6.760455136130931741e-01,1.499377940523891173e+00,4.246348538863076172e-01,-9.967374166780158529e-01,2.577246652557649842e+00
7.095580403170190231e-02,-7.278403879851753633e-01,3.545732878974769076e+00,-3.521058260470202761e+00,5.165609740016151585e-01,2.295664611733951421e+00,-4.571690223655695995e+00,-1.176835961808792019e+00,-1.234148931040763841e+00,1.572402405165241657e+00
-2.404388576244889109e+00,1.264223904611929905e+00,1.085212575775272636e+00,2.919307582817092239e+00,-2.694548506113716435e+00,1.641230604489381850e+00,-6.588607095926465318e-01,1.376675584877894876e+00,2.736274201772084802e-01,1.420960000949234914e+00
-3.836578027711996075e+00,2.384505025850782722e+00,-1.531036423964878601e+00,2.757203332998058087e+00,-1.425121044266266512e+00,1.180768578228493237e-01,2.093120159414393555e+00,2.793187324784199621e+00,2.786661369165973401e+00,1.481870576168353715e-01
-2.788957954913272363e+00,-9.719956722688986028e-01,2.292373400295082964e-01,3.077247053402560439e+00,1.854101359800926163e+00,-1.986234771307545666e+00,-1.281061766660503087e+00,1.729561025056459922e+00,3.497116115844986162e+00,-1.289401072513971513e+00
1.711407903588975543e+00,-3.504161065266319652e-01,1.775734685648939493e-01,-2.696695343054891669e+00,1.403658794434568202e+00,-7.625988893447710470e-01,-4.567120713206196947e-01,-1.570149090379651335e+00,-1.712795683736994201e+00,8.869956573954722590e-01
-8.577193026450835589e-02,2.590373565282361845e+00,-2.670996511080331981e+00,-3.594592094079486433e+00,1.131938103225024195e+00,-1.328277625186747857e+00,3.211911045737398496e+00,-1.775414937244017555e-01,-5.772811242080262417e-01,1.557769394717937850e+00
9.554852274448399907e-01,4.472100708829367832e+00,-1.598079033170084706e+00,-3.984073198768744994e+00,-2.396191657722954171e-01,-2.314397185202664353e+00,2.740016332563214529e+00,-2.377973944650837446e+00,-6.092833844027259360e+00,7.559691262539389278e+00
6.783105620382556822e-02,2.099423017609835185e+00,1.264035323059006011e+00,-3.935496249617940201e+00,3.244618039650531971e-02,3.014491179115310615e-01,-1.268690018339111436e+00,-1.622848793620753405e+00,-3.551934515080341193e+00,4.868208412167747134e+00
