-1.726329961270436919e-01,-9.703409363496973139e-02,-1.061532827531762813e+00,2.087302528005357871e+00,-1.489666448310104307e+00,-1.666489344405781559e+00,3.161824293774543548e+00,1.126466593197246402e+00,2.929740954398096786e-02,1.206618816636160219e+00
-6.034272668396218897e+00,8.320484187620165173e-01,2.058616476015579622e+00,1.297296756872137635e+00,1.674490317644184989e+00,9.035226877202542362e-01,-1.651400686435156029e+00,-4.826923867814331137e-01,8.561492703276643024e-01,1.030234360423838424e-01
-2.959375246205549814e+00,1.528879707624422934e+00,-2.683845582446084066e+00,-1.979563109792153996e+00,4.391799809664028720e-01,2.822576389272978825e-01,9.857737258478176390e-01,-2.655403671835732116e-01,-1.974208282748727505e+00,2.197008311138501924e+00
-3.154968133022097554e+00,1.442223967346708990e+00,1.151916569895925724e+00,-5.929894562406191616e-01,1.702611094986929974e+00,4.392865998412751605e-01,-1.760530802918068849e+00,-2.960280087796040016e-01,-1.362373987871837167e-01,3.999692190252644997e-01
-5.477014892137235691e+00,1.295229842271432563e+00,3.106677728005318606e+00,1.408213658349892206e-01,8.662000440600321483e-01,-8.029079803458488707e-01,-9.067208860620279420e-02,7.310298530921754967e-01,-1.135643909723256462e+00,-4.672494807324738542e-01
2.834536956597532686e+00,1.047205997717846060e-01,-3.949425057186406463e-02,4.289254792785268222e+00,-1.098998988072308780e+00,-2.589586319076845999e+00,2.268704843751178313e+00,1.620740050363094209e+00,2.311611786919401723e+00,1.361103101803887938e+00
-2.200815597248465316e+00,9.697276688766975905e-01,3.749377845437167345e-01,8.547871499691879205e-01,4.528181836272445748e-01,-6.153144174059395066e-01,3.457159676246475688e-01,4.123137333950294137e-01,8.433778167051075858e-02,9.015848052613707475e-01
6.555823584375111146e+00,1.237012145052707179e+00,1.211408158659095680e+00,-1.178341942781633289e+00,-8.442273216260520741e-01,-3.552629088944344815e+00,1.325377816681342358e+00,2.233547766606737373e+00,-1.393254922361659043e+00,-2.714669205061435164e-01
3.600466518193095933e+00,4.409403633712705162e-01,-2.812148835600874364e+00,-2.388524681240772107e+00,3.405211711563110866e-02,3.412947854205079512e-01,-1.965979370749251220e-01,-4.386987741632137894e-01,-8.495482842406519852e-01,1.038956577620124166e+00
-6.792851673679619395e+00,-5.823805118761338218e-01,1.206832968275564744e+00,2.587077588592504807e+00,8.671885831408069345e-01,1.797716063848597834e+00,-9.150608260792783000e-01,-1.006809922413516523e+00,1.669724969495068212e+00,-1.037648071396037874e-01
