9.677184036698436298e-01,-9.254905237360745440e-01,3.110579960703983460e+00,-2.371895101470182787e+00,5.193659943168787763e+00,2.241921059069931221e-01,3.340446937413822592e+00,-2.108239058825552181e+00,1.952342951674232552e+00,8.373235344583177531e-01
-1.010029970015259293e+00,2.587631091751529500e+00,-4.424061346299726694e+00,-3.136939194822911503e+00,6.928368489403077257e-01,-2.499595893177214201e+00,7.008991107951103583e-01,-1.312253550345526598e+00,-2.802162492944667349e+00,-1.226616418366840877e+00
-5.264083080314034824e-01,-1.033606296535488189e+00,4.172589478461717905e-01,1.348800811918032805e+00,-1.753234036942087570e+00,-9.269341909281977321e-01,1.582905197349348869e+00,-1.839505318679793167e+00,1.177466054645260218e+00,1.108016021133842788e+00
-1.139718411778504636e+00,-4.868304582723467083e-02,2.149247947579292495e-01,3.684008114052738314e+00,-6.526624952754016551e-01,-2.151712594679017210e-01,-1.046355876759501813e+00,-8.471016385224399148e-01,-4.197243306355492587e-01,9.673818059861911678e-01
-1.611766981001628185e+00,2.017314901182721415e-02,9.836734255415851003e-01,3.130238997347362329e+00,1.257459972443052409e-01,4.758597974704198430e-02,-1.425821628191058288e+00,2.032915402577089026e-01,-1.307280705664429776e+00,3.008244943502891733e+00
2.827509171525268705e-01,-1.293724518694774783e+00,9.519341909869141194e-01,2.568183220483409634e+00,-1.983448831813737101e+00,2.999288395458286072e-01,2.465129676038093631e-01,-8.727813069729233320e-01,1.853062717559400552e+00,-5.086491427452630720e-01
-6.398479794713748392e-01,-5.278096807458788620e-01,-2.949873889871304500e-01,1.607964093305437103e+00,-3.069535364643956488e+00,-2.287578028334859015e-01,-5.791085987057963402e-01,4.317481684645111395e-01,-3.297910546712525676e-02,1.064149681924439372e+00
-1.039054378300818815e-01,-4.952447377014924101e-01,5.338372318836360764e-01,-1.480683728687023581e+00,-3.104902946804815045e-01,-3.204366546509614944e-01,1.179965973963077452e+00,8.580204049603068484e-02,2.194582244340064492e-01,1.578585769225143487e+00
-6.629691541197557658e-01,-4.537853463646679408e-01,6.218248732017894742e-02,2.864778747569611816e+00,-3.139688702340683868e+00,5.421189062236946299e-01,-2.048311487670113618e+00,1.465816038939881771e+00,-3.857956317577864724e-01,1.021499272150959925e+00
1.177779471382125243e+00,-1.462029600727611234e+00,-1.083089347951685655e+00,7.243971846324912534e-01,-5.458681916020532654e+00,-1.956123043797703964e-01,8.739659733574143274e-01,-5.186497088835397840e-01,2.695983869929098997e+00,-2.839857124842280811e+00
