-4.051915277677052840e-01,3.487425346372881041e-01,-1.092999796046272509e+00,-1.720862106715076445e-02,-8.463262611429088755e-01,-7.270937122627972871e-01,1.965299954408998850e+00,-2.379948407025916701e+00,2.213026685324958720e+00,2.398278797890824876e+00
-2.774014151505856063e+00,8.488852590702414824e-01,1.387240250709607103e+00,-5.454208550840082825e-01,2.853705188189412212e+00,-2.194273803461223249e+00,-3.242692922282544576e-01,-3.349737142811803015e+00,6.577547381951671657e-01,3.661203956605982301e-01
1.290240256531022256e+00,-6.133129649318913579e-01,-8.018241481076822108e-01,-2.853014922502700390e+00,-1.089250660299374784e+00,2.130608085525142137e+00,1.745302050278823458e+00,6.319773661390890584e-01,-3.874016118050560009e-01,1.912955159587206855e-01
2.364448421357533137e-01,4.888257476178249350e-01,1.333065255886997313e+00,-2.358287096776638059e+00,2.659100944672322164e+00,1.024083494635806391e+00,2.315069578535020156e+00,-1.232722715397427171e+00,1.166515615222950331e+00,1.123413610766316850e+00
-4.653327648842515707e-01,-4.534286473079046087e-01,-2.034259418980671530e+00,-3.341722253554907596e+00,-2.312503678315854572e+00,2.655972729270535293e+00,1.869407218644256519e+00,-5.292039596930118162e-01,2.298972060328289491e+00,2.534756903127210581e+00
1.019442634455403729e+00,-5.394866364357534527e-01,8.151963081615047901e-01,-1.923363391627449959e+00,8.423882208634048130e-01,-3.535441850193369318e-01,6.093976131714833044e-02,2.435315290982237035e-01,-3.736791755268159321e+00,-2.915834328337267856e+00
-2.932051750998179163e-01,-1.197502157613108964e-01,-2.009743568958930027e+00,-4.157307180642684785e-01,-2.445490916014243066e+00,2.778776178144904963e-01,1.406971862275163243e+00,-1.253698870286036993e+00,2.007776152451925089e+00,2.257268416325885596e+00
2.074407002588860571e+00,-5.177804716746442493e-01,-1.453081069018673954e+00,8.050523434347682805e-01,-2.578470851122962149e+00,1.520701867661095052e+00,7.417059498600000467e-01,2.071389466341898800e+00,4.084699237673307115e-01,5.990588129133642692e-01
-4.888822475754373009e-01,4.969458228056857219e-01,-1.645297248282293179e+00,1.925257366016339677e+00,-1.744632840432868148e+00,-1.570891516777545460e+00,1.556781761559507649e+00,-2.447587167994355273e+00,2.948790400333890283e+00,2.969610424325987097e+00
-2.317886908058393480e+00,3.988352126653951779e-01,4.255181911725934851e-01,2.488050758516855976e-01,8.810125857708258623e-01,-2.333963260106923232e-01,-1.583044078777018360e+00,-6.062174694295748845e-01,1.345785048141471929e+00,6.397594041730306769e-01
