-7.540567398890982709e-01,-9.758948797361696736e-02,8.821278563623885516e-01,3.309424947433503572e-01,4.485138436544501839e-01,2.040806301985385041e-01,1.046474152534484059e+00,1.008412438649849641e+00,-1.977189811630582383e+00,-1.871462258358551178e+00
-2.035094125829213785e-01,2.793207552803040894e-01,7.734556063489310684e-01,-4.920618032317625179e-01,4.677783489479931944e-01,-2.172745584296517318e+00,-2.729323230930697619e+00,-3.296240847020902809e+00,-3.586774628654223918e+00,-3.126432092209284752e-01
-8.510242411196160539e-01,-2.409102443902793933e+00,1.861360133665761918e+00,4.019150411175175464e+00,1.176718994258616480e+00,-1.648887748111376172e-01,3.269479683050509511e+00,6.336623565506187106e+00,-7.635881316521748730e-01,-5.343163410175632011e-01
2.064412654672861169e+00,1.496357658465243601e+00,-3.852691260529204631e-01,-1.198281410667910274e+00,5.309668910776764728e-01,6.558294424228885422e-01,-1.631307209537156799e+00,-5.493797221421639954e+00,-2.102144773669206046e+00,-1.642244844096883316e+00
2.443268930431661268e+00,3.207314212737957249e+00,-4.034619125773731163e+00,-2.670498683266242068e+00,-1.847090696298922197e+00,2.835589123421346613e+00,-3.423224926410706193e+00,-7.888815368960833574e+00,1.484402144474029184e+00,-4.532944182091128149e-01
-3.023546413197702343e+00,7.171671314759030524e-01,-8.867601649630836302e-01,-3.370929387164309787e+00,-1.929624361971898017e+00,2.741232013990324567e+00,4.348198780084860715e+00,5.881561780023321973e+00,5.497377449172643260e+00,-3.347415845528597389e-01
-2.319950875419897418e+00,-1.200853444338580323e+00,2.926975445270795895e+00,-4.198585272652599620e-02,1.130741056326491023e+00,-1.268621000293923551e+00,2.815096670842109461e+00,4.517819753371735025e+00,-1.963648595088995474e+00,-1.489625705457422677e+00
1.344897092749719469e-01,1.740798317504586912e+00,-4.354738061658027348e+00,-4.926410958774651849e-02,-2.726660605681785476e+00,3.327957579674872157e+00,-1.456218311663433962e+00,-1.677166526958859594e+00,2.792430151188279197e+00,-3.364387074588738591e-02
2.008415068696508765e+00,-7.068365182782323508e-01,1.493347540373281879e+00,-1.186817823009784334e+00,1.337354104134955257e+00,-2.735719200676733465e+00,-1.259652155756430636e+00,-2.146525059219555498e+00,1.599154317549086546e+00,3.449589368054252869e+00
8.267451656638544755e-01,1.535711087221402593e+00,-1.927734182662979023e+00,-1.337662294535119090e+00,-9.824231682467086113e-01,2.561122907414605798e+00,1.725927664349097557e-01,-1.904623324536790729e+00,1.637637619724924276e+00,-1.009509780397191081e+00
