5.900157501496720025e-01,2.108831055261900289e+00,-8.293534396243883444e-01,1.559809569877973034e+00,1.884272517434311123e+00,-5.966027059275629263e-01,-7.394500219767646820e-01,-8.673394006581165439e-01,-2.659126789827633175e+00,-9.926264783590373897e-01
-1.011206361353860217e+00,2.336844351929734387e+00,6.568027564866651957e-02,-5.272686541263856164e+00,4.680824475061364787e-01,-1.785894678288416415e+00,5.192709388816138194e+00,8.079971711144981583e+00,3.226686595162530757e+00,-1.323781146544918741e+00
2.331273474121165812e+00,-1.906243542334593366e+00,-1.916675271587967355e+00,3.405958981190154500e+00,-2.923168862414526892e+00,6.258471458333370041e-01,1.157552512477620477e+00,-7.705465848139947393e-01,1.855988161400721204e-01,-1.431828877241173803e+00
1.894879312190203446e+00,-1.712988443755490309e+00,-2.531312384074959621e-01,4.260678477386482754e+00,-3.007985874032248041e+00,2.483654415288603090e+00,-1.502692336303256493e+00,-4.224148776409991868e+00,1.695933310504464053e+00,-1.272263438149267234e+00
6.976111560533110323e-01,-3.180366764616759045e+00,2.346570011499117481e+00,3.576614436608552272e-01,-2.044300871070916958e+00,-7.774168758263708678e-01,-5.357972731727573823e-01,-1.262675146291961870e+00,-1.335887670558936646e+00,-6.417222437177363403e-01
-1.593471348872124382e+00,-1.952598903285083010e+00,7.392199829254472165e-01,-5.510053699219966461e+00,-1.062186533972712343e+00,-1.838637592740730131e+00,3.895343811773952059e+00,6.258007865690849769e+00,2.235993630829097967e+00,1.497445877743897036e+00
-2.929087688988545324e-01,-3.169862456344405111e+00,3.874664583590659017e+00,-9.857606196242751917e-01,-1.948158326878919322e+00,-1.332194197669714364e-01,-1.348507202973468599e+00,-1.696113929922434815e+00,2.567488813451190288e-01,-6.589357497366116201e-02
1.236333478636310268e+00,3.678660597538953247e+00,-3.403961383974234423e+00,2.399265124153635131e+00,8.268058421761240728e-01,1.164922028336716320e+00,1.276064824740980930e+00,7.441216416824133484e-01,1.297793180863647589e+00,-1.787176184344563712e+00
1.098601717113505127e-02,2.768962370392958228e+00,1.115112826731730733e+00,9.844354088399551728e-01,2.058428047542848471e+00,2.452790036504217674e-01,-1.988815627583283341e+00,-2.063919979910108893e+00,-1.206385056267201605e+00,-1.410417889017873350e+00
-1.495838389077531083e+00,-1.357705226740830495e+00,-1.132152471063715637e+00,5.232818430790400210e-01,1.082674710895552783e+00,1.337651579485118702e+00,-3.035737049300724966e+00,-3.436930358657225959e+00,-7.154077337963578032e-01,4.212201629598794739e+00
