1.528582568092223815e-01,-8.581752085996841029e-01,-7.195164777576250614e-01,-8.000550771914833881e-01,8.010837535415080701e-01,6.268261599089005598e-01,-1.742716949152280703e+00,2.662098502843766923e+00,7.416670345046494361e-01,-3.890820001036073839e-01
1.520822615139438838e+00,-5.799386227417059336e-01,-8.031956056800237942e-01,1.078722303648474767e+00,7.735405142791638156e-01,-5.880647648034946773e-01,1.028787648537857979e+00,2.004600080115355176e+00,5.201944634148139013e-01,-1.394835363844288523e+00
4.311807546783156253e-01,2.320167996985591508e+00,1.896178041729012165e+00,-1.680009715389239267e+00,-3.162846044492047537e-01,1.514455602182041560e-01,1.233804906410438829e+00,-2.317386793412671508e+00,-5.281037183514017963e-01,-8.205644078783349560e-01
2.477054180379543169e+00,8.698136717058804201e-01,-4.048494184417016362e-01,2.250110216645635486e-01,1.176544035475584060e+00,-3.107494389878696639e-01,2.894789945016041699e+00,1.388308540577828376e+00,4.233199367831463333e-01,-3.619401333771497420e+00
-4.561125033403097273e-01,4.026525228843560456e-01,-1.189312847821371699e+00,-5.699496543218223188e-01,5.855921593488232491e-01,1.338036621627894052e+00,1.567806370388324266e+00,-3.980945772364359869e-01,4.369465941317788316e-01,-2.180146763037760671e+00
6.291654125029261246e-02,-1.715488523193034132e+00,-5.767681915200104648e-01,7.606005975311055378e-01,1.717919269186216069e-01,-5.061306424606801802e-01,-2.223247096240525966e+00,2.457991999999907584e+00,3.561976749650298535e-01,1.454665071173924407e+00
1.388479624246968358e+00,4.095444738837381027e-01,1.523196505513588317e+00,-3.266400413313780504e+00,6.691894419246943171e-01,2.335704009494321554e-02,-4.559071500306889568e+00,3.786300612156974665e+00,-5.985828916963252810e-01,-1.996362613602300495e-01
9.835301299694122479e-01,-6.684433975743844236e-01,-1.210124091466124874e-01,2.259807068347331693e+00,-1.547310673054900221e-01,-1.433219389558872292e+00,1.336242520202146844e+00,1.753666292364349233e-01,1.403526709631945923e-01,5.556614715258006987e-01
-3.449911743875528902e-01,-1.857170919884869875e-01,1.796206974746823171e-01,-1.018592718578031242e+00,-4.005613136468542668e-01,-1.511906536109673960e-01,-2.814932358213900976e+00,7.577612453661891623e-01,-1.727524004776698430e+00,4.792822517533492643e-01
1.484353182860299825e+00,4.053575050184579642e-01,1.407378082555631904e+00,-2.936475673678877740e-01,5.072108339889264128e-01,-5.515763789934806649e-01,2.662430623573533994e-01,1.153669181628885543e+00,1.524327585080240688e+00,4.384925671070546427e-01
