-3.126926652205182400e+00,-4.704296497344645722e+00,-7.333847024973483286e+00,5.379078974929738521e-01,2.705005186484639723e-01,-1.068504629266260997e+00,-8.128036473532784800e-02,2.678799132277720485e-02,-6.662945655502028330e-01,-9.551703246507972089e-01
7.650547562173272143e-01,5.096650454715662804e+00,1.654314194003930094e+00,-2.041615695348685477e+00,1.838188454469699362e+00,2.154174180353351176e+00,-2.713981990872346373e+00,-1.634345718024314387e+00,-5.006638701043508721e-02,1.472441105071200074e+00
-7.625809169459045744e-01,-2.021960279770441460e+00,-3.094239231756279906e+00,2.884671733103983726e+00,-6.220276139547233907e-01,7.312956065835138908e-01,2.921153544030848925e-01,2.218401101163006039e+00,-1.438807572788246336e+00,-7.687148914827872659e-01
-1.749054912478224422e+00,-2.262987316550701511e+00,-1.820179680854026039e+00,-2.100775246109446215e+00,3.102047352198076813e-01,-2.869672966308195239e+00,1.284552072188474892e+00,-2.444685662849044316e+00,1.500523828097588774e+00,-4.740574302006322349e-01
-1.181516762688862521e+00,4.246752408420528813e-01,-4.060590308260167980e-01,1.017921747412479316e+00,-5.757044631682401575e-02,-1.764141787938483530e+00,1.922680454961529728e+00,-1.129349685339346765e+00,5.227553802404665273e-01,-8.162973642262826290e-01
1.220597791247243213e+00,4.114891247466321289e-01,3.521531649437139588e-01,-4.680094300975358723e-01,2.492239828323334905e-01,2.122553925543336550e+00,-1.595875777073563428e+00,1.245284492143488020e+00,-7.063495779385990936e-01,7.770378416406924504e-01
2.649280478661532046e-01,4.906304792569756712e-01,2.301250438755777949e+00,4.092311381397203407e-01,-6.064599746161761784e-01,-1.524164058981989367e+00,1.872464839528928726e+00,-5.923463191745428347e-01,8.414342232095111118e-01,-4.568841356632070694e-01
8.887992397177488790e-01,-7.350553714007738160e-01,1.544309965060804701e-01,-3.234091834643931129e+00,9.214648957305379140e-01,1.403761082230619850e-01,8.076457763941246037e-01,-8.983665886955497504e-01,1.131845912218892858e+00,7.301281885452259868e-01
-1.277112887271606656e+00,1.309610466343958057e+00,-1.428670348871138529e+00,2.528922279594483236e+00,1.162364103820738570e-02,-1.084814999297493976e-01,1.820924172855874490e-01,5.985449682388721548e-02,-7.930258159912841887e-01,-6.739502178981945368e-01
-1.137488267132641839e+00,-6.158214705064426475e+00,-6.179117595282024311e+00,-1.720663985958076347e-01,-1.238906037242264169e-01,4.675252899038256360e-01,1.733464301195999924e-02,1.970546124903600704e+00,-8.624331041313695323e-01,-4.030170908281589526e-01
