1.577954130487085660e+00,4.954389734444119009e-01,-2.223892632634795863e+00,-7.058257819451079218e-01,2.276267225488686208e+00,2.299514987722250936e-01,-9.078829154801777435e-01,2.166232441366255923e+00,2.156250640632273452e+00,-4.114077913837987377e-01
-1.319483704965051851e+00,-1.016311854503920475e+00,3.513776147573202557e+00,2.355868248266234755e+00,6.423950240954451330e-02,8.608558136512745040e-01,3.004780459443638918e+00,-2.356711981077973750e+00,2.465912714494096769e-01,5.822793014019667091e-03
2.911199973564200238e+00,2.515519960132168720e-01,-2.043556679952918120e+00,1.079748378792046548e+00,3.561701783615188965e+00,-6.253506535308393843e+00,-5.404976273780924823e-01,1.776289732789438691e+00,2.244601345777132995e+00,-3.694500253658812738e+00
-2.433377777974256584e-01,-6.798107853668676759e-01,3.154310773836301873e+00,3.435041765558868310e+00,-1.300410248600330831e+00,7.683524613127687974e-01,1.502555559030037236e+00,2.508676092213665054e+00,5.980767176649083305e-01,2.353351934995934869e+00
-6.348278246298930672e-01,6.096709048587372060e-01,1.656833069077839893e+00,-2.900396155425863376e-01,-8.887436409209770183e-01,-2.601415789183840310e+00,1.658506053299498850e+00,-5.640966885836677491e+00,-2.389853166548473240e+00,4.829926957218377837e-01
-1.946906387089659685e+00,-9.169629868818353069e-01,5.149753341493853220e+00,3.051343477617081579e+00,-1.787652981459333823e+00,6.011081917594983670e-01,3.601506171940580980e+00,-3.320711677398742623e+00,-1.217175138428053804e+00,1.704197313848650364e+00
4.932353563245346351e-01,4.726972068488435874e-01,-1.640821325952444676e+00,-1.149772988122169437e+00,-1.022797570495914909e+00,-2.404147984743048472e+00,-1.914421498357000262e+00,6.285495162848018236e-01,-1.411338332568293774e+00,-6.709028087046692290e-01
-6.255831382517897943e-01,-5.738315793835118139e-01,-2.606173958142607994e+00,-2.169118449079667776e+00,-1.128296068030977262e-01,1.119737333156420434e+00,-2.405971880354365044e+00,1.460248208414127280e+00,-3.247646600115282611e-01,-2.841973019365941600e+00
-1.778158695034086634e+00,-4.524500151611180465e-01,-3.128057882323155292e-01,-2.239752730056944863e+00,3.565806119833918597e-01,3.196042353283989890e-01,5.467888841508183884e-01,-5.346961436605264240e+00,-1.568129654648252824e+00,-3.067129703848197497e+00
9.057324497664808183e-01,2.122163191645744795e-01,-1.124430127955544645e+00,-3.252944303077153210e-01,8.530013306008294993e-01,-5.025919776981317533e+00,-5.567370918278028435e-01,-1.476964316600441585e+00,-7.369032100338394065e-01,-2.945277008842258848e+00
