4.005071636726048823e+00,-3.533727102423125821e+00,1.147413524751352165e+00,-2.176518241014988586e-01,1.374075830365071083e+00,-4.676851991833634870e-01,-2.280302927012641589e+00,2.434012466314314338e+00,2.987390601433772996e+00,-2.580539910655951230e-01
-9.737094511395995022e-01,3.711369816842601921e+00,-1.249757031582321654e+00,-4.912829309195563265e-01,-3.689903434278751782e+00,-7.012856820757045195e-01,2.619224868804323592e+00,1.431442781875642556e+00,-1.540890764452896855e+00,2.604419899733072974e+00
-3.200286203458762024e+00,7.823537303638494755e-02,1.147752999824777520e+00,1.846970130775633878e+00,7.927740730203829411e-01,-3.924676156672968208e-01,2.817549366104388220e-02,-1.546572725411593519e+00,-1.016662587669730167e+00,-1.991639437643127675e+00
2.469845984311095144e+00,4.466920332291856033e-01,-7.607550035421833945e-01,-7.192389874702331820e-03,1.498370323184206043e-01,2.794874487019483489e+00,1.526571134001802221e+00,-7.324952982942191326e+00,-5.847390312579848981e+00,3.936008164119657149e+00
-2.994652691539976708e+00,-3.083724376073336604e+00,2.471243071763312482e+00,2.026622504549306925e-01,5.169884732902250590e+00,-2.899150554387451617e+00,-2.195374110363645492e+00,-2.315889543559905839e+00,9.844584274444567740e-02,-3.967793102659465276e+00
3.433233749505283594e+00,-2.548070501556446654e+00,2.871663421552184126e-01,-8.086291285428648390e-01,2.142104273675588200e+00,8.361402551614292022e-01,-1.242308593864672961e+00,-2.354337778260130243e+00,-5.228724335460859240e-01,9.691626128273149732e-01
3.498236500672345928e-01,-2.405866278540487180e+00,1.003074572049226898e+00,-9.483806968147876493e-01,3.081438830090464265e+00,-1.527160101167132300e+00,-1.660300205009319408e+00,-6.060752352078824234e-01,8.314819103402451006e-01,-1.416656894571040048e+00
-5.065296050695381247e+00,1.760026207294072220e+00,5.276216677745257932e-01,9.404750986758965148e-01,-1.007031269270186158e+00,-2.339130169168434747e+00,2.919811128581708548e-01,4.030305575062318013e+00,2.314220800438078651e+00,-3.192573620106066823e+00
-2.623173126153516055e+00,3.096090780213794247e+00,-1.333778675439982297e+00,3.371420983261372850e-01,-4.192829372491217121e+00,-3.804058120418412070e-01,7.682927211755777863e-01,8.072679571117305386e+00,4.900122224594890774e+00,-1.767502557371834815e+00
-4.302290317003840681e-01,-2.136695794328467457e+00,2.489613292141499845e-01,-1.628200239413923889e-01,3.382979341187849265e+00,1.165094293957782412e+00,-1.700060139402053583e+00,-2.670788995249160358e+00,3.857637552000838799e-01,-2.355405328976656776e+00
