2.985202024320353864e+00,2.144806163751184602e+00,-2.953065792093565012e+00,1.646889830147494127e+00,-7.945205280979923401e-01,2.541282194950745588e+00,1.660072369346542676e+00,9.938010364780728301e-01,5.087940265503386073e+00,3.146873984690189197e+00
-1.462705454965296248e-01,1.784874710159509714e-01,7.808711128980116989e-01,2.424473761915526548e+00,-5.664398292388259648e-01,5.557287299134805458e-01,9.709095491868585670e-01,1.156173084726993761e+00,-4.436529153550220705e+00,2.078654341456069421e+00
2.312042007357442586e+00,1.642723819971272814e+00,-1.106033580159548224e+00,3.039751640112592579e+00,-7.366909258707894370e-01,8.214528527062425756e-01,7.379434998899419007e-01,7.185501519217991628e-01,2.277496544059660621e+00,3.576480532191923523e+00
7.190305577813654869e-01,4.043569315427374411e-01,-2.768990831345396586e+00,-6.256204393356082916e-01,6.753032609061793146e-02,2.671642029427504283e+00,8.658219621132743349e-01,1.701067074469423401e+00,2.975039024039493274e+00,7.979439789334937805e-01
-7.860206265704408057e-01,-1.374268176860117707e+00,1.488576973548685789e+00,-1.261037197399015319e+00,1.048055518698095545e+00,-2.915499412251597811e+00,4.332677644040602294e-01,-9.606774830305999657e-01,-3.235817867503400613e+00,-1.753882988599198001e+00
1.913858568998539900e-01,6.790896601591174253e-01,-2.681581467892907522e+00,1.622599846961561898e+00,-4.116092787690572297e-01,3.564588318593375327e+00,-2.647038838304176966e+00,2.688256482805812198e+00,5.864464014376325807e+00,2.545647675939983312e+00
-2.071503932181176566e+00,-5.167085370813133682e-01,9.266387243446392308e-01,-1.765526408236610667e+00,-4.274502321374638036e-01,1.248463414236913760e+00,-9.137701014334524974e-01,-4.182463580630968458e-01,-1.658884295785314267e+00,-2.430484362975081414e+00
7.209219385019837167e-01,-7.186503829155810319e-01,-7.679454122795055238e-01,6.445884444161001925e-01,1.177556765068275224e+00,-1.686308338927342332e+00,-5.790259817629768435e-02,9.345548156131088247e-01,7.903232374560706930e-01,1.230825461146317634e+00
-2.137332143958408093e+00,-2.542466915921203885e+00,2.118663576233066337e+00,-1.660916047643903326e+00,1.846550854996344304e+00,-4.333963040999750049e+00,-3.013556614690094726e+00,-9.840723606916210731e-01,-1.115287955335805492e+00,-2.711390624892489498e+00
-1.600880538729160474e+00,-2.541318095563203983e+00,2.007206726221844484e+00,-1.335770688813902929e+00,2.030109748532017200e+00,-4.802052877277977139e+00,-1.833456087002771628e+00,-8.231949388076178487e-01,-2.290108686551576511e+00,-2.159680580263656502e+00
