1.010913182343230243e+00,-2.806323154991637203e+00,-6.944874286221894844e-01,-1.024821490806422375e+00,-1.927963989279094292e+00,1.326640626878300644e+00,3.156581391598648256e+00,4.186422974467153835e-01,-1.284811658223115938e+00,-6.787921857833006944e-02
1.318118361621319901e-01,-1.919249604250347296e+00,-4.028288691032222424e+00,6.433513130077858078e-01,1.209509402584774573e+00,-5.304060781776342992e+00,-2.412110921888337867e+00,-3.344617080432233269e+00,3.000722295171054821e+00,-2.898985266353862222e+00
1.637790079618377082e+00,6.922569309924629932e-01,2.105673486928451688e+00,1.024485915113054979e+00,1.265111657962085800e+00,2.806326745253422850e+00,8.906196061875203407e-01,-1.539881008625581527e-01,-2.514320665589190984e+00,9.681416485260263549e-01
1.976045484217395787e+00,2.154671802746083387e+00,9.829788556485019591e-01,3.848192591985065414e-02,3.901569142016800384e+00,1.287595609172598632e+00,-8.283902837685943599e-01,-1.794493953737804404e+00,-2.444655529145309814e+00,7.883142915623043701e-01
-4.314373461459900305e+00,2.602162311297528952e+00,-2.575101945966496331e+00,-5.667566286270436571e+00,-1.887411398576757104e+00,-4.885879153456262003e+00,-1.758375184657258838e+00,3.189017406184085690e+00,3.759666464260385865e+00,1.281308432863954017e-01
-1.205937449732368272e+00,-9.857782441882472213e-01,-6.683416889850962717e-01,1.096965257946703742e+00,-2.069507395957026041e+00,-3.172128767052662557e+00,-8.458965309154331536e-01,9.654589605750213410e-01,2.679837446719744332e+00,-1.639414040689283425e+00
1.554068289021066640e+00,-1.631604078396528656e+00,3.641137475979386862e-01,1.083050952625404406e+00,2.485038391836008609e-01,2.564408599047547366e+00,1.572391798078033309e+00,-1.197485608760077369e+00,-1.773393607401181571e+00,3.065165827586705527e-01
-7.163956389883104903e-01,-2.382399556149326081e+00,-7.243985713918269509e-01,1.379586866556062441e+00,-2.456500812984022897e+00,-7.697952841228654641e-01,5.079812763213135129e-01,2.737011530524318115e-01,1.657396362818088109e+00,-1.049866096015795058e+00
1.414171181950435674e+00,-4.706992250215060736e+00,-4.399375382675331458e+00,-3.407759458321668600e-01,5.253781159440817916e-01,2.632990819804883476e-01,1.300564466584762435e+00,-4.508119216440496402e+00,-2.037630959626990368e-02,-1.157326850096532578e+00
1.035518760940183025e+00,-6.482142563732617990e-01,-9.248490454112561210e-01,1.855945652632000620e+00,1.989502308236976935e+00,-6.301797529002621800e-01,-1.372882666038359289e+00,-2.810233134853961978e+00,2.470965911553304750e-01,-9.043622732464280389e-01
