2.077166240542646758e+00,6.482348981274181909e-01,-1.292436860789614173e-03,3.112954137517809805e+00,4.982238400441709736e-01,1.100473384211068995e+00,4.397100007577662062e+00,-6.083967259056566323e-01,1.090480811373097048e+00,1.008167051104459588e+00
7.182046258057260824e-01,9.945348789411421198e-01,-3.832729005751169815e-01,-1.834097173251186819e+00,1.224112930249522391e+00,-1.402294934439249907e-01,-1.513883855412931023e+00,1.083859447332149450e+00,9.143264890910098863e-01,8.834432074995102191e-02
-1.147532631526024360e+00,-2.164998051671542800e+00,6.250894890051211128e+00,-3.611073388600449796e-02,3.632511376100149736e+00,3.758217810816288917e+00,1.980220611520827401e+00,-3.551082596980358747e-02,7.861112553759885824e-02,-2.801570639534084473e-01
-2.911669788147297488e-01,2.270406568940564362e+00,-2.751656597978966001e+00,-2.995454338273490169e+00,6.888403345372935416e-01,-1.508484937349335198e+00,-6.335555072975908253e+00,-1.458041546630699292e+00,-2.794906618133249587e+00,1.385080502612869413e+00
1.053351748261015963e+00,1.870493439395318980e+00,-4.557380653559895300e+00,1.761025405468008342e+00,-1.707460411223795660e+00,-2.219142744498664666e+00,2.066184371836254918e-02,-1.524700403093730339e+00,-8.366880942651340192e-01,1.217017148098827217e+00
-4.146690610410588285e+00,-3.848406868132919989e+00,1.944849092200927165e+00,-1.795912550325213575e+00,-2.789667061238345069e-01,-1.485993890623914959e+00,5.853983529131425723e-01,3.226560032908439624e+00,2.606689532751198968e+00,-3.670154156968124415e+00
1.781219448879795220e+00,1.681745673496389148e+00,-1.528749245717903493e+00,-3.980978302771145394e-01,4.745273796312939885e-01,-2.917910401057055569e-01,-2.717041372639106278e-01,4.777292265390844506e-01,8.718926861581157706e-01,7.019524773369176796e-01
-1.039278105074771030e+00,2.189019254744813292e+00,-5.763745971292638437e+00,-2.617173357259590549e+00,-2.264266917789729661e+00,-3.959401216463068973e+00,-7.121394783993643784e+00,-1.491697389166862342e+00,-3.153274168065520300e+00,7.543478162101933115e-01
-4.265297181558534767e+00,-1.484166256195679878e+00,-2.827310121841483337e+00,-3.147590805325011232e+00,-1.429238182959796655e+00,-4.241544922060354494e+00,-4.431601136704199639e+00,1.376610114718065603e+00,-1.044639736100247962e-01,-2.319836904427289515e+00
-1.014432610413758873e+00,3.204558881214322197e-01,-2.388724302044683334e+00,-1.031052797429369949e+00,-1.015049476750459201e+00,-2.067843101958743546e+00,-2.340057860088862185e+00,-5.378380266630026357e-02,-6.115769919546296673e-01,-2.853612682445923476e-01
