4.524456415664810383e-01,5.929898637990128618e-01,4.408783016469876692e+00,-5.583384075274117064e-02,1.523427994414022324e+00,-1.667991912822297973e+00,3.162143392763350214e-02,1.742985944549448885e+00,1.331258073829711952e+00,-3.662128924035746858e-01
4.306291591934288121e-01,5.506450078060975972e-01,-1.353436764819178517e+00,-7.663292414354587745e-01,4.582546001840793748e-01,-4.183753944176237027e+00,-2.996021628886088584e-01,-3.290239293653883568e+00,2.199267692052905065e+00,1.382761115827635390e-01
-4.399802187377841456e-01,-7.816896128928454424e-01,-3.365695550054836893e-01,1.642086984191272747e-01,-5.644460746847921317e-01,2.122563308225980272e+00,-7.637750573015610334e-01,1.553803598156755061e+00,-3.867822575698102172e-01,-2.078459785405190274e+00
-2.180267978627947190e-01,7.220394390372678051e-02,-2.906609760377329987e+00,3.592610871922852223e-01,4.185846965294095501e-01,6.651864265634866991e-01,1.488116387238731519e+00,-2.275451141237951003e+00,-1.752732510038147895e+00,7.682331397304255072e-01
-3.117527060485065227e-01,-8.865776972522965149e-01,-6.207500116067224960e-01,-2.459047243139184102e-01,-1.834089714582674890e+00,1.482957071290553985e+00,-1.922276633542128854e+00,1.640481200357077674e+00,6.498995856857985309e-01,-1.537495349859532290e+00
-1.017990204057514392e+00,-1.525253751748362419e+00,-3.271442218145617087e+00,-1.984074883332292316e+00,-4.694586196455377447e+00,1.481540199494811416e+00,-3.527895750225610527e+00,1.406665737669063887e-01,1.854431702263063864e+00,-2.930291629850829693e-01
-1.066045976877163515e+00,-9.216744918078862980e-01,-3.773185539356699092e+00,-1.309010535587190160e+00,-1.487502243115045530e+00,8.810069288558454170e-01,-6.939311421511838995e-01,-2.142383839078939367e+00,2.207695048793734960e-01,-1.042661981945278704e+00
-1.036855724359407649e+00,-3.442890293358727982e-01,-1.341154278925826171e+00,-3.930454621677516580e-01,3.089884617452601123e+00,2.011336783094389569e-01,1.958472622703379518e+00,-2.423326524818262051e+00,-7.607903666635223994e-01,-4.066705724514074305e+00
-3.316682928295508481e-01,-6.373526472161320511e-01,-5.343354845710749146e+00,-1.186565467597120227e+00,-1.205700339069097904e+00,-2.556527321490468907e+00,-1.633904869857523146e+00,-4.172003756410573416e+00,2.209191971334503179e+00,-2.284342007272100794e+00
7.676387542948731602e-01,5.758370780621602236e-01,2.418975726092875256e+00,5.683079357284198663e-01,6.548781313609657317e-01,-1.360105043089069321e+00,-1.353400705163735895e-01,1.207023220650809581e+00,6.889764832294015262e-01,4.732446623103781502e-01
