2.754357962721195818e+00,2.630300063024032298e+00,-1.523016733839071435e+00,-8.788160558330753158e-01,-2.726260389418886820e+00,-8.148675799870448433e-01,-1.314390640813224875e+00,2.144788393001684224e+00,6.367992780314335466e-01,3.322077470519288145e+00
1.419387349708103985e+00,8.099706698410119587e-01,-2.750837230953520951e+00,-1.051698727038094194e+00,-2.546016832194882618e+00,3.019633398093261256e+00,-2.589635367413814393e+00,2.334866669348938384e+00,-2.588277116014226387e+00,2.145250444265242251e+00
-1.046621861973573431e-03,2.806496533613901612e+00,1.616604615891611418e+00,1.423624398211551512e+00,-6.965743802188024691e-01,-2.515515032729904732e-01,1.114711345656055785e+00,-2.162389114737826024e-01,3.598926602347702897e+00,-9.409356540754592046e-01
1.275419320755331043e+00,-1.290777612191315038e+00,1.545414153763529086e+00,2.825938940222082252e+00,4.961487495788551305e-01,-5.694722526311681854e-01,2.472222616109346571e+00,8.278803148064348694e-01,-2.121939838110874277e+00,-2.515771898869409551e+00
4.713590259930027226e-01,-2.298383465881417287e+00,-3.745743703641786770e-01,-2.156713046451300464e+00,1.330988944057272194e+00,-3.506766783525125053e+00,-1.196915707985413552e-01,6.771328725434355711e-02,-3.704180635280604483e-01,4.186396969267655033e-01
4.643426370811431170e+00,-1.611265018041628361e+00,-2.709328607575107295e+00,-1.103363152579345474e+00,-2.075334683665024826e+00,-1.644566966904911665e+00,-1.145021882032489335e+00,4.119186154272513001e+00,-5.207384774296738961e+00,2.641981682354009209e+00
-1.156875016609396845e+00,2.539003364378519034e+00,1.384463718348931671e+00,-1.374580266289640917e+00,2.624889998750239428e-01,-2.366892106773314630e+00,1.077736849381286388e-01,-1.097983853203109206e+00,6.333860055828824720e+00,-5.443339539667556570e-01
1.420930445260090824e+00,1.159183504586344116e-01,-7.478814853680801900e-01,-2.313121406199935670e+00,-7.376883132093113860e-01,-2.283401182793209028e+00,-9.829119384666443748e-01,1.980522910640474255e+00,1.429353067006691180e+00,-1.150244396557432713e-01
7.682009569385800374e-02,-1.237701488004710804e+00,1.476650533651176156e+00,5.199955761295879109e-01,1.256945000583191696e+00,-2.088566603250113118e+00,1.606208227040243797e+00,1.399558786766041951e-02,6.270053857894566374e-01,-2.449618790072588315e+00
-4.273274747756221625e-01,2.305678998364245391e+00,3.993329295866786310e+00,3.913579703587592107e+00,3.653891339695352070e-01,-4.158061845495557574e-01,3.578429807142778252e+00,-4.557241104718237068e-01,4.193336595821964607e+00,-4.815349727708891692e+00
