-2.808586025851405044e+00,-3.372886603144988338e-01,-2.346002743028763327e-01,-5.197987780422836046e+00,7.248036982402823458e-01,-7.662996834533876145e-01,2.664366201935240763e+00,-3.534511619603540211e+00,-1.102564198185321809e+00,-2.467948895491976380e+00
3.471457387330846522e+00,9.164395143026522472e-01,-5.856127294518262971e+00,2.739624552388338685e+00,-3.778692017126234592e+00,2.584557044575291673e+00,-9.812583668169505557e-01,2.161049214330656998e-02,-2.576628752448599236e-01,2.617115222680318265e+00
1.213203838188674943e+00,1.124310586107288179e+00,1.191258343094294236e+00,5.044292475330969250e-01,-7.870822779157251592e-01,1.615107910159107041e-01,6.049012171222094558e-01,-1.895905540156568869e-01,6.773525601046651579e-01,9.195025752363747973e-01
-6.473677932017272596e+00,-5.781910078346028659e-01,-1.230103701940592709e+00,-2.699447054954875025e+00,-2.250229061297868594e+00,-4.808567561488130693e-01,-8.100101558976042782e-01,-1.159707379527033178e+00,-5.127704747051130552e-01,-3.524262460819887810e+00
-2.242390812450412163e+00,1.876945534274799154e+00,4.647315198250488777e+00,-1.209935521071695330e+00,-1.005294044689319932e-02,2.095371320161907303e-01,1.215550953435795334e+00,-2.107387484927446764e+00,1.860152316978572529e+00,-1.690683920703739851e+00
1.416028308322268447e+00,-9.836507983784488207e-01,5.474252062801272800e-02,5.144527217511377648e-01,1.753409078320666392e+00,-6.707278137369598880e-01,-1.938818615783154953e-01,1.257612627604267397e+00,-5.476660421185608474e-01,7.336169165331847264e-01
1.831575930737261881e+00,-1.255003291211956029e-01,1.800411004884072241e+00,1.496972630674546778e+00,4.228212555046019006e+00,1.768366232623683310e+00,-1.842473983871383281e-01,-8.534660049023576889e-01,1.121329387395201049e+00,-4.036598420944463306e-01
1.794580207935992489e+00,-2.489659690608394538e+00,-1.904317148831401019e+00,1.702728384285104424e+00,5.132660234014966960e+00,1.229438075434922784e+00,-1.589014063293767265e+00,8.523971348549728155e-01,-7.027723117135640241e-01,-3.502946122399893669e-01
9.719866852320278860e-02,-2.113529721943519402e+00,1.462408881488426182e+00,-2.543931017554085905e+00,5.383660288827062601e+00,-1.407406073023361959e+00,1.355366064616765787e+00,-5.466512318661940206e-01,-1.193282565679996132e+00,-1.245141726876256794e+00
-5.817765515348364280e-01,-6.323014681585932273e-01,-4.559564941297020724e-01,3.113353204232409244e+00,-1.171304802836993231e+00,-2.774034867260432025e-01,-2.844841699915213074e+00,3.303542747593952278e+00,2.352042749635921415e-01,6.148297491794381120e-01
