2.870224617433716929e+00,-2.227435844298000678e+00,3.194561444603306599e-01,3.284629644159975825e+00,1.962514668024428977e+00,-4.070924847692536375e+00,-2.536648619060436483e-01,-8.206756001840223025e-01,-1.493316887017449357e+00,-8.546156180013665393e-01
8.981476627744655605e-01,-5.118527294790329307e-01,-3.909453271164025079e+00,-3.275942354073527518e+00,6.394060201606787786e+00,5.055536692291273226e+00,3.128986911442274699e-01,-2.750230866624482129e+00,-1.332383969251340172e+00,9.667902711588153508e+00
1.381166902147941800e+00,-4.735961341372108002e-01,-2.091380479940061932e+00,-1.174385084257116185e+00,3.918575763862891748e+00,3.039437639648543854e+00,-5.500315458354645276e-02,-9.383944881881265410e-01,-9.055797529000888524e-01,4.801555829391205954e+00
-2.117538821009437466e+00,3.612720658161656662e+00,-1.408881015173276463e+00,-3.671603920291949485e+00,2.899117040393830003e+00,8.190126034768471897e+00,-8.966112316308259000e-01,-7.970019237843229964e-01,1.266978236199099550e+00,2.925179945464870812e+00
-5.033992960166151498e+00,3.444927395468679876e+00,1.837639677463521526e+00,-1.953544084944606407e+00,-4.010395088887584336e+00,4.193833267922075780e-01,-4.073828683348518220e-02,-9.415286884467728434e-01,2.470463797942593409e+00,-3.645994340407785472e+00
-2.140315766411088116e+00,2.394362998099010820e-01,3.809201438411510487e+00,3.988277403333539084e+00,-3.327488319377780002e+00,-8.004723295946526207e+00,-8.096301621999743015e-01,-9.002559353115219265e-01,1.623077753507251864e-01,-7.844536274203361081e+00
2.124499542135582786e+00,-6.931194121755808180e-01,1.139765600276825053e+00,2.135622136211305921e+00,-1.935886368051538131e+00,-3.979710226659598504e-01,-3.817904152595345546e-01,3.576107962942730811e+00,-5.332023141011599243e-02,-3.893929203686576024e+00
-2.573635493781452066e+00,3.423124115574577964e+00,-2.939584437953657314e-02,-1.912520848623071146e+00,1.970571523735437536e+00,2.709404740986744997e+00,-3.356854477521475921e-01,-4.650092152778926291e+00,1.973224435133160481e+00,9.763693199362499797e-02
-1.954861014985697087e+00,2.359374882267800899e+00,-5.254930490017262201e-01,-2.628008792447234399e+00,1.190457868259569008e-01,3.734794738026845806e+00,1.413707517817121007e-01,-1.461682276698583749e+00,1.577695054328110746e+00,1.052863337737723448e+00
2.746219772088049016e+00,-1.474498068559481345e-01,-7.424762443230108477e-01,8.415853908001520445e-01,2.841727934308718506e+00,3.022752380765911795e+00,-7.640764752239865842e-01,1.176469103445064723e+00,-5.361288509139239267e-01,5.051185670605099487e-01
