3.673725305907548311e+00,-1.252813972407561094e+00,1.262471154890408565e-01,1.190900318232440691e+00,-1.907946834251051049e+00,-1.401082516068003603e+00,8.399638051879811940e-01,-1.586811752614252669e+00,-1.454733824319657920e+00,-2.442967588842530180e+00
-2.763745462624718652e+00,1.696815968927137597e+00,7.820571037980547091e-01,1.432492582924670410e+00,6.980432361341328829e-01,2.157340303254732028e+00,4.954878829091626358e+00,-3.721572777500262164e-01,-1.656989201735806994e+00,-1.084699966942508809e+00
-3.013285103742314508e+00,-6.662358002383910183e-01,4.065530404618130089e-01,-2.049374790057103102e+00,2.554526118103546128e+00,1.139296862006589084e-01,3.403384493434725044e+00,-1.322675759233722825e+00,2.272574488128657588e+00,-2.966165088286728757e+00
3.816452325164069848e+00,-2.800837333076918512e+00,-9.694898558713480607e-01,-2.697686346868809704e+00,-1.369604046713352563e+00,-3.695885828454334110e+00,3.740487575888096217e-01,4.504221611828738148e-01,6.956471298297409733e-01,-3.636244567383684956e+00
3.674497452775293826e+00,-7.540797939489017887e-01,-2.077144096373480853e+00,-1.248817251053611299e+00,-3.554434936451549287e+00,-3.119918044783576150e+00,1.258601230240794067e+00,8.167837835198972218e-01,-1.207477696607303086e+00,-5.442198291127807508e+00
1.027656482622767209e+00,5.487856065121641258e-01,2.583339075223224368e-01,1.523469083148525804e+00,-1.521418585052882966e+00,2.367309051777297668e-01,4.452106222048800355e+00,6.623975608645049640e-02,-2.956737270832968001e+00,-2.204530120258448633e+00
8.161411013455996954e-01,1.407609962569441819e+00,-3.530121282366538438e-01,1.491528232919987484e+00,-1.980178810820805824e+00,5.100979379512993184e-01,1.616632224555234920e+00,1.681222547397752232e+00,-2.937507278015862866e+00,2.891576038419150785e-01
-6.877587463969867532e-01,-3.082858895361519913e-01,-1.063582235879239057e+00,-2.170050990998392049e+00,4.324136004891155904e-01,-9.734634056537870839e-01,-2.621019873389474064e+00,8.058650438264129967e-01,2.221484682681731826e+00,-5.578753583543574757e-02
-5.198929784068757609e-01,-6.062908924031238378e-01,9.709203241986965605e-01,-2.533414144339252161e-02,2.246087239251663092e+00,9.050429715975070177e-01,-7.070953260102549542e+00,2.747020417660069880e-01,2.453884280859053302e+00,7.199878346289112940e+00
2.703483471618139511e+00,-8.359170618031799282e-01,-8.602273219563786322e-01,-1.957434874140793479e-01,-1.962873492585823998e+00,-1.816563783260215281e+00,1.135546876579251879e-01,-5.579219947450128059e-01,-5.152585967514875520e-01,-3.069845671880492510e+00
