-5.504021892076447209e+00,1.588075102965425422e+00,-1.240717904484804901e+00,1.254234152192482910e+00,-7.326412964566431096e-02,5.161493136269490467e-01,-1.784311099463955053e+00,2.647626232549533221e+00,1.746508751081695454e+00,-4.876782513455135137e-01
-2.524297550892682374e+00,-6.375635380980654299e-02,-2.129955431774388064e+00,4.129837351517356425e-01,-1.049365832143831057e+00,-2.026561061532574648e-01,2.046390960154514271e+00,3.936612364919980678e+00,1.743378509803943821e+00,-6.077534090767738872e-01
-3.635752384187265651e+00,-1.263282545756887476e+00,6.910356791409519861e-01,1.747044981049102219e+00,1.419719549440356499e+00,-6.046659657718285452e-03,3.755294023825735961e-01,1.409207669889610992e+00,-6.286821476168773515e-01,1.461462605245311019e+00
5.377113041182719488e-01,-1.714677355857405550e+00,2.836886612096000349e+00,-1.361839169853850673e-01,1.439955515524537377e+00,-2.231420703510746062e+00,1.238982713683630443e+00,-2.670117130632230218e+00,-2.379709743392977028e+00,1.921681100779857987e+00
-1.482059052352838524e+00,-1.900645036075134575e+00,4.445186131903563265e+00,-9.173143315922044350e-02,2.284408804605296162e+00,2.069923447517682535e-01,-1.381302806700454688e+00,-3.079990825542812782e+00,-4.605910189564726420e-01,3.221702122652890132e+00
1.214972593274315615e+00,9.651090370769671578e-01,8.620185085307161543e-01,-3.937124496561408837e-01,2.973614273229030491e-01,5.362484098459310289e-01,-2.296866123581358554e+00,-2.366705231258420472e+00,-4.281360358740896599e-01,-1.993736622962614113e-01
2.019415249198498741e-01,-2.809614624579327646e+00,2.908392281230881338e+00,-6.507480371113969486e-01,1.094862460803090132e+00,-1.619519775591733435e-01,1.705208404651745946e+00,-1.003406974912967708e+00,1.807565515950499968e-01,2.659518290664127704e+00
-9.383976809881482417e-01,1.187297982592716572e-01,-3.727470083245724375e+00,2.591941615152204115e+00,-2.307361449193414682e-01,-4.312519687217923336e-01,2.113306346661715018e+00,3.859853413633310470e+00,-2.097762270360319370e+00,-1.696777942337733824e+00
4.735086462185687850e+00,5.687052550082916103e-01,-2.224841719879735003e+00,-7.542243894346055688e-01,-1.475093946537258782e+00,6.182575081768317826e-01,9.952023771239603134e-01,2.009497356733700724e-01,-3.082613958860669356e-01,-1.975912495389564150e+00
-2.626122083423721998e-01,-5.057679049221059930e-01,5.912921271637407994e-01,5.083903929026892810e-01,6.808044536083959208e-01,1.111235684511848176e-01,-1.637815998740981827e-01,-3.822158625179251090e-01,-7.330660946323752647e-01,5.631768283949323273e-01
