-4.027984593304566374e+00,7.827461056013338414e-01,-3.548407239485732667e+00,-1.228143430631298383e+00,1.180370934219997947e+00,1.034215030052939799e+00,-2.845225210618964162e+00,-5.098697504901744892e+00,-5.057175648822894720e-01,4.917287334913163832e+00
-3.421409141208123117e+00,1.006624160833899273e+00,-7.121614189964931896e+00,-1.546099840654056923e+00,1.593300022813092021e+00,-1.030342401329132462e+00,-1.452657722812506158e+00,-6.281335503440608647e+00,6.467116514683539652e-01,5.904565957779246865e+00
1.567681379977805989e+00,4.385585438705791872e-01,-2.251254699292638328e+00,-2.089880673854605797e-01,2.292583872763142683e+00,-1.258871050544095205e+00,2.584482457750468587e+00,2.804834971412875078e+00,1.782057038754498723e+00,-4.953752760278182232e-01
-3.118242690270434103e+00,-1.398577039680018341e+00,-2.767220951179300670e+00,-3.967505244935273900e+00,-1.786821430334772476e+00,4.016231016863155645e+00,-2.632848804689719380e+00,-9.308574424706574924e-01,-1.768894542052524166e+00,3.524843529737347048e+00
-3.607073498846015136e-01,-6.450267493085712900e-01,-3.507067707340973062e+00,-1.977251429033624497e+00,-1.046313632526596038e+00,8.951863316196115306e-02,-4.044629889548683188e-01,1.896775602492314583e+00,1.991631261180932533e-01,1.156432415860498164e+00
-3.301412390340569658e+00,4.210719596016146760e+00,-1.697788818941604383e+00,4.371362646656619333e+00,5.875947676004628306e+00,-4.136851928207505580e+00,-2.528677072255955505e+00,-5.111049459064022749e+00,2.006847139524452484e+00,3.384090645322065605e+00
2.997046383946983639e+00,-7.013372424356723034e-01,6.543298229626119955e-01,8.094896950082834941e-01,-1.558903332991869561e+00,-2.045419495480069294e+00,3.211313588489652204e+00,-2.253319397668496649e+00,3.712881676857719970e-01,-2.039801540582356854e+00
-2.661197575990131181e+00,2.686814315644879270e-01,8.995132845512958664e-01,4.872293577881398052e-02,-2.927264607976433064e-01,1.473027683627471607e+00,-2.554699574225399061e+00,-4.541472118224994858e+00,-1.366561021344494087e+00,2.204061087292533472e+00
-6.760020169900345932e-01,8.347583063040132645e-01,3.797322028244620729e-01,1.942714227728705279e+00,-7.075267965455214192e-01,-2.182212607197700382e+00,-1.695968140232950505e+00,-2.306081218449909542e+00,-2.942674639747137541e-02,2.265107882437257247e-01
1.291351154302304627e+00,1.445109422450049919e-01,2.344807532049037579e+00,1.048576911629829356e+00,1.346520761870441785e+00,1.168839836974421564e-01,2.734459458158113421e+00,-4.117237257390470972e+00,4.943088504366685565e-02,-7.530822091868121237e-01
