-4.885918423549735934e+00,-1.783910440239333539e+00,-4.353648610763095839e+00,8.948051438981433847e+00,-2.718858026270645656e+00,-6.660949812500447820e+00,1.730807613453442917e+00,-8.478734952722145835e+00,-7.634532288606843409e-02,-1.443293107071062842e+00
1.768484396896391475e+00,3.578895210118517412e+00,1.744316125628139869e+00,-2.100127607559338028e+00,2.436828383780921925e+00,3.504270219550430276e+00,-2.122637562616490392e+00,2.568392203607366753e+00,1.790022121144426048e+00,2.518788516221270424e+00
1.249990467505196268e+00,-5.856786813483730869e-01,-1.243223911406654114e+00,-1.990491644194108289e+00,4.365538606895010609e+00,-4.031703295684779143e+00,5.308321801500673232e+00,-1.368569975721700471e+00,1.547317318439323186e+00,-1.328468175553843000e+00
9.974480772199567635e-01,-1.722464127271288836e+00,2.016891063466899059e+00,-2.959446937533694033e+00,-2.261519874549190678e+00,1.972321344581167146e+00,-1.348358628512833279e+00,2.874581260019322126e+00,-8.434077692652310887e-01,-2.130524950287762120e+00
1.933736018101534171e+00,1.650531529740454806e+00,1.689536102945633722e+00,-3.350340786480977329e+00,3.202741653150786405e+00,-1.796886305081295987e+00,7.535210142265169608e-01,-1.427111983144162544e-01,5.047826417307347491e+00,-3.890879719567406081e+00
-1.141339382617577058e+00,2.354209289605766919e+00,3.980840304180755518e-01,-6.198558442001333990e-02,-8.444701949213859749e-01,5.507240603332845819e-01,-7.698040553978859002e+00,2.099555074304267688e+00,-4.029973044686411821e-01,-2.878292604796558685e+00
6.116646788677355673e-01,-8.523628148851374320e-01,1.071364213968677870e+00,-3.347207506388125697e-01,-3.879457017496095173e-01,-1.045400549895189934e+00,2.540539994670325541e+00,-1.872573483468225275e+00,2.967090371868536192e+00,-1.851803015801947616e+00
-8.447294230702246942e-01,2.521075852821146879e-01,-1.107795768419550519e-01,-2.575810699634638046e-01,-1.304137767600704656e+00,6.860430531163629331e-01,-4.476882450673461911e+00,2.117012090331397811e+00,-2.208692602548932182e+00,-1.325576197521315169e+00
-5.874742051150905198e-01,-4.109147948982800003e+00,1.240933630157083023e+00,3.691612404143693293e+00,-5.307225822581906449e+00,8.467896990711532013e-02,6.473102062775307530e+00,-5.414010820632485732e+00,2.588364923624643765e+00,6.146626826765608786e-01
-2.889398400431445690e+00,-1.245418624671157160e+00,-2.182975625801407915e+00,5.111860760010765503e+00,-1.916472372116090117e+00,-4.670005222488951446e+00,9.502380767742764078e-01,-5.565868836794162000e+00,1.069725367101652891e+00,-2.483466204449411130e+00
