-1.315132773727220261e+00,-9.656007809212472370e-01,1.995818860484376511e+00,2.935417130227353066e+00,-2.534026079091447059e-01,-2.805447196189603809e-01,-5.866684111935160928e-01,9.542228269187226219e-01,3.953882761543660695e+00,-5.132175391670045883e+00
6.220776792046565085e-01,-1.564920157094902287e-01,-9.181485269619588108e-01,-2.555998116421330235e-01,-6.059378929594210206e-01,-1.250803967838800990e+00,-9.904916728860349018e-01,-6.117134451257570937e-01,-1.858927459447490826e-01,2.516291228118765488e+00
1.784907672662173983e+00,2.373506733725172513e-01,8.657104684728702537e-01,1.440471845921433292e-01,1.409365420082224984e+00,3.572152830760003894e+00,7.121440554800041456e-01,3.498121877706373839e-01,-3.035787200792596341e+00,2.066646807486129056e+00
1.337904531595393465e+00,-2.788624757708544344e+00,3.498888052485004785e+00,2.683002715713461495e+00,2.879642819744941962e-01,1.947531010765613413e+00,-8.226744048487065752e-01,2.144719032752608445e+00,2.500036551090544013e+00,-3.429718456043219899e+00
2.511601998570598404e+00,-5.387854025543423742e-01,6.151517791241920108e+00,5.321816731052567917e+00,2.058976102679503928e+00,6.829527554290550917e+00,-2.767367053367429941e-01,4.840372131815414036e+00,1.489320547789303451e+00,4.856826249962475917e-01
2.515580683273474172e+00,-8.534173880843463067e-01,-8.825711364491086730e-01,-1.976670088418808868e+00,-3.912757240595566288e-01,-3.112467893028144639e-01,-8.346727008441802154e-01,-2.517569499771510344e-02,-2.243324568413963327e+00,5.533195137643395434e+00
-6.664450423647563237e-01,2.655299202501421263e+00,-4.957757831784235236e-01,8.624401653521769351e-01,4.407761487743332429e-01,7.183220555986742362e-01,2.158425267939435011e-01,2.244579704044269430e-02,-6.448207612283851642e-01,3.027478240228173689e+00
-2.839249674140010837e-01,-1.717562542164910333e+00,3.993148630174521152e-01,5.844584451706349992e-02,-1.490612918861746738e+00,-2.941854778123598635e+00,-1.311408302911230450e+00,8.781091155848479435e-01,3.430330199858905971e+00,-1.277416587777743029e+00
-5.017298281999100773e-01,-1.647606558631384832e+00,1.192067322728900702e+00,2.539242122106269761e+00,-4.453665365999362469e-01,-6.992025852616793324e-01,-1.145256712220876993e+00,-1.444428691916845309e-01,2.916312909215131199e+00,-4.129778311388816903e+00
-6.586833231072137806e-01,5.037622291289244325e-01,-1.477141360342631771e+00,-1.700909717679023547e+00,-8.675076952206735026e-01,-2.344235002221511266e+00,-9.363649635865844978e-02,-3.540148930736266575e-01,2.976541011607026777e-01,1.390917565538645650e+00
