2.264768795264993972e+00,-3.310937990062556291e-01,4.156870400881838457e+00,2.892524411542085616e+00,-2.343405222588599734e+00,-9.219270182251161350e-01,-1.376912345479907041e+00,2.031347208752174449e+00,-1.131748621611094574e+00,2.633243503130535679e+00
-2.162249992343455496e+00,1.411342589454432916e+00,3.465606039195305854e+00,-2.637652242958302473e+00,1.326945619345062610e+00,-1.020804236302402135e+00,1.870708287114822177e+00,-3.119060497295008005e+00,5.812165599319473408e+00,7.159395319447936501e-01
1.128851765656305295e+00,2.741538391626834770e+00,2.684656392137067193e+00,-8.969300643929816630e+00,9.171518369979875018e+00,-5.762991479428422714e+00,-1.879830984777230984e+00,8.900181070298229802e-01,-3.099419279313901487e+00,6.491591281948822179e+00
1.651760453291930109e+00,9.831171703706831355e-02,8.863668789476135679e-01,-4.783016645326620520e+00,-3.313839074500022353e-01,-5.181710160643799412e+00,2.132846965436825393e+00,-9.976841321537415208e-01,-3.488747452946560745e+00,-1.552298093235704668e+00
-8.338742250293916802e-01,8.185857897099220182e-01,8.169021427264816504e-01,1.290001989924595804e+00,1.327425899070990623e+00,1.960101228371413651e+00,-4.465980917789295068e-01,-2.279668521947676441e-01,2.953566191685514486e+00,2.219491066494104992e+00
8.114017658791861098e-01,9.968418138223732461e-01,3.358334257805858591e+00,-5.182731066671603770e+00,2.919941302190599774e+00,-4.758986842192737043e+00,-3.685291047476705328e-01,-1.319633410070242263e-03,-1.540023239887765349e+00,2.233409006607383951e+00
2.540465434199290051e+00,-7.331241198741424991e-01,-2.300066089967883531e+00,5.555443870491403757e+00,-4.806752674337311682e+00,2.557693815144915561e+00,2.064761085936141161e+00,4.691973912409863612e-01,-1.829211203611915249e+00,-1.071860361866055600e+00
-1.115136366392113665e+00,-1.246208121241066502e+00,1.653301454945854676e-01,1.546827955121156339e+00,-3.956640995612671574e+00,4.848100502051733152e-01,1.277509668488064021e+00,-1.288400375453697455e+00,1.821477556752828519e+00,-3.921194261998188324e+00
-6.467910190887166122e-01,-1.088050270604271341e-01,-1.340660738031847155e+00,-1.744766673209208196e+00,7.854202723843882739e-01,-5.288376132985898037e-01,2.523732626744092378e-01,-4.902477403869509587e-01,-4.988104245388326197e-01,-1.344195969668906532e+00
2.835120714891297578e+00,2.355427533851171873e+00,5.599007836819188455e+00,-3.264619094277086297e+00,3.036011348044501457e+00,-4.350086841034467966e+00,5.379278461292384961e-01,1.684307440561753078e-01,-7.782677833213735852e-01,6.378537896864539647e+00
