7.694963903474431044e-01,3.488811069690090916e-01,3.704426887483159292e-01,1.007563700200692525e+00,-5.941280269874431585e-01,-1.311296721172284241e-01,-6.783955834133732488e-01,-8.461434631846177501e-01,8.849938625579580886e-01,-2.300413433019626169e-02
3.770574194505740273e+00,-5.216628201468296311e+00,-2.624026501436255154e-01,-2.056607901730739929e+00,-1.241468182828459055e-01,2.834417469102936682e+00,3.877348389673070939e-01,4.695550088096448249e+00,-4.803413162549303728e+00,-5.152174795145050723e+00
2.334187892041416745e+00,2.128046396743725754e+00,7.792410480879746748e-01,7.065468045255948182e-01,1.563530093953890754e+00,7.071478989363600975e-01,1.638870980519920195e+00,-1.889932424325464488e+00,6.476831407526568718e-01,-1.925162840752865367e+00
-1.649388224529015234e+00,-1.981958066859442980e+00,-3.221874185125064849e-01,-5.359715638137529936e-03,-3.886310262880492972e-01,-6.213376250426435599e-01,-5.905997230932036324e-01,5.362452552436860476e-01,-1.438333369409439400e-01,1.135853762586416904e+00
-7.466041230678674978e-01,-2.176383161864904103e+00,5.133738079405305577e-01,1.687520495215299121e+00,-8.265335161179707124e-02,-6.574438902315991040e-01,-4.458235553104274995e-01,-1.674924328392359607e+00,1.389510022545365819e+00,4.329153670827051714e-01
1.090878831912989622e+00,7.837864980877893295e-01,4.525546231073006576e-01,1.748835812792689737e+00,6.544168270556348643e-01,-7.972007115620365347e-01,1.347122094954872340e-01,-1.691599957464601456e+00,1.084876015979171049e+00,3.670096197052197806e-01
3.218354475778454571e+00,8.089838270596048098e-01,7.970100764011009975e-01,2.193650388682510055e+00,9.920829768506631563e-01,-2.326463271712442271e-01,4.475860201763665058e-01,-1.749751587618025184e+00,6.830859106862285923e-01,-1.162860516469165439e+00
3.070273628672148813e-01,-4.312250898488749762e+00,-5.060965666146570729e-01,-9.385857443203088346e-01,-2.372786149351337581e+00,8.334673743419361847e-01,-2.132533416323625808e+00,3.440382991060911166e+00,-2.156327379490023066e+00,-9.297463226444193651e-01
-2.643893376419528263e+00,9.245232877822230355e-01,-1.010988522065261186e-01,-7.003099432369365163e-01,-4.436519025023172857e-01,-1.400005290237938405e-01,-6.391047978749142544e-02,-7.855599721214980846e-01,1.209074737010822798e+00,1.265331199162491371e+00
-3.276668739589033041e+00,-8.287539249779310779e+00,-2.738862988125567721e-02,-2.697959956090310474e+00,1.547282747113434942e+00,2.380327044028521577e+00,2.406231365752864892e+00,1.575583422601585681e+00,-2.354561724632258546e+00,-3.566876516503457051e+00
