-9.116057127551340233e-01,1.646971732749123563e+00,-1.864754901692117883e+00,-8.744177363189200580e-01,-1.416247650831533811e+00,-8.816140770379445879e-01,1.598412622047132858e-01,-4.031106206196473085e-01,-2.251771505727440670e-01,-2.997134687580826906e+00
6.674818338449175492e-01,-4.816619777754563181e+00,-1.384981022442901111e+00,-2.945512138010371039e+00,-2.825852615717883154e-03,4.964311725247110729e+00,3.407357619436861107e+00,3.492682098459564344e+00,-1.266236728809138290e+00,-2.201558497611195264e+00
7.382233168417141611e-01,-3.216525758163459425e+00,7.697462159824748351e-01,1.222392572735049088e+00,2.961611575259081253e+00,1.861026159619863840e+00,6.242189973590188679e-01,3.691546860264844021e+00,7.712958123492263951e-03,1.565929723924928796e+00
7.942511571069243992e-01,-2.830115270823132523e+00,-9.176563373938373402e-01,-7.649744900062038777e-01,-1.923560520005387631e-01,1.338647262777818980e+00,1.722447263131563933e+00,2.606900477775363711e+00,1.416063410195986527e-01,3.456335282045464030e-01
-1.533840186921744397e-01,-9.194169954973681058e-01,2.864034175886058797e+00,-1.724352976965086715e+00,1.134255929947704411e+00,4.792371113220515788e+00,-2.042954822846486662e-01,-2.597493865505098309e+00,-1.931279760372910825e+00,-2.374487270357316104e-01
-2.038061957323398787e-01,1.526967883047182006e+00,-2.220778083468111674e+00,4.110374306591200178e-01,-3.537921415740743480e+00,-3.589210522298644790e+00,-9.997864169609393947e-01,3.508824373664016782e-01,1.906951693460900987e+00,1.225495309340909778e+00
-2.566618441268433415e-01,-9.240984321278756797e-01,3.662441712432999097e+00,-2.198660182914350170e+00,1.001362467837247916e+00,5.915768931807068753e+00,-5.814847257538934278e-01,-3.585555151096937010e+00,-2.297879484402013173e+00,2.671533346370513762e-02
-2.143527908785280101e+00,-1.172442870558549899e+00,-1.799031046119218047e+00,-1.469842910455408491e+00,-3.204773151288342170e+00,4.243951240528567759e+00,-3.033473480687459478e+00,3.221888178087098709e+00,3.110106624894942717e-01,-3.832926283419746394e-01
8.793647194151388291e-02,-5.722390424238921192e-01,1.983500822316583090e+00,-8.082206716242852362e-01,-1.307583536487665565e+00,2.303991309533523157e+00,-1.481466134967771575e+00,-1.874369952366323089e+00,-3.254810714136019412e-02,2.793260373431367682e+00
-1.048689049632803627e+00,2.451127531999613751e+00,3.120596126473930809e+00,7.328571953694911212e-01,-2.914956270959273565e-01,1.005736245854358168e+00,-3.993484790765186698e+00,-3.832707981940447706e+00,-1.090196806568410337e-01,2.582318388689803790e+00
