2.466415243646412403e+00,1.500786342571402976e+00,-3.255320823195356095e+00,-1.212144120516285950e+00,-6.312359400664596443e+00,-7.404210175636096736e+00,-7.715635573374391987e-01,-3.360222589998085763e+00,-1.989060540526935261e+00,-4.100875373210199348e-01
-3.155575623561563070e+00,-4.010516911312413058e+00,3.330667638816569021e+00,-2.318456340493722845e+00,1.144880548143466070e+00,2.055663447672335664e+00,2.253363396776112415e-01,2.664735618272093376e+00,-4.740469679813341664e-01,-9.956128042367420328e-01
-2.993345350120654835e+00,7.706221955615912833e-01,6.330049310353401459e+00,1.427184301334490091e-01,5.269001314703555039e+00,4.343520684282456301e+00,-5.470482570602167582e-01,3.614063232568262229e+00,-1.415113859934448381e+00,7.731076755986701077e-01
1.219134047943918553e+00,2.488788628627516708e+00,-3.220992594122251251e+00,2.903970314861128887e+00,-1.675256647923075493e+00,-1.804173195588477441e+00,-2.800142473091074002e-01,-2.261049155438940694e+00,1.589622882458429309e+00,4.083989849994383858e-01
-1.817348291052579778e+00,-5.182045460204072196e-01,2.013155469850071100e+00,2.516285451782705795e+00,2.934451679279499459e+00,3.867137862987866104e+00,4.372035007138986851e-01,1.543484977945894787e+00,9.669867570559279590e-01,-6.088045699253308296e-02
1.694999617407216830e+00,-6.451895517136878588e+00,-1.754395103241358944e+00,-5.131916294327815820e+00,-6.667061109070288039e-01,1.552375941888122890e+00,2.047299415427457525e+00,6.649256680389747931e-01,5.957856812621184842e-03,-1.537273597691787730e+00
-2.197867726569260771e+00,1.818779784227641638e+00,8.374132734296015901e-01,-7.517510694646107883e-01,-2.700442659900497144e-01,-1.875969140305899119e+00,-1.680354678240184807e+00,3.576059163531286056e-01,6.883639887501149524e-01,7.850031454094679173e-01
-3.295340912191337068e+00,2.547283485595600361e+00,2.516919678343130684e+00,1.893044107132351828e+00,5.394530758188225139e-01,-8.175459660809937246e-01,-1.706980446592406331e+00,7.865440910020469190e-01,2.859244626795738320e-01,6.681539392053887916e-01
-3.498254722884582613e+00,-1.403559263966579262e+00,4.301587027198060298e+00,-5.487633881974242067e-01,1.606911459400357511e-01,9.207453085268046955e-03,-6.722093388463059593e-01,2.019614358361532247e+00,-1.714680571399148867e+00,-6.660371970841350020e-01
2.774195006035271582e+00,2.858361366420989480e-01,-1.914284275908002986e+00,-2.737796949582118611e+00,-1.092832448003224766e-01,-7.009529301311169247e-01,2.980664728150835829e-01,-7.368129900375546271e-01,-2.771588068526416038e-01,5.247487241733725938e-01
