4.961186946552118560e-01,1.355296657435327345e+00,-1.397145951180298828e+00,1.425918541614443202e-01,1.454629713790205559e+00,3.105107953838884605e+00,-1.471494594746428186e+00,-3.863144945786703977e-01,-1.240192872162315663e+00,5.226914651471816775e-01
-5.053857491330181473e-01,-1.436398932785245330e+00,3.441841250749517744e-01,-3.840897136561656211e-01,-9.263617568887092535e-01,1.144100190913389437e+00,1.301250965196282472e+00,-1.490000101428435308e-01,-1.353108107133969673e+00,2.538672117412776319e-01
7.073934656839496737e-01,-1.018915886118552550e+00,1.290499291322850572e+00,4.665714318379171610e-02,-4.836936064915096090e-01,1.424038599251842285e-02,8.414498261497197484e-01,3.272148031094918030e-01,9.171622687608287361e-01,-9.011769556146098648e-02
-5.816017005883189483e-02,1.239917117977576311e+00,-8.812566885773935876e-01,3.364376519658828224e-01,6.466647910958409629e-01,4.591197715270000757e+00,-8.555540994535881794e-01,-2.106626637315515360e+00,-7.705367389745048090e-01,1.310272915778778025e+00
-1.673636111747859534e+00,-2.008760426618991790e+00,1.288785620884999705e+00,-1.055498496808382258e+00,-2.834480060239132015e+00,-2.294637933157306353e-01,3.002389578260303615e+00,2.074805625032201117e+00,-2.987258065034765209e-01,-2.049864414540204238e-01
8.581777243368489128e-01,-1.731228713726549628e+00,-7.917685620269482305e-01,6.397911663242220603e-01,1.406397742434038811e+00,2.835089010524920461e+00,-5.272313561464184728e-01,-4.825348430855275872e+00,-3.750239465584634058e+00,1.149855032075368655e+00
-2.819841995527399447e+00,9.846575872342080427e-01,-9.239571367779642053e-01,-6.634545644664051611e-01,-1.610340162564256161e+00,-2.353712971029701784e+00,6.195008736020803930e-01,9.980622283304021458e-01,4.405598412967670630e-03,-2.500825366338492728e-01
1.865843575472594384e+00,1.912045519416472272e+00,-1.653369367219100994e+00,-4.533725458952340137e-01,2.507208481403156330e+00,1.676053231094905227e+00,-2.171481701176386725e+00,4.699969608454643399e+00,-8.309646442435372204e-01,-1.006580846554953279e+00
2.360493762586482469e-01,1.185783857395676932e+00,8.345352125171459079e-01,-7.828836032980888149e-01,-9.134567676045559637e-01,2.574343262703894908e+00,7.489502331261459478e-01,4.943734824115215254e+00,2.202137776494165866e+00,-3.534114143056741320e-01
-1.646486809736417145e-01,-3.923833191504155216e-01,2.204198822447247519e+00,-1.012696849224144824e+00,-2.512404255279789389e+00,3.998962086296604657e+00,2.639846443740356818e+00,4.542833119163653954e+00,2.324713890547498440e+00,1.156412322144893534e-01
