1.037150599061665179e+00,-1.088912054325684720e+00,8.365999337020291193e-02,2.046222384485496537e+00,-4.833564777985317473e-01,-8.676891834304640838e-01,-9.484491700780378620e-01,-1.602470389385673544e+00,3.079490289439497541e+00,5.083931873662291601e+00
6.945482747366604759e-01,-4.627496889429924543e-02,-1.092780511617603256e+00,3.469767597228418099e-01,-5.434534907102310797e-01,3.420411384210299000e-01,5.234349554795587611e-01,1.034133288178915588e+00,-2.422330385932149888e+00,-2.562668489064003907e+00
3.989741477942175152e+00,-1.035448117879183005e+00,-9.622708596537843384e-01,3.082772306893339920e+00,-1.299715556321759946e+00,9.235963007066957386e-01,-1.153638030120670344e+00,-5.911366491097084008e+00,3.112109525396470566e+00,1.108491451462030319e-01
-8.452800169110170625e-01,3.656272727623256780e-02,7.978721705043900769e-02,3.118689816050834729e-02,-8.972599798923697190e-02,-5.212565425477228009e-01,-1.169710395434763628e+00,-1.988244719629465862e-01,1.047014139806630828e+00,2.561337199174493762e+00
4.257414341629797150e-01,1.690645613554018212e-01,6.432410535043848743e-01,2.265392962584991121e-01,2.019676950836533091e-01,3.575359800897160989e-01,-3.748463538376752613e+00,-4.671599342401976607e+00,3.051611831407155417e+00,2.792307410267167000e+00
-2.050886485816357130e+00,1.065045382439100852e+00,-3.839365496705006375e+00,7.117335831618175623e-01,-3.509165863868752400e+00,-1.093138864355797379e-01,2.475411691341566467e+00,4.471759141684918948e-01,6.314707979263985971e-01,-3.091431606144364075e+00
3.547734168123231613e-01,1.173435996387613423e-01,1.642775342412940320e+00,-1.159236814658945791e+00,1.265102045218935656e+00,5.932796243191303942e-01,3.231103996886760754e+00,4.885504968637468526e-01,4.520998258641139023e-01,-3.017699541427737220e+00
6.361629523705862876e-01,1.021116628750421418e-01,3.019077220836458242e+00,-2.418549745197724476e+00,3.542763575527848818e+00,7.072297286967934582e-01,-4.498711467535438935e+00,5.568207654876216051e-01,-4.262853499000088142e+00,9.286123840344107094e-02
-4.283993237001220700e-01,-1.598510203613207614e-01,-8.846347905152642799e-01,9.492605637632445248e-01,-1.046721188196291008e+00,-5.764448326883628848e-01,-1.742823298631440698e-01,-3.526012842814413850e-01,1.494171527702252478e+00,2.109365255703452569e+00
-7.328366662822385358e-01,5.404827455373457656e-01,-6.090106870906436543e-01,-1.382698233143718480e-01,-5.721057121164866421e-01,1.257548922814809012e-01,-2.109932123307317386e+00,-1.794411368969608400e+00,8.295947390271000144e-01,7.381621332264158841e-01
