-9.202482031313345967e-01,-3.923810525822741258e-01,4.075832624469569510e+00,-2.072767931066156755e-01,8.857987956630557491e-01,-1.235087412149366681e+00,2.394229184185067361e+00,5.823458846770892539e-01,1.097179869101776672e+00,-2.789273693778716035e-01
4.543576428977157411e-01,-8.739988915242159484e-01,-5.709560063197859137e+00,1.838996958365959777e+00,-3.313048110414106073e+00,1.955055899133803177e+00,-4.526889357596194152e+00,-2.560256011693789802e+00,-2.239482721329709491e+00,1.153286271662909090e+00
-2.023383174809979757e+00,-2.205233926190143912e+00,6.426156797266431298e+00,8.381116745443369931e-01,-1.691425612403276268e+00,-1.459268870074879931e+00,2.134339467981519523e+00,-1.016201381421840022e+00,9.843382935742215345e-01,3.336800391862446147e-01
2.037104887842190237e+00,2.706205665817268624e+00,-1.607675648646318844e+00,4.402814286577078073e-01,1.448895297753462375e+00,1.154374163594022562e+00,-9.421620596011072157e-01,1.248721786702935210e+00,-2.630473102500232585e-01,-2.100039585511664253e+00
-2.574588072083852652e-01,2.445263487708839723e+00,2.755854826778783906e+00,4.976931953330692715e-01,3.544272160580526965e+00,-1.829700536287748980e+00,1.804512777816055458e+00,2.125750094012292202e+00,9.922057978631824149e-01,-2.294070118896214261e+00
-2.849621474183563929e+00,-2.466596836157163519e+00,5.978035282900570735e+00,3.385138537482629495e+00,2.829836919868153888e+00,-1.196392603469044857e+00,4.729576633943773700e+00,-9.696488575999899773e-01,8.616337023757963953e-01,1.141824246915687402e+00
2.262360846564073769e-01,1.184497426013521260e+00,-2.878850246613235964e+00,-8.142083290695500963e-01,-2.550175893228462165e+00,-7.644017249305927741e-01,-3.819455759862429023e+00,-1.481033292669947654e-01,-8.067954082491114454e-01,-8.072126534250310126e-01
-2.957221608873109364e+00,-2.336485722633560691e+00,5.303992188466551738e+00,2.147143958184374313e+00,6.086471707964116185e-01,-1.932943006960493371e+00,2.869734654195931434e+00,-1.100856018392474267e+00,7.119644177185983080e-01,9.731485365651212360e-01
-1.188160580483144546e+00,-2.320323773935035749e+00,-1.272513691536687475e+00,1.019503525728863158e+00,3.039253282842764858e-01,4.928144951757759129e-01,7.814138015108231805e-01,-1.485312064767997597e+00,-5.122042996802422810e-01,2.403323692183457982e+00
-2.303048506754744817e+00,-2.359988179178067469e+00,1.388311848869107745e+00,1.749132545206954381e+00,-3.681601440342433529e-01,-9.651628050823000127e-01,8.227521880962332945e-01,-1.652212354214119605e+00,-2.051897220090899421e-01,1.698053583764626451e+00
