1.376722780098493137e+00,-2.831085101040296870e+00,1.228644117704955852e+00,-2.056294913401875313e+00,-1.473035516411903334e+00,8.938129440794173597e-01,1.675581586967826997e+00,-8.274667645836646379e-01,-2.557750267834928870e+00,-3.540121864028199283e+00
-4.244779948407628289e+00,1.071917435061096047e+00,-2.577749133818044935e+00,1.690894869559691926e+00,1.460369846690875661e+00,-2.240460880219795392e+00,-1.387990963540973510e+00,-7.255757405040235142e-01,1.641557693206632473e+00,4.165652621703893388e+00
3.214994520849805415e+00,-6.602412822104168910e-01,2.115024214684709580e+00,-1.063444569037104825e+00,-1.548183125451219944e+00,1.805385402242047022e+00,1.070323384316144377e+00,1.960945363753852089e+00,1.105909953687007619e-01,-2.008241592796685016e+00
-3.731622250865232804e+00,-1.982519507209329346e-01,9.289467921038414566e-01,-1.080747702134287724e+00,4.318742775720826321e-01,2.918677977491905828e-01,2.990014015622869170e+00,2.157161920278451994e+00,2.206937454797409881e+00,-9.725551218364716366e-01
8.256145868928621567e+00,-6.857092517293654765e-01,1.247452777353333653e-01,7.124571079292758569e-01,-1.279064639656206204e+00,1.281318203088097851e+00,-3.437874017668030024e+00,-4.082024411514719731e+00,-5.534755609567255874e+00,-2.302953496303020486e+00
1.794663676155376475e+00,-3.626794167756056009e+00,4.531952407760037715e+00,-2.385009065804609474e+00,-4.391640811528461086e+00,4.104697903706860274e+00,5.340565451000526487e+00,7.020239568343029646e+00,3.467435678492861051e+00,-2.737301693864390817e+00
-5.306410155946931440e+00,-2.146081689346923671e-01,1.212844312591671248e+00,-1.868759399513542085e-02,-4.944822775557862204e-01,1.027995567734983684e+00,3.958964844122079718e+00,5.586160834542505782e+00,5.943636042323346302e+00,1.677433671113218949e+00
3.390624973192863045e+00,-8.195176839158708759e+00,1.998464353482859890e+00,-4.052053015855733298e-02,-8.164550404251711413e+00,3.762717717436324882e+00,2.697080011073139882e+00,5.643384759844874310e+00,2.263672021721728100e+00,2.247289365116245552e+00
-9.866574788613200475e-01,2.097443382373087140e+00,-1.641546105559166913e+00,3.747943510773348752e+00,1.740757266403390346e+00,6.093016091934568834e-01,-1.561295921308286649e+00,-1.888445505616006770e+00,4.106751834617197727e-01,1.845305798841623046e+00
-1.754691066700179380e+00,3.039187044244093361e+00,3.908079597187953391e-01,3.269598284442725711e-01,2.110600777273983653e+00,-9.887635169373630573e-02,5.081020098946087415e-01,1.234749685391045571e+00,2.131859792244071183e+00,-1.696281649931363766e-02
