2.741854355301818646e+00,-8.106197404258345784e+00,1.105132357122160514e-01,-5.978432259860119169e-01,3.235903024075812873e+00,-4.251768372091285109e+00,-1.229262632389045873e+00,2.707579361598773993e+00,-2.127144156495268668e+00,7.670763663719717407e-01
-1.010784146016491025e+00,-1.970961616874989719e+00,1.458461734649714403e+00,-3.951166821719886424e-01,1.066360369255149543e+00,-5.370648270182989403e-01,-9.151672591840023241e-01,-1.494550743437144780e+00,-1.553383885540731368e+00,-2.401549266386253212e+00
3.355545118114539260e+00,-3.624216378074017531e+00,1.114215347143706847e+00,-1.246594883401127341e+00,-9.323678184736544639e-02,2.654343559526873619e+00,-2.668531203046434097e+00,2.856224803802010825e+00,-1.598898968051178371e-01,5.153561648763339553e-01
1.806758555977860059e+00,-7.463457953750368690e-01,7.025110705436410363e-01,-2.999995069256813363e-01,1.349744969672210138e+00,8.646340576882148854e-01,-4.351312385350513123e-01,2.329494376101520992e+00,5.018880745488560891e-01,1.506816467125119630e+00
3.566796980139359974e+00,2.253380480665006846e+00,-3.241816592823269172e+00,-2.654536038891949001e+00,-4.090635345289534541e+00,3.439664414015874971e+00,-2.103595903297124536e+00,1.807180006426817753e+00,7.837502290463972399e-01,2.900489923334998110e+00
-2.523495278744933401e+00,-3.448264858601119975e-01,-5.762923261160801669e-01,1.367696386719889690e+00,-4.939283673668516395e-01,-2.716470712381837682e+00,1.447911814329352787e+00,-2.428245856537217140e+00,-5.279447880357543976e-01,-1.648935861085091048e+00
-2.688704739782352249e+00,-2.507565748912040426e+00,3.215113503449744670e+00,-6.615828711669798912e-01,-3.900006049350472903e-01,1.620665399002823914e+00,-2.434540332032171683e+00,-4.170992162424886907e+00,-2.549846227803405529e+00,-6.165257848402996288e+00
-1.806775407690264901e+00,-8.711901465092154462e-01,-2.551396534731253052e+00,2.299923669785152391e+00,-2.913903714462060979e+00,-3.250820271039066345e+00,2.122277386486427275e+00,-1.659817522170096815e+00,4.793230364531314014e-01,-3.961925314070986470e-01
-1.796560542838769647e+00,2.141721442327301439e+00,-1.936206982604065541e+00,-4.117979283940963464e-01,1.967778543231964328e+00,-4.512243453993784570e+00,1.901058877659526303e+00,-1.797516976720288540e+00,-1.132711271086164873e+00,7.948448621073667120e-01
1.231443087061569130e+00,-3.729617485181773162e-01,-6.565631472568006721e+00,-2.458509790160411934e-01,-5.954220183476223838e+00,-2.993624827255362053e+00,5.813014957976270214e-01,-4.518831171013819592e-01,1.793131344054524345e-01,2.345631743947000025e+00
