-1.571641206774769817e+00,4.204603132474555860e-01,-2.448463956798874186e+00,-1.023604466181223138e+00,-2.087928951713774683e+00,1.265978467587472345e+00,-3.581588188182468269e+00,-1.669987521513445206e+00,2.651565401816347034e-01,-6.454386985262579035e-01
-8.064630792332606601e-01,-1.238833484839966914e+00,-7.913411081668596525e-01,-9.861601784892298772e-01,4.517833317289198236e-01,-7.733967785234019399e-01,2.362460991523178677e+00,-7.204507556461883233e-01,-4.393274260750436033e-01,1.449096157745660141e-01
2.063555047866937997e+00,-3.877319797097498189e-01,1.845744975652585662e+00,-1.079160672466306981e+00,3.663084985533724414e+00,-9.591184949073858768e-01,4.870177396528761804e+00,7.886496423971267600e-01,-9.706865600052965171e-01,1.640265114340723418e+00
1.147683317903267497e+00,8.438056463705466692e-01,1.340773309658430668e+00,2.554321646218001618e+00,-4.594868912698160113e-01,2.488220401966901196e+00,-1.895400431545118058e+00,4.159577549902815363e-01,-6.021346058782421906e-01,-9.752349078128341731e-02
1.156505559493742119e+00,1.834746284830864660e+00,1.973645610351323354e+00,2.851143484989709265e+00,-7.301361609547057929e-01,1.970431842686226398e+00,-1.941546192731600673e+00,1.453869508482374062e+00,2.304831192267766671e-01,6.411276234332599078e-01
2.626876633573640873e+00,2.747975322642845164e+00,4.180846351276498396e+00,1.571159660428733229e+00,2.645509999907848186e+00,5.085490001364679769e-01,4.248093042577772316e+00,3.261489767658923178e+00,1.808593753446726682e-01,4.237429746891975491e+00
1.721546990125739418e+00,1.974766366736940171e+00,2.279233990256553266e+00,1.504889698532286157e+00,-1.789839493912496748e-01,-1.159953209331720192e+00,-3.040917935276735484e+00,2.591923908270167498e+00,1.739958441331454608e+00,-6.014589093228798200e-01
1.657931854153520845e+00,-2.953989294175491942e-01,2.291010466593279116e+00,1.463693657880330790e+00,1.314115752155238459e+00,-1.210964810494126853e+00,1.211832111776317777e+00,1.665846253566611423e+00,8.643147955061214471e-02,-5.451482602927517629e-01
4.135074269392992052e-01,-4.221657541488492704e-01,4.153921519552393193e-01,-9.500627367196309292e-01,1.637622336501736831e+00,-6.750447516175773766e-01,3.100761392734832089e+00,1.071648785914430801e-01,-4.706839561659331150e-01,1.084396023669332410e+00
1.970540714931580339e+00,2.547327815123591854e+00,1.811720526677264242e+00,-1.946863042645565756e-01,-6.482014250132421829e-01,-4.377986419728026490e+00,-6.932896754120614347e+00,3.483062984300686615e+00,3.888855565450937135e+00,-2.802155764223371648e+00
