4.804858088335451249e+00,3.730362731813618993e+00,-6.569572808629189353e+00,-5.483281096538942245e-01,-1.407380501436752973e-01,-4.640819880698218158e-01,-3.440085577869385070e+00,-2.769186175222623447e+00,-2.393691146337810327e+00,-5.459923736646137726e+00
-2.244578578930183088e-01,1.141143249969076567e+00,1.257678257553743739e+00,2.942448627050064380e-01,-1.441157263528320964e-01,-1.299886151560607050e+00,-1.278936902403928766e+00,-2.374597904134458093e-02,-3.604393070529551268e-01,3.130977299858142437e+00
2.096194827050147591e+00,6.956894498828054552e-01,-9.351268797952383416e-01,-2.207280089417812619e+00,1.989034689330763550e+00,-1.399342145415293004e+00,1.242068006451279572e-01,-1.425332384744963710e+00,-3.127349155428579830e-01,8.158581009113886617e-01
-4.154816678510876216e+00,1.937770814692206800e+00,9.229221753156915398e-01,6.195543123073233183e+00,-6.699882523007713253e+00,2.660597807117751845e+00,-4.896098888943440031e+00,2.230112292145634001e+00,-1.095213375865846661e+00,-5.683723165438575586e-01
-3.066919771866244648e+00,2.078510303652402191e-01,2.868835209383724383e+00,3.318994643946724388e+00,-3.409248392663182692e+00,2.824616756084544988e+00,-3.585700796361347198e+00,6.957461931838936353e-01,3.217530502071666021e-01,1.422695481765157366e+00
9.587511928166805864e-02,-1.054476107437908594e-01,2.773510102730853077e+00,-1.325327790834113229e+00,1.214063683549526651e+00,6.286726574625746133e-01,-1.827441076135412512e+00,-1.619972605848675640e+00,7.503265122126385744e-01,3.767254260228290352e+00
1.914751184375772741e+00,6.112066512377734018e-01,-1.582834388436710427e+00,-8.231149210561004015e-01,4.519778384498895907e-02,2.911933463212581508e+00,-3.225443545157951064e+00,-2.764198487872618237e+00,-6.804411717115177449e-02,-2.806138990961589474e+00
7.074970642046823910e-01,-4.645464795709431938e-01,-2.048439692679280832e-01,-1.055717986992735113e+00,8.997032523813116578e-01,5.680261743221060033e-01,1.847099494613465009e-01,-8.135041660530372143e-01,3.182944184081301087e-01,-5.549377138517903596e-01
3.537336536380945251e+00,-9.308532549140351442e-01,-3.452883592306083216e+00,-6.096341868374668849e+00,3.713083240450386402e+00,4.220175598829740693e-01,2.450184495412436103e+00,-3.037253673858815617e+00,9.585591172784913017e-02,-2.734028169691125054e+00
-7.980921655587362995e-01,1.732845594486298824e+00,9.020989046415150980e-01,1.915741876496543039e+00,-6.504115432087873572e-01,-4.109255457301987491e+00,4.527485114544413936e-01,2.126869919641956042e+00,-9.976146071621357914e-01,3.742360480412870061e+00
