1.208532249111085699e+00,-1.123395488209527171e+00,-7.846524094590867637e-01,-3.128196459649488226e+00,2.522005365809851352e+00,7.360762805239412510e-01,-2.324520825552289782e+00,-2.281648234565388789e-01,-1.876404312901306382e+00,-2.725076541257454910e+00
1.396775828948164211e+00,1.224122513325320849e-01,4.422214660420651811e+00,-7.795780046922711204e-01,7.108765857557878043e+00,-1.484639381653578338e+00,-9.874592491034348996e+00,2.326500362940739919e+00,-3.932632951463619353e+00,-7.786561964386058854e+00
1.598458106757067121e+00,2.822650231422383360e+00,1.828653513892149807e+00,1.965521476995118810e+00,4.649259879326677058e-01,-1.501205136240128191e+00,-1.686603307483683478e+00,2.018457337453698486e-01,-1.610720450139100812e+00,-5.288751960294169052e-01
1.393489603329036042e+00,5.180326214590618150e-01,4.003777179361431848e+00,5.375401329399676520e+00,-4.356152267906144182e+00,-5.088557096016757875e+00,7.314562337394629132e+00,3.128436004904743495e+00,4.830559481612814565e+00,7.689705819503755979e-01
3.616803533670951420e-01,-2.901705662019569587e+00,1.959239933117421284e+00,-2.550863639471304900e+00,2.276123954155643503e+00,-4.788598285158118251e-01,-1.236379849020064814e+00,2.509114773960066103e+00,6.540435597453750916e-01,-4.653856551038789036e+00
-2.619759164561763498e-01,-6.105120495559142046e-01,-1.426442192234445017e+00,-4.859335630638557668e-01,8.174440840346023363e-01,5.444510837024769678e-01,-8.516537358116702539e-01,-1.039466953220823608e+00,-6.226083952260248466e-01,2.494874646978729738e-01
2.405368688794643717e+00,1.515366006063477489e+00,-4.739558885549097766e-01,-6.844840991645614103e+00,-1.525685476942018948e+00,3.337591013098964332e+00,1.754386512720416347e+00,5.227909165476898323e-01,-1.805314310806501954e+00,-1.131690675789892575e+00
-6.499781484506811369e-02,1.599429220076508118e+00,-3.618905751693021422e+00,-6.661585145323076773e-01,-4.553307394968592270e+00,2.042775490307874087e+00,5.453061340629202114e+00,-2.479430721723033137e+00,7.164202663302299268e-01,5.524441424586314042e+00
-1.524371956989139409e+00,-2.330733659545649594e+00,-4.609441416699278093e+00,-3.559197932606526393e+00,1.373663366456571167e+00,3.328632080889567302e+00,-1.352598245614325290e+00,-2.718570333279656026e+00,-1.212520851981341741e+00,1.129649811013243133e+00
-1.269486096825935828e+00,-3.263088493600785789e+00,3.489754260473599823e-01,2.006113343511324310e+00,9.656582493983798532e-01,-1.934417668958344105e+00,5.688914443794137465e-01,8.375267939044007681e-01,2.394153076539873304e+00,-1.003658175410466757e+00
