-6.151993679283401795e-01,-2.848737759786189816e+00,-2.075008199778039242e-01,-1.581403048728569960e+00,8.305061928385177872e-01,-6.410185672689865388e-01,5.491563620819919778e-02,3.962552337535639735e-01,-1.596654637704767232e+00,-1.317902465471306961e+00
-1.297115952574560804e+00,2.154087312305824398e+00,-2.395080152698867870e+00,3.063242012471476539e-01,-1.913128123444655992e+00,2.142111029518447562e+00,1.975965424442547302e+00,-1.446016064444641813e+00,-3.531530129915742000e-01,3.074481151721929706e+00
-7.770997145338695566e-02,-8.784868788281578134e+00,1.781348079537343754e+00,-1.034529369168570190e+00,8.750921821124013622e-01,-2.098071068391814009e+00,4.727543571161092473e-01,2.324485429816841808e+00,-1.761943026089372921e+00,-2.300730958868793863e+00
-1.878298353037745283e+00,-5.154417098590212909e+00,2.889080581014921156e-01,1.320086562465675684e+00,4.178600526044730090e-01,-8.003108010093561431e-01,2.178262166303692737e-01,1.056664454480213511e+00,-1.831799755479853520e+00,3.879828715331501421e-02
2.293083860395317419e-01,2.162775687694241888e+00,-1.444164815594274343e-01,-5.997444214153974107e-01,-3.526347323424854352e+00,-7.974958697260193796e-01,2.862977758189959143e+00,-1.221589737384429775e+00,2.792048976372793589e+00,3.345718270251397009e+00
-3.896247372720678115e-01,2.770442307934975368e+00,-2.292146638003938364e+00,5.943823176309737111e-01,-3.693919685382056173e+00,2.716831693509929480e+00,3.449456708184299281e+00,-1.598496222361347252e+00,1.077762577094590890e+00,4.670337980615657969e+00
1.150859824585663382e+00,8.166268083045267190e-01,-1.567094623148092003e+00,-2.951737758927866384e+00,6.840460604024904967e-01,2.091046661294933440e+00,2.742753136191891095e-01,-3.884595039716205456e-01,-1.386169884615594539e+00,-1.434674001502541207e+00
1.546374655252992003e+00,3.329714352389390175e+00,1.592967506138773581e+00,1.410076612035066068e-01,-2.435786125147680448e+00,-1.876269403307679440e+00,1.055620824762683263e+00,-6.356596251138941778e-01,4.102106186661274911e+00,1.826055486585547394e+00
1.598539323732543593e+00,5.916821589356704436e-01,-1.202688432274708230e+00,-2.225084783020397250e+00,-3.356859808049493132e+00,1.763205644543834882e+00,3.741677005445372295e+00,-7.755679008168899768e-01,1.361168515081023100e+00,2.464916772262379929e+00
9.953757904309439297e-01,-3.227840479164978404e-01,2.133079937241465274e+00,1.338764765801264467e+00,7.345406112276193777e-01,-1.547071719465616946e+00,-1.438817682095495876e+00,9.364905396155345230e-01,1.359433594101301601e+00,-1.118444224461471848e+00
