7.060667421934306853e-01,1.315279695525815029e-01,1.225062355781123324e+00,-1.815268009915048664e-01,3.480002002660498306e-02,4.816272178282152705e-01,9.746452339529400044e-01,2.981804653100757485e-01,-1.312341310063343647e+00,5.856719975119140109e-01
-8.005098506653479662e-01,2.225949418334624230e+00,-5.098642664527133217e-01,-1.475419375415798484e-01,2.894104860344313579e+00,-7.640860395033031160e-01,1.963605532276636367e+00,1.926470557667087746e+00,-3.569202205048567222e-01,-8.087459758256376752e-02
-1.575846614908493315e+00,2.313362187492112587e-01,5.090066902763679124e-02,-3.184995855765071493e-01,2.917571488303569716e+00,-3.049558710550859253e-01,3.114847216032051058e+00,1.223904009331273190e+00,-2.187791560939889024e+00,1.129312838993880463e+00
-2.536472969339752304e+00,-1.074915128027110756e+00,2.817027502889132062e+00,-1.967155369428185807e+00,1.515386449347827513e-01,-2.212768769954236436e+00,-1.230193224119177087e-01,4.506229661121937013e+00,4.960268420465737682e-01,5.487315322998803646e-01
8.064811986857689519e-02,-2.727581700194732506e-02,-6.110504494671546993e-01,2.391058755025818328e-01,-5.034573699248412471e-01,-4.849741744533186960e-02,-8.726328096427015124e-01,-4.656452609357493722e-01,9.495149888711030828e-01,-4.812836784789725764e-01
2.148809575304392983e+00,9.660149161741404811e-01,-1.976424400296575845e+00,3.992282168525062014e-01,-1.645964929005230060e+00,6.015547688024018846e-01,-3.211998395844203547e+00,-3.150613658289973085e+00,5.672747229335519670e-01,-8.627016936146353343e-01
-8.559957785691212351e-01,-2.014054914616118519e-01,-3.825386365003778266e+00,1.228268303878076617e+00,-4.306039276679114458e-01,-3.461649847356746967e-01,-2.381051118950789025e+00,-2.257204388163482012e+00,3.343309419884572975e+00,-1.704953091571506096e+00
4.580099505054292308e+00,-6.450522040445936245e-01,5.799208599329699787e+00,-6.815658319475702553e-01,-5.082016801718570065e+00,1.825552010538739500e+00,-1.446607812323333464e+00,4.798731944584546660e-01,-1.086030367408606701e+00,5.554086780864879724e-01
7.290374458229440524e-01,-2.699073119233451834e+00,-1.401588268283117111e+00,2.228192197467648406e+00,-2.972867974892077214e+00,1.848629003304758323e+00,-9.354400049348547963e-01,-3.514285067745362312e+00,2.633071872821703963e+00,-1.023993133853050574e+00
-6.378905898489186654e-01,-1.779646436238364826e+00,-2.172579530362748645e+00,-8.487469612452145373e-01,-1.972273735499678882e+00,-8.480579835792859678e-01,-4.667063067721513470e+00,-2.836014873792713331e+00,4.032669718489096944e-01,-9.570256541186392130e-02
