-1.220946199901101537e+00,3.721002023153366256e+00,-1.138183014895488343e+00,-8.864127878984346953e-01,-2.700976591405888083e-01,9.895968331652749139e-01,-1.154508086259999899e+00,-1.035634128942119148e+00,1.586503947998754827e+00,-1.547555944782332826e-01
4.540238943305781594e-01,4.727317819792573594e+00,2.769892106035121593e+00,5.440619332534116781e-01,-1.422965692873135346e+00,5.246107978879438472e-01,-1.556977785963882255e+00,-1.419284617339294785e-01,-4.284339761029888338e-01,2.026378158139441332e-02
-9.482246539293449628e-01,4.833322084456208145e+00,2.444735842612212995e+00,-1.050222885815999208e+00,-7.236168647443279589e-01,-6.059855291231130980e-02,3.615737249546099319e-01,5.476480571104564987e-01,1.940868190295020224e+00,-2.179047877142321621e+00
-6.518865169956682137e-02,-1.185133660946475986e+00,5.343303951028400833e-01,1.354153241442371147e+00,-2.102750072629352984e-01,-7.767183631445797598e-01,1.820782217899594504e-02,7.383910469914962971e-02,2.159602800068001205e+00,-1.612171842156665258e-01
2.489493290252200008e+00,-1.624252534323165520e+00,3.074063594961165435e+00,2.293852494544409204e+00,-9.902005347188970186e-01,-1.149036790037819777e+00,-8.651585850695420188e-01,3.423060033220625131e-01,-3.175412429952158888e+00,2.220948642954569507e+00
-6.888845588134544506e-01,8.417445622650778780e-01,6.894743273133002726e-01,-1.846934531195306928e+00,3.498338755011223267e-01,-1.474634682039029920e+00,1.569495172118317239e+00,3.945382022606502836e-01,6.776606938775652234e-01,-7.209796346922443533e-01
5.041014098490769868e+00,-8.175725863978616559e+00,4.580476179261249392e+00,3.804423639029809845e+00,-7.286475955623910039e-01,-4.536292501957434276e+00,1.574298937796217435e-01,7.530044581275615601e-01,-6.613216002414811001e+00,5.625010173736957775e+00
-5.168832501014866132e-01,4.273915812526461799e+00,-5.228655828909356540e-01,3.279676480857009468e-01,-8.874601504979793276e-01,1.502500529459575018e+00,-2.411486884828678789e+00,-1.340694157984883006e+00,8.403959845038104781e-01,6.809449802189924128e-01
-3.859824733643375527e-01,1.759112598641005665e+00,-4.624848794233890614e-02,-2.648106558389391907e+00,4.022510341085990815e-01,-7.727115938387619787e-01,9.575107482743226983e-01,-6.972759419205290521e-02,-1.561443742675775459e+00,2.583072315544341913e-01
-1.239899705413099129e+00,1.648311977540465767e+00,3.104749330124804141e-01,-2.986995549967546015e+00,5.683220092762782949e-01,-2.070826552221381789e+00,1.972884197067340972e+00,1.338568174199281646e-01,1.098632166809359267e+00,-6.123340967633736920e-01
