2.230960519631157712e+00,3.746365687569321312e-01,1.478060182183012827e+00,-1.699480970633405974e+00,1.878816189079923538e+00,-8.278928438130574996e-01,-3.125050536556973846e+00,-1.609295178210847554e+00,-2.071584636814325364e+00,-7.052727727866321406e-01
1.235055317269610820e+00,2.433230179035641427e+00,-5.584248324252852669e+00,4.359604057753471706e-01,-2.987323223988982868e+00,-2.036289641173033793e+00,6.068729978793471425e+00,5.560470595690904183e+00,3.112179349690710417e+00,3.014179214016562192e+00
-2.017900399053616844e+00,1.921704756255404156e+00,8.152004896438210801e-01,6.631457021884870073e-01,-1.313804639174115607e+00,1.176941470419995639e+00,-1.905198154073494354e+00,-1.446494671814828381e+00,-1.748860768243446939e+00,-2.364667903209691779e+00
9.259490469798143941e-01,-8.904087374592228876e-01,-3.864236499262300173e-01,-9.101795546623780986e-01,1.585665652617072929e+00,1.368208439166008206e-01,1.344908011501178446e+00,-1.879310653734647119e-01,8.960029397521129813e-01,4.755831889571416338e-01
-2.645066925421998061e+00,5.694761213035992586e-01,-3.139161991361776316e+00,1.667738712089363196e+00,-3.299710628502734444e+00,-2.070486128962597316e+00,1.255273487605422122e+00,2.189716140807782097e+00,5.353979759942624206e-01,1.259167041142313703e+00
-2.167263655884644979e+00,-2.804474106549506907e+00,7.170896151621999337e-01,1.448814705162863481e+00,-1.587255186495739046e-01,7.156188817293127613e-01,7.692792902698186719e-01,-1.847840564690780285e-01,1.320078094631493393e+00,7.314077130536819071e-01
1.066309516259994039e+00,-1.293732513241681314e-01,6.503141341178962920e-01,4.695015741812562093e-01,-5.025545550442777065e-01,1.355324862765201060e-02,1.402998062666583334e-01,1.199765283860228404e+00,4.814206906797957597e-01,8.280514856476191010e-01
-1.038744670051803265e+00,-9.486519808918066898e-01,-1.402808235822657235e+00,7.091917878143648712e-01,-3.234677000975738625e-01,8.881957417852703873e-01,3.601611147920746880e+00,1.196713473720977916e+00,2.402827753512526865e+00,9.153050434386986733e-01
2.255822222043659231e+00,-5.540784392399324965e-01,2.660119981382914389e+00,-1.941010808318213016e-02,-1.627332983746010431e-02,-1.870123694514651991e+00,-4.638023239484875049e+00,3.389387393410803195e-02,-2.148389366658165045e+00,7.772628121860829520e-01
4.140504381637407638e-01,-3.445019943657400496e+00,3.573897957049644969e+00,1.045604923772673001e+00,1.177860222851777605e+00,1.639550356841585455e+00,-6.416903949217096503e-01,-4.166633296802334518e-01,1.086303951213954289e+00,8.507763022256936702e-01
