-4.416743674411076626e-01,3.435492355225283401e+00,2.038026286395409503e+00,-1.248458206521103175e+00,-1.844016013723419833e+00,-1.658475391943047828e-01,3.056320572331449270e+00,-1.689163038497605074e+00,2.547516422040742579e-01,-5.851191631426629236e+00
-3.344731318439520429e+00,-4.618291225399545397e+00,-1.682529828303905184e+00,-9.800888995382162072e-02,-2.835093844422210907e+00,2.284706567775488750e+00,-1.790665726840132699e+00,-4.783380174251466443e-01,-1.100593022998878734e+00,1.452683010120112028e+00
-3.876040170702036436e-01,1.857233386511658813e+00,7.873003726303323679e-02,-7.441909901626386770e-02,-8.379021398912491758e-01,1.413595013897849029e+00,-4.516645507722627517e-02,-1.170144638619549537e+00,-5.577171004414200883e-01,-4.023522219804375744e-01
2.107267172526994692e+00,1.465905440737679255e-01,-3.954700845881803373e-02,3.073614026308778779e+00,-1.753267047689015756e+00,1.653013999520067223e+00,-1.318980875681595943e+00,8.194281883609263462e-01,-7.743489395537144215e-01,8.493940682019069932e-01
5.923363387321689544e-01,-5.990158825883520777e+00,-1.253003771692650758e+00,5.770348629742875879e+00,-7.294584954037206970e+00,5.490122680607242067e+00,-3.954535933410491033e+00,2.144946555678085787e+00,-1.774540151180643122e+00,1.119003666289390297e+00
-1.982542050182010129e+00,7.306276288371351235e+00,1.068425920991579847e+00,-3.495317115130618379e+00,4.338809752164222155e-01,1.671566973042054371e+00,2.015090845745826975e+00,-4.037654161936841568e+00,-2.258933920768227410e-01,-2.981952232594508700e+00
-7.991746803775974239e-01,-1.884605256541555640e+00,1.484362165250393772e+00,1.580901580572962928e+00,-4.894988418176870582e+00,-2.681977724025692567e+00,3.751097563107957722e+00,-1.551831627707876304e+00,-1.873951973701428297e+00,-5.872201373240899080e+00
-1.213104390957014722e+00,-2.703170697664950772e+00,-2.786085616451562608e+00,-3.880208965364769780e-01,3.125098438049886962e+00,8.127605029426221428e-02,-3.182039525813644243e+00,2.269251354001929344e-01,-7.229221853583710500e-01,7.423395615463359576e+00
-1.071802670744537167e+00,6.800247999920714825e+00,1.113444603265414834e+00,-4.603846984125754993e+00,4.501842219294721836e+00,-2.800212262174048838e+00,3.258279540150542442e+00,-3.242781638009806677e+00,5.840220428928415419e-01,-1.600235366153769601e+00
2.079727383585391332e-01,5.353089980661917657e+00,8.963642167776095793e-01,-7.220881933755243232e-01,-6.691691485177108101e-01,2.950681074172950336e+00,2.157794487033810604e-01,-1.663536766620776319e+00,6.652623135285468114e-02,-1.865033933225945795e+00
