2.326336539308954343e+00,-2.876478035429243185e+00,-2.875943593904417561e+00,4.139114145448385074e+00,6.387035886153935582e-01,-1.948971476948688553e+00,-8.056427079280716885e-01,2.640147304972674469e+00,1.009320453372202886e+00,9.535950746098744712e-01
-2.895303608480947144e+00,1.527161228010358363e+00,3.129685822463079692e+00,6.414282247177267582e-01,-5.814867434029658000e-02,-1.917907595794085651e+00,8.852782237196007431e-01,-5.622843954001513822e+00,-5.109326203167719349e+00,3.198711159065787513e+00
-8.795302394545532199e-01,-4.235958811253884626e+00,-2.109469890813228332e+00,2.057551211208889619e+00,-6.391445597122462630e-01,2.669302332996560168e+00,8.950838996343355447e-01,1.448124515771295862e+00,-6.896155976110748265e-01,-1.612861816651675717e+00
-2.865974044439963286e+00,-2.032289546602385588e+00,-1.658792208936632484e+00,-2.493765056099947142e+00,1.496004543411824539e+00,1.714962587378456638e+00,1.109331939080653529e+00,1.868577631993252774e+00,-1.020243506137905598e+00,-1.667868349273248452e+00
-2.069253287496850280e-01,2.455326600287017325e+00,-1.942555274306124069e+00,-2.105554348829052902e+00,3.361829179301516479e+00,3.490555941073568924e+00,4.501423373222072644e-01,2.894556254431399189e+00,3.159921827161168428e-01,-7.666897276504605063e-01
-2.528446706176068481e+00,-6.750060493184621979e-01,-1.027378076059954459e+00,-3.576698435249762831e+00,9.370170681090870257e-01,3.928337185361264972e+00,1.218704447548984549e+00,1.803741744677609837e+00,-1.428943331473602751e-01,-2.784333147086267335e+00
-1.149989660664497926e+00,-3.605441129421032009e+00,-2.554817953893687488e+00,-2.482505426414358674e-01,7.038396801680724124e-02,3.459590731161413579e+00,9.091084588356844742e-01,2.912259433167331490e+00,4.386430983176070608e-01,-2.781419066162728271e+00
-2.871745756650496251e+00,-9.512941153109342185e-01,1.542036271555959015e+00,5.696820599613348080e-01,-1.989730488059923807e+00,5.787006519289190187e+00,1.998907740653449228e+00,-3.234204173284594752e+00,-3.307957965496197694e+00,-1.473542133510779673e+00
-1.858556037951505813e+00,-1.144993755256177970e+00,-2.959070625821953016e+00,-2.887249853964998003e+00,2.950586945160911689e+00,2.180433233920814562e+00,7.763268348946628095e-01,3.949280158789171491e+00,1.817273948434094955e-01,-1.847782144266637783e+00
1.921497736866031758e+00,-3.401702921624774945e+00,-2.894734560383720456e+00,2.798896254236592274e+00,-5.804614218195032205e-01,1.843352310504882130e+00,-2.191207620108898413e-01,3.322539274637340334e+00,2.049363019242649742e+00,-1.663199455833496598e+00
