-1.796877889152756591e+00,-1.049593412589327812e+00,-9.046772949532333463e-01,-8.506711159887780926e-02,-1.015884489187409923e+00,7.109498988842612999e-01,1.455024022836963749e+00,1.786258199095638766e+00,1.442225248761445533e+00,-1.233598803086915607e+00
-3.972450914690551560e+00,-1.937893489297339400e+00,1.624621264985480207e-01,4.041527770369047090e+00,-1.037989930042905407e+00,-2.425649511213752163e+00,6.578312171474556269e-01,1.654918413746516936e+00,1.125967794564550539e+00,-2.746146156397050397e+00
3.752351103637197038e-01,1.990932792485273550e+00,3.048438943435043846e+00,5.167094658212169733e+00,2.815452392717448404e+00,-8.732947655706119860e+00,-2.322830305072954626e+00,-2.449875139989055484e+00,1.630075739174402960e+00,-2.323538866988531737e+00
7.767712623902658375e-01,-6.271925981720596344e-01,-1.498427456432747551e+00,-5.932094357986232858e-01,8.010490624136813453e-01,1.369277973965751460e+00,-1.135708059997655450e+00,-7.191662785491519383e-01,-1.205617113723808309e+00,2.167812519807025051e+00
-2.418734829099616235e+00,-2.150918154006730809e+00,-1.743127433668596238e+00,-7.148627528230834249e-01,-2.342591236677477706e+00,3.823983317348053301e+00,1.223499400764810563e+00,2.170358014512834721e+00,-7.924625300864948096e-01,1.774874883034072148e-03
-2.547772037651129917e+00,-5.828235814454192365e-01,-1.389462058770369324e-01,2.969308882743780131e+00,-4.925282792670826471e-01,-2.806655676323959625e+00,-1.022852352844695112e+00,6.295385029912379249e-01,7.445185613233505917e-01,-1.984983766351608780e+00
-6.122272071046952036e+00,-2.513928362369449054e+00,-4.455988904488425995e+00,2.066542576119287489e+00,-1.624244322875698865e+00,-2.139889399626373034e+00,2.249324493894566679e-01,4.257202232261665387e+00,5.008190129514108691e+00,-3.975002548892158760e+00
-2.205984834028401398e+00,-1.029373598687384650e+00,-6.563211503495418597e-01,3.947881262884340159e-01,-1.524715551670055680e+00,6.848937811256472497e-01,9.349464349461337198e-01,1.721183249642140645e+00,7.094478428058518249e-01,-1.405617762890873257e+00
2.282864612769114343e-01,-4.045446864501281437e-01,-6.012719976796082610e-02,2.295510661540876574e-01,7.303874784702459877e-01,-2.400474201017691600e-01,5.898641633833863196e-01,-7.436909559631488253e-02,5.098302320908515428e-01,2.802416196957154826e-01
-1.343286335922317054e+00,1.698527107122471680e+00,-2.252162583996930589e+00,1.168423602748611678e+00,-4.431822939241691905e-02,-4.049131496927913076e+00,-5.036370802389926737e+00,-3.819011864774282117e-01,1.005358401750693353e+00,-1.414121726248394495e+00
