2.028951320793403568e+00,3.775265056577632450e+00,-1.380627375563599601e+00,1.768580436654542343e+00,-1.059782958342877279e+00,-9.628354495735257090e-02,1.279442657627134494e-01,3.354411708214178334e-01,1.221568237506700100e-01,5.487144173071765163e-01
4.230054800337634813e-01,5.650457391983809696e-01,-5.487917068147007971e-01,9.164572016153225142e-01,1.378557587236743265e+00,-2.813175148664928682e-03,1.017951239843189470e-01,6.561789079407676084e-02,6.813348021493531581e-01,1.197028146959908002e+00
3.327559365254468382e+00,2.861925976355915502e+00,-3.339799575828992673e+00,3.742840839888550430e+00,-1.781252239157154582e+00,2.725560814311098312e+00,1.592674177196504948e+00,3.504442728327123446e-01,5.465241679052612600e-01,5.591913718702842928e+00
-9.081276621595069098e-01,-8.980317644494363316e-01,2.575007061329872560e-01,5.387657953192274141e-01,1.632150216916968821e+00,1.302455069771382590e+00,1.451587182387925057e-01,-1.445297796887775155e+00,-6.281884853342342145e-01,4.808305724830829186e-01
6.396485582200609477e-01,1.424333449005311447e+00,-5.388867957694072341e-01,9.674491766772462809e-01,1.521764931994000536e+00,-6.431224259000252186e-01,-1.284221453002320767e-01,2.791104655935834900e-01,8.556066276538503157e-01,6.446143050308039690e-01
2.688055384578406315e+00,1.863049459338198321e+00,-1.544192368152430550e+00,2.992082594324949052e-02,-4.552866095645710764e+00,1.029314625765509472e+00,8.513060199518869275e-01,7.056296011214148178e-01,-7.249657199085077774e-01,1.504827476726842139e-01
-2.094028978271675445e+00,-1.858964475958031048e+00,1.149842899860719747e+00,-1.570277822899490139e-01,3.604427160301991506e+00,-1.556990490983571229e+00,-7.297018319769510430e-01,4.107888704489724985e-01,1.429352651834172372e+00,6.038836045369422312e-01
-8.797017430389256765e-01,3.339330125420413076e+00,4.657019122530431932e-01,1.947516588736503795e+00,1.147747574508414470e+00,-2.076902832929658160e+00,-1.172685323438282357e+00,4.816160445296789883e-01,6.315149164987343688e-01,-1.361764834856785122e-01
1.627994891256322463e+00,2.052921934343921784e+00,-1.232167191938545514e+00,1.179596385768871825e+00,-4.660586637281479483e+00,3.053316160077029551e+00,9.834143723305361906e-01,-1.307542644983383129e+00,-2.460554991384357404e+00,3.214016487781306552e-01
4.294279516216925607e-01,-5.013775440691765617e-01,-5.193736673813045268e-01,5.624564084699128497e-01,5.667269950471958140e+00,3.447511914034708247e-01,1.991320652159572768e-01,-1.257460246332331000e+00,1.045217725321076596e+00,6.264761315759120874e-01
