1.521098432763745567e-01,2.793900018574254629e-01,2.246392841626104531e+00,-2.901413086145991027e+00,-1.300433294500646486e+00,2.333965919558591118e+00,-7.089305698543796330e-01,4.132371089278557008e-01,-6.702814946458377499e-01,-1.288864969090283585e+00
2.327120315689300833e-01,2.230761447450405610e-01,4.747457283231820147e-01,-1.285599588172984475e+00,-9.097824928706251812e-01,-7.850130038895329898e-01,-1.881496245354151942e+00,-4.984048980584228627e-01,-9.047604034279976837e-02,8.901916125395056834e-02
1.459424922991358342e-01,-1.364989438076404937e+00,-5.335231291699112255e+00,-1.028472997933143507e+00,-5.189452994546494224e+00,-1.930454987780568565e+00,-1.831925119213472009e+00,1.554300064205618170e-01,1.535913576407347270e+00,2.566763455861294507e-01
4.151644058730422082e-01,1.627787715762381016e-01,-2.246131745359413845e+00,1.787831355850628023e+00,-3.167186464501168253e-01,-1.803698801688699671e+00,-7.842989865892544543e-01,-1.597904572543024093e-02,4.650815817451583456e-01,5.180846874611172437e-01
3.096659575558097233e-01,2.205625876026295895e-02,2.489437428015592868e+00,-5.776354258807114839e-01,7.218426428376217840e-01,1.425446870050404602e+00,-1.836495328161020790e-01,6.924967520702385304e-01,-5.816897029233876193e-01,4.782949947780461286e-02
6.198653737814269205e-01,5.538367553687202349e-01,1.208379957310078412e+00,-8.542691223200926665e-01,-3.735585214752076277e-01,-9.034113294792134319e-01,-2.533443524008691217e+00,-2.993611512734214442e-01,-3.378076778502659416e-01,2.829087803064357365e-01
7.386722251870113387e-02,1.842652994217235385e+00,2.136687571035923661e+00,-1.965913232462837001e-01,1.882932471315671652e+00,3.996362169182257618e-01,-2.346069588499105629e-01,-8.870715765022969546e-01,-9.906158524370937135e-01,-1.222651722516816974e+00
-8.305734741959591716e-01,4.112469118012271885e-01,-1.960016316433440542e+00,2.014327358767956877e+00,1.842397194740417632e+00,-2.199349762230912830e+00,1.542971711301122539e+00,-1.591761255301620270e+00,4.354228048949608243e-01,2.935575334335334130e-01
-6.306162395952644717e-01,-1.646655650598272680e-01,8.173797740133833534e-01,-9.654377634928139607e-01,3.996052797878172358e-01,8.637719478709492416e-01,1.192979136851892719e+00,-3.943765654228775785e-01,-1.258608721047668189e-01,-3.924502780479339203e-01
2.041715064770814325e-01,1.432975031945561861e+00,-2.197010104414788501e+00,-3.230405234743250475e-01,-1.294818780660452084e+00,-2.670448987546684361e+00,-2.373163430579943167e+00,-1.678889545985389198e+00,1.601033327947998797e-01,-7.660265847833568342e-01
