1.767086078937601723e+00,9.684536012566280494e-01,-2.754193862371567825e-02,1.731217009835952503e+00,1.748118744943431557e-01,-2.467485600923903899e+00,-1.141076373787035081e+00,-1.357060880619682663e+00,1.616921902869822736e+00,1.809583208763080542e+00
-8.363081050331228061e-02,7.399018493931133200e-01,8.419634742289237028e-01,1.669618825165231524e+00,1.782001096985945665e+00,-3.120151780766514893e+00,-1.713274621317455448e-01,9.701082913692172793e-01,-4.294231135751276351e-01,4.399610243033937884e+00
4.514445874419737992e-01,3.134053841029050269e-01,-9.514079331661642325e-01,-7.645995906324940528e-01,1.388076600243711267e+00,-1.026264992220508931e+00,5.827198505919553018e-01,1.522624752827845374e+00,2.198950046082320253e-01,-2.308400378178503132e-01
5.765627000223800813e-01,1.063786742825592047e+00,-9.043536733861756716e-02,1.252737482301212513e+00,1.404605269508093501e+00,-2.422442888650396142e+00,8.698990005020583727e-01,6.334659780113098826e-01,4.719972490795857345e-01,3.481614171423816906e+00
-1.596390369620227512e+00,3.112486518513275513e-01,2.620736992995729153e-01,-5.296018606814385521e-01,-6.826143973597674774e-01,4.253980702445079309e+00,1.933503905420153046e+00,6.505671286515771756e-01,-1.559613239573348853e+00,-1.511492834160873988e+00
-1.087859653880751454e+00,1.127709853779759408e+00,2.857142382135986924e+00,3.861642610867580760e+00,4.479046912033357031e-01,-1.669347612574584527e+00,-7.756370699116660328e-01,-7.268172160274966043e-01,-1.422805084386725927e+00,6.404020503725713631e+00
1.300544226542862614e+00,4.839747193585641760e+00,1.081986702165245617e+00,4.174701016116959096e+00,2.457075442968040591e+00,1.232610018867163149e+00,-1.060679088872471976e+00,1.092715519875688823e+00,-8.449353022024490567e-01,1.409971031263831165e+00
-1.490485957234211956e+00,-3.587744048231588323e+00,-2.222723913163917597e+00,-5.010520343687592693e+00,-8.871340251066606175e-01,2.769968780624538773e-01,3.479486623950679647e+00,1.324210606494920173e+00,2.829524262901164100e-01,-2.164805955401269077e+00
4.789792804255576519e-01,9.245376865053794857e-01,-1.176222751332436367e+00,-1.190743806680802042e+00,2.872254924300726708e-01,2.940190819762894314e+00,4.563452180248126488e-01,1.034516664958276211e+00,-8.142004135490692185e-02,-4.215464852235100146e+00
8.949733287281366190e-01,9.841579906808108902e-01,-1.610767005298924248e-01,6.152085523987317339e-01,-1.712716493776125670e+00,3.155835168148344749e+00,-4.117984977559017157e-01,-1.920266357596510431e+00,7.606394652959197478e-01,-2.910495102980670712e+00
