2.115584854700123252e-01,2.378722015928380618e-01,2.256633158378016368e+00,-8.467457500948389892e-01,-3.168078150607133825e+00,-2.773881314030864687e+00,1.098894067655696638e+00,4.000328162253739883e+00,2.861747882981307001e+00,-4.128189628666160793e+00
-5.523588998227446645e-01,8.267636167087849541e-01,8.973208424484727663e-01,-1.592690718212700141e+00,2.098846532476417170e-01,1.645808208443258369e+00,-2.084842741593818383e-01,-1.910437952290885422e+00,-1.394883021690916713e+00,-1.984276759082075348e-01
1.761411317191946324e+00,1.435277418781308212e+00,-3.683068940660217949e-01,5.625816177987226219e-01,-1.467665462154863931e+00,-2.374606443380570031e+00,8.704734981365771507e-01,1.650587855966947126e+00,1.562831657855025647e+00,1.298866464304468060e+00
2.344488662199939455e-01,-2.279291860943616577e+00,-2.681745265072117412e-01,2.404411887083006238e+00,4.037314038852389819e-01,-1.148394167669092081e+00,1.573965335976383328e-01,-8.895776033071789435e-02,-4.564698878534337867e-01,-4.200681212207890702e-02
2.307240874220921167e+00,-7.890518148142119381e-01,2.947197690983299090e+00,2.411306281140608299e+00,-3.175287652617207357e+00,-4.184088184165029034e+00,2.218075397125784942e+00,-5.369044405899751071e-01,-1.129234441573638170e+00,-9.941564839254024566e-01
2.521552317078322947e+00,2.086525451016869592e+00,-2.275320955395577993e+00,5.318537200548570931e-01,-2.207556917979162314e+00,-4.807320325285052931e+00,8.677676452396730911e-01,6.736214301809144267e+00,6.316989338262449571e+00,1.221300570244649553e+00
-1.701767670455845760e+00,3.622188468087853552e-01,-1.270859991638499942e+00,-3.572691079965149896e+00,3.290863985720527740e+00,4.156569169418952825e+00,-1.997587688811878870e+00,-3.096566518896911369e+00,-7.154939199184829901e-01,1.019071946068346834e+00
-7.485370812432270426e-01,-2.989848783813582767e+00,9.427769233840286311e-01,-4.362942070901254077e+00,4.943080403789487320e+00,3.654174701500949585e+00,-2.090702200150126533e+00,-1.019813785663175665e+01,-3.991391430163425014e+00,1.094064698432554827e+00
8.434700773425108933e-01,-8.510271903432088392e-01,-5.634705435376514693e-01,-3.057123446112915310e+00,1.689336699715640044e+00,-7.749932253988220943e-01,-9.032090458572592517e-01,-1.807654237207252379e+00,2.045766656264005334e+00,5.454854617482887136e-01
-1.320449325081646252e+00,2.734526646974839270e+00,-4.442854241688183770e+00,-5.661977097724745001e+00,4.536410647139119234e+00,4.634196517102606272e+00,-3.028121738217335768e+00,-8.175000136543617568e-01,2.768423576656896756e+00,3.610042530127605787e+00
