-3.225400913778888601e+00,-2.535291252323203182e+00,7.478961702276154533e-02,-1.188593575076405617e+00,-1.823946323287513049e-01,9.104635205455522406e-01,4.292177665075673332e+00,1.064104260803078628e+00,-2.983856300173675979e+00,5.289389518943270474e-01
5.520176925650563504e+00,4.330621975737074081e+00,-3.201924407401306460e-01,1.550773249802469556e+00,-4.280002974161696283e-01,-1.696589093484638600e+00,-7.007228253437485677e+00,-2.181670127639787182e+00,4.809371574076124922e+00,-7.020936906097032804e-01
-5.518768823358578546e-01,-6.578137292147973048e-01,7.628523565714727672e-01,-1.482644569841795601e-02,4.078298803802657968e-01,1.851971574047614755e-01,5.162137670247582966e-01,7.338097756763743984e-01,9.985368679673653491e-02,3.009272400640390366e-01
4.725326235268650699e+00,5.616629064444011998e-01,1.350279196864421660e+00,-1.674116880351365966e+00,-2.597864327854812139e+00,1.636798654301644396e+00,-4.659742845708353620e+00,-6.248637805200908391e-01,2.442721205830042486e+00,-2.031799201828805579e+00
-3.844649227949792802e+00,-5.082935307023580762e+00,4.975507411807966740e-02,-1.040955595627618857e+00,1.865052509229115252e+00,4.252006943441384301e+00,5.165041571140203125e+00,3.315642742919515218e+00,-6.375068173119188053e+00,-6.803318383851206796e-01
3.898824633740337831e+00,3.543130377156455069e+00,-2.891186071029911431e-01,-6.091402494843940474e-01,-3.247513506343757239e+00,-2.456937179715936281e+00,-4.132697889958868664e+00,-3.111808269962704543e+00,4.085189931907295957e+00,2.698183567576173392e-02
-1.845713172842721406e+00,-3.679217000151090211e+00,-1.174269214038211162e+00,-2.269506404283553103e+00,-8.288035225396424011e-01,4.052457267890471115e+00,3.591794361452145701e+00,1.115081031126641697e+00,-5.826763945490874619e+00,-2.016228333736581835e+00
2.532410230230035530e+00,3.765147813307267111e+00,1.040871354084284661e+00,1.807735518220911608e+00,1.638646367716711794e-01,-3.499880699020917252e+00,-4.261547355405750359e+00,-1.486237437635283154e+00,6.047734433875228355e+00,9.136637603006878550e-01
6.899572512199494412e-01,1.536388415240964811e+00,-3.457722757096809652e+00,-1.452971551085831203e+00,-3.215841421227532138e+00,-4.833067130893855534e-01,4.519243038779312549e-01,-3.296701931765285032e+00,-2.060057379133980238e+00,-1.207366156342025931e+00
-5.113641719597083579e+00,-3.908849742671960392e+00,1.233602049783282473e+00,-6.599795763130034132e-02,2.394019922693387592e+00,1.455695799581130823e+00,5.588552645107146333e+00,3.120729153089519148e+00,-3.240051590624363875e+00,9.016024825783646168e-01
