-6.227703704949083541e-01,1.400436923531929168e+00,-3.886367054222759521e+00,1.249177034000358510e+00,-7.360844688270867797e-01,-5.959896079839868133e-01,-1.646234850736125743e+00,3.632562808962342071e+00,-1.317156107132381848e+00,3.297426054930944872e+00
4.743368587290733629e+00,2.021850913080392331e+00,1.686957141300021945e+00,-4.828628962884057074e+00,2.403473715428053215e+00,4.053041277180322588e+00,5.127502403418628063e+00,-3.659933772234928995e+00,4.242562556772664362e-01,-2.084860214141462276e+00
-1.025560771952984673e-01,-3.791810993617446890e+00,8.952312228924019788e-02,2.765304412169078407e+00,2.532014962884007181e-01,-1.403136278095325207e-01,2.649395040990613737e+00,-3.666824430177404004e+00,5.293498147100322848e-01,-2.679431521180287934e+00
-2.031016385901523336e+00,-2.629165831882902982e+00,3.195396184307394138e-01,1.097053365561468707e+00,-1.499154565092979841e+00,1.769164727686385774e+00,-7.164567784442876786e-02,-2.509248224527159898e+00,1.042874226502921386e+00,-2.656242197416916362e+00
-6.392833767719068305e-01,-2.174401199412187236e+00,1.223380521344281657e+00,-2.631049313165987336e-01,-1.768170210249666807e+00,3.798615537277971299e+00,1.102785931819506349e+00,-3.820661636972226383e+00,1.005715357061852888e+00,-3.474114206252190140e+00
-3.822518891666482621e-01,-1.583080542179839123e-02,-5.655572345940893531e-01,-1.966757776046995088e-01,8.290513059705700849e-01,-3.701612210328854569e-01,2.653496998051144695e-01,-1.142827303011187401e-02,3.902301131648088783e-01,-1.389696672526391508e-01
1.265875799305227423e+00,-1.097908876635943720e+00,5.099307767122209789e-01,-1.265815757662231533e+00,3.409783881296469144e+00,5.884119088389848373e-02,4.078340924668256484e+00,-3.558168252651437768e+00,1.467827264931763409e+00,-2.724846633424685027e+00
2.828421446277078477e-01,1.109065316494606490e+00,-1.530078818917637529e+00,-1.528294463764170885e+00,-3.023452109582396297e-01,2.603106099968024445e+00,4.658362938930784569e-01,-1.266031836328634919e-02,2.735523820461194244e-02,4.879968421430393166e-02
1.588415007173954896e+00,-5.370126645910524577e-01,1.116192583405787753e+00,-5.658569951928484887e-01,1.667390211924177468e+00,-1.287690691697561396e-01,2.508714092267298135e+00,-2.105888665102969792e+00,4.011172715934188115e-01,-1.349873341239824276e+00
3.067527973811482234e+00,5.258391403566730737e+00,6.165249492653207319e+00,-9.394460892445506417e+00,1.767799213187292384e+00,4.063563040557115258e+00,6.308797298657865538e-01,-1.478092132773025424e+00,1.631868742909794889e+00,-1.956447653318292845e+00
