2.793656709421309170e+00,-1.751535019984505670e+00,-6.068725135432520013e+00,-5.805306080796793999e+00,-4.214690615050433742e+00,-5.604787464087849891e+00,1.755490806868181153e+00,-3.675149857825624533e+00,1.425539453363091846e+00,7.741773371060094444e-01
-3.972023062905885915e+00,4.514504665117625715e-01,2.925306753265421111e+00,3.554799025504825405e+00,1.989253978051840344e+00,4.643575720303996235e+00,1.742484512799025165e+00,1.746055824782857480e+00,1.342743034710855543e+00,-3.374404715901992979e-01
-1.206641426393972871e-01,3.151907445611488612e+00,-4.349856142118110114e+00,-4.157407914019113804e+00,-1.694079227369214014e-01,-6.203091335042440591e+00,3.914698988878506647e-01,-2.716314472837802363e+00,1.167833669178957701e+00,1.116796697426716278e+00
-1.149546882479132837e+00,1.892070083822832705e-01,-3.860412517790804632e+00,-3.005928090173206169e+00,-1.635708419627521337e+00,-2.971166476652387978e+00,3.116828222935845716e+00,-2.352395780623197208e+00,2.896743875439660609e+00,6.387980152583295768e-01
1.682603526030215679e+00,5.663462772435345904e-01,1.274025095814543151e+00,4.337980793352349984e+00,-7.201449223429448043e-01,2.875148300390336420e+00,-3.225101016839109214e+00,1.099088292185166571e+00,-2.507008247304771675e-01,-4.885423717678771816e-01
-1.978321505092171639e+00,8.056463493852306090e-01,-1.060571203307693722e+00,-2.951919313217014729e+00,6.395336719019544258e-01,-2.935312614380967133e-01,3.396327657245944431e-01,-1.159261935287821954e+00,-1.649880343501127555e+00,1.271636294550147817e+00
-7.747921646043080202e+00,6.710166027322830296e-01,2.044584993405635043e+00,1.730924012157512015e+00,2.541526062175961442e+00,5.504165982580383698e+00,4.720139253790345713e+00,8.365680522628653470e-01,2.237766018238506405e+00,5.346647499002293857e-01
2.091199888260258266e+00,-1.476892651825689740e+00,-2.216580503504818722e+00,-4.435137615133846190e+00,-1.126679593884055031e+00,-4.419070727855570979e+00,1.071873461529492255e+00,-1.426285617271412232e+00,-4.718119375509087776e-01,1.355690086549975470e-01
-1.252814435664767467e-02,2.378873421588548975e+00,2.165909511465611725e+00,4.834206827293250797e+00,1.139150514231020317e+00,2.886022435291139221e+00,-3.272317480406392143e+00,1.555453019068541609e+00,-3.182307179773875561e-01,-3.286797750208920177e-01
7.497763693878720659e-01,1.155390128280231465e+00,1.959291897854457121e+00,4.328762175806552648e+00,8.399064908897042603e-01,8.598403456696237512e-01,-1.154898511032168340e+00,1.696798446027449669e+00,1.599396703308957779e+00,-1.161674448127355319e+00
