1.219100768699611592e+00,3.414005732478309962e+00,2.967945171172848839e-01,1.817256860425463305e+00,2.839766180955318298e+00,-4.060044395318015420e-01,2.483670568762611719e+00,1.505561187756546682e-01,-2.991808446977136882e+00,-8.467971723538819662e-01
7.211797007674131121e-02,-1.480192103119247760e+00,-4.072709934554956668e-01,-5.618351905288537784e-02,3.772238036840134701e+00,-5.143184142708711049e-01,2.067727845119303520e+00,7.248238582570213362e-01,2.468219926287488875e+00,2.125173206449660235e+00
-1.538703232522592446e-01,2.531153798266012167e+00,-1.857636993184186291e-01,1.517915879162190063e+00,3.557697609854064247e+00,-7.548548512660817611e-01,3.093275144291435463e+00,6.528062746928171567e-01,-5.447113696405017080e-01,1.482048269936283358e+00
-7.607006949702131982e-01,3.106610795816275861e-01,1.853089271677878624e+00,1.233122188762453941e+00,2.340480729580191266e+00,-3.052719030840959635e-01,2.010551741147815985e+00,8.718484587867805780e-02,-5.736058087491672230e-01,6.470790702429043417e-01
-1.912011895080378387e+00,-1.164711929645920324e-01,3.881570937492780704e+00,1.941788077987802286e+00,2.749770324589847714e+00,-2.863029160509309445e-01,2.701258120651172323e+00,-9.969602118802703417e-02,-7.821063798444953807e-01,9.611268605663717546e-01
3.187336352084432223e-01,-4.839780908962088901e+00,1.485038699309262356e+00,-1.245614167915141124e+00,8.110506080327990475e-01,-2.103828246379469136e-01,-1.591345875142946564e+00,-5.026376242165743191e-01,-1.888089082614991421e+00,-1.999527060795306621e+00
1.026481247555669718e+00,-2.469424825580946337e+00,1.062588828928348939e+00,-9.511611927095043884e-01,-2.457976008380418964e+00,1.682291883863734627e+00,-1.384161176340531485e+00,-5.026286215425641579e-01,4.864131433738272392e+00,-5.472579882131511919e-02
-2.192609344237103741e+00,-6.326636244562758860e-01,3.889037995294986061e+00,1.248548505653064744e+00,-1.592306971246479907e-01,2.302503668186685337e-02,5.386492304776049345e-01,-5.801874364564845177e-01,-1.793496806507635988e+00,-3.067215420946354243e-01
2.871852248440350586e+00,-9.490403109043852314e-01,1.369792586321474159e+00,-5.335166236227590897e-01,-2.930796076352310653e+00,1.329223322120512751e+00,-2.741509123627041244e+00,-1.293466149007548083e+00,-2.740345795395699557e+00,-4.819158845445515205e+00
1.198165814932635520e+00,2.665616597313207325e+00,-1.068078350316941538e+00,1.330300724977845572e+00,4.743122423096918006e+00,-1.234456539167167799e+00,2.874397290458379217e+00,6.325628064181791910e-01,-3.482990843930993563e+00,-2.171558761201602961e-01
