4.133352963127021051e-02,3.516547161151927781e-01,2.811633984466308522e-01,2.907498003682088550e-01,1.042726016029526859e+00,-1.871749399869020447e+00,-1.070167258990805115e-01,9.760550317513686513e-01,-8.301576792247662429e-01,-1.568910775677231362e+00
4.741339946430636609e-01,2.833856914305930008e-01,1.157658287823624566e+00,-5.119713862788292102e-01,-1.794998847830532540e+00,3.269593221330216792e+00,-1.940657416219366382e+00,-4.203073772111438622e+00,4.846677516067523506e-01,-1.008408445464928249e+00
-3.781883118221378126e+00,-2.792590184969227174e+00,-1.296446597135016976e+00,2.321603914143722580e+00,-1.069884658248436260e+00,1.200432429328988526e+00,-7.014423886822669374e-01,8.982192443873751042e-01,9.751169947691806783e-02,4.846269173258721530e-01
2.367925451126694281e+00,2.020663517257101027e+00,1.102766152236971831e+00,-2.394054100234248583e+00,1.158631293854801569e+00,-1.282839621171176558e+00,1.629075821149222669e+00,-7.828151834583609858e-01,8.026111317366320108e-01,5.759728543591025041e-01
-8.777265500045998703e-01,-1.424777024871349163e+00,-2.299715877955272880e+00,2.348241852782540384e+00,1.012085577776384859e+00,-8.027669589636615699e-02,4.029468608367503535e-03,4.119098754144253860e+00,-1.484149712789179176e+00,1.412307160413217577e-02
-2.400486224810260527e+00,-7.338836929424121802e-01,1.186689828832441229e+00,9.707445383854496068e-01,-1.642538232977540869e+00,-2.568539683693368936e+00,-1.552850360061629464e+00,-7.085623471038280385e-01,-4.493207061947815939e-01,-1.431830122619661250e+00
-8.883813887600933157e-02,-7.028125173754604660e-01,-1.183344664001647395e+00,1.089774551126327706e+00,-1.167050098300751237e+00,4.316103057805513732e-01,-4.454249036373912896e-01,1.596615755247205337e+00,-5.555664333852566861e-01,1.359820846485866985e+00
-5.484438999139912285e-01,-3.318164762292318271e-01,-2.659245902546132356e-01,7.968877405387185808e-01,7.401674359199472697e-01,-6.493115367972619456e-01,-2.744157989515695339e-01,1.003833269573065623e+00,-7.029796930874683270e-01,-1.168406095595025507e+00
5.041443210992722079e+00,1.533844411679103459e+00,-1.990134739974706246e+00,-1.497354876105256860e+00,1.682650788032838296e+00,5.658279036452381838e+00,1.486785799533729024e+00,3.584567226186408107e-01,3.489710700376097430e-01,2.304422852903020846e+00
2.577372611127453528e+00,9.814934700397552891e-01,-5.613334805713627862e-01,-2.634484616870100826e-01,-1.028259135648367018e+00,7.334104079744308002e-01,-3.922014640969712640e-01,6.478645755860867883e-01,-6.258296690394936634e-01,1.334532369731431301e+00
