-5.627552207899501058e-01,-5.241706145480223844e-01,-6.094390514438303263e+00,-6.017215679243231863e-01,2.808263949779976620e+00,-1.344119584352555075e+00,1.295501676822417236e+00,-8.059278142929482414e-01,-8.204477500278436475e-01,1.238505100002316173e+00
2.338371170161035462e+00,-1.368825417004225109e+00,-1.307576976745015385e+00,3.006450135142985758e+00,3.336240261492180448e+00,-4.106169149749726799e+00,1.727991047742342356e+00,1.553054750456808186e+00,3.549615060798180011e+00,1.817284742545762555e+00
-2.971948426238771201e+00,2.160218721571749878e+00,-6.130941327340793112e-01,-1.614074987508786752e+00,-1.227409287493687273e+00,7.006489661249192258e-01,-9.540544493955424032e-01,-1.819081454226432193e+00,1.078499881214362688e+00,-2.444071554732216711e+00
-2.516198287408696110e+00,2.276228895175159916e+00,-4.177861771712162664e+00,-2.452297099735337049e+00,-1.172618524119433125e+00,4.971162045441522848e-01,3.804681924082679023e-01,-2.930643869852199490e+00,2.447528390260837572e+00,-4.778295400064779486e+00
-1.166043638019698792e+00,1.575232015366589744e+00,4.133136918202970911e+00,-2.281137697330513081e-01,-2.618981207350899787e+00,9.313640937361165051e-01,-1.492073083375070386e+00,-1.812753889159383625e-01,1.813639887902813053e+00,-2.283479789582670172e+00
-5.273405385331414452e-01,2.270296339003062269e-01,5.764723901139872986e+00,1.491753061817935988e+00,-8.628585375953297110e-01,-5.840975646833985735e-01,-2.215266413882689189e+00,2.189251205604028083e+00,6.455115488223950315e-01,1.897095113621397378e+00
-5.451026501175887162e+00,3.755515643993656116e+00,5.933191820597726540e+00,-3.252209503114516509e-01,-8.007901310784385496e-01,1.971185433209854398e+00,-2.401220485805390492e+00,-3.248852024584236720e+00,-1.218331986527676492e+00,1.812633520390851682e-01
-2.201479448974214825e-01,9.110895388498356784e-01,4.707876670264325547e+00,1.663948071287485453e+00,1.421021134907374472e+00,1.920590021588606255e+00,1.320028088532732902e+00,-3.364389987680107552e+00,-2.717497970523639506e+00,1.458452168679485572e+00
-3.978839931277701192e-01,4.750638314086471081e-01,3.227852526615799800e+00,2.448177533149141549e+00,1.676617887076932822e+00,-2.146971641377255491e+00,-2.740634768629722773e-01,4.682161934738201525e-01,2.116690723083900050e+00,1.826635787377992592e+00
-2.664268343039259523e+00,2.346458227605536351e+00,2.840229233467823633e+00,5.375655363519883656e-02,-5.494002953238850129e-01,4.288354804144196009e-01,-8.349825577225484796e-01,-2.027722704027284273e+00,1.287382557864432453e+00,-1.280526262390156989e+00
