1.691471055518678490e-01,3.449600445496833201e-01,-2.625992073328419218e-01,1.143826137026419665e-01,-2.953573755837686221e-01,-1.301193911572196549e-01,3.359408191341062278e-01,8.962428263667925332e-01,-5.502717004697026404e-01,7.916672169104690404e-01
3.299292228180261688e+00,2.401930924484076968e+00,4.423173213932144465e-01,1.888810120010962823e+00,1.285884116461772031e+00,4.028210357520345397e-02,-1.266659572215957485e+00,1.786489692082311231e+00,-1.037067101579516759e+00,1.540072682342275012e+00
3.083456108511230198e+00,6.931348028692612129e-01,-1.863082058843517075e-01,6.106440592102801990e-01,1.843972445353075917e-01,-2.742950356932013500e-01,-1.387979106257083206e+00,1.929298853001434777e+00,9.958377228111984225e-01,4.921589128125309354e-01
-3.649487036595536527e+00,1.552823917848606960e-01,-1.057358723873228934e+00,-1.429515122257945414e+00,1.901120098797439262e+00,1.150845883239668410e-01,4.340863744983328942e+00,5.124835915546274379e+00,1.359172103977360990e+00,3.194099348892475376e+00
-2.059324532548945541e+00,-6.035608145791782064e-01,1.852267007109381636e-01,-6.925061587094839544e-01,5.783383324717177310e-01,3.296099976633693474e-01,1.276152134808496985e+00,-2.205780633626946985e-01,3.424234205827061950e-01,-5.566377311136472272e-02
1.048019612569665582e-01,-8.744146819562242934e-02,-3.667087071125146869e-01,2.058183389425565224e-01,-1.550269695526520941e+00,-3.930103591019298848e-01,-6.150366490142987752e-01,-1.498563523781621942e+00,-1.258466486592529021e+00,-5.433683202784349575e-01
3.187788223995219994e+00,8.871317354967880320e-01,-9.693179202424404561e-01,1.089532289853907487e+00,-1.634636027120716317e+00,-1.024203457173262555e+00,-2.516803685576121552e+00,-4.401827722011573130e-01,-4.381289233116134607e-01,-5.337415055601969494e-01
7.032420081960677471e-01,3.743878129332913196e-01,-2.284484891488589575e-01,3.712720484528442277e-01,-1.371532587837173411e-01,-2.520639691074570421e-01,-6.625141401749802261e-01,-2.491907227963948146e-01,-5.632129782700220910e-02,-1.987915315741863032e-01
3.120940907507085971e-01,1.293729503425888661e+00,-4.869998514950548696e-01,1.277367479288737062e+00,-1.649699698609437659e+00,-6.038390396437580687e-01,-8.389766358200941854e-01,-2.112435258775418490e+00,-3.295991554451645378e+00,6.154248220177355178e-02
-6.416888970119199342e+00,-1.495265134607284052e+00,2.335985708692084550e+00,-1.743310099578763595e+00,3.299347686911559663e+00,2.187049353329645562e+00,4.659291856760393813e+00,-4.203216805653697818e-01,-2.369887161179995427e-02,6.886918132912186463e-01
