-2.368398293854062864e+00,7.110059069029402989e-01,-9.752285613082958271e-01,1.391044675650584761e+00,3.809336110814625975e+00,-4.756299014921539836e+00,-4.017183985209610064e+00,4.095456065267037538e+00,4.688960314307222266e-01,1.553082741179563575e+00
-1.654307940842726143e+00,-2.260375917035980287e+00,5.018666432203982009e-01,-6.957094522104306789e-01,2.796778996563396902e+00,-4.157236998066131228e+00,-1.737683390895542024e+00,-5.780892081326504117e-01,7.771226227499202777e-01,7.133618504107660518e-01
1.009995548584468050e+00,-2.136189786427388437e+00,-2.188111198495641396e+00,6.477389888034909005e-01,1.252868455331207720e+00,-1.289045785871308247e+00,-1.785529890762202143e+00,-7.893023571389555793e-01,-5.510665850851418357e-01,-6.628853237176887125e-01
7.799596603805771800e-01,3.466968408325286521e+00,4.505910399631384067e+00,1.622261349648413953e-01,-3.034751575810130220e+00,4.669022111930379637e+00,1.403533656955982867e+00,-5.527053464671409344e+00,1.837803039705038222e+00,1.417997352602865746e+00
2.364080511284769037e-01,-7.367680969191705564e-01,-1.825905957730606488e+00,-8.956294530176679425e-01,-5.962715290063451690e-01,-4.300942483585512011e-01,1.958954102885084314e+00,3.174656473314791505e+00,-1.098943284644996465e+00,-1.640357461578965115e+00
1.845180099130114826e+00,-1.255524017970193862e+00,9.750592638708014404e-01,-1.227858067486120586e+00,-4.849119816869023936e+00,8.827039244216324576e+00,5.068848554695067676e+00,-2.745070865918972203e+00,-2.489036817753032871e+00,-6.329381454264253470e-01
-9.123803299693251656e-01,6.482843702499250238e-01,3.447742136104380517e+00,-2.307565355279224129e+00,-3.027357416874481899e+00,3.849284699818952937e+00,4.786249979668461663e+00,-8.051600305147839087e-01,-1.313951355839633184e-01,2.911309880620960855e-01
3.404292448423722472e+00,5.353508581314612158e+00,-1.185021394960772412e+00,1.048937796036450099e+00,-4.004671007625280055e+00,2.647232316344171110e+00,2.296996186859931122e+00,9.690141772774372164e-01,8.143616542555497384e-01,-2.546294847638029157e+00
-2.043937103572178726e-01,-3.553032301664093229e+00,-5.566210833256098667e+00,-4.305921429789166810e-01,3.023990791859521909e+00,-6.054113055319541914e+00,-1.017539799102085363e+00,6.334484230825655260e+00,-1.691791042858159289e+00,-2.576867621648996298e+00
-7.342193202426002818e-01,-2.516499930055466905e+00,4.539517282699279122e-02,-1.846562578542862321e+00,1.983868485199641762e+00,-5.503939760835176997e+00,4.374024383297159257e-02,-7.723437030971982420e-01,1.309980503933115381e+00,-1.095606094205407333e+00
