-3.725894714597884239e+00,-4.839495485978963174e+00,5.729364058976934571e-01,3.973502670912984591e+00,-2.886775488153031866e+00,-3.137739319208370681e+00,3.928660933160278423e-01,2.671344383980301940e-01,2.152505072465384472e+00,-1.231981729346585258e-01
3.038459064829174494e+00,2.722948537740381258e+00,-3.578378475960860783e+00,-1.683984912058012595e+00,3.090485534197449091e+00,1.505794854835684760e-01,-3.577248165189618190e-01,-2.290636802486350820e+00,1.175595177572011263e+00,-1.289483210749420516e+00
-4.011471079867552803e+00,-1.633794862911507106e+00,2.610968258003894427e+00,2.472360614721368144e+00,1.737578909608319844e+00,-5.459596292669790962e+00,-2.080394472842582498e+00,3.189074709877413483e+00,1.523984210837106001e+00,2.614620440981541893e+00
2.053335714182882743e+00,2.334211749027170324e+00,-1.269785260673006011e+00,-2.012323465025180003e+00,1.160659988650342145e+00,7.892038866735101577e-01,-1.453124193455527235e-01,-1.351373737033444433e+00,5.983080370806440618e-01,-1.175385620816782106e+00
1.386896848756141720e-02,2.621552407165117060e+00,1.282536913587589478e+00,-1.216856626548433296e+00,2.205437580412790588e+00,-2.120765127775677605e+00,-1.650695412785309513e+00,4.653656259344690072e-01,4.695830801712044256e-01,1.315421402885355917e+00
-1.987827111934045154e-01,1.015030869309518691e+00,3.132668661032075086e+00,-2.296448653624234115e+00,-2.738250193743093419e+00,1.806948198696291419e+00,3.338789580010152469e-01,6.466068027523235173e-01,-2.306662499376335163e-01,-1.126182364561961524e+00
-5.902192367741561085e+00,-4.597448927970797961e+00,6.723501757989119199e+00,2.754358835276885298e+00,-6.108048052054767751e+00,-1.849889884164331866e+00,2.511270501884176887e-01,3.275650327402302775e+00,-1.597053700278816546e-01,1.434336323705792893e+00
3.376185071146037053e+00,-7.033596018509864489e-01,-4.582926008418199970e+00,-6.554443692888765050e-01,-1.298675128627116315e+00,4.712062529319132942e+00,2.477737643409690271e+00,-3.033072112007730858e+00,-4.517165844256328389e-01,-3.320549025998874360e+00
-7.233521651201191283e+00,-7.019647460636954328e+00,6.562312378651947498e+00,4.005456181347200939e+00,-9.837899319383643260e+00,-2.915311559712606915e+00,1.166721025102954723e+00,1.321674229727497263e+00,2.555181850351224249e+00,-8.506752326101985062e-01
1.075102813878779484e+00,3.950314832278935206e+00,4.064270134716891913e-01,-9.319927072995204398e-01,3.277220273156163266e+00,-2.360852241808974128e+00,-1.944042272502531699e+00,-9.809892500618400124e-01,-7.503854512729848381e-01,2.905302834753779262e+00
