2.906890525440908313e+00,-1.595751749857295954e+00,-1.290296355508589787e+00,2.929053513945101717e+00,-2.256371483692825919e+00,-4.075237990909394981e+00,-8.710714527245997374e-01,2.913670695199392924e+00,6.212899466326504694e-01,7.853583474872256609e-01
-1.089845961095631033e+00,1.734942731967978435e+00,2.879335678452532576e+00,3.694014649665594341e+00,-4.111399701073008117e+00,-4.622186245450173203e+00,-1.163003860804225464e+00,8.781282536648874482e-01,3.215481789681970515e+00,1.401113450280599082e+00
2.920986191976000512e-01,2.057218289069159822e-01,2.932517707177674460e+00,3.177858934934828294e+00,-4.109079283617956158e+00,-3.519706363809714578e+00,4.406477251250447424e-01,-4.908953300729091973e-01,5.064501266515493150e+00,1.315493652208989950e+00
-4.712304549713551616e+00,6.391356999609931755e+00,5.028377151307521942e+00,5.417654366849724568e+00,-4.322642106974030618e+00,-6.292752295566591769e+00,-4.470980829546747692e+00,7.416259424839787284e-01,2.814928799443780161e+00,1.685467576115528665e+00
4.924736040405113258e-01,2.229401737992863453e+00,-1.089899891776048513e+00,-6.554633703283068158e-01,1.898702797214422144e+00,1.867586931731464173e-01,5.714163360303149419e-01,-3.284368564660984369e+00,3.711563454630596226e+00,-1.757695240402799453e+00
-1.849915310385196854e+00,-1.195398225626191913e-01,-2.297444802825146848e+00,-5.120872447411889183e+00,3.743306134181974887e+00,4.532971857711912023e+00,1.848355533602663803e+00,-4.827956922507681270e-01,-4.331596773916499110e+00,-1.774231598429207857e+00
-4.403726042679812380e+00,2.788802986573117870e+00,2.206786936677807009e-01,5.030132953780142024e-02,-5.415637949783191907e-02,-1.350287754035195409e+00,-3.348467263057329557e+00,4.257265616011628673e+00,-6.853224508795920045e+00,5.633741961528428988e-01
6.713170796691083630e-01,-1.680642599206340737e+00,-1.035356683951230927e+00,-2.355935238724892189e-01,-2.637477069324090095e-01,-1.547259899052323417e-01,4.218101576258970892e-02,2.197299090314539072e+00,-2.506954850643123400e+00,3.598868225553005784e-01
-8.463529623955544645e-01,1.873607013949340594e+00,-4.149919676603360585e+00,-5.692849961675644721e+00,7.517726762026057941e+00,6.191452328417221374e+00,4.450670612356076861e-01,-3.171997232181216653e+00,-3.480492551868142215e+00,-3.369875131110290134e+00
1.966278353132038248e+00,-9.465543717175989302e-01,-5.701194543480873733e+00,-4.116262537417595624e+00,3.937326632367402102e+00,1.741886569030709486e+00,2.376504248380406192e+00,-1.153606760529779507e-02,-1.825699508872550059e+00,-2.884790048502608339e+00
