1.636927748855603770e+00,1.230584950188657656e+00,6.703724226692912014e-01,1.817365546760809636e-01,-4.776126313789244016e-01,-8.095420615183619439e-01,2.772325301019477717e+00,8.352307667003622260e-03,1.057347554139522749e+00,-3.389002987465023597e+00
4.483901534967452918e+00,-6.288786491293657299e+00,-4.091309225089214685e+00,-7.263350677729321081e-01,-5.417880529830270575e+00,-1.449995531927276426e-01,2.260511878638658878e+00,-3.453387846295592478e+00,-5.478217757039627323e-01,-5.015315072942699182e+00
1.659036685589004190e+00,-1.608896317099456130e+00,-6.745099498556258455e-01,-5.647985241101344256e-01,-5.501807784566394854e-01,-7.384242313865488350e-02,-7.198015121526695204e-01,-7.225477369643070746e-01,-4.481273788672724967e-01,-1.451989136593721863e+00
-2.830648893076495476e+00,3.604246893814628372e+00,5.076470865547858535e-01,-1.262783382223181317e+00,3.115418889468552166e+00,-4.639218488173392219e-01,-1.048580286616504376e+00,2.923389482003771356e+00,5.884963096198533306e-01,8.352371719880458123e-01
-3.584944719127833856e-01,2.510037293590370866e-01,-3.475424814621784764e-01,-6.277996509417754778e-01,8.088878153431943163e-01,-2.909096492605917073e-01,-6.810632812091976795e-02,8.055242220044458445e-01,2.370571023856313797e-01,-7.015645116661038960e-01
-1.872585987366927718e+00,3.908847382885701105e+00,1.165769416534315983e+00,-7.796341790539802474e-01,1.733474550652837065e+00,5.843832057632016019e-02,-2.120448291212497782e+00,1.512865754028866805e+00,-2.232224353373418735e-01,2.036949581174579915e+00
2.966917203619911625e+00,-1.210944676102019946e+00,5.493817083555574410e-02,1.149350339422611667e+00,-3.217369832751289849e+00,-1.363357427493731011e-01,2.990655435150259223e+00,-2.310306672010756568e+00,2.999919155461435727e-01,-2.604207875346553180e+00
-5.260164266612477491e+00,3.830435818190666364e+00,1.147257334482334690e+00,9.218443395458205680e-01,1.900414166375551606e+00,4.730714754311777237e-01,2.623512227196799218e-01,2.210334827232278254e+00,6.553171251276964648e-01,5.134945450890978869e+00
-6.979378706272854060e-01,2.360374329773890167e+00,1.693647462462356090e+00,7.591147429096094523e-01,6.635980499006612909e-01,5.598094254454225038e-02,2.577875495148412854e-01,3.835952280947831916e-01,2.871522232037257427e-01,1.190643971997479289e+00
6.011978387308185567e-01,9.662717213611674572e-01,5.739709010474141060e-01,5.577585148441919216e-01,3.864351395910985421e-01,-1.082193630733661482e+00,4.364771750812537654e+00,8.902934406942425438e-01,1.879729518657085263e+00,-3.694878473171430588e+00
