-1.310973169016718343e+00,2.886611559819554973e+00,-1.972099927029112187e+00,6.345317130526531013e-01,-3.767564017909739160e-01,2.233934266116899714e+00,1.476199584419846556e+00,1.314916984825597601e-01,-3.246585402933591658e-01,5.945366195752824767e-01
1.028433651295561857e+00,-1.094829052465194241e+00,-1.038844227195642178e-01,-1.244276853275601280e-02,-4.315060111286014299e-01,-1.463291963738969081e-01,1.090434767841188757e+00,4.686827208821611190e-01,4.335149863089818867e-01,2.505562903070898684e-01
-2.733669058883731129e+00,4.947414708914836368e+00,3.298005744240684045e+00,2.252739736878686116e+00,2.609407692666394052e+00,5.722243107170510434e-02,4.962894404611321697e+00,1.522996987014217929e+00,-1.799180432980229005e+00,-5.192010965968227865e+00
-1.828726518694603786e+00,4.169356314290819654e+00,8.362906478414608991e-01,1.963764634427635769e-01,1.289229926432421625e+00,6.039682244529469557e-01,3.802135196757553404e-01,-8.283487653063583700e-01,-1.680213540577345288e+00,-1.061819883405524356e+00
3.345868584392999612e+00,-3.061939396330504159e+00,-2.357041886183016022e+00,-2.156093802522092151e+00,-2.368005044734247111e+00,3.281095273850451743e-01,-2.675524598034388912e+00,-5.731118712607008447e-02,4.181675727469232884e-01,4.610650638168710458e+00
2.175536712551065843e+00,-2.937059333554536078e+00,2.590163453973373109e+00,1.239207715649877972e+00,1.871874023589350511e-01,-1.629138041147220717e+00,5.091621548022550847e+00,3.192706519076724536e+00,7.488830825880996578e-01,-2.860659494876947484e+00
1.063592410196174953e-01,-8.689442752875770060e-02,-4.502276751658936815e-01,-6.202550943435566344e-01,-4.778595487797494545e-01,3.482749425884894556e-01,-2.494331786168612286e+00,7.996631350519809445e-01,-6.968738540359600275e-01,1.079926999998137793e+00
-2.135678618344398316e+00,1.475433467551316991e+00,1.296563613736325449e+00,1.147427884551757593e+00,1.228879124321561767e+00,-1.328291406022132082e-01,1.742460921713728239e-01,6.559363507388951131e-01,-4.618539422111684889e-01,-2.516328409262622134e+00
1.912948026401923407e+00,-1.000385866357099918e+00,1.868497833889433357e+00,-3.088157300656286797e+00,9.241318631435680997e-01,-2.985332448288282148e+00,-4.384703159626348601e+00,-5.378785311465898999e+00,-5.485330674942208162e-01,2.140775613796398247e+00
-1.735731301440165408e+00,2.130835070404925702e+00,-1.019929982583103190e-01,1.164277574608657995e+00,1.335717691423397246e+00,-5.491548551551039825e-03,4.199213125335917951e+00,-3.902846052132299626e+00,1.441148422971014753e+00,-1.646360233051382238e+00
