-2.630058544335807102e-01,-1.014855523676746696e+00,5.544268453154086451e+00,1.456158740119932737e-01,5.805739530623350575e+00,-5.527323996053270960e+00,5.844705711114777991e+00,-3.176569085807708692e+00,-1.890436109854672475e+00,-1.019876061562493330e+00
9.302623863831249729e-01,-6.483213533525455929e-01,3.410581431301071831e+00,-1.259141387386719657e+00,3.920039110229723622e+00,6.020232310030650957e-01,7.694143020795164434e-01,3.109099555117292302e-01,-1.192801364032584743e+00,-1.760767184157198795e+00
4.153604055980917864e-01,-1.363754778082198804e+00,2.796627293428509464e+00,8.765797710367229101e-04,2.741077492494968570e+00,-1.564061676235612985e+00,2.481895694225328519e+00,-1.153684038571008541e+00,-5.880769257578697395e-01,-1.507206823588542299e+00
9.960697544607148846e-01,-1.733158161248515405e+00,2.754287772891943931e+00,4.794752039620104878e-01,2.794698978718792581e+00,-1.110776553808395350e+00,6.531981436608892411e-01,-4.070183186568794853e-01,-1.125692071500190128e+00,-2.972725160004544787e+00
-2.162947625211765423e+00,4.373042152732958598e+00,-7.057287815813166887e+00,-1.909029650483831553e+00,-7.662177782996321795e+00,3.905284962322270736e+00,-8.983617332799518351e-01,1.191822273402923349e+00,3.183426102558972737e+00,8.103971574859205163e+00
-1.467089962355422106e+00,2.332616005141721516e+00,-1.886591487474528206e+00,3.780218886254848032e-01,-1.714882273233474530e+00,-1.958026887064187038e+00,9.948896873114493333e-02,-6.187615637509586985e-01,-1.180532377938607880e-01,3.114789530595097666e+00
-1.919496607166641056e+00,-7.564704529682033662e-01,-2.111364376411383748e-01,3.810759320125615135e-01,1.458074005057026667e+00,-5.485354438242449060e-01,1.486849854319387820e-01,-8.473508316366378246e-01,1.966396282504798032e+00,-9.978500115982437413e-02
2.084913076439632862e-01,2.058685201790726005e+00,-1.487356346423104103e+00,-7.644018050492931149e-01,-4.647806691059410689e-01,2.837561236706211965e+00,-5.085955182897602178e+00,2.712949808611014202e+00,-8.967813022776702780e-01,2.107026348841520846e-01
-1.051565576881459574e+00,1.525380099994710914e-02,-1.511392769516882284e+00,1.514700860855052955e+00,-5.657608260291315805e-01,-1.095206084944665648e+00,-2.292706368425289742e+00,4.278657943753786871e-03,4.452240350156663751e-01,-5.873656098368283951e-01
-1.402376375244635653e+00,-6.914089902268234500e-01,2.480565109182209405e+00,-1.949465348156109723e-01,4.572490603344347093e+00,-1.387919129330907220e+00,7.736269034123905985e-01,-9.164615359012292517e-01,3.840775614354622891e-01,-1.135796641324581691e+00
