3.872959924141520016e+00,4.902913691575556121e-01,1.563595377532982944e+00,-2.543698987888056262e+00,6.294847692111826820e-02,8.488675511444393473e-01,9.860096197302162246e-02,-1.125589574095176237e+00,-3.385198233722851446e-01,5.444077142361900545e-01
-8.441667293307947517e+00,-1.875138824526731973e+00,-2.760104459595184689e+00,6.102401508815458619e+00,3.022563375578735112e-02,-1.705794462010846502e+00,3.266110191623056158e-01,1.920512700303331766e+00,6.163794378944461583e-01,-2.449111149080017424e-02
-8.891394116903718725e+00,-3.897291933416631604e+00,-3.182550127377358429e+00,3.313555038970239508e+00,-3.821113308690630705e-01,7.795183422668070516e-01,-7.165745684232927015e-01,3.422653172147355427e+00,3.436923805265997833e-01,-2.701210482536214652e+00
-1.941022160187888090e+00,9.757026327844228186e-01,-3.161748875830278749e+00,8.215359823454938815e-02,7.445954113880676184e-01,-1.017904814978415784e+00,-8.487171341434834870e-02,6.504431202110072530e-02,1.909002206692997028e+00,-2.205236098183827043e+00
-3.954712644226817453e+00,8.333923641101920188e-02,-3.100457992748529179e+00,1.722355986553212759e+00,3.589222190150503256e+00,2.221939954648254556e+00,-4.847282313305390500e-01,-9.702199701454433667e-01,4.023535498295538915e+00,-3.359924846808903354e+00
-1.792070782575667653e+00,-1.155984062981890936e+00,-1.028999822525061392e+00,1.204826938558380078e+00,1.381603375151995827e+00,4.058170552159766631e-01,7.911066524656060750e-01,-1.048446502607060848e+00,1.522927914049382325e+00,1.800625002326924351e-01
4.547605355913797887e+00,-1.101357795547916352e+00,3.850904672348387070e+00,-1.337315827765377940e-01,5.026047616892840075e+00,4.977498735332462232e+00,1.620770048321251044e+00,-5.897976883173996931e+00,2.867188998980946035e+00,3.010050933278344942e+00
1.610509664093529691e+00,2.561587943898172348e+00,1.023059450646624652e-01,-4.543164943279149881e-01,-1.515566516071742198e+00,-2.156992200078551747e+00,-5.563591921912851568e-01,8.827534843472421011e-01,-1.196656418063192895e+00,2.007414961822867605e-02
5.064204939443207820e+00,4.742867539034207880e-01,3.221922291019576612e+00,-1.917768955332701752e+00,-1.945097693847251952e+00,-1.252394834778586485e+00,7.605882855997694314e-01,-6.896142188451012123e-01,-2.608140486276092407e+00,3.353138461950643912e+00
-5.935482966398926585e+00,-6.501823553978580694e-01,-2.397970532817382150e+00,3.002343960046549576e+00,-1.081312065820353885e+00,-1.198477843596841508e+00,-9.223796298135620297e-01,3.046855344042545433e+00,-3.527708974263294994e-01,-1.853535361703229301e+00
