6.585461551309011341e+00,2.406279418316299434e-01,2.730029648249284957e+00,-1.576102675216088267e+00,1.282504823920623371e+00,4.521567007371891656e+00,-6.360360750769850746e+00,3.543022360146708127e+00,-3.850132719370473744e+00,-5.577710576464159686e+00
-5.915190955414834084e-01,7.435300825960444726e-02,2.531014413758182258e+00,1.851031091698499109e+00,2.743364505108595530e+00,1.200144470667814378e-01,7.261318744819269533e-01,2.289268890821029689e+00,5.655332709148521708e-01,-1.213421986393511398e+00
-2.336436180623715053e+00,6.471229522630710385e-01,-2.996115736960581533e+00,6.797801346282683177e+00,2.255662749726075500e+00,8.367906001486298262e-01,6.637168321527968651e-01,-4.210139600417704742e+00,9.258544384907225755e-01,3.020687272801093393e+00
-1.570174347738047427e+00,2.093827655559314938e+00,-8.266509835750488477e-01,7.204031098762615493e+00,2.602316422139312468e+00,-8.259393554605898302e-01,6.867797770149766112e-01,-1.721552098066483794e+00,-1.600428613348957807e+00,6.646180738893281426e-01
-6.183775688041841523e-01,-1.416197254018904061e+00,-3.927759720610321525e-01,-9.082927040408436126e-01,-3.515159443117805149e-01,-1.664243831726154310e+00,5.203996390991340038e-01,7.573524686488891655e-01,6.206567208114467382e-01,-2.523876373658824335e+00
1.024195395056155311e+00,-9.745928707131461532e-01,-5.249862287008411066e-03,-3.037924753450913951e+00,-1.470362711277442225e+00,-4.211809406775789411e-01,-6.926934419485647476e-01,9.398177624051595735e-01,-1.688822245417546108e-01,-1.832444590520885486e+00
-2.221945891815982899e-01,-1.713540665079681613e+00,-2.319175685918374086e+00,-6.555905226754567217e+00,-4.763902966546573303e+00,-1.191181800116755785e+00,7.420213728287661237e-01,-1.495897923442618183e+00,1.600238420361417280e+00,1.650417320498350104e+00
2.074208771282912700e+00,-2.261009675167611199e+00,-1.093685020599224789e+00,-5.155112503181712214e+00,-1.702127036929057535e+00,4.146027039207664799e+00,-2.271333980306124545e+00,-1.145644279340211957e+00,2.547664329348150680e+00,1.894716471503506305e+00
-5.017169346557951437e-01,1.663934668132802219e+00,2.012813657887576824e+00,2.434622330830932935e+00,1.992408704121799490e+00,6.622365114824725341e-01,7.888306520787963239e-01,7.556699072197198275e-01,-3.046195892216863044e-01,1.777328095251177853e+00
-8.645082080920809542e-01,-2.212750938434638881e-01,1.797738668730523015e-01,-1.181453681441117176e+00,-3.147446757417976526e-01,5.033115381253715492e-01,1.066083649090243668e+00,-4.361600714346639540e-01,1.627590094850261737e+00,2.451365484004512929e+00
