-2.610312443281792016e-01,2.566893628054575105e-01,-2.392295486608597699e-02,2.071453808776682060e-01,3.868625536451966163e-01,3.825389384078717203e+00,1.773077118380717243e+00,7.969523028564886591e-01,-3.976236269108277099e+00,-1.004118434051359809e-02
5.681880855635533578e+00,-4.300340168597956314e+00,2.620262831904828005e+00,-2.453590318118398450e+00,-1.393882931912673984e+00,3.458873475187594693e+00,-1.021825695733569406e+00,-1.423613945334765374e+00,-2.255247454621126302e+00,2.079965689946459584e+00
4.276692628664099161e+00,-2.544273464961506748e-01,2.462700830376669980e+00,-3.305855393374339535e+00,-3.472518233519710229e+00,2.423471491598163219e+00,1.647333933557574071e+00,2.255973954497361600e+00,-1.768712063127272804e+00,1.170122188026414323e+00
3.002510540484326196e+00,-2.908624544569239578e+00,5.194264944481576940e-01,-5.418819135390037234e-01,-1.007107341021083569e+00,-4.080839366728375994e-01,-1.721909156424338727e+00,-2.420670629230193160e+00,1.881269710399180450e+00,1.262467966615283155e+00
-1.532770234481606764e+00,1.290796589645196724e+00,-3.025103110798660344e-01,1.830573182971754864e+00,-1.051967662361726674e+00,1.415990858333072255e+00,1.533878740822239406e+00,2.113628544421503608e-01,1.081795427624654415e-01,2.288216530978387231e-01
-1.194738977484354425e+00,4.753873468216810450e-01,-3.165229116420991140e+00,-1.216243920215470009e+00,3.486839380133882837e+00,-5.724681029051162939e-01,1.616413387454583295e-01,4.254804538768040545e-01,-3.126602171095112404e+00,-2.105562656226945606e+00
3.776357637940395584e+00,-2.372744737524472125e+00,-2.491713080497588439e-01,-8.396005293662540669e-01,-2.566400135674042460e+00,9.944719570786069163e-01,-7.395554993341943439e-02,-1.994479734843146890e+00,1.238820831478446793e+00,1.430837527955687971e+00
1.210953004011729783e+00,-2.334618395667841462e+00,5.242281838224770674e+00,2.628537147755942716e-01,-1.147492963328002047e-01,-9.398849829889726060e-01,-3.345381870370756516e+00,-7.601624140626730419e-01,2.260725072548697145e+00,1.835926995271841777e+00
-6.044058066732683754e-01,5.486386498044406590e-01,-5.539197363781409589e-01,1.568817421604121964e+00,-1.468321521771359883e+00,8.815712874371277596e-01,1.069765458072587050e+00,-5.566540260717026678e-01,1.027977299250584453e+00,4.855757196897680372e-01
-1.052672514988305164e+00,1.601006377919918178e+00,-5.391566966939589367e-01,3.355864655894323922e-01,-1.057541482498216778e+00,-3.124262568579751598e+00,-7.570162169889504966e-02,4.683960538996229106e-01,3.434520026739430243e+00,-3.767265090470910405e-01
