-6.474384208948844588e-01,1.587499654033525776e+00,2.744832924178121081e-01,-6.005309498616820396e-02,-6.231085956017734517e-03,-1.476526497391321135e-01,5.353417818881294199e-01,-7.000620310820896419e-01,-1.699518947215320708e+00,1.163304554547300418e+00
-2.837995657809545325e+00,-2.128794009453954583e+00,-2.956156325062584855e+00,1.374046177841182326e+00,-3.719466579588739386e-01,-1.839454393041308755e+00,6.971670717867542777e+00,8.304201450130305417e+00,7.676100953534373161e+00,-4.720677448833352940e+00
-2.537836317789732843e-01,1.115150369201323599e+00,-1.108813826307603057e+00,-2.622060120433769015e+00,2.085228293314141390e-01,-4.601359174953326692e-01,1.308051176178465003e+00,-2.370897180471779997e+00,-3.686299005438015142e-01,3.875089784116086955e-01
8.488211670590667390e-01,-6.331995381251629418e-01,5.462239050406594298e-01,2.001257435209850832e-01,1.455588586847995081e-01,2.929664964954110662e-01,-1.813395646602538935e+00,-1.088811733364447143e+00,-7.574890967942573550e-01,5.387582738423144502e-01
5.620719343566003445e+00,-5.274142398208058857e+00,2.482817464546454023e+00,3.551539264681945696e+00,-1.369389503655655593e+00,1.458223206905291836e+00,-8.899913281020268130e+00,-1.643801661049225649e+00,-1.211372541458535235e+00,1.552919523475370323e+00
1.547672630278557726e+00,-1.223332005349546669e+00,1.319476007720046695e+00,6.378609292270476239e-02,9.094797727640835383e-01,7.004209604620335039e-01,-4.169188038220648096e+00,-2.930610567693034518e+00,-1.944022733663954838e+00,1.179948363480087359e+00
-1.656886282803123223e+00,-2.265932140389624205e+00,-9.906325470762034069e-02,3.718759164116606453e+00,3.115617429189749821e-01,-8.089241991887365923e-01,1.835878710284473581e+00,6.156452300498154173e+00,3.439754881857955748e+00,-2.095176050067047324e+00
1.164588254890877694e+00,-9.547156952122399787e-01,-1.330307828465365771e-02,7.219031259551758062e-01,-7.543765357224196944e-01,-3.872511213557801035e-01,-1.048341039297073563e+00,-5.596978913077407247e-01,-5.364958694856685195e-01,1.109540498460019897e+00
-1.038964912685441444e+00,-3.195829362191676459e+00,1.922193453623698423e+00,2.693859833059454090e+00,3.671770204809598148e+00,-1.777148506989421062e-01,-3.957107164984797976e+00,2.633214957720158012e-01,-5.465500977028312501e-01,7.105523360271914779e-02
1.006995690062197246e+00,-8.437660433613594080e-01,2.966504676133056018e-01,-1.202841561469176535e+00,8.874224659512749414e-01,3.109127527925161782e-01,-2.361987290340461065e+00,-2.834703429031348421e+00,-8.675143365774335980e-01,4.961330910662262728e-01
