-2.321553764120103391e-01,-4.767803123426142542e-01,-2.688836516405098020e+00,-2.933258881723708633e+00,2.032076749218583611e+00,2.054951076273104693e+00,8.392715049272979622e-01,4.761005675823310135e+00,3.836687134161281598e+00,3.059141960444024644e+00
-1.467361755838850201e-01,6.032502571353068888e-01,5.793600962939016163e-01,-3.297547680758048938e-01,-5.137451510491162221e-01,-5.593073006033968085e-03,-1.059091218802593826e+00,-8.812532506261739895e-01,-5.024639292526128509e-01,-3.429271224857861067e-01
-3.208092006035881960e-01,-8.370306724987921498e-01,1.537477478696506639e+00,1.891103332379165725e+00,-7.515806897261050334e-01,1.395620453804117034e+00,2.623293017334933808e+00,-3.049662785447523561e+00,-1.683482430500201410e+00,-4.800067544084010152e-01
-4.452459867106942637e-01,3.749998957609107286e+00,1.873383996402905094e+00,1.883400295795070178e+00,-3.887666889566367523e+00,-3.256494753901916006e+00,5.284653865665522865e-01,-3.631156957177880784e+00,-3.186566829771644738e+00,-5.476806237108212017e+00
3.789541738386027481e-01,-4.484823235319198576e-01,-1.799893670983994998e+00,-3.471554970573004439e+00,2.366954748205927661e+00,1.168521599607530881e+00,-1.351549268727169073e+00,4.668072817217309378e+00,2.896795639772734354e+00,2.378094469704847391e+00
1.025575692357380664e+00,-3.837833439833648330e-01,1.635219121855756574e+00,7.764618776875942263e-02,4.705624039132516034e-01,-1.176940188079806493e+00,-1.221895956657762072e+00,-4.399358571891459624e-01,-1.917489005633224108e+00,-1.663894894871850605e+00
1.326788930687810897e+00,-1.135358520796174941e+00,2.337785657872696987e+00,-3.353591136621748348e+00,2.418743162791956891e+00,2.051513992268374054e+00,-1.019758635270514580e+00,1.553538245461789646e+00,-1.111148837823028090e+00,-2.263494696791851224e-01
1.732099768549121566e-01,-7.668262722367391593e-01,2.150580232227212729e+00,2.225577933421295285e+00,-7.227170013605478394e-01,5.956515864065986543e-01,3.507600609873026798e+00,-2.882720402383920355e+00,-2.597104613810656826e+00,-1.993020191259580409e+00
-1.327250219830160782e+00,-1.438710958110709148e+00,-4.564570987792274437e+00,3.788545623534022688e+00,-3.501833284201089080e-01,-2.802951512138807111e-01,3.879932658229455544e+00,1.080331548291397104e+00,3.681973042481588632e+00,3.421112805783567801e+00
5.431827944434443056e-01,1.317979287554489787e+00,4.649662495786059502e+00,-5.195116851721785167e+00,4.475838806316830842e-01,2.944687824895068307e+00,-4.572205943880772949e+00,-1.794156501694524231e+00,-2.803766081007847522e+00,-1.273508298263698935e+00
