-7.957030950706448502e-01,5.990427607732917714e-02,1.043080703195757408e+00,-1.761625102866417825e+00,1.198724409948679348e-01,5.162833109299087564e-01,1.659277590123965918e-01,2.544007093459554891e-01,-2.863671250411949920e-01,7.602341318385095192e-01
5.227510781515183336e-01,-5.094844843240347032e-01,2.092117878602804737e+00,-3.051675629695177694e+00,4.180488616765121179e-01,1.148569845270031031e+00,8.350250116700210778e-01,-5.586423925750801933e-01,-4.795314407453989958e-01,1.895645341525235228e+00
2.800948474984915615e-01,1.299254495017068800e+00,-2.794497059751640755e+00,-1.819421450219943726e+00,8.919050687216794060e-01,-9.522233349291842064e-01,-3.489647678384185658e-01,1.836098066811076013e-01,-3.848677458436383647e-01,-1.172395379299049800e+00
-2.640643329480025336e+00,-2.163526567833015335e+00,-5.410466018991422210e-01,4.823728196292281778e-01,9.533148580351888945e-01,-4.452574662102380953e-01,1.392563911803363641e-01,-7.343411644604375121e-01,7.948973158299706965e-01,-5.892670170894460657e-01
1.417468314796410223e+00,-4.886940116874434636e+00,-9.233030930810023351e-01,6.563218374118447329e+00,5.112745246251448883e-01,-8.293273704086263631e-01,1.831252130173703696e+00,-3.206263959192010571e-01,1.387627612893725271e+00,2.948873759774292003e-01
3.091730902965236449e+00,-5.512781291700672437e-01,2.459504507853517818e+00,-6.621730452318204563e+00,1.515443238200197884e+00,1.795750660780351948e+00,4.789111475688785369e-01,-5.870888636041960318e+00,-1.822394829721392662e-01,1.584298459320242047e+00
1.851987149039546976e+00,-3.744580575363363639e+00,4.682267101928380137e-01,-5.096246212581519996e-01,1.728991334621963860e+00,3.783211122854875930e-01,1.148204436498990733e+00,-4.769074721626122226e+00,1.059754369929259088e+00,5.362094972585814689e-01
-6.485538297266080221e-01,-1.179263053764087577e+00,-1.220956615585004013e+00,1.799825984607863472e+00,3.788166021383764237e-01,-6.931557957566447659e-01,1.477858872020790526e-01,5.834813955857989787e-02,5.072667051976855745e-01,-6.940162498611148756e-01
2.685805337642654056e+00,-1.043675312283886436e+00,-2.835963688357785450e+00,-9.878801097126103103e-01,1.731314322049932741e+00,-8.612012813496352504e-01,8.737409919710893424e-01,-1.649835204929782417e+00,4.391249827791002258e-02,-4.016409018928608354e-01
-2.566467590051142444e+00,-2.526915616162291656e+00,-3.887872551496907469e+00,-1.832750249326452696e+00,2.963322697599942490e+00,-1.586335575145063181e+00,-2.922384784635743693e-01,-3.706953894220355927e+00,1.244126169732739928e+00,-2.565296436405589020e+00
