-7.159474561419886252e-01,3.484860029345883348e+00,-1.313808560447836227e+00,1.208882338109025012e+00,1.104997706160837811e+00,-7.310607646793823022e-01,9.058244983813864559e-01,2.883088314628842741e-01,2.291938173151411018e+00,-1.068095393762645007e-01
-7.259287806554159950e-01,-2.697555475841246775e+00,1.334739565793653826e+00,4.098457098464265869e+00,-1.134009410937391049e+00,-2.430599321805584800e+00,1.106222379473303263e+00,2.132498765180705913e+00,3.385777780708605800e+00,-4.966666214655881539e-01
-7.512744478668230697e-01,-8.714080864001447324e+00,2.347798116711422800e+00,2.836994633293882018e+00,-1.720974745814134454e+00,8.222026273566290788e-02,7.351474867849863148e-01,-3.599393059348452995e-01,-9.421923593609751180e-01,-1.885638870082091412e+00
1.301108545641782133e+00,-2.652090820943683092e+00,1.740565156658849588e+00,7.155909602091585775e-01,-1.098368030978128962e+00,-4.248204702126702204e-01,-1.546853494112613858e-01,1.204316933771689691e+00,-1.694019435322305700e+00,8.912226439987633309e-02
-6.438068440122474145e-01,3.756377800668564415e+00,-1.178132137165308180e+00,-2.221153834630105628e+00,6.257611516646173211e-01,5.578022943278139190e-01,-9.833529624139291103e-01,-1.950854083225946056e-01,1.333317737139430692e+00,1.630735591149754748e+00
-1.790632547668891350e+00,-7.670882596309422929e+00,3.625072713973574778e+00,3.627115986426842742e+00,-8.286462844584634446e-01,3.491264089238334645e+00,7.259341746066441114e-01,7.582440583074889773e-01,-3.208437382593201548e+00,9.424733457327775232e-01
5.210759426069772049e-02,-3.268699629629455039e+00,3.060911288891134951e-01,1.912193508870503766e+00,-4.947349346707653472e-01,-1.126450766082818689e+00,1.010919369013330016e+00,-4.714795953197553069e-01,2.323953985310148740e-01,-2.167877676045724122e+00
7.976300653676851038e-01,-7.380106826919640151e-01,6.383895389003979570e-02,-1.871823197988077281e+00,1.907461131295229428e-01,1.617187457919863292e+00,-5.190757893231350284e-01,-1.242272877891320570e+00,-3.254020091223439159e+00,-1.733693797794765290e-01
1.615384406972937281e+00,6.042561100476712355e+00,-1.773077911503177617e+00,-1.195595474212741927e+00,1.543641675508934386e+00,-4.525162970184071209e-01,3.010295209837718367e-01,2.934411181567680993e-02,-8.331783103081366049e-01,-1.718722878022339168e-02
-3.193496133421686256e+00,-2.352003123455490119e+00,1.673025752604387240e+00,2.464189163090950263e+00,-6.619905786740405418e-01,1.159973975335747642e+00,-1.089489779031830308e-01,1.655909545377167502e+00,3.149411391025098705e+00,2.481438751656541708e+00
