-7.207098284612919459e-01,-2.951309519815425997e-02,-1.986705281926045341e+00,-1.600103363987070981e+00,4.788855763842578384e+00,3.754794182260627444e+00,6.126430598904439861e-01,3.185207485278634287e+00,1.483430204772979710e-01,2.618283542294357780e+00
2.164767113923956821e+00,-1.067558671918019897e+00,-8.058992160182931741e-01,2.344198465586215807e+00,-2.409951656667461251e+00,-3.813859899486602423e-01,2.458487272961294767e+00,-5.570991362811728465e+00,2.031567188044805239e-01,4.056482464635083218e+00
-1.824435217386093100e-01,4.865951748851704561e-02,9.424134159902670671e-01,-1.503697217761477578e+00,2.901658975995332845e+00,-1.056745333972929579e+00,-2.633408149785561037e+00,4.507070578378147729e+00,-2.986377727863686604e-01,-3.954027465221547910e+00
2.573048948377380185e+00,-9.606980622636853706e-01,-1.672271764130834892e-01,2.204203132961915834e+00,-1.810398954248783943e+00,-2.305582205223879022e+00,-8.439908918320472297e-01,-2.379133751084006487e+00,1.021214300414149845e+00,-2.482735922664487838e+00
-3.921273871058120086e+00,-1.731906477096759600e-01,-5.657827327267946238e+00,3.366290079092163490e-01,-1.716615267211830220e+00,7.124620158977135631e+00,4.695551527698277328e-02,4.418136421226622756e-01,3.583533817462791760e+00,1.226246039151671852e+00
1.270203449381390071e+00,-5.858886867130632670e-01,-1.851528995638561881e+00,1.304915783482903713e+00,-3.912840972244840954e-02,1.875813959985538570e+00,2.529071489434778108e+00,-3.234064601754557788e+00,5.025723589687765003e-01,4.441330156876493795e+00
3.791843183210511503e-01,-5.106672549410155026e-01,1.075638922448503454e+00,-1.668931060451986248e+00,3.879732778261405279e+00,-9.937845189109649757e-01,-1.596152832267248245e+00,3.693899884545704726e+00,-1.103771682913289531e+00,-1.088787501618169173e+00
-4.989953414010767085e-01,3.996723411687539418e-01,4.264494417080649136e+00,-1.788303900140395530e+00,1.355752625924258881e-01,-3.940014649835092531e+00,-7.112437622781344615e-01,1.265709174329010755e+00,-2.958002213209579789e+00,-4.789272460091937855e-01
2.532881014562930133e+00,3.055697391742171476e-01,3.240934342967567883e+00,-9.322966107711295747e-01,3.357153662095174074e+00,-3.524712547278106900e+00,1.132469887787275337e-01,1.304270219455316404e+00,-2.408043865514112536e+00,-3.007152935080242839e-01
-2.993251605797350390e+00,-1.857391679116768834e+00,-4.308446911280540803e+00,3.715011392755397379e-01,-1.928573652327334687e+00,4.444655378734679196e+00,-9.373015422438952804e-01,-2.853447533921489865e-01,2.446801530513788236e+00,1.789997892732942741e+00
