-1.369034008154727422e+00,1.195474298947631464e+00,-2.395493630495209469e+00,1.075450274850380250e+00,9.023510969011172556e-01,1.075480843717868673e+00,-1.325364180244326784e+00,2.206930810474616311e-01,8.374215315891835043e-02,4.100631826074342956e-01
4.792056351020820060e+00,-2.569898101069037377e+00,3.881803932819583913e+00,-2.708933281134798587e+00,-1.870352707247733282e+00,-3.263243638572109084e+00,9.247998496881906227e-01,-9.085918130346880561e-01,-1.021589792692695342e+00,-3.027068882138838068e-01
-4.440221889780363362e+00,4.095624295550615024e+00,-5.906577308874380705e+00,2.644826986751306119e+00,8.286316181570464456e-01,-1.303798794306232578e+00,-2.398305107336161424e+00,-2.140274642560099139e+00,-6.366841332167143541e-01,1.254030338674176237e+00
-4.823683418739350692e-01,2.538028633910095477e-01,2.924905088413733978e-01,2.398032468019819508e+00,2.207742823669049947e+00,-2.671928887959045262e+00,1.328049481785642527e-02,-2.984703222607823392e+00,1.368016967804495665e-01,-5.920606512469801519e-01
-9.511003280956408235e-01,-8.126040291772325119e-01,-1.021551800432446200e+00,-1.403782240823965577e-01,-3.540857192615651794e+00,-8.904114172056358356e+00,-1.143168709150998441e-01,-4.309470710160212548e+00,-2.866433538638201384e+00,3.036995108046871561e-01
1.676950317211580721e+00,-2.026829878130297136e+00,9.438872563573579288e-01,3.991800356062906729e-01,6.591536212340418643e-01,-1.417631410362254485e+00,-5.028860706385287482e-01,-5.579909952981998433e-01,-3.525302590348026732e-01,-5.464487961015539463e-01
-3.640924267134516334e+00,2.982394774336509791e+00,-5.504197181576254927e+00,3.600975853127318382e-01,-1.058911381945312646e+00,1.814508053324712433e+00,-2.184545640607894246e+00,1.267358489705122881e+00,-5.495591554278675961e-01,1.497461741139616054e+00
-2.943839361431524360e+00,-2.204013722883990112e-01,-5.238861020903322618e-01,9.028367279955425984e-01,4.519257483478565929e-01,3.798056182149906590e+00,8.312023328938920042e-01,2.542932450383810661e+00,1.186719779176863554e+00,-4.665439976415636236e-01
-7.035290894793416738e-01,-2.581575298812675001e-01,-1.212098373987032351e+00,4.078569524855073514e-01,3.017478843328426641e-01,1.464194283128307239e+00,-7.780686901339601835e-01,1.168177873567906477e+00,1.093063193127892518e-01,5.434014962156723250e-02
3.536697886362006882e-01,-1.504151150267654558e+00,4.326331576339529361e-01,-5.066674522010191639e-01,-7.797919285394974143e-01,5.156103781554888243e-02,7.248326254923626033e-02,9.124657485657851064e-01,-2.552149060641916156e-01,-2.353408901350868554e-01
