1.880822859092578847e+00,-5.436258913458120290e+00,-2.697762081902829401e+00,3.109036947826983255e+00,-1.383803304556609604e+00,2.400149212204490817e-02,-3.821357794422672871e+00,-7.819547436182334721e-01,1.680466908122395076e+00,-7.579159974369626962e-01
-7.851632005680135862e-01,-4.316082967817043148e-01,2.684773263686943690e+00,-7.019241074049917817e-01,2.459414709797887788e+00,-3.798016968349521294e-01,3.512437051889921058e+00,-1.187369320552988050e+00,-1.334198249065850383e+00,1.332169111204273726e+00
-9.138978720600510197e-01,5.793111509440830531e+00,-1.434625442331729950e+00,-5.229864984156232133e+00,-1.024859290498506104e+00,-1.076393871358515053e+00,2.975884641930532482e+00,1.481272316029502267e+00,5.461443150936823310e-01,-4.034939754265598033e+00
1.124660469018171183e+00,9.672739943882964209e-01,-5.466866405403135731e-01,-1.255827909276483467e+00,-4.778602484465171329e+00,5.865145589286336891e-01,-1.795377659869914710e+00,-8.644273976366305678e-01,-9.110910539493688454e-01,-1.208736282065666218e-01
-2.297179694270856665e-01,-1.902432805060909615e-01,6.783294756957043425e-01,1.010316328429274435e+00,6.463291556996206833e-01,3.412523113864532331e-01,-4.607034323485703631e-01,1.319462030327893109e-01,-1.634036449362796239e-01,1.094580781591849572e+00
-7.719724092542932237e-01,-1.420032395015475402e+00,1.987254383619274201e+00,3.536899460621405034e+00,2.252152006359593006e+00,8.254705897845637796e-01,-1.708571923924842029e+00,1.649036665444871264e-01,4.895129957285297984e-01,2.577963623725957554e+00
7.414819865899016094e-01,-2.018832062593274301e+00,-1.197389770767502970e-01,4.123143854557405064e+00,1.047251993977583062e+00,1.535891769898206194e+00,-3.069068195090475015e+00,1.068782916052995358e+00,-1.945080247511140392e+00,4.794486163745601104e+00
-1.109843825419392083e-01,7.866589393108727180e-01,5.441230387339929253e-02,-2.902601860063818151e-01,-4.542847030050307655e-01,1.007548595219407150e-01,-1.835175103590185597e-01,1.637473367267878455e-01,1.655642315065596060e-02,-1.031119249400104243e-01
-8.183752853082900680e-01,1.448769313068313469e+00,2.422416200750478588e+00,2.772137447703468816e+00,-2.033935693520496635e-01,1.666860978266746729e+00,-2.920071630558476183e+00,6.363456586385429770e-01,-5.257440490572371505e-01,3.529361642716081882e+00
1.383259049665979790e+00,-2.833362580853291401e+00,-2.817258592818418617e+00,1.233622887671689483e+00,-8.122900629826101948e-01,-1.822906411047815201e-01,-2.010097769757728248e+00,1.598216695635490958e-01,8.028297800709818244e-01,-9.672920238133781989e-01
