-1.006375128196087543e+00,-1.131091029247126706e-01,1.314252899148865117e+00,1.861834319570867979e+00,-1.235562893766078307e+00,1.251018305414547394e-02,1.257199199519063892e+00,1.152451203455099105e+00,-3.380241946598799285e-01,-1.144891851396874882e+00
6.053719074881893647e-01,-6.610964331723265808e-01,1.482781719269029019e-01,-5.457836362515358086e-01,9.777832017619876304e-01,-9.106881116642389085e-01,1.493530899506495258e-01,-3.589293151931188808e-02,-7.796839552343849400e-01,8.036252737864727491e-01
-7.483388402713111454e-01,5.262714894078674099e+00,-1.722451088121185858e+00,-4.454732324642673991e-02,1.055584138766487712e-01,3.194023504657184098e-02,-2.306494621892625219e+00,-1.687741502932916360e+00,7.489028272032510536e+00,-1.980601760300807257e+00
-1.166538585479968138e+00,1.999213346905819866e-01,2.623693395284321106e+00,9.218362792796829241e-01,-1.278179982206918419e+00,2.486926402058392549e-02,7.726983344732618608e-01,9.141600922282525077e-02,-2.225461884142649893e+00,-3.819228559098027387e-01
1.711637935086817164e+00,-2.175410207192634449e+00,-1.890040209567714458e+00,1.248471024424743225e-01,4.364253588396705963e-01,-4.384193675657624967e-01,1.578261376443696573e+00,4.265620966099827882e+00,-6.271404600360147574e-01,7.646818612678245586e-01
3.643525025002181117e+00,-8.241274337987364307e-01,-9.266040351382025975e+00,-4.180250051799961675e+00,4.909101780206577281e+00,7.777345131954218616e-01,-4.226061595418029171e+00,-4.147986567528666235e+00,7.547566844131431196e+00,1.587865346589707904e+00
-2.906780591452884366e-02,-8.459085661202444539e-01,2.217475529332875173e-01,-1.932287520239232004e-01,-2.125614569418820210e+00,2.034843066637377351e+00,5.782502392872072017e-01,2.420560135227134424e+00,-3.141289361582487061e+00,3.731735484115209500e-01
2.795391216818317925e+00,-1.155481043233472116e+00,-3.984141382410388843e-02,-2.172051659838179383e+00,1.221171493331246305e+00,-1.967526269230811309e+00,1.404412061693749214e+00,5.579157963002400855e+00,-3.629886541588187576e+00,3.003129935977249421e+00
2.167212068379885004e+00,-2.401663461656908360e+00,-6.007536094993808362e+00,-1.290568193141709230e+00,1.289748091321043733e+00,1.836520008032801687e+00,-1.023540016755216442e+00,4.614848318980428465e-01,2.762535978741672782e+00,5.531709376904936359e-01
-4.537335711337716626e-01,1.462720859895364045e+00,1.180774352771905233e+00,3.302399004947190742e-01,-1.084332964651715026e+00,-2.850554422730239290e-02,3.583123831147237981e-01,1.566498375812418464e+00,-2.383707313385123316e-01,-3.412911398494263837e-01
