4.413542860815261593e-01,3.934175162868188913e+00,2.153925340924391474e+00,2.443149810542672995e+00,6.419496381523394746e+00,1.190266071258824887e+00,-1.208581170634867696e+00,2.740125011289290757e+00,-2.118311219809472234e+00,-3.357787071557813086e+00
7.208999942498919289e-01,-2.374206003775771734e-01,-2.526645903595360121e+00,1.186856889767841094e-01,-8.024067577375976867e+00,-2.669354280653412737e+00,6.264071458249254043e-01,4.986061014492274568e-01,1.502417151469293000e-01,1.144116313471162272e+00
-9.821503789414232077e-01,1.420191926573472763e-01,6.881316081923861683e-01,-1.815814343407625431e-01,1.590123760609047254e+00,9.139067537712490807e-01,-2.148434923670594188e+00,-6.643529031498874859e-01,-1.320454811893367886e+00,8.699154027012162560e-01
-1.132311961386178734e+00,-1.514503710757691524e+00,-1.074265493135377891e+00,-1.046912592328992142e+00,-2.264259192103547313e+00,-8.029027552859027139e-01,1.978343483093563115e+00,1.175676812280226136e+00,-3.210127008375692759e-01,6.162160023098934847e-01
5.815716659344303707e+00,1.806464438064869116e+00,7.106801037706457214e-01,2.124060923014378766e+00,5.507074634056619011e-01,-6.895336176182957633e-02,2.770130803876315051e-01,-3.915813854357413692e+00,6.089060214879471467e+00,-2.358699235607983002e+00
-1.587517315966902709e+00,3.369928459608181326e-01,-8.764768500480251134e-01,2.027766049700894246e-01,-2.766585516539856737e+00,-1.186911605725672780e+00,-1.341561126936023918e-01,2.513257345124987996e+00,-3.400697621787237335e+00,4.356614759426270522e-01
-1.778468116926879006e+00,-2.269470128849857993e+00,1.127871103398984554e+00,-1.667126893022743417e+00,4.901857810877173094e+00,1.647313633108610897e+00,2.304637156448836599e+00,2.138399569893840724e-01,2.178120235640317315e-01,-2.096322642324309760e-01
3.962008861567327123e-01,-2.655492605150062246e+00,-8.354588339172401845e-01,-1.287668709396584399e+00,-1.239895101811161693e+00,-6.943819849675911815e-01,4.656715112158134495e+00,6.252379811086639094e-02,2.492564347998740715e+00,-4.253032053762073605e-01
4.919609128526110653e-01,1.498934986702575189e+00,-8.663971574543685716e-02,3.351873625920445687e-01,1.067568765355518590e+00,2.675848401019964573e-01,-2.001931603616498023e-01,8.768948881834053299e-01,1.601173067793731697e+00,-8.804048237426423951e-01
1.437766527306397979e+00,-8.513036427992354271e-02,1.905699606907421406e-01,8.283031146069609330e-01,-1.841141186079108927e+00,-5.159949089843884895e-01,-1.156814805641224853e+00,-2.155369793473806528e+00,-4.336948165152878509e-01,4.433275523208596303e-01
