-2.111145112344257613e-01,4.697233668097551829e-01,1.367433887915720847e+00,-2.026735220795624848e+00,9.940840111810348434e-01,6.519784229739780113e-01,3.002287440186723333e-01,-2.111695656135648136e-02,-1.025400682487142667e+00,8.204707594780901170e-01
-6.447482588947671678e-01,-8.560930382136960892e-01,-2.324061478262087199e+00,1.238548078661481089e+00,-1.029231121329152510e+00,-1.394034789830469467e-01,-1.272057531356149518e+00,-1.659764281082356074e+00,1.527589089305891878e+00,3.031439714397046736e-01
-6.465143645883034140e-02,-4.168695320811766081e-01,-7.339544815020826452e-01,-1.633891857028602623e-01,-8.952664945975331579e-01,1.254281300670333499e-01,2.071454401664252210e-02,-4.563331812407077637e-01,-9.574612912261528663e-01,-7.658690864235548901e-01
5.333477849723859687e-02,-7.070488937900993864e-01,-1.449997086190946138e-01,1.005755131286977466e+00,3.481933726887002922e-02,-2.124531936983611868e-01,-2.394464398727696453e-01,-3.319473146628275639e-01,7.543921638729351731e-01,-1.791449205793217980e-01
2.738430880976038928e+00,1.645670897560512103e+00,9.842723588027360027e-01,2.516676141606300376e+00,-2.484027804332847644e+00,-4.375710346596057398e+00,4.319414401023672134e+00,4.955861966747301395e-01,2.540428972130985841e-01,-1.208047650500770898e+00
-4.622663059431697530e-01,1.665306418665847277e-01,-4.514160654625719582e-01,-9.889250137497767046e-01,-1.862902967160324774e-01,-1.626905960387714511e-02,-1.703202396145143127e-01,-1.467122168015234873e+00,2.296229454037539419e-01,1.166209209348049392e+00
-2.799040920496216778e+00,-1.134563367570027514e+00,-2.179102520249764474e+00,-4.214390602102609407e+00,3.563283477121830800e-01,3.450017003891004297e+00,-3.177540038153773505e+00,-3.072744823776443646e+00,-1.615059270110090539e+00,1.751292554118364153e+00
-1.090960764003678918e+00,-8.680314886899516136e-01,3.087107932654389764e+00,-1.398280449770625822e+00,4.701522910565890001e+00,3.033441191712118901e+00,-2.214437925859955136e+00,1.934626258376436869e+00,6.563101313350083732e-01,1.302681164401453540e+00
-1.333339985365300517e-02,1.857735718090738342e-01,2.953788535524611625e+00,1.315942680700185941e+00,4.279260204372087095e+00,1.441870505234933875e+00,-1.447940654258387472e+00,3.938822191682844309e+00,2.394079771378194277e+00,6.628506950099031236e-01
7.801695468579218362e-01,2.455298574969942971e-01,1.313038771263727922e+00,3.767554154234041275e-01,2.229730381968771102e-01,-8.215888266505027016e-01,1.196113618444748061e+00,5.400761050045865819e-01,-1.020721081785145590e-01,-2.667477555225352126e-01
