4.909511823333506109e-01,6.767014902097110429e-01,-3.365842327268770973e-01,-1.878320435539573952e+00,-2.914195613289974673e+00,-4.916011962172508021e+00,-1.227024661369802372e+00,2.219330797012437184e+00,-1.090180786817281700e+00,2.775446556626399275e+00
-2.104408147952821495e-01,2.839799905668360047e+00,-3.760394947667971444e+00,4.155796581211471663e-01,-2.333065143481320103e+00,1.261524760730951211e+00,2.347467087806427877e+00,3.966785128452626763e-01,-6.062377062390906790e-01,2.267515733673528544e+00
7.122348791837476156e-01,-7.904960787082200291e-01,1.844092169894529620e+00,7.188563880459283295e-01,2.538609598582419746e+00,-1.904855686787195523e+00,-2.055464858024035557e+00,-4.551348781919725361e+00,1.361393690406754287e+00,-2.338022346244952310e+00
4.245895301063388194e-01,1.105391871771316481e+00,-1.516502566153969944e+00,1.017065420627497607e-01,-3.218747629820422063e-01,3.829233528065334902e+00,3.559459829806862263e+00,4.276845499670761663e-01,-5.359137883405595826e-01,1.346678403043320760e+00
-4.017057405363963496e-01,-2.680297007851049962e+00,2.857724139745916325e+00,-1.194313881195976368e+00,5.290640107280488724e-01,7.220330172495118548e-01,-8.397026163407989019e-01,3.532805073552128583e+00,-7.590149992886546793e-01,-5.848339680736478474e-01
5.241290986018894982e-01,1.149061884682104351e+00,9.290772008574421648e-02,-1.859575561166556090e+00,-7.898120345172292556e-01,6.429462285170957969e+00,8.460786500349797290e-01,-3.531025525936569043e+00,-5.757437661785903771e+00,1.757818352950666352e+00
-2.947141670607916764e-03,-3.554955816612206831e+00,4.129042118586786714e+00,-4.488461356336010399e-01,1.973815243047609691e+00,-4.147748414216803070e+00,-3.033148853996727290e+00,2.049796899326012944e+00,2.017174800626920117e+00,-2.313793096979375186e+00
-4.594858789968374602e-01,-9.011098523073293176e-01,-5.362183396478663600e-01,1.171290690977938143e+00,1.339961355375099750e+00,6.071748514500293403e+00,4.858275342665155705e+00,3.997682786737659200e+00,1.582587063617981515e+00,-5.032731539928080311e-01
2.389467251303005191e-01,6.412326473378762159e-01,-8.280133873981831982e-01,9.660595078486544640e-01,2.941690778275125595e-01,-2.700078566652315271e+00,-2.227437861774661798e-01,-1.070156932956371598e+00,2.090208589748179246e+00,-4.373102374119144931e-01
1.452159456617826416e-01,-6.669074100491151347e-01,1.863908963784561834e+00,-1.441683917221062039e+00,4.466338601204046244e-01,3.861764463464694153e+00,-1.013622031198416762e+00,-2.371039121556556495e+00,-3.851060408999706919e+00,-6.508713812757538353e-02
