-2.100740955090724116e-02,1.530640029746810571e+00,-6.462854638374347926e-01,-8.779619051019408316e-01,3.635249449263649790e+00,6.456215582274280052e-02,1.131005116750940731e+00,3.359492835416369449e-01,-3.614761568390760349e+00,-8.441613543546289122e-02
1.678228393734146673e+00,-1.266761126265662396e+00,-1.292570590520901730e+00,-1.159595418736144135e+00,2.086698767267606280e-01,3.774876277936698443e-01,-1.541204289887735390e+00,4.269379576202090298e+00,1.044587742991209378e+00,-2.133145036602989819e+00
-5.720053755650540417e-01,-5.170835714130118665e-01,-4.638283191007864792e-01,-9.577939498599131740e-01,-1.322280881346370229e+00,4.514614063173247871e-01,-2.587363451849712392e-01,-1.470380247235142379e-01,2.056251090591547204e+00,3.096997877556741940e-01
-3.357286683587262788e-01,7.047975498963624519e-01,-3.551629534410276068e-01,1.616948979749304849e+00,-3.282106667339694250e-01,-1.606836394783286992e-01,-1.272616961706767968e+00,7.340918803703195827e-01,-6.009988148676743691e+00,3.890904492276842763e+00
3.225273317506357706e+00,-1.603552909761990497e+00,8.207632688505001051e-02,9.174218876572435288e-01,-4.592173213536809850e-02,-1.634486046109147050e+00,-3.411794591700117341e+00,3.036054711222340607e+00,-1.539767484895534722e+00,-1.169197938347064092e-01
-1.163834257586506160e+00,5.285102739456321030e-01,1.334508337831842306e-01,2.826625122027743298e-01,-5.415237040161158255e-01,3.949258685243551836e-01,7.656791467867555268e-01,-1.223307569333532907e+00,-3.185712018625553310e-01,9.830059207271933941e-01
-2.141502601550343332e+00,-3.234466366604860782e-02,-8.324215924373336017e-01,3.495329661682218259e-01,-3.687877791102113889e+00,5.329604734908159891e-01,-1.712945852069029495e+00,-1.123110382225597448e+00,-2.606250826124381526e+00,6.072881666753438878e+00
-1.938365601747291223e+00,9.065177104788126050e-02,5.025771846294444511e-01,-7.792625037828302403e-01,-1.629946536917697975e+00,6.911806269589316765e-01,1.758656235435735127e+00,-3.142947683570787021e+00,4.378800588638017466e+00,-3.095633145027190114e-01
1.134919587892260218e+00,2.947247974883044908e-01,2.873102986246204082e+00,2.286169566595569691e+00,1.345715486714894826e+00,-1.488563504385390868e+00,1.922056957574201252e+00,-3.037982084256028781e+00,2.320215883232854548e+00,-3.462540723923718922e+00
1.793767998820566589e+00,-4.645302041313474906e-01,2.528317695370652540e+00,5.879007571001562127e-01,1.938493589497688241e+00,-1.046519504491463470e+00,2.566470352593798410e+00,-1.924361779648129822e+00,6.758897863134762929e+00,-7.113828616715612618e+00
