-7.477423025686140701e-01,2.311727390840860874e+00,-3.771200044062370971e+00,2.109096829061018585e+00,-1.323005561415032005e+00,-6.410401078243049833e-01,-9.312073361715442754e-01,1.531990291461550635e+00,2.117673888914547442e-01,5.460334415780300210e-01
-9.337223625283572748e-01,1.701941423722089342e+00,-1.205305497693350603e+00,7.533790510980042932e-01,1.733942679427113553e+00,-3.668017643990569621e+00,2.257217787353094529e+00,2.395199214166028323e+00,1.368633319907359924e+00,-3.149332012023194238e+00
-2.344050383338098786e+00,-9.464253040266381589e-01,-2.457654265904587465e+00,2.188994036980844271e+00,1.400848608152016617e-01,2.481955168687512980e-01,-8.359707508412053123e-01,5.426139273628605153e-01,1.210238921482813090e+00,1.226575018221109703e+00
-9.109752914221578290e-01,3.968749723799454010e-01,-1.576628119284618768e-01,4.986506137542431882e-01,-2.480651746327841578e-01,-2.627393415403261878e-01,6.980728269759978177e-01,6.728285395339914654e-01,1.464756285798675117e+00,-1.329097148471988676e+00
1.784847831099314330e+00,-3.952198994736420001e-01,6.027054027777759559e-01,1.316461687366533795e+00,-4.891423813121649200e-01,4.752012910204329366e+00,-3.107810642192144535e+00,-2.645581303807529761e+00,-9.192260972366108618e-01,1.316210563901900388e+00
4.690214333768079058e-01,1.724033942570627698e+00,-7.365717444290590388e-01,4.698727567514543457e-02,1.219398424263406167e+00,-2.677160649009698634e+00,1.280106117366431651e+00,1.436641151754278090e+00,-2.031425692583604947e-01,-1.829743977038898128e+00
4.738990504335625076e+00,1.788359497878598603e+00,-8.014169549242440294e-01,3.003240594275040642e+00,2.764158268859267853e+00,3.868162995590622266e+00,-4.327675970250992599e+00,-2.817862744027853861e+00,-3.437726561351339694e+00,2.938343250017735886e-01
-2.101134451981764961e+00,1.140101048863125133e+00,-1.817383782234057277e+00,1.332628452396217744e+00,-6.320572980394607576e-01,-1.410673266571319973e+00,1.099203870285814233e+00,1.922646912687017151e+00,2.311918023003539879e+00,-1.605429660846858564e+00
-1.344606197298120698e+00,-1.288082244384692210e+00,2.255986021498749050e+00,6.005326838662070066e-02,-2.024052527904743604e-01,1.662800634684237000e+00,9.685137234950521590e-01,-5.082718278811858559e-01,2.855562340243280151e+00,-2.183087519890358763e+00
-9.407274239962322149e-01,5.343539488830646000e+00,-7.403923920286748839e+00,9.281847939506000511e-01,-4.452407505109775343e+00,-4.408252518296907674e+00,-3.298869010748413655e-01,4.271077727325206297e+00,-1.533292808020235709e+00,2.730606827412104476e+00
