6.462353302458418991e-01,-1.880976883837564895e+00,1.760704570580303052e+00,-2.506532594605361819e+00,1.136338940581307577e+00,-3.302261855810974644e+00,6.417208158546701569e+00,-3.450593834460049081e+00,2.318729882362111194e+00,-3.590811314848299851e+00
-1.674113970584401923e+00,-2.617315402213713504e-01,-4.058948737833765641e+00,5.404866517721897967e-01,-9.146820425898942730e-01,3.164934290608753642e+00,-1.426679838558541746e+00,-8.823475856517786209e-01,-6.476372949623575792e+00,1.857995210691781418e+00
-6.302324653032742585e-01,-7.590505814485762892e-01,1.706693532339159880e+00,-6.396901600880270378e-01,1.651975488004134629e+00,-1.644787284633761226e+00,2.201357941017699993e+00,-1.217985074198424389e+00,1.622760036745921397e+00,-1.360275704686072951e+00
-2.300549309664908115e+00,-8.117180153573351209e-01,-5.299782663268675087e-01,8.074519993451252375e+00,-5.708318618507483011e-01,-2.540363806036836536e+00,-4.462021882484821234e+00,-2.531231503213581258e-01,-1.386303319453312533e+00,8.805949275768758522e-01
7.526445333624384171e-01,9.242980768665451374e-02,2.439136439636175435e+00,-3.791189041457093900e+00,2.398634018820828384e+00,-8.712310437324813917e-01,3.661853857028225967e+00,-9.553022308061942525e-01,3.846601283006488181e+00,-1.930692025179447935e+00
-1.568628465727375798e-01,-1.594182922862130147e-01,1.630117899498795708e+00,9.605556566302591026e-01,1.127068040840657065e-02,-1.240046084661234005e+00,-5.796578643662647634e-01,1.001219060959601004e+00,1.452538823625769027e+00,-2.591931479251030623e-02
-1.379217539233476675e+00,3.563161462060956408e-01,-1.922856276608954307e+00,-5.306634933131897824e+00,2.241406206984800864e+00,4.311563876576117060e+00,2.091332625137309442e+00,-1.232894689713117664e+00,-3.630669875314801232e+00,7.673782802380266777e-01
7.151860968326799739e-01,6.675519575916371018e-01,3.925559641791491194e-01,-2.764790453464829323e-01,-4.803918521785251472e-01,4.519302766923740666e-01,-1.021458011473418415e+00,1.363600234360640817e+00,9.139782975082629823e-01,5.128903787655587632e-01
-1.536317946299999626e+00,1.818061389870976319e+00,-9.721448067468125842e-01,-4.421098769896024017e+00,-3.587175303219339861e-01,7.021967378884900413e+00,-4.071506947894073747e+00,5.330487349628980631e+00,-5.001496681078209328e+00,4.880122055660430114e+00
1.485087301400001003e+00,-4.753010588559700711e-01,-1.951527965873799841e+00,1.094975670068370732e+01,-2.054844376188889932e+00,-6.059712539335098569e+00,-2.904395895386806092e+00,-3.570500984137281009e+00,2.987758663657286373e+00,-2.272889282267431810e+00
