5.927967510919785354e+00,-3.281775266357078280e+00,-1.613840800025198696e+00,1.163067274994430633e+00,-4.927891444147849853e+00,-3.945954552928506720e-01,2.462744014078472876e+00,1.003097043119938747e-01,-2.258312910468004198e+00,-8.036953612746450260e-01
1.002604953866326198e-02,1.323535313808788860e+00,1.334791285151725404e+00,3.142519918284572888e+00,2.554233221957876054e+00,8.469861236945611660e-01,-2.888981985451563261e+00,-8.024863588752943755e-02,2.370476401779852971e-01,2.952801805438129423e-01
-1.545978544241835451e+00,7.403396378034599046e-01,-7.960214340627879137e-01,4.999175292875472909e-01,-4.215344158916305428e-01,-2.657012462681958564e-01,7.899349680838032572e-01,9.735110534630445622e-01,-6.570741994963492649e-01,-9.305566474188537995e-01
6.585143967886871730e-01,1.056748173603936358e-01,-1.567332061006001753e+00,6.765520349879748929e-01,1.622333044326358387e-01,5.320565757944893948e-01,-4.838292580534864218e-01,6.157614742801412189e-02,2.216729103577159132e-01,-9.848861631221966784e-02
-9.396860983559847114e-01,-9.008514123002354657e-01,3.439574671697259722e-01,-4.813928065689515812e+00,-2.834616724176829639e+00,-1.180581162337326351e+00,9.345001893004958315e-01,-1.397655688042753752e+00,-6.309621883821259214e-01,-2.893648464488687289e-01
-4.132146913007520794e+00,5.957135551213665892e-02,2.895302497102628436e+00,-7.343734384342786470e+00,8.437093539039774992e-02,-1.402701046877037783e+00,5.516341837173307505e-01,-1.939892108825445272e+00,1.366440302187049705e+00,1.125307236042068615e+00
8.768639833704417796e+00,-4.780412848189719455e+00,2.398678278057326807e+00,-2.130392446627873415e-01,-3.245158680711245580e+00,-9.274134147098811454e-02,2.386068164615091636e-01,-2.430851233128625832e+00,-6.821896652622205792e-01,1.727663219276012407e+00
5.900898039867379374e+00,-1.632278880673871946e-01,-2.516933243399860354e-01,4.451850517173930655e+00,6.884924811553467805e+00,3.631772515578054250e+00,-6.313803698613091875e+00,-2.133968338400478171e+00,4.399924321352767898e+00,3.798706620521164812e+00
-7.105464121433420210e+00,2.716544273398525444e+00,-5.581419813728005774e-01,-2.173456533566716420e+00,1.585515377828579098e+00,-7.809427886403002006e-01,1.740880562992078273e+00,1.722211809432231844e+00,6.499895581123313892e-01,-9.201729514679045652e-01
-4.979113072386430194e-01,-1.580954361918649242e+00,-1.464464391574607172e+00,-6.177644950348665454e+00,-2.353202116448226633e+00,-8.467722476405622478e-01,2.406682392974105245e+00,-1.181426054006451398e+00,8.681069615974850162e-01,4.771411647246554533e-01
