3.764737430068202606e+00,2.202305429428041528e+00,1.054293143422171619e+00,1.887418511474693306e+00,4.349504640783315779e+00,3.096112121926971827e+00,-1.397076855089756098e-01,-2.383534206515147691e+00,7.277952242668642158e-02,-2.839887152852559327e-01
-1.226846956537436695e+00,-1.159245882213285617e+00,2.312367697170212288e+00,4.288788455857281079e+00,5.900966700970845524e-01,1.234119508466389403e+00,-7.131404299990764528e-01,-3.693000958960057645e-01,-2.467799516907166257e+00,6.291775365956750576e+00
1.437750047294765299e+00,-7.871877119474962603e-02,1.163898502670046131e+00,-3.442578156170622572e-01,1.493427561603899001e+00,3.376371476373751790e-02,-1.097506677074593373e+00,1.070742876481924455e+00,4.007195265776040682e-01,-5.438102785501008896e-01
1.101998505504409032e+00,3.084993399575119088e+00,-1.554016261861096648e+00,-2.004253435923234683e+00,7.562274344752812905e-01,-3.035078468567629084e+00,1.133896715474687955e+00,1.314694133636954865e+00,1.132145059566413758e+00,-5.107808609297938673e+00
-3.296191851939528572e+00,-2.821311685999538188e+00,1.319021621118486642e+00,8.931070951198134544e-01,-2.595804464489636310e+00,-1.959293246075879402e+00,-1.053150697213046882e+00,2.600186194521996619e+00,-1.433328227989150827e+00,4.061315862343874983e+00
-1.925182687590352826e+00,-1.525135560174896598e+00,9.955554025608246427e-01,1.605635121972239565e+00,-1.163368799484429728e+00,-3.809707585064294744e-01,-4.660540467553500044e-01,7.369192704620338707e-01,-1.328234916619621675e+00,3.539216767335741309e+00
-1.914738485473470364e+00,-2.297425588786393025e+00,-6.282896142809005768e-01,-5.067516864149739231e-01,-2.565923128094597772e+00,1.067262217514411304e+00,4.391846298680390781e-02,-8.635855602801089104e-01,-5.732890713099209057e-02,1.593644073899343372e+00
1.074079224316445202e+00,-9.246468692989663340e-01,1.043271650563493580e+00,1.228970973175273151e+00,1.187395586372831380e+00,2.989002041788624275e+00,-7.074163780243730715e-01,-1.697450400406214088e+00,-2.227523317047479523e-01,2.004609043844387539e+00
-1.014816933523110531e-01,-1.942477086110415252e+00,2.077851973407318198e+00,2.009166503257688419e+00,6.044919338998708813e-01,1.909144833712869138e+00,-1.387753478696894582e+00,-1.759980367106183108e-01,-1.033037846842465912e+00,4.037400767062647056e+00
2.896590772144555626e+00,2.062877617642921546e+00,3.530966751719603058e-01,-6.588813435677218777e-01,2.856256966469327363e+00,-5.959105371026816866e-02,-2.686321925185436443e-01,3.153809565759319034e-01,9.441684550591989966e-01,-2.975384313339529463e+00
