3.254382884515171770e-01,6.338792376084876334e-01,1.165506827666252132e+00,-9.326627707275070289e-02,-2.434744713899117396e+00,-2.365554694092696586e+00,-3.543842294476301502e-02,-6.726020692071802420e-01,6.034402032970351826e-01,-2.621028573942393858e-02
-3.203975665675895979e+00,4.133521148192202510e+00,-2.067744088152601911e+00,-4.608363164286312319e+00,-5.859289443760971050e-01,2.527223624204399055e+00,4.307599251346935887e+00,-1.931937276732552666e+00,2.548727364695453801e+00,-1.615545973400154933e+00
-1.984005961298747955e+00,2.205760109221627019e+00,-1.377363533391964268e-01,-3.517320103914378215e+00,-2.345285087381179245e+00,-2.322296892424837722e-01,4.694682754087898147e+00,-1.757185178046245300e+00,2.322734710256002533e+00,-1.687006218250128864e+00
-2.711540187241524347e+00,2.615681160006367634e+00,-2.071177266917733295e+00,-4.494018828700037993e+00,-2.484176284419341130e+00,-2.989917329466988960e-01,4.103968403675634313e+00,3.803227787491962886e-01,3.119611567738500568e+00,-4.718524421841679417e-01
-2.319447222555660826e+00,3.970351369536719854e+00,-4.727930398391335665e-01,-2.683236466515404040e+00,2.033417940882979114e+00,5.041157045328258590e+00,3.554762253164220009e+00,-4.786824053443099913e+00,5.924037592251090167e-01,-2.984158871906301691e+00
-8.798113432517188359e-01,1.059389012862599566e+00,-1.055656508006672656e+00,-1.692344585228465093e+00,-2.031555034253698988e+00,-1.502610774109250480e+00,6.138399461961043801e-01,1.195456660185354680e+00,1.561478236090398042e+00,6.743261163712693795e-01
-1.821260711837499269e+00,2.641068924122413897e+00,-1.989147934414727148e+00,-3.022407067839635531e+00,-2.462039305355071317e+00,-1.073700148709064273e+00,1.064616460979821655e+00,1.036084407567058108e+00,2.426530586880692120e+00,6.761534698326499004e-01
9.735649566141459932e-01,-4.034374037324278461e+00,9.190972762817641861e-01,7.261580707748793717e-01,-7.411354420111502250e-01,-2.250569624497212207e+00,1.840360117109981708e+00,2.274414041525921526e+00,-1.744000206672533526e-01,1.992814942998868410e-01
2.973003337809009050e+00,-4.423279001361753338e+00,2.211570765757094659e+00,4.392058312042913748e+00,1.483214003420265659e+00,-1.359911775625887387e+00,-3.032830395425555992e+00,1.230157460539708314e+00,-2.748896305643048876e+00,8.270997211758903678e-01
-2.022251651679625728e-01,6.807632501382403500e-01,-1.763258332740548662e+00,4.158916838571148356e-01,1.876834149159935405e+00,1.723142363056044069e+00,-2.515744602362172344e+00,1.187667329241821390e+00,-5.032403209771826313e-01,1.157225998900733632e+00
