-4.289851281130529159e+00,-8.828333364147280093e+00,-3.147255333909668273e+00,-2.671716184379298031e+00,-2.043520185254420252e+00,-1.249996952556662988e+00,-3.946573138557183391e-01,-9.725203832797439940e-01,7.312103044391117246e-01,-1.513546464432157013e+00
2.015650243964640653e-01,2.836255632344236943e+00,-2.617597641926212026e-01,7.379459201165874394e-01,6.815363971026938694e-01,2.632872931857284104e+00,1.457530274065712561e+00,8.361584055733671805e-01,1.539374416528554113e+00,1.307726286837432861e-01
3.182903559734385990e+00,7.680141485952230340e+00,3.310237532360488455e+00,1.225338443181561016e-01,2.530350195488894283e+00,1.304531890728872767e+00,1.407736851182311011e-01,1.110729964112876278e+00,-1.410437623896784842e+00,1.076385353924488752e+00
-1.301016238286853310e+00,-5.226606302383951963e+00,-2.098644543130077533e+00,-8.856521511901765953e-01,-2.423852972574458864e+00,-1.847756083946385131e+00,2.207414398743081929e-01,-9.732894003900534052e-01,1.596209198330394430e-01,-1.126391479188024736e+00
-2.065317568693593397e+00,-8.532606733818937528e+00,-3.734826616743190275e+00,7.630902220780578782e-01,-4.072910034793813416e+00,-2.948296409258515105e+00,7.249839421002193807e-02,-1.739682456138393674e+00,1.054874205977357260e+00,-1.337710447891825805e+00
1.426753738684989559e+00,1.441799732501718667e+00,-6.701951758011159832e-01,1.043491315780242568e+00,-1.181054649094280151e+00,3.889125656781557416e-01,1.620018791512590317e+00,4.185798688021009906e-02,7.355471097501328215e-01,-3.435155872750086936e-01
1.739072249875804221e+00,1.787994998344949238e+00,3.562433373065344577e-01,2.603184505762398349e+00,-4.035311215374174365e-01,-5.180895928367009740e-01,4.708496494008262284e-02,-1.901967521676484474e-01,1.517099753758703040e-01,5.638767842838808830e-01
-1.016435516962240992e+00,-3.844544640488837928e+00,-4.649475697539598329e+00,1.390763827140435671e+00,-3.998483514860209809e+00,1.097729542433248495e+00,3.508713468471609698e+00,-4.663883052537534102e-01,3.517790876038362935e+00,-1.726300885602635615e+00
6.846136389058864458e-01,-1.511254754785905874e+00,6.282818210476844856e-01,2.146935847341413073e+00,-4.708283485006553026e-01,-2.742855486440642032e+00,-1.981019554244222158e+00,-9.431793610939939176e-01,-1.073019855153082514e+00,7.326544065353163271e-01
-4.827446186388922311e-01,8.803356080800592842e-01,-5.379192744179283059e-01,-3.466734353600357532e-01,2.857418797044684600e-01,1.772277203721732697e+00,1.062710258870286584e+00,5.259609244101397518e-01,1.049819074065134528e+00,-2.158644020293225552e-01
