2.270200413810519180e+00,1.537360160687979427e+00,-1.351384819260761594e+00,-8.243409663938581211e-01,4.098378645456392633e+00,-2.203577055925541650e+00,4.219601883016705912e+00,-5.175427838619365284e-01,5.527285535539094852e-01,2.091092983854736520e+00
-9.733726927277835950e-01,5.180991220937519737e-01,-4.199510023844670314e-01,8.326490901532118682e-02,1.119057893151702121e+00,4.645460659477810839e-01,-1.089460516789712896e+00,-5.918622979740855161e-01,-2.432559028383745603e-01,-3.518331249208832556e-01
-1.412676129404858427e+00,8.208129620516203540e-01,-1.553103159562035041e+00,2.399498458222310698e-02,3.108250076501470005e+00,1.228180756052854372e+00,2.874865864750862254e+00,-1.639146291519853360e+00,2.743525995432713471e-01,3.938622015604033022e-01
3.738252395337605893e+00,3.584115531975469171e+00,-2.215070287444057762e+00,-2.252662917612114679e+00,3.965759494426084775e+00,-5.322093194863202648e+00,-4.544903870036391069e+00,4.655920567753968342e-01,-1.999620378224681749e+00,1.554019061722714978e+00
-9.389700432823041565e-01,-4.891453770349384333e-01,2.238398578000427852e-01,4.684309377243371375e-01,-4.091548326747224823e-02,1.154132374223167501e+00,1.263777838348606908e+00,-3.794945253297507537e-01,4.744319344857452214e-01,-2.254964203615376084e-01
2.611006825580352686e+00,7.200109759791509800e-01,2.545554307404976235e+00,5.491652441895651382e-01,2.624982191535272680e+00,-3.342010791439161466e+00,-1.819636954700673437e+00,1.089613769358596329e+00,1.323607330798867610e+00,6.974606235836232626e-01
-2.803339846357153053e+00,-3.509553071967862259e+00,4.246415178377637822e+00,2.863780652523553627e+00,-3.359468027507706012e+00,3.824491766718465691e+00,1.916531203673762507e+00,3.486952918327054229e-01,2.663848042801688631e+00,-1.766611449642698561e+00
1.263973542414590367e+00,-9.615838246067383022e-01,1.581370958931700876e+00,5.195211164838250406e-01,-6.712677435854476071e-01,-5.607712796052941595e-01,2.360293897948531949e+00,7.612737442480064232e-01,1.259188009763726690e+00,5.298058644320015054e-01
1.883722893234966111e+00,6.102439545829212442e-01,3.175132487090809863e-01,-3.315115395682540211e-01,1.128062489392324785e+00,-2.022797305762703335e+00,-2.292165795452849250e-02,5.428142065374537140e-01,2.104010278060744754e-01,8.071788881196927390e-01
7.990629781889038163e-01,-1.464911719604014229e+00,2.324973024959278600e+00,1.242344129377405793e+00,2.016449150182887118e-01,2.046141078318199913e-01,4.851520135181055515e+00,4.011414055288787250e-01,2.412697105865405423e+00,6.853986543814271082e-01
