2.145043558711925147e-01,2.558164711030101457e-01,-1.789407056586765632e-01,6.750133018412288743e-01,-6.923956024640786078e-01,-1.276935289132521134e-01,1.483154921686685279e+00,-4.286750046486320076e-01,7.983546180081159127e-01,-6.771281888820044337e-01
-2.865864292874134023e+00,6.387408424204855661e-01,-8.533353836480471744e-01,-1.593087176765814184e-01,1.389915392287999651e+00,-1.614210018149734971e+00,2.675286355099887547e+00,-1.930537156426906487e+00,-3.380801233386690807e+00,3.290614902064218916e-01
1.183681284226778541e+00,3.376513280570770936e-01,1.316055384573056930e+00,-1.723448505393223584e+00,1.965341981583177133e-01,-1.832108213244979744e+00,6.306352484613214626e-01,1.970727015354205580e+00,-2.092724125169341587e+00,2.104226136979142903e-01
1.615015918513620363e-01,-4.135019763851370267e-01,1.564232353228716954e-01,-5.707961114579223061e-01,4.891421582640538279e-01,9.622210668038468084e-02,-1.005040674769513087e+00,5.284338995062214384e-01,-4.242619833964606513e-01,3.467257579090577413e-01
-1.587646341655522431e+00,3.335490381809675053e+00,6.105081480144314288e-01,1.023391883620719867e+00,-1.501874855963103883e+00,-1.296229390864113817e+00,1.909489674324246211e+00,-1.351740763804358592e+00,-9.133743078462990272e-01,4.193517484891221558e-01
3.817434982141670874e-01,1.503667524494766594e+00,1.140650049520056442e+00,-4.952896717274694049e-01,-7.132881031700012420e-01,-1.101790884739718868e+00,2.285242025075777672e-01,8.392538420756100459e-01,-9.192661146114968762e-01,4.038006154334125575e-01
-2.294767127334258194e-01,-5.705059649299171198e-01,-9.885090370869329193e-03,-1.163486059644562420e+00,1.137857140562920311e+00,-1.472331639732028519e+00,1.656896159333528962e+00,3.880950459935671448e-01,-2.359536410572301790e+00,-1.086198748737547959e-01
5.481701040982330797e-01,-1.036939651085415415e+00,-2.205730965436313862e-01,2.699376370167952399e-01,1.002057238033835507e-01,2.076633849839641055e+00,-3.400466696943575506e+00,3.287012736195240592e-01,2.023381936240628232e+00,4.279715292687428230e-01
2.502323984489086772e+00,-5.842844877865934983e+00,-1.312078475856867987e+00,-1.579650749417650157e+00,2.653512227886204222e+00,2.169552581712474559e+00,-2.686349569076817101e+00,1.970988765925876463e+00,1.547687988419804705e+00,-9.194661596314025465e-01
-3.236372083487769613e-01,-1.979065522112061437e+00,-5.382646065299376836e-01,-1.416439923008839585e+00,2.116485195444611112e+00,-2.675702123411757838e-01,-4.340922783528567974e-01,4.592201674950483481e-01,-1.944253153587834237e+00,2.417028613178748009e-01
