-1.449712958967236620e+00,2.482627943523995739e+00,-3.407164102903329495e-01,6.160537186845681523e-01,-1.109092491676654246e+00,-1.868149514702092118e-01,2.175248089149118269e-01,2.030442359410157493e+00,-1.670717153139189781e+00,-1.595243462763010767e+00
-4.629301403681945537e+00,2.420169207178438642e-01,-7.461433639271095597e-01,3.198844712465092055e+00,3.089674913338484874e+00,1.453340242878254918e+00,-2.884362531044416311e+00,2.077799972786479543e+00,4.205902178892030108e+00,-4.895221896848597432e+00
-5.722493714089427197e-01,4.368753650677500211e+00,5.110491044572268438e-01,-2.033192428619940428e-01,-9.930022207512461119e-01,9.414246254261567914e-01,-6.861353302469909154e-01,7.615648429797265972e-01,-2.771798851345099735e-01,-5.652783782960022485e-01
-3.155824355877958620e+00,4.968163983548382845e+00,-5.000205643098815100e-02,1.445092207508639426e+00,-7.715784943761794246e-01,1.109894661690817852e+00,-8.263746626585972699e-01,2.660786603930413108e+00,-2.118863712631762208e-01,-3.249693308978275574e+00
2.570912328878629527e-01,4.304064837833372792e+00,5.538934722422332868e-01,-6.818044981311376374e-01,-2.179183142765789838e-01,9.404227493423549245e-01,-1.823910230078639394e+00,2.500163042969925087e-01,6.060667862617479251e-01,1.150112080396585024e-01
9.820779836378354388e-02,-4.075280326834997524e+00,-4.009266622047895634e-01,5.485110810369914214e-01,2.234699305472158670e+00,-2.159535569817480904e-01,-7.555299810173624619e-01,-1.016234670147441621e+00,2.283945694740280530e+00,3.063056063340155455e-02
-1.345533250636606448e+00,-4.296865735088215565e+00,-3.251214389932356452e-01,1.491155737049228325e+00,2.191216593958791314e+00,3.857926426084924421e-01,-7.367988660416047164e-02,-7.927101752622225384e-01,2.772338772784420868e+00,-1.188843616358588262e+00
-2.345225760144695748e+00,-2.649856514321323075e+00,-1.320238671270113739e+00,1.950343108057106978e+00,1.015394169177642691e+00,-1.023942634613409952e+00,1.169634588822022758e-01,2.065175406225654875e+00,-2.608905250483806171e-01,-2.637581320456907630e+00
-1.256389727915833809e+00,2.984440271830891334e+00,-4.695749157973646559e-01,5.862150011036396657e-01,1.044696235109273674e+00,2.248128635270905673e-01,-2.808766430951333604e+00,1.875236636649345145e+00,9.600866584906556644e-01,-1.785881520029039216e+00
9.664121151872447912e-01,3.457299961162135560e+00,6.110966469415048952e-01,-1.056190963482006584e+00,-3.116321221639143380e-01,6.966778684574645997e-01,-1.433491588358799085e+00,-2.912181741011453662e-01,3.734344752328100370e-01,8.729835799206387970e-01
