1.851087102729596756e+00,-7.591426101263550885e-01,-1.181179251271000652e+00,-4.782293885295711422e-01,2.095758226390792345e+00,2.088970485427217860e-01,5.133160376740308894e-01,6.940284286033629457e-02,1.364112930320242889e-01,8.685112149557436823e-01
-1.855965130772361249e+00,6.289788108416217716e-01,4.339654990648710714e-02,9.303972543929305283e-01,9.603085707117209324e-01,7.531411869145743232e-01,-3.149463154270697007e+00,1.266849187428861434e+00,-3.186306340465590581e-01,2.499648101522301324e+00
5.473858172525627452e-01,2.652089753980161335e-01,1.018938253108862879e+00,-4.789023738428357380e-01,-2.642456421733994976e+00,-8.594024892666847215e-01,2.910545810297419322e+00,-1.310736505470016189e+00,4.628864826312716896e-01,-3.531696080953643957e+00
1.331165317914904778e+00,-1.726948680723037644e+00,-4.947665048307435809e-01,-8.064363844440417539e-01,-6.392759031334394049e-01,3.061344251298506181e-01,3.490513478022936322e+00,-2.422252097968352835e+00,-6.220157937000935222e-01,-9.002022694442316508e-01
1.515090127895344141e+00,1.141869887562046326e+00,8.764438163858705444e-01,-6.140176162214293631e-01,-1.644233593857398423e+00,-1.662542297123393409e+00,1.944198388769426300e+00,2.661245631831565261e-01,1.385237104675858255e+00,-4.025392770081525740e+00
5.802006600285770643e-01,-5.034190403401024305e-01,-1.599726509587745815e-01,5.726174605722139654e-01,4.613070369562718431e-01,2.709442727513458493e+00,2.888769393835334487e+00,-2.888108325149114197e+00,-1.537379683202539926e-01,4.832807459674617334e-01
-4.360682952160724213e+00,-5.868949830486938080e-01,-2.119034543361749678e-01,1.605483839758387488e+00,9.903982373293380714e-01,2.268176136773551121e+00,-4.629507973884098071e+00,3.488459102643523546e-01,-2.078865542252340770e+00,5.826786555001485013e+00
-3.744391978254391962e+00,2.416695457593383001e+00,1.739713700611144054e+00,2.100341142327161403e+00,-1.100066004933162311e+00,1.688868367051996389e+00,-3.140163597554200159e+00,6.907845792746853952e-01,1.958570942607727183e-01,1.204235009674544443e+00
3.508697501771554927e-01,-3.007207546490510697e-01,-3.966164569655896699e-01,-5.089122343738311516e-01,3.940743402774758430e-01,-1.149381211465240860e+00,-9.100957781348902875e-01,1.096349406552200367e+00,-6.522251258677139174e-02,1.387375363067767098e-01
2.601039399273929131e+00,-3.016056691831541681e+00,-2.116353997988798863e+00,-1.545052916453636405e+00,1.907338921884304872e+00,-3.170298429857097977e-01,2.175406869284611577e+00,-1.194328672737539732e+00,-1.057550954894643791e+00,1.236079353081630527e+00
