3.414746518377588802e-01,-6.997901780680826356e-01,1.562931346764226681e-01,1.633627275932779233e+00,1.096777987171322799e+00,-1.067335140874976496e-01,1.462430679955961654e+00,-3.364301869474109363e+00,-1.704946097971954400e-01,-1.561605543609807079e+00
-1.483347801023582546e+00,1.429916956374666981e+00,-6.907262331013303003e-02,-1.869623285495691789e-01,-9.978548736700199040e-01,-6.007633562063784405e-01,-2.494728778157030424e-01,-1.566843690417031754e+00,-1.628300363712915644e-01,-2.964694168578222433e-01
-7.132202519235067983e-01,4.264795216592632832e-01,1.705222363752154635e-01,-5.235519690907940671e+00,2.416087877849661947e-01,-1.958956110282928265e+00,-1.586555910848096662e+00,-2.038977783353726370e+00,2.589925935702936943e+00,1.799444340971016465e-01
8.419355703584330275e-02,2.250393052805266247e-01,-1.520923851613700251e+00,4.665254266578859443e+00,-2.372805927070085197e+00,2.115986039852375988e+00,6.210001901144275305e-01,6.319451588690807142e+00,-3.875013674342202563e+00,1.853763518827225232e+00
9.395411419090295979e-01,-2.767828321701200522e+00,-2.635467372552394050e+00,-3.162355708604685844e+00,7.990484654515800367e-01,-2.308150144944647320e+00,1.236834082301891513e+00,-3.229701959260011801e+00,3.687254050998509669e-01,-1.934906221351159195e-01
4.079897711523172155e-01,1.154846621132398443e+00,2.862310263731361992e+00,4.822221829879216326e-01,8.853543392846285887e-01,1.651824503217361517e+00,-1.476254931880140342e+00,2.478493924933077963e+00,1.462203965347024237e+00,1.033079302063390215e-01
-3.042019888290967700e-01,-4.697351474925839931e-02,-8.668249405769027360e-01,4.090237446443053537e-01,-6.171213495116296688e-01,-2.446566751403723150e-01,4.052110301506657852e-01,-1.471367237624512381e-01,-8.181287193618573816e-01,1.232404055100616846e-01
7.868426787093052432e-02,-6.479421688974600357e-01,-1.750582814346655303e+00,1.602760855185474398e+00,-1.031832961731194986e+00,1.345545920775505777e-01,9.762362596277673887e-01,1.232891805640756955e+00,-2.010345116869852067e+00,5.705881273311816937e-01
-7.941429450923397360e-01,2.423542039789030156e+00,3.303872940137453806e+00,-3.000506403370779562e+00,4.735633476462706160e-01,3.841370136473422625e-01,-3.001190903633001117e+00,1.261784057288838135e+00,3.192531925396567161e+00,3.075047953669756140e-01
-3.069349884909806647e-01,7.721961996229876890e-01,4.107064655059563529e-01,7.916931609704741524e-02,-5.710055457782060584e-01,4.852964817289835975e-01,-7.293867360221697460e-01,1.831191074552568798e+00,-6.370553286137101145e-02,5.989985151121712814e-01
