-2.477515308099869640e-01,-7.819300367455431777e-01,6.211517934447968736e-01,1.458397263889149587e-01,-1.865789618693917351e+00,5.553792833644374261e-01,-6.644019658697212227e-01,2.532701865608243175e+00,-6.534343162855679177e-01,1.811217420738551187e+00
-2.149143773283837544e-01,8.824435045034961789e-01,-3.641346220490421226e-02,-2.028169470829281895e+00,1.764422633668858875e+00,1.707729261460972703e+00,9.454885531685738309e-01,2.090493039724238500e+00,3.380795378085382552e+00,-1.634499222769810967e+00
7.579523430288507280e-01,4.875663434636914317e+00,-1.328989120949571667e+00,4.962018576376131307e+00,2.984552939831374374e+00,8.920692238111953554e-01,5.518132658672750823e-01,1.216867947043185572e+00,-6.262032288863305318e+00,6.909794413169967342e-01
-8.961467085246905828e-01,-4.053461953785191696e+00,-1.006977351951845456e+00,-4.959564212740509959e+00,-5.344833070203028669e+00,1.910264046706463992e+00,1.423301496089655283e+00,-7.307127562438067159e-01,8.088115392464507281e+00,9.002344956307195556e-01
8.210315744336402766e-01,3.845319801974733220e+00,2.553379407456430883e-01,5.647556381867754993e+00,3.158552831458966814e+00,-1.090953420888076897e+00,-1.124490446531902554e+00,1.135104496582207245e+00,-8.612010495671956534e+00,9.006553904920093778e-01
1.329493659204532552e-01,5.894742291372248033e+00,-2.625588843163544794e+00,-9.909601825091017835e-01,5.363809375695137938e+00,5.255834539602801669e+00,3.792190248622296700e+00,3.712981180278094762e+00,4.230036520474010686e+00,-3.115060845247466403e+00
4.099072149729539594e-01,2.356832982390230313e+00,2.634362637242964045e-01,5.554160683803105236e+00,-8.053659181727081950e-01,1.870712404770201731e-01,-1.413282972626240364e+00,3.716742499750631090e+00,-8.503475086221833124e+00,3.942853111793176879e+00
8.435353582170802555e-01,5.984856539816359344e+00,-1.234949825159702419e+00,6.283460509073591993e+00,3.321038820894367305e+00,1.436182141864596140e+00,3.396836419453136968e-01,3.096846490549360009e+00,-8.211623769252696547e+00,1.506919008272780136e+00
-4.878136243550063034e-02,-1.397728019835020596e+00,1.009477193686609819e+00,-1.062812857743172357e+00,4.246750829923481296e-01,-1.570549481680609372e+00,-7.712260210249159975e-01,-1.397805211083053667e+00,7.208230602031157064e-01,-1.065579066157179344e+00
-1.592445976339269542e-01,-1.538153620916489661e+00,-4.404325335150682807e-01,-2.429684055570695556e+00,-3.800436096487789239e-01,-4.346740774270980712e-01,7.212070784889790254e-01,-2.956839481335150843e+00,3.853148445011431722e+00,-1.547225945775475120e+00
