1.238431868978438377e+00,-1.173255697489116317e-01,-2.860432994077726221e-01,1.719866767954141062e+00,-6.279523118248123703e-01,-3.192502779564851956e-01,-3.011622474740183741e-01,1.876714443153569833e-01,1.220035692685105533e-01,-7.529751482310944599e-01
1.219928452467202051e+00,-1.582465226847265649e+00,-5.707725682946044321e-01,5.552618547557156559e-01,-6.756140682841657585e-02,2.882510988635249571e+00,-3.184146199303041214e-01,2.257659192558505445e-01,-2.947998633857740636e+00,-1.314911809951578192e+00
9.014742791179664039e-01,-1.052545204731470507e+00,6.833987318095415819e-01,-1.823353148402179658e+00,1.863442622482583744e+00,2.731313668075608936e-01,-2.230280379301674554e-01,-1.283045542773612491e+00,-9.642298052152413756e-01,2.217994913948662550e+00
-4.262209757356347772e-01,3.675485360850258010e-01,-6.114846991175770796e-02,1.398980132087362049e+00,-1.829447549082957369e+00,-5.737042820054656378e-01,-1.990549540824028352e+00,1.719875021251785485e+00,4.706529032361087550e-01,-2.385942865061374540e+00
5.040709434883112738e-01,1.117200544023751185e-01,-1.115089782630948489e+00,1.534780214447425184e+00,-3.638894070265157321e-01,1.409176767758102855e+00,2.377357196453607102e+00,-3.377867441395524528e-01,-5.747988523719664844e-01,-6.992359074404316255e-01
3.118733784920702523e-01,3.351081580064614318e-01,2.232185403938594936e-01,2.027716667263157191e-01,1.495638984533949334e-01,-1.197838651172746793e+00,-1.214988531125122534e-02,-3.015372270275088473e-01,9.928864706679556562e-01,6.587232726694601803e-01
1.448793389824679645e-01,-2.854622973799888497e-01,-4.322522815475156044e-01,6.365874974746699166e-02,2.116088821742903581e-01,1.226927271289444121e+00,1.073138880329377098e+00,-3.039482869150182953e-01,-8.790191398214841634e-01,-6.820695741796396760e-02
-2.498360733341517648e+00,4.941766807363477954e-01,-5.558618941485033993e-01,-1.345003019688473911e+00,-2.242418194373768381e-01,1.984128881511109999e+00,1.631368060498776584e+00,4.615192152502913814e-01,-7.826928762261989858e-01,-7.753433518285333115e-01
-2.493642428120990684e-01,2.347573096798941106e-01,-3.052708768883312107e-01,8.752372056184948290e-01,-9.126461322624768169e-01,1.575365980065832616e-01,-2.555632398438723585e-01,7.217380135419969589e-01,5.893583162404119474e-02,-1.260154940315955985e+00
9.501266515353551378e-02,1.415501339510850110e-01,5.217048600594746954e-01,-3.087985726066963532e-01,1.646183910651687621e-01,-1.245178785369756236e+00,-9.282800578250034462e-01,-2.677805495328988011e-02,7.975789297490271101e-01,5.710168885341891931e-01
