-4.581032313031817793e+00,-1.414987163685025529e+00,-8.298421067684593755e-01,-4.418572924916460920e+00,-1.429462731806992126e+00,-1.494349989016424907e+00,5.979460558976645856e-02,-3.101419328793549868e-01,3.731052009609192033e-01,-3.662832805766448319e-01
5.808085661889577977e+00,1.298770824699372328e+00,-2.741457772698443041e+00,2.715323641527516152e+00,2.826109874075403372e+00,4.837720848356120484e+00,-2.359398086342721079e+00,8.792568857171801922e-01,-1.637912047493714496e-01,-1.667548151600600326e+00
4.817004894823213590e-01,-1.267916201241451990e+00,-5.118362703523363422e+00,-3.382843632263424993e+00,-1.339296841259067783e-01,-4.675992130810007197e-01,1.455899838625327014e+00,-1.949768594050492743e+00,-2.055301391131941990e+00,-2.340255380029578003e+00
-1.109384707232099920e+00,-3.396563251875852063e-01,-1.109795301085613195e-01,-1.119771425608813153e+00,8.805035528428033498e-01,3.604669681255039393e-01,-9.699344446756597016e-01,1.042159833930904389e+00,1.713612649605349425e+00,5.895227674952846497e-01
-5.522574871482830439e-01,4.347711374249864646e-01,4.452181951388353376e+00,2.793455663499336161e+00,8.441717315368471586e-02,-2.675881344905407744e+00,1.432629579699781219e+00,7.414563922876800106e-01,1.601886233583685870e+00,3.213844209034113497e+00
-2.135523267269745507e-01,4.868211765995980045e-01,1.093478856994432924e+00,6.913458859738770279e-01,-4.938077508483905698e-01,9.170037797354646525e-01,-9.415747511418436355e-01,3.417687888281363828e-01,-9.908594523282029942e-02,-1.921028276312383709e-01
3.634190926679122580e+00,1.778880498662869680e+00,5.038981329257904207e+00,6.655797216795287241e+00,1.962103818292549873e+00,-4.735816928403817627e-01,5.085340693887272501e-01,1.638188794750196520e+00,1.986386244146849389e+00,3.573082809218495193e+00
-2.127847238728844736e+00,-1.465811774052776961e+00,-1.522050969786882479e+00,-3.004759913677449656e+00,1.524409345438715313e-01,-2.646127148787526639e+00,1.727734360489854737e+00,-5.329622925034536163e-01,7.096608156069185158e-01,6.649589249144780556e-01
1.733241126839990542e+00,1.014289083537229352e+00,2.271945039043801184e+00,3.142618766771398953e+00,3.616934969470156358e-01,3.501381303754373953e-01,-9.570050098972382457e-02,5.198515816946983614e-01,2.250547262558981743e-01,9.933807806945371688e-01
9.842538883356115598e-01,-3.873030736260885676e-01,-3.105097399792635215e+00,-1.593996263101988387e+00,1.494725518411215592e+00,1.811594173952286946e+00,-1.132000722719058716e+00,3.715747813776036912e-01,5.027328571448639316e-01,-1.128164588807161639e+00
