-6.215722664074120329e-01,-1.492072473019483647e+00,-4.465739368798023357e+00,-2.963309595417501718e+00,4.510162745589772371e+00,-1.648811752623198679e+00,-1.894406018593659979e+00,1.878998570994087736e+00,-2.786509504869450371e+00,4.952343190318464927e+00
2.537909065764412553e+00,1.480761520797062358e+00,3.069459681407955998e+00,3.407535849800045202e+00,-3.102270133750265835e+00,1.960978649460220602e+00,2.297167815335529717e+00,-1.063588140662365289e+00,-3.224655912214046682e-01,-1.660634715882854495e+00
1.016551132045281580e+00,-2.127624260635638365e+00,-7.121461943552859220e-02,-1.243695093656490114e+00,1.305924857670388350e+00,3.067169166167137973e-01,-4.734783548273499565e-01,1.407186994976270089e+00,-2.136483059938401485e+00,2.746097310863919283e+00
2.112773507156059605e+00,-2.344058103338842791e+00,1.091015592403491885e+00,2.276044602844105924e+00,-2.000986589991439413e+00,-1.901314284911618246e-01,3.320217524407714782e-01,5.013156633581989929e-01,9.611774097831844443e-01,-1.827342985683366727e+00
-1.922981365839936174e+00,-1.860060202887158676e+00,-4.648471740048843337e+00,-1.246273887594509855e+00,2.240084874217046718e+00,-3.442534646407699128e+00,-2.399313405178062020e+00,9.112194019208467166e-01,2.022912099847896439e+00,-4.010462331208949349e-01
-2.129818582004256111e+00,1.776346061855170078e+00,8.643245854652479299e-01,-1.511022380200981674e+00,1.058470447305990686e-01,4.984570813656875043e-01,-6.040962839057189421e-02,-9.245915653383625088e-01,8.424118166907976768e-01,-6.547974402535812199e-01
-1.861805904618956564e+00,6.407887826853090329e-01,-5.922957424423280770e-01,-1.830158309742266676e+00,1.108974637164627408e+00,-3.061889773980459029e-01,-6.901818707901741234e-01,-1.758531190326715898e-01,3.658328102468871856e-01,3.510010918684452474e-01
7.310940119245670776e-02,6.209614146220879816e-01,-3.797018016635441695e-01,2.581710252187559562e-01,1.374838168656643544e-01,-1.417920347155869837e-03,1.753325996631638628e-01,-1.679522837276892777e-01,-2.578504581519775463e-01,2.119341253628927446e-01
-1.101105575918798429e+00,7.901504337406273226e-01,-2.691380478345550387e+00,1.061473764422889099e+00,4.832175311041591453e-02,-2.060553068090797080e+00,-6.204027525926644193e-01,-5.830579949590836142e-01,2.337470192344453412e+00,-2.153692902482118310e+00
2.702778673424357514e+00,3.505040811451391569e+00,1.548628231549987744e+00,4.157218062255418900e+00,-2.455713443887185043e+00,1.825006982620815954e+00,2.775770580613572402e+00,-1.563667586924742947e+00,-1.211143047770364189e+00,-8.248606219346575896e-01
