2.060466233553274407e+00,1.746573583224150461e+00,-1.529873085660526932e+00,1.406555141187109115e+00,-1.226408426464297985e-01,3.653369969618059709e+00,-2.302524611195885917e+00,-1.141047620811009189e+00,2.341254600726245805e+00,-1.824680426844264680e+00
-1.132561949433237514e+00,1.339273741319176869e-01,1.476614916565007096e+00,-2.144665389109461362e+00,-2.375666733692034516e-01,-3.764878406928993115e+00,2.364808813458568526e+00,-3.564561004523149057e-01,-9.885867916719934811e-01,1.779387818829802903e+00
1.861143550117630996e-01,-1.450624968953995619e+00,2.890347776640700417e-02,-1.282435175188636034e+00,-9.698549437765653369e-01,2.232000951155297397e+00,-5.801460837186779296e-01,1.007859084099619551e+00,2.740117340893375997e-01,-1.294048239802906841e-01
2.918970600930130388e+00,7.410298789493648952e-01,3.942173158824741619e-01,7.179010158306353695e-01,-1.847397306800749428e+00,4.453568357019094925e+00,-4.710494618811719159e-01,-1.358098117658317783e+00,5.896689589323478309e+00,7.086632739813985005e-01
1.589941475437038010e+00,-4.998808063332335627e-01,5.124104038551352547e-01,1.343778661631301885e-01,-1.438256384322357029e+00,3.169680001158212690e+00,-1.586437688305073479e-01,-2.104200691870894147e-01,3.558131777450900035e+00,7.323369783300816005e-01
2.025857018164935130e+00,-1.319231728807121584e+00,1.079549259536230210e-01,-1.560222539943884934e+00,-2.409687514609170744e+00,5.744195048941726611e+00,-1.255809000506122430e+00,4.758792822910634657e-01,3.710474689915818303e+00,6.772871376240927055e-03
-2.590222115985196361e+00,-1.525437414231302968e+00,-1.212289262775465337e+00,-2.466434129638725992e+00,1.073332275442872685e+00,-1.651927183750502071e+00,-1.123510892097165259e+00,2.207303356155038809e+00,-6.385361660162203634e+00,-2.002299807746459770e+00
-1.396235398081621337e+00,-8.822422070287548879e-01,-9.814969017353040170e-01,1.245768391649792806e+00,1.468350449565408722e+00,-8.828987857216870072e-01,-8.924277572226132493e-01,1.288518037316281006e+00,-3.294884413980712523e+00,-1.287361887854153508e+00
-5.223981170360769699e-01,1.930852371827196379e+00,-1.053744842736290765e+00,-1.447561104338510596e-01,1.219454102671663431e+00,-2.045748024757699568e+00,-5.834989506096195377e-01,-8.302676131493624823e-01,-2.272868920940906534e+00,-1.385583492105770143e+00
-1.426301117522931483e-01,-2.322985425374135993e+00,2.232213917036632633e+00,-5.497458424990877557e-01,-1.411830384017765727e+00,-7.527104364406478343e-02,2.277506728547174397e+00,8.160446431102091891e-01,2.165235326394330251e+00,2.888023342841358865e+00
