1.547471348748445386e-01,7.799926569885911043e-01,1.775536321914208404e+00,5.109924001335740540e-01,-8.116004710311635062e-01,-2.344438962060967135e+00,1.321387288259644688e+00,1.937448212923933877e+00,2.516382841316356256e+00,1.104204987155460449e+00
1.303961448566853254e-01,-4.438932389511711651e-01,1.434289630881983579e-01,-1.254328592808120757e-01,-1.202216552746233208e-01,3.912005522864098195e-01,-2.321076710600809279e-01,-6.032695879026573893e-01,-6.970756614565526421e-01,-1.302606607141139350e-01
7.489634399833768885e-01,-8.532135600541015386e-01,-9.968666915194323019e-01,-1.064254240912069438e+00,1.928639090228032149e+00,2.146496871146255092e+00,-3.432758035051853840e-01,-1.362877983678578708e+00,-1.869589780154349956e+00,-9.859382788044248613e-01
1.405106009612788753e+00,6.192504247950370022e-03,5.098516907453269020e+00,-2.064604194037468476e-02,-8.947174302549755209e-01,-3.288914459280967151e+00,2.744509440373048115e+00,2.182760050276018937e+00,2.862665083865539195e+00,1.302605281418505623e+00
7.092335365698126948e-01,-1.654865940858460061e+00,-2.608632708753507945e+00,-1.572504999511979085e+00,2.703456262561676038e+00,4.320215753083875398e+00,-1.538964235461344199e+00,-3.189298744876687408e+00,-4.206785194503332548e+00,-1.931892622363061252e+00
1.088288506911399667e+00,-2.684093020776843197e+00,-1.776768408007091793e+00,-1.523585766745242598e+00,1.611043255591285694e+00,4.351848374519891038e+00,-1.895427494215259800e+00,-4.216703011462259454e+00,-5.127731105853865046e+00,-1.475554406012406172e+00
1.319622951136890432e+00,8.122329131755272602e-01,-1.365303953565535577e+00,7.347347595482673910e-01,-1.567068643640777692e-01,-2.951418081428983431e+00,1.310061234224830118e+00,2.878164632887914465e+00,4.579435153291401939e+00,3.992088929181885515e+00
7.401541215896290105e-01,1.844244105757371077e-01,-3.553539097373930034e+00,4.029586035633638819e-01,4.097927926652352726e-01,-4.454510135172000673e-01,-3.715121068171313157e-01,7.912840553077715722e-01,1.828533644764434696e+00,2.680559861762852769e+00
6.619616111740469488e-01,3.210144214775883520e-01,-4.141237585021057654e+00,-6.324001544593238489e-01,2.807070692896085795e+00,1.615610234919731436e+00,-3.854447665632200759e-01,1.635806093836664199e-01,2.933547871529734730e-01,4.678855807878550266e-01
-3.941613404450085012e-01,3.082967401839327160e-01,2.935580719510203274e+00,-6.395406645814589730e-01,7.448986905115984047e-01,3.172004109244901393e-01,9.304674331054074710e-01,7.462506132190926955e-02,-8.379797085700881887e-01,-2.473577670945930951e+00
