-4.854737635578522115e-01,7.584501951435600187e-02,-2.728778188782185588e+00,-5.292220605833618252e-02,-2.027497631138990702e-02,-1.940043735599213462e-02,-1.739976715328148016e+00,-1.681982863598239675e+00,-1.923599605765159648e+00,4.658944637985058534e-01
2.275201545952842130e-01,-1.498048200095696558e-01,2.576151842976335704e+00,2.453528034646876299e-02,-6.544988457108275558e-03,-1.352981950642225262e-01,1.158187647889587835e+00,1.828969370136864780e+00,2.463163898657624085e+00,-3.403450835916069228e-01
-8.744780342735299916e-01,-1.360620335239083323e+00,7.527322583892979146e-01,8.954425084799423340e-01,1.416580763387987441e+00,-1.590854457204349481e+00,1.013197283972343321e+00,2.453733334438337188e+00,-6.246240597182153298e-01,-2.779196412726583798e+00
-9.019582239539812585e-02,-3.182539083745451469e-01,3.112470872942612488e+00,1.943276411964034167e-01,2.558717436096880626e-01,-4.479608938911721072e-01,1.854743334341984351e+00,2.495428564881994493e+00,2.631744705420085317e+00,-1.009932968068793402e+00
-9.099553979034569196e-01,5.579692947477659093e-01,3.602441071529675298e+00,-2.901349632435533676e-01,-4.890962330544522119e-01,-5.880043568339184817e-02,2.014227808672020892e+00,2.170913393735561581e+00,4.835940172618219179e+00,2.932349783380726674e-02
2.444819219182700731e+00,1.972440911735701130e+00,2.984933565992868409e+00,-8.836625195229812491e-01,-1.547600138711554774e+00,2.561869133819109301e+00,3.708507570471702319e+00,-1.618494628566527593e+00,6.644384858120385706e-01,2.097234689994219803e+00
2.051299638359037836e+00,-6.855530452862886870e-01,-3.330402893368032746e+00,2.764626471537047769e-01,4.322864947268783564e-01,4.284159236442265928e-01,-2.126710072961714104e+00,-2.329927975185491107e+00,-5.364376543561249377e+00,2.753714255602020544e-01
1.038952133865191030e+00,-4.679893158323035762e-01,3.673696086741504163e-02,5.400128680881211007e-02,6.900876514028186914e-02,6.220707027237582648e-02,-1.043796117755563913e+00,2.044681572275752757e-01,-1.421131450338127267e-01,2.778646161033703210e-01
-8.311139283101228736e-01,1.094696024784599819e+00,2.382041392720310569e+00,-2.051736823158668566e-01,-3.739546689816560798e-01,4.306270363292611925e-01,3.737633233384199727e+00,4.623583490536924967e-01,1.484633765012389750e+00,-4.217353540162682157e-01
3.333791636815819914e-01,1.034069016754049830e+00,1.107656982870298679e+00,-2.683810049702533007e-01,-4.826275481531748235e-01,9.358210132658109082e-01,2.670660480944013759e+00,-8.160199629300253221e-01,-3.924097162894177315e-01,2.614551166217257694e-01
