-3.926368082757263345e-01,-7.761565325901954582e-01,-1.397120944452640234e+00,3.686661040674869549e-01,-8.394670615414749903e-01,1.467783070725683370e+00,3.739362966660324944e-02,6.829433999651869369e-01,1.438114932095686305e+00,-1.701862361593288853e+00
2.825868879954018364e+00,1.574995937229014820e-01,3.265755328835169280e-01,1.126567255326581973e+00,-2.847646856539678417e+00,-1.508603669224637622e+00,-1.808847529812055877e+00,-7.422239817832328168e-02,1.721219311508434657e+00,5.050102026001088706e-01
-2.937234584811740046e+00,8.257505621861145617e-02,-5.470075746724819554e-01,-1.474488677084752286e+00,3.666637093560165539e+00,2.388944740420775037e-01,9.193167485582169896e-01,-1.818985158017623685e-02,-2.167730558167543009e+00,1.213983456282770268e+00
7.593335019139189068e-01,3.943846565456828879e-01,7.440654123714737778e-02,-4.795977406010654143e-01,-6.806485752956825674e-01,-5.630289975464223273e-01,-1.967049989801006982e+00,8.607697200478938715e-01,1.353419262640066734e+00,3.422009987432945155e-01
-1.348822750780291457e+00,-1.271676455617121171e+00,-1.784764350014666157e+00,9.255165711527810757e-01,1.850046597904735080e-01,1.710202625975855373e+00,2.063777940677727685e+00,-3.819649377331977291e-01,-2.431405520769416018e-01,-1.520344377176021000e+00
4.389200138006104646e-01,1.334628576520746401e+00,1.293558758150949339e+00,-1.786600159163440171e+00,6.093650529105507641e-01,-1.260335245718989805e+00,-2.796594508456335948e+00,1.206756484566237742e+00,6.993581126185307584e-01,1.408466521088582279e+00
-1.670757864788301905e+00,2.593170175513969666e-01,2.660624905452021668e-02,-7.496049998523446334e-01,2.933319236022450038e+00,-1.090415472485113169e+00,8.525036871687762252e-01,-8.396276878914843422e-01,-2.605237737204587845e+00,2.289757525887700318e+00
-2.491727063595437830e+00,-1.092506439134691920e+00,-6.843846628770151597e-01,3.550568062018729654e-01,1.150754683820177648e+00,3.399942985438756171e+00,3.982231555330451034e+00,-4.364877263693599518e-01,-1.286650807541650732e+00,-3.146740779802868815e+00
3.764923846347036918e-01,-5.584812410658989146e-01,-6.757695922913199427e-01,7.189590098201998902e-01,-1.281334888434913388e+00,8.855184646448209795e-01,2.395180600602869470e-01,1.807505925041218986e-01,1.062249902892791420e+00,-1.346020774717060942e+00
-1.361910779559912132e+00,6.522491938829075853e-01,-1.362319366853497193e-01,-2.517665439464053634e+00,8.082526476781365377e-01,1.681043914694052344e+00,-2.617240635540633686e+00,2.815142592949630540e+00,2.360086957472038449e+00,-1.489222615095745494e+00
