-1.128800296805752001e+00,-9.508172489315813714e-01,-2.298966623055901382e-01,-8.931673746561337168e-01,9.217143909271168223e-01,5.893128179093803931e-01,5.964823745567687796e-01,-3.851811482535560938e-02,5.262589680846260221e-01,1.667632678538729651e+00
8.919262265096016273e-01,2.160120845366039211e-01,-8.369001842954562065e-01,4.765624197149384567e-01,-1.402506121758918312e+00,-1.271930986022120624e+00,-5.462768727317750539e-01,4.895353240200917000e-01,-8.404988001906196216e-01,-2.221105936740507047e+00
7.524356063709528586e-01,2.344807160117931666e+00,8.677599039875470988e-01,6.194661850488962784e-01,-7.204490533259105822e-01,1.230030720676311029e+00,-4.883388432233546350e-01,-6.144761744795161906e-01,-1.523730207732978403e+00,-1.425911463920044753e+00
1.029723724810841290e+00,-4.046062698950063208e+00,1.333484219180880004e+00,-1.258480155642385245e-01,3.691755639913029352e+00,-2.434592055080965434e+00,-1.361332473185627556e+00,1.550984333584104480e+00,5.990568150892439547e+00,5.630228668039261031e+00
1.581750448461480607e+00,-9.030816438923112699e-01,-4.020009940632985890e-01,2.446051975385567512e-01,-1.413647283070871841e-01,-1.943086780971598593e+00,-1.567287048144156758e+00,1.240847033793301968e+00,9.683781335929702028e-01,-3.396367444903860555e-01
-3.760290661136517443e+00,-1.642833076988637675e+00,-1.083208638938056634e+00,-1.006822047557941024e+00,3.603429065913888452e-01,1.072267014364097770e+00,3.659899686398428997e+00,-1.284319052971935937e+00,-1.668376146939442028e-01,1.241737083452098656e+00
-1.926178018236379907e+00,-2.281617928925323557e+00,9.472637889929745869e-01,-8.805669632919725931e-01,2.888714672193408273e+00,8.057172863424575393e-01,1.434640728780944396e+00,-4.269050473016460234e-01,2.964652438586229621e+00,4.742178766865999151e+00
-7.478877646246082644e-01,1.277483063095783411e-01,-1.806294993219346612e+00,-4.847639274170102430e-01,-1.704929515778505600e+00,-2.081366021436301672e-01,6.467055366331231347e-01,7.101704070167436100e-02,-2.110800601675444810e+00,-2.343095786318740714e+00
-4.727926942180940451e+00,1.031246674588486290e+00,-1.570891933227389903e-01,-1.116483546466970012e+00,7.835462985657604129e-02,4.135653086373793919e+00,4.536669393582584142e+00,-2.797505676933939700e+00,-2.416278809027155194e+00,7.141682130422690733e-01
3.972387679222189050e-01,-2.107744253715528870e+00,5.210653372542179973e-01,-3.903143835929465122e-01,1.986194344307282034e+00,-1.012386961125927298e+00,-8.046580900398270231e-01,8.882417060535874320e-01,2.906348376532491340e+00,3.079816057674503060e+00
