6.741567789717373138e-01,-5.244389466314536286e-01,-3.279930774487421763e-01,-6.340779824266731257e-01,3.552185089150974862e-01,5.428047888792222331e-01,-3.411629225106538321e-01,-4.469185186978253954e-01,6.554125529500041125e-01,-1.682550142505784052e+00
1.983694761627099457e+00,1.614991922941126368e-01,-1.747394801914445850e+00,-1.383393315799747114e+00,-6.425882758806705786e-01,1.587520073018696465e+00,1.739666361054395427e+00,-1.203056161860478035e+00,-2.537305195263559909e+00,1.283646684361809065e+00
1.857719569689515016e+00,5.749751111270131609e-01,-1.873063859287715349e+00,-2.363241017899063490e+00,3.819875678748053949e-02,1.176324381054301149e+00,7.927534327920686685e-01,-1.132740088018579172e+00,-8.187350156693609105e-01,-3.337888221434883729e-01
1.640878929866678160e-01,2.770561418138874465e+00,-3.096142013260356762e+00,-2.031227377922877331e+00,1.035983991204776578e+00,1.677455905300973438e+00,-1.443528061739924429e+00,9.456911740095463870e-01,6.290458511913554762e-01,-1.303996005967605676e+00
1.814035859135787465e-02,-1.578846536976422188e+00,1.884059886551810337e+00,1.404960206614004337e-01,-1.487714777198369254e-03,-1.460732493636808238e+00,1.087778718744857875e-01,-7.802004261332373680e-01,1.314835452690886086e+00,-9.542391442486481967e-01
-2.718421120782711142e+00,1.100404506643791303e+00,1.037781325899565399e+00,2.403753661362225902e+00,1.231590240733043129e-01,-1.074860214937054526e+00,-1.308706465104853667e+00,2.186059870237301528e+00,6.650355262811340484e-01,1.293032942707346589e+00
-3.915932423960648556e-01,-1.371814785196469932e+00,1.645230184119470085e+00,4.261519198808829123e-01,3.866438694666057829e-01,-1.115274581357639017e+00,-7.397495805274552083e-01,-2.296907256435425371e-01,1.975878981839540360e+00,-1.891042657650324532e+00
-2.240698512454719626e+00,-1.725787433032833995e+00,3.316631606909979268e+00,2.731830763919745664e+00,3.081442691597091610e-01,-2.189059551779135582e+00,-1.460080329120323483e+00,9.616655662247101111e-01,2.574345044657222914e+00,-1.292756221951935958e+00
-1.630666645463031639e+00,1.649255569172860980e+00,-1.189602366390704047e-01,9.317583792955048683e-01,2.985063758651063104e-02,-4.863602303068203514e-01,-6.235365680679406664e-01,1.507279872831801759e+00,-9.090709017939635483e-02,1.608632442293641773e+00
3.191608431148539982e+00,-1.705924217505750518e+00,-3.192682977128380450e-02,-3.311262681559771437e+00,-2.998950575775707339e-01,-2.676698846029548218e-01,2.030532463975817770e+00,-3.201862508832941323e+00,-1.332937605623856214e-01,-1.150091300263292204e+00
