2.576508804444102907e+00,4.504570725466399139e+00,-2.920273879385256954e+00,1.938917060923576630e+00,3.647612199511797437e-02,2.367544685775323288e+00,2.105557396019754446e+00,-5.729802248298476730e-01,-1.034784219279484052e+00,-6.038768113788359759e-01
-3.844634920031479552e+00,-4.501112169086803227e+00,1.792509851283617506e+00,-1.898666935329855532e+00,3.421116747542657377e-01,-2.869965763366622458e+00,-2.816217952778646283e-01,1.185169840276833586e+00,1.274436909207955493e+00,3.317097054910185250e+00
1.327699596115339498e+00,7.862970798862967126e-02,1.151454663880023155e+00,1.827171459884870952e+00,-1.366108863576856569e+00,-5.744533294350161468e-01,1.323726767971035390e+00,-1.792963916217112930e+00,3.587168716662196832e+00,8.581594857883070304e-01
-8.963149978393111783e-02,3.546328853868883635e-01,-5.580974648123748771e-01,-4.142339642592119398e-01,1.717719053004129193e-01,4.722502622997171717e-01,5.833323993021762716e-02,4.478948440429759148e-01,-1.436006601347621148e+00,-1.723488461196236721e-01
1.887611877498540869e+00,1.618289072202059975e+00,-3.427413640346536616e-01,-2.295255638652152208e-01,-3.281103325182170849e-01,1.897185405884458165e+00,-1.080754860729685296e+00,-1.328788670326284116e-01,-2.909926207754766736e+00,-3.132838822548820623e+00
-1.766077636362338499e+00,-2.316673216886994346e+00,8.718470329082800285e-01,-2.451841687751165288e+00,2.325854312065532559e-02,-3.043723146719319317e-01,-1.197831145452656898e+00,1.386517761263283299e+00,-3.241845338581237357e+00,-1.556968552112290016e-01
-1.639721574504142243e+00,-6.885767327462720411e-02,-9.235577319644697747e-01,7.507179753813986167e-01,2.077653245395443271e+00,-1.545265564947548187e+00,-4.798054371443728483e-01,4.377180354508215521e-01,3.613920143973103905e+00,1.500923237330913818e+00
1.124006433399920901e+00,2.544794758926010037e+00,-2.016782092304501894e+00,7.787164896785938595e-01,5.624181483933718417e-03,1.468107110321671405e+00,1.686781430927360770e+00,2.616231995265379251e-02,-1.463226456795210240e+00,2.123618351924890235e-01
-2.495881937961170749e+00,-1.374459139234287752e+00,-5.225452195487257923e-01,-7.756745471158805749e-01,1.142948541303074883e+00,-1.366338804177589461e+00,3.712971795012006693e-01,1.181215246678750219e+00,5.998587213537219798e-01,2.497674691965090066e+00
1.957310558456892613e+00,2.309645651166449681e-03,1.409688914575575325e+00,6.907215380139248850e-01,-2.628179568761932039e+00,6.674131112523319365e-01,1.762014291999254745e+00,-1.520225853079335554e+00,-2.459701428858938610e-01,7.118818702979529123e-02
