-2.678398068947672073e+00,4.851569215960976678e+00,2.064157275133903013e+00,-2.743624481049909303e+00,2.993960177314977655e-01,-3.674984313632512212e-01,-2.468616864519715959e-01,8.957018641387142210e-01,2.001877799283818149e+00,1.081926281174986793e+00
-2.091369270355580401e+00,5.907554081668538792e+00,1.770618370062605251e+00,-3.022715972284707675e+00,-2.984911912867934669e-01,-1.938354423600826326e+00,1.322685586351571407e+00,-2.387706045559815360e-01,1.372558934095997829e+00,1.751117548964561177e+00
4.235697371185630500e-01,-4.474667186349265080e+00,-1.876283971199804723e-01,-2.089186124271411593e-01,-6.897171786742195554e-02,3.612096490921191894e+00,-2.481131702038446019e+00,-4.054764554335164028e-01,3.238167545925507707e-02,-1.523078388700485064e+00
-2.476774779341891497e-01,-3.964793365897774535e+00,-2.493649984747078330e-01,1.178878271179225834e+00,8.608092062513492682e-01,1.770700362274137074e+00,-1.716638846465825097e+00,9.909593757579108209e-01,-2.640780467605025605e-01,-1.217251353909720502e+00
1.035531510530850463e+00,-3.076918378530396403e+00,-5.962954385785402822e-01,5.851339308172582854e-01,-1.823641677682898421e-01,2.374010151761008380e+00,-1.522945673059542759e+00,-2.693746415424577156e-01,-1.761781710955627189e-01,-1.127594376013669297e+00
2.542481633411719955e+00,-4.633624808032362985e+00,-9.548944701121295786e-01,-4.710201049166329312e-02,-1.170538349693331259e+00,5.889082106383604298e+00,-3.479712413990850184e+00,-1.297463858338861353e+00,3.960994247686634440e-01,-2.167024131409852394e+00
1.760983068453920275e+00,-3.190286717095816016e-01,-1.340518528610237237e+00,1.926269682078701972e+00,-3.156089579209290785e-01,-1.900522980743684975e+00,1.730620511901711733e+00,-5.159104493495628718e-01,-1.344267134626949245e+00,2.269696836337983248e-01
-3.377953357748828100e+00,3.305039909681125820e+00,2.288424455907123622e+00,-2.434195799668564586e+00,9.510805925018372964e-01,5.329595158099252883e-01,-1.299902034612790747e+00,1.759523541545323422e+00,2.179678490454953987e+00,5.485835524881635950e-01
1.791628145982383957e+00,-1.294326616826555920e+00,-1.062241956396475118e+00,2.693451852690905923e+00,3.029512371648961366e-01,2.853778228512769299e+00,-2.335870355119720632e+00,1.829996640585953571e+00,7.144398039471048234e-01,-1.459582698543801849e+00
-1.452149865591322753e+00,1.896594458928680060e+00,4.883291986804059182e-01,7.456632758713962472e-01,1.076136605949094438e+00,-2.176934597160009588e+00,8.321169243898536294e-01,1.716110693048052749e+00,1.893411529058347531e-01,6.554228400787901476e-01
