-5.201196999496852102e-01,1.034844266027043824e+00,-9.305105820081094326e-01,3.054453243189830580e+00,1.573005707825411381e+00,-1.646795133159830948e+00,-4.003123155019232549e+00,-4.464248384081205279e-01,-2.119510710762114059e+00,-1.046574186978432852e+00
-8.109693048570089102e-01,-9.477597831506812120e-01,-2.470523964105579395e+00,-3.860700815806568542e+00,-1.314880781013721300e+00,4.803912958170449166e+00,1.801456775021901269e+00,-3.517968087243454889e+00,5.151792162003408393e+00,-1.145684709172430704e+00
-2.779470892870723464e-01,-1.596075979675405931e-01,-1.433008428762180708e+00,-1.590535328218678934e+00,1.655082432371517420e+00,2.638514252433090235e+00,9.402935175855536842e-02,-1.612700755275675135e+00,2.084861042143938192e+00,-1.575290938267402407e-01
2.417808388335724423e+00,5.158898443550610224e-01,1.761630323389392627e-01,-1.484615460686024679e+00,5.104539737722658010e+00,1.355696128621964203e+00,2.116890449114239736e+00,1.692294399164498309e+00,2.911386222838648230e+00,2.338471084514418319e+00
1.155338914847539922e+00,5.078327943991760574e-01,8.925902293488829908e-01,1.358962095048747321e+00,-6.636883895702371250e-01,-2.251935363356498243e+00,2.266514830611393583e-01,1.667799795528950968e+00,-1.477570780155123831e-01,3.286407770965619757e-01
1.182225322318968930e+00,1.251408501982490984e+00,-1.699581530839523902e+00,1.051817380013808645e+00,4.420322342383314229e+00,4.971195922871074480e-01,-1.997037496542294122e+00,-2.990478868392891232e-01,2.031242711837288439e+00,7.688067903717987761e-02
1.037462199665895257e+00,2.037162844449529331e-01,-7.807352641595790566e-01,5.045770019995620137e-01,-6.630663021971662019e+00,-1.733629686869701869e+00,1.192094127285805882e+00,-5.552216417856996600e-01,4.395656226381238874e+00,-2.079329173478392079e+00
4.860515186039331414e-01,-5.509194712640635982e-02,1.552806152035481668e+00,6.477904648729357895e-01,-1.178341788094702025e+00,-1.857951383705929160e+00,8.821473474212080390e-01,1.705211311065329971e+00,-1.431295146385169081e+00,6.327163075757863409e-01
7.138526806512409673e-01,1.547816667282006398e+00,2.257021032229266089e-01,4.421326990973140525e+00,1.473996534593827956e+00,-3.967616749569788936e+00,-3.693581702878022455e+00,1.552131318518169545e+00,-2.686103479921974735e+00,-3.902996055493970773e-01
-2.204272008642553793e+00,-6.569427850644689038e-01,-8.182415249202608098e-01,-3.166283274435613415e-01,-1.756487965540009188e+00,1.187899923309372996e+00,-1.379405318211260001e+00,-2.209010163672918914e+00,-1.527737584349949884e+00,-1.397549576928413639e+00
