3.235984598090100861e-01,-9.624713092555797767e-01,5.026240203031387965e-01,-2.429441601736107015e-01,1.045543966514736606e-01,8.260749086940308850e-01,-2.707376222842209357e-01,2.155682368630066348e-01,8.037041579359610610e-03,1.409112439930128025e+00
6.841087983450513943e-02,1.579464982536534778e+00,-3.173077448201251372e-01,7.829680656325244126e-01,-6.163530778918308722e-02,-2.372996266136844778e-01,9.968085550368568359e-01,-7.708286828763677434e-01,1.475617856002610750e+00,-3.122891833934294814e-01
-8.871902554843156263e-01,2.216801671587769196e+00,8.070942138490286855e-01,1.397935354670710284e+00,-2.053050914069276811e-01,1.460171283765441697e+00,-1.822278632014958877e+00,1.165853197880620140e+00,1.017998944534700190e+00,-1.338554576307889432e+00
-1.254309803476759688e+00,2.201878087641480963e+00,2.948490837928718467e+00,3.184634364688568198e+00,-8.124276972698190047e-01,3.732965107437107299e+00,1.029971881655671773e+00,1.425732845457253539e+00,2.878671792253402639e+00,-5.775372013588944142e-01
-1.924118356001005559e+00,4.753201942684474046e-01,1.009436812798504279e+00,7.559072608886209244e-01,-6.472977630878060662e-01,3.346761496315768802e-01,-1.135455355839908087e+00,2.124437034937798785e+00,-1.887870273267668431e+00,-3.911165471186488496e+00
-1.807776553924515861e+00,-2.531914355346741363e+00,2.949071462294114099e+00,1.148628570922249903e+00,-1.250889898363573893e+00,1.502762461914769698e+00,3.664308646995592778e+00,1.866461401955770150e+00,-1.829357172638154339e+00,-2.270469775868237061e+00
-4.386831947578727631e-01,3.792914021725124485e+00,1.649504218115749044e-01,2.033555421993692658e+00,-1.502647116572670416e-01,9.467712817781773760e-01,-3.948269484823097031e-01,-1.556684104313931227e-01,2.879470315566957428e+00,-1.033004525725729872e+00
-9.007408084648949043e-01,6.723141052317088695e-01,1.052307601738843745e+00,1.341497414190409021e+00,-6.117775927798366764e-01,5.910509311824780898e-01,1.945844498629374364e+00,3.795221251894629333e-01,5.251154760829005452e-01,-1.610395217839184490e+00
-4.596678716259294806e-02,-3.201453580977386970e+00,2.036095709392276465e+00,-4.123026170841035398e-01,-1.652644793811929302e-01,2.203405890662330613e+00,-5.277958109713865031e-02,1.445448486357554074e+00,-1.233740004591724171e+00,1.982919075799356001e+00
4.053600663773609392e-01,-2.186718226889689531e-01,4.289505448012315147e-01,3.583871912831850803e-01,-3.581211903142736408e-02,6.067283095003795923e-01,1.379642539115856881e+00,-5.209477977747384303e-01,1.077104786714449869e+00,1.304488860502881931e+00
