-8.946237125117167954e-01,1.973989133810266416e+00,6.607241222318345208e-01,-2.459856439992594290e-01,1.119408195307965981e+00,3.782516490524701624e-01,8.741488405499322489e-01,9.389624906160246587e-01,-1.337412934406508880e+00,1.786861906263753408e+00
-8.515148076893622187e-02,1.372126760045826455e-01,5.451811693864654362e-01,-2.146194311929309761e-01,3.530075543369242674e-01,1.084873949857676489e+00,2.406077526940547939e-01,8.467930605183764392e-01,2.506052068830724178e-01,6.452087039624110343e-02
-1.141419596545169446e+00,1.264601256527783324e+00,8.134995027180066396e-01,-1.543023241614345453e+00,-1.212503722250765498e-01,2.251076457065173564e+00,-1.685902657757258338e-01,-1.784137556150866333e+00,-8.507808041645278374e-01,2.200370352115914030e-01
-6.207837713177056793e-01,-5.716829692784293204e-01,-9.742559302480545691e-01,-8.995404955646700840e-01,1.005892915047531311e+00,-1.119199160380359936e+00,1.026070452629341406e-01,-4.219906158425387188e-01,-3.457707989457688758e+00,5.912283549373704289e-02
-4.033342046812788961e-01,1.104770348522909673e+00,7.980334404111979474e-01,-5.239780592337297538e-01,-1.103679984457092367e+00,1.688332470513893346e+00,-4.704644223665847003e-01,-1.944559797643332200e+00,1.390112340409186187e+00,-7.597856285333592918e-02
2.395282283791241085e+00,-4.117243945082081247e+00,-2.037481437019458053e+00,2.359519478490242683e+00,4.045965497582499903e-01,-4.062090374893053912e+00,8.414021183749913332e-04,3.430563007173493606e+00,8.204894152251710482e-01,-1.664007014885378499e+00
1.588713011305170175e+00,-3.704302422273143769e+00,-5.062280696783855172e-01,5.912856555681327286e-01,6.939985734219659141e-01,3.165464816149381883e-02,1.624681703545848704e-02,3.388281133534153167e+00,9.483857249917322374e-01,-2.148922402258299336e+00
6.558009394024633121e-01,2.439036925960902935e-01,1.583387259649729206e-01,1.079932207634134667e+00,-1.005976343338795820e+00,-4.474349958429551521e-01,-2.260076517048901501e-01,-1.604978995448437529e-01,2.426501402402341245e+00,-3.165445559976527018e-02
-1.079055270067249328e+00,-1.123489603851133278e+00,3.182936011272839427e-01,-2.672283839152585827e+00,1.084088201518998984e+00,2.981525980212843763e+00,-1.450091756304408008e-01,-4.743854355943324941e-01,-3.028024845733733539e+00,-1.194674996330465255e+00
-7.330672523723993361e-01,1.139134453251335888e+00,1.126757260101579172e+00,-8.423209919272883761e-01,7.204392141412693240e-01,2.185869779715505778e+00,4.923984004534258663e-01,7.373255949591547287e-01,-3.563783745054271979e-01,6.579851565567000904e-01
