3.273138822444095819e+00,-2.573499630935290050e-02,1.227367535540843990e+00,2.131169666568190291e+00,-2.532500096409406432e+00,-8.545294630252847412e+00,-1.733350284260571916e+00,-1.301992136117976262e+00,3.240646905502745367e-01,-1.001123626236256170e+00
-6.271780736136758350e-01,-5.817624744160936334e-01,-4.660918730506362073e-01,4.585752244651697396e+00,1.467498829839795071e+00,-1.606464792278929021e+00,-9.314466988500418043e-02,2.028714462748220537e+00,-6.399561844879975148e-01,5.235210030850991458e+00
-2.519557329922499367e+00,6.408516948154281689e-02,-1.420108679084507664e+00,-4.111798177276441146e-01,1.871498464471949563e-01,3.922145626434988319e+00,-7.657475593905958000e-01,1.579215326938402386e+00,-7.189293061583513778e-01,1.118703202604990787e+00
3.993913892181458092e+00,-2.870932915436313349e-01,-5.934841201901386309e-01,1.195836838153709447e+00,-3.540613504487644558e+00,-7.031539103317670403e+00,-2.428242369142636026e+00,-2.392478484853374221e-01,1.235984331404194059e+00,-2.836879415085017175e+00
1.419319572368557027e-02,-3.111111924620921232e-01,-1.178536451827446818e+00,3.545174879019075576e+00,-1.609763079192339852e+00,-3.784599651418312227e+00,-2.659093764075542321e+00,1.882541513174362580e+00,-6.019332144254400108e-01,2.513314584309349620e+00
-1.652139293397162145e+00,-3.386085972317290360e-01,-1.029343703800143173e+00,3.668891728589172008e+00,4.255248348195896368e-01,-6.512777823484896533e-01,-1.284938952080035834e+00,2.313205283159095682e+00,-1.064999401674173951e+00,4.510859886932440332e+00
-4.775053716257671610e+00,2.597548360962641523e-01,2.161278981140751121e+00,1.739463677680649134e+00,5.153437618149112609e+00,4.706945829492178213e+00,3.117016742635596582e+00,6.259151021244832580e-02,-2.307926486062217286e+00,6.810946709585621761e+00
-3.225626470873129925e+00,4.658984401729237557e-01,1.682988981675151985e+00,-6.785176305496937177e-01,2.793344384473318343e+00,3.828384933202079843e+00,1.966578238668249101e+00,-7.732327326526583500e-01,-1.465629859746262031e+00,2.596444537770258520e+00
7.085763243976085368e-01,-8.746189103395808628e-02,-1.300118914158761019e+00,-4.233150351805861966e+00,4.651347294324718606e-01,5.723039150112410489e+00,1.685113926900182690e+00,-1.923015317987144812e-01,1.658571577101485506e+00,-4.217165830989318742e+00
6.657816415679017608e-01,1.240455092775267776e-01,2.118671087068849448e-02,-7.656682478702391270e-01,-1.093158394949452106e+00,-1.011318098243953134e+00,-6.171477634448799821e-01,-4.841149868607179663e-01,2.196096705342243383e-01,-1.579112372864549529e+00
