-3.216907592674714822e-01,2.195492803118750391e-01,1.498386215311672487e+00,3.138712655054493594e-01,-2.921783888424951958e-01,-1.993215282311573966e-01,2.627512858981762012e-01,1.281373947676157747e-02,6.370065196303799082e-01,8.151583334069255338e-02
-6.613206536360575205e-01,-1.784757554804877189e-01,4.464892831283531205e-01,6.330629938644922738e-01,8.569511226563142348e-01,4.973690068132501918e-01,-1.236109756401391868e+00,-1.928778749694625982e-01,-1.715988787602847454e+00,-1.284696486268548821e+00
-3.472109191796489025e+00,2.129724343157103572e+00,1.634083920207971108e+00,1.180967890246148455e+00,2.260937545655690162e+00,-1.548169956374527256e+00,-2.903624827873365621e+00,1.777543742980202124e+00,-3.349860578445262416e+00,1.215902056921500440e+00
1.721799970539895364e-01,-4.892730469318086750e-01,-3.677813073255742915e-01,-1.758178684801982694e+00,1.362536334786202397e-01,8.331287664258417089e-03,-7.811081100397466725e-01,1.442582169712990636e-01,6.890778301373690073e-01,-6.146919046887850957e-01
-4.859793772955057101e+00,3.875596495806827413e+00,6.356008935755346201e+00,2.554751620225653497e+00,1.049024049713955131e+00,-3.201953967227706865e+00,-1.271913382759121802e+00,2.525055256798970138e+00,-8.177985305051921339e-01,3.561650802548908867e+00
-1.684912733691679598e+00,5.330340757244725891e-01,5.593480176709664242e+00,-6.763862278210738266e-01,-4.255868803708363068e-01,-8.997525017402404623e-01,-6.580469304724285706e-01,4.719478757924904788e-01,2.427376585244316765e+00,-5.006084479425926270e-01
9.902882858372795694e-01,-1.300576720748851223e+00,-1.211067113478962176e-01,1.282962229814768484e+00,-1.086418359209629508e-01,1.723720685127584806e+00,2.813654345856170802e-01,-1.470525638307880412e+00,-1.059826186743653142e+00,-2.399937872304469089e+00
-9.502500907869415592e-01,1.617018899641761598e+00,-1.203430814256009507e+00,6.005639297629552509e-01,4.779900643744761646e-01,-1.415160058220937600e+00,1.034585592330909271e-01,1.262838663541864026e+00,-9.104547827554383410e-01,2.841187156759674703e+00
-3.780289946221717656e-01,1.111687538270780262e+00,1.682797585228270165e+00,7.663217005368433421e-01,-9.242820812036515177e-01,-1.089767788684405048e+00,1.523545636359209698e+00,5.037613432501785171e-01,1.646348885595688483e+00,2.090918927891239232e+00
-3.709781517145491203e-01,1.451536998400007883e-01,5.891538794898294462e-01,-6.352757798078360052e-01,8.259106224721869671e-02,-3.373067454720056202e-01,-4.143182315129802507e-01,3.118796280418508204e-01,4.421140487545497932e-01,8.317747499421240809e-02
