1.341370255477604578e+00,-2.137205872749975644e+00,-4.337601643470991863e-01,-3.389380042204532373e+00,9.299065189569051260e-01,-4.084989326126214348e-01,-3.122469911043431523e+00,-1.053382953606927908e+00,1.134619892768477627e-02,6.735484611197243288e-01
1.294412267563297692e-01,1.217441012332893591e+00,5.718877738954776246e-01,3.236326732181467492e+00,-6.091012686572397916e-01,-1.624086250184960112e-01,2.939386888654810015e+00,-8.117090556495706877e-02,7.953529703197124157e-01,-1.352498915893001197e+00
1.210523584985267576e+00,4.853795820696378827e-01,1.633189979182661400e+00,-2.804513179618925989e-01,3.512957308188715544e-01,1.428391800599053241e+00,7.777005406927428588e-01,-1.123619030831657373e+00,1.651262446265835182e+00,-7.354479322490303783e-01
8.124676350643622591e-01,6.787282226934105989e-01,2.366031134096623578e+00,1.271451524344998640e-01,2.229010131844854081e-01,1.823527398339283234e+00,7.968200407409415931e-01,-3.175824298370106824e-01,1.336163311218246497e+00,-6.325338246037597312e-01
-1.732249185408313741e+00,1.965507183854231510e-01,9.680070052680768145e-01,-4.825854945927399720e-01,-1.932054789388590599e-01,9.366247781409421380e-01,-1.311520867370425281e+00,2.401830089686769032e+00,-1.627437705478246732e+00,1.235424920175611785e+00
9.184220857924008108e-01,7.190174662853243692e-01,1.000967643707186383e+00,9.217302251943729763e-01,2.668037972809221905e-02,7.156896085462270962e-01,1.603054061973827826e+00,-9.852646609216090257e-01,1.432037883659770028e+00,-9.997863799620971825e-01
8.896390800785402009e-01,1.581393564180718858e+00,6.121533701366441843e-02,3.618146604360256813e+00,-5.644152198338978632e-01,-3.524777755867622986e-01,4.101800164640732937e+00,-1.470438598882443770e+00,1.859113216206496277e+00,-2.048896344227474575e+00
7.461932196654222915e-01,-6.309014557141232604e-01,1.118734992308350940e+00,2.591133599925239950e-01,1.391577297003252500e-01,4.124604817278654939e-02,-3.128690802945921501e-01,1.341211375732955235e-01,2.214593018970043292e-01,-3.841150302919800197e-01
1.808519547684939721e-01,-1.075505492384499773e+00,-4.717233129333873620e+00,1.116116832412160864e+00,-3.791386834373483561e-01,-4.040954675691413200e+00,5.292237737050020652e-01,-1.534086138691090451e+00,-6.876716113962612065e-01,-3.725167793138215444e-01
2.124405218839261478e-01,8.934248669668269638e-02,2.399930926744523685e+00,5.826922410574254307e+00,-1.033022948835764954e+00,-1.114595788329070469e+00,2.748121040516226188e+00,2.092970643006308418e+00,-3.195267149560070963e-01,-1.924027039912714176e+00
