-5.331293071118463622e-01,1.825974880038312431e+00,1.224725774971224812e+00,-2.175631430702433811e+00,1.040495234388379431e-01,5.279344830585980253e-01,-8.833810359165032988e-01,1.719685331425270025e+00,-5.144269779832029155e-01,-3.226196729467434299e-02
3.059989899252127277e+00,1.254862073370236475e+00,5.184906098104009597e-01,-1.384272207750836703e+00,2.344856318153221597e+00,8.233588631208189623e-01,-2.053785377953884161e+00,1.336485313068043412e+00,2.707914498860872210e-01,-2.249461220412541707e+00
-1.134574493250930516e+00,-1.409497341633163092e+00,-8.991211429423506818e-02,1.152910163411044575e+00,9.208845471925395376e-01,3.065506386548569218e+00,3.948830760340775736e-01,-1.477667213658363510e+00,2.449913909670998757e-01,-1.476220122891119813e-01
-3.272805473991435399e+00,-1.748937674039521273e-01,4.030024255328945038e-01,1.348456225126784203e+00,-1.661876118708701222e+00,-1.664837986919720070e+00,1.814553387152807229e+00,-1.038023348947070046e+00,-2.668432007159596830e-01,1.378860324277720428e+00
3.454482645093833959e+00,9.571344783251463095e-01,-8.634863507414477501e-01,-2.349091791504528626e+00,-7.056959063194674364e-01,-1.804126776877713390e+00,-1.423301111960886711e+00,2.262584702208927823e+00,-1.819409121069702207e-01,1.398508868605723432e-01
3.472194864667719205e+00,3.892471341740157409e-01,-5.268408678311314874e-01,2.675162984049693771e-01,1.108391448189100181e+00,-2.244268411918301176e+00,-9.711034070053012890e-01,4.212697132826995206e-01,5.184730305359234181e-01,-1.691434621738407307e+00
-1.606678780584456678e+00,-8.066433234303551636e-01,4.820154459197603103e-01,1.954819121286740735e+00,1.114041806504891374e+00,1.301189340739003386e+00,7.463526400918725212e-01,-1.758587788639891070e+00,3.415094909746012597e-01,-7.147947626731205872e-01
-5.275722291946601139e+00,2.123842137780167505e+00,2.309904484017929249e+00,-3.124110158980880847e+00,-1.689337659690006710e+00,2.534545273485430794e+00,2.851712264760326576e-01,1.811800075157372181e+00,-1.391153586500343708e+00,2.293949651157078051e+00
2.247176557997768498e+00,-2.557667565889290007e-01,-1.604552999235390409e+00,-1.311915768744229771e+00,-2.013556197978187967e+00,-2.094060110646168482e+00,-2.546943685622348741e-01,1.264062341601706496e+00,-2.124362444689453788e-01,1.430323027500954414e+00
-5.251746262209841198e+00,2.680352009323087703e+00,2.926595046590261706e+00,-2.167789455375903618e+00,-8.364377936934264124e-01,1.184490040768121144e+00,3.660685406693867106e-01,1.411947490885848477e+00,-1.141516088496147940e+00,1.159947041635761567e+00
