-3.643151150032099217e+00,2.979108249327733660e+00,-3.170997422847233516e+00,5.971927969242936118e-01,5.323036303396437852e-01,-6.689623552248988858e-01,-4.116345210205336613e+00,1.227823354228372521e+00,7.247650407214443202e-01,1.126044773449940362e+00
-3.698615594710993992e+00,-3.005501080129738600e+00,5.926381505817708728e+00,-2.087624132805538046e+00,7.638357285151117004e+00,-1.000240317526804201e+00,-1.360726330740578804e+00,-1.767009554758306678e+00,-2.228530677559554807e+00,-1.116922623644845403e-01
-4.064749121276610033e+00,1.280656412003240652e+00,3.776762140788068045e-01,-1.387573563158808754e-01,2.395656374519979259e+00,-1.542793361225801574e+00,-2.748084929341131577e+00,7.655985395590418907e-01,-9.256466622792676180e-01,-1.377706186631390550e-01
2.055258461435162332e+00,-2.160613945549230586e+00,1.754760397293757102e+00,-1.021997881471310432e+00,-1.983268367421780365e+00,-9.097259617056009384e-01,4.301664380163785495e+00,-2.547439594704151489e+00,-5.138104941738992348e-01,5.628207063187207204e-02
-7.927298513491923160e+00,2.022380372043461438e+00,2.974462424605943234e+00,-7.461848418937651051e-01,5.912279246309480873e-01,-6.694457442294704741e+00,-2.476558927882834826e-01,4.948475055169852532e-01,-4.083344227927894643e+00,-2.308620794734411064e+00
-8.854316886794522112e-01,-2.678516873723273850e+00,3.718586462387112768e+00,-1.614110067838884222e+00,3.487055164863895218e+00,-5.527197007594861766e-01,9.101868109445889754e-01,-2.243418253856748645e+00,-1.120313012976962508e+00,3.162536179960769855e-01
-1.822837524715918756e+00,-1.212713785499889507e+00,1.986920634621410109e+00,-7.209130806717298778e-01,5.792813088086930406e+00,1.288617545224520544e+00,-3.168179061306620969e+00,-1.525770176791416688e-01,-1.131030863498425632e-01,7.039817892481585737e-01
-3.889896105109393432e+00,2.390423044693954946e+00,-9.671695914502680402e-01,-2.298006106676236601e-02,-2.959603732547185118e+00,-4.191872821181670261e+00,5.748030901287437544e-01,-1.309539505739620857e-02,-1.400829543688796308e+00,-5.518979865019321140e-01
-3.791592490905696167e+00,1.143644766141271862e+00,1.079731882798397491e+00,-2.696427358503382110e-01,2.708998846213788725e-01,-3.034242708374137454e+00,-4.118026340892614323e-01,3.473353056881784418e-01,-1.771522709944863383e+00,-9.723528821666826971e-01
-2.811599585186422612e+00,1.701718656828635545e+00,-3.070231322383409900e-01,-1.097524204642004453e-01,-3.341060056337055606e+00,-3.986255887774846407e+00,1.705760848556304277e+00,-2.665877693291978101e-01,-1.530572927403986760e+00,-8.615272667217785951e-01
