-7.226775252601580490e-01,-8.642095982650317421e-01,-4.441605430504921848e-01,-4.071071130563248985e+00,-2.494408510500600862e+00,-2.604101782597339820e+00,-2.138522008325247192e+00,-1.741233020729849645e+00,5.493309549950811110e-01,1.062426876042969370e+00
-4.697291961795151405e-01,-2.681113809092521283e-01,-1.690145719982207417e+00,-3.812551511814188387e-02,1.159450512606920114e+00,3.810154169646316480e-01,2.065789473667340559e+00,-1.146576994798678140e-01,-8.430543575625351060e-01,6.380593677569814659e-01
9.420020902920649419e-01,-1.830030852534430874e+00,-1.662602372875625178e+00,-1.466585797863159124e+00,9.209635577196503831e-02,-1.692297840039264645e-01,-1.267537630666283555e+00,7.629640479125957553e-01,-2.202796339091383171e+00,2.331586951737646185e+00
2.214689545121860892e+00,1.063721117824917739e+00,2.640113289058394486e+00,3.707041874676997750e+00,2.065398947921301964e+00,9.483087760239008457e-01,-2.808819090440061839e+00,2.470467988476251264e+00,-8.955820203420953307e-01,7.019623305506010880e-01
6.890412556195449900e-01,-3.071709276354743334e+00,-3.116935414583588582e+00,3.077553147188759608e-01,-6.427427768886538884e-01,3.726801145736176046e+00,3.182080614091519433e+00,1.550714036664224471e+00,-1.960291221789190574e+00,-1.221526044971630753e+00
-1.278360477605112178e-01,1.154785760668422423e+00,2.205000808137812740e+00,-4.388094812192376848e-01,-1.069952193164747545e+00,-1.595637370838886904e+00,-2.373169048769049105e+00,-7.263203368596029552e-01,1.572156799309374797e+00,-3.896032908295810615e-01
-3.124922597238324773e+00,7.233592553673178216e-01,-1.146193703965014077e+00,-2.084469769075449452e+00,-1.941049145361786632e+00,-6.149344960620464207e-01,4.310874009262173345e+00,-3.126590335396734144e+00,2.930717167775944709e+00,-2.966461432328160619e+00
-1.657056796416661593e-01,1.124170643255915092e-01,1.218162852154146325e+00,6.318595554852284302e-01,-1.771951865627784395e+00,1.082616323223683841e+00,3.805654397051769777e-01,-9.938325984810647551e-02,1.647930807301721146e+00,-2.766667057881655012e+00
5.944246879923267279e-01,-1.611061542419272019e+00,-1.785835282643205568e-01,-1.559545181117163448e+00,-2.177149681647090773e+00,1.826014921438274263e-01,-1.559045524560455975e+00,2.241742520624815382e-01,-2.060958265975770809e-01,-2.805041461559647509e-01
-6.885254964641680520e-01,2.537707554330459470e+00,3.290599489783531784e+00,-2.280580357252702584e+00,-8.091211834507539002e-01,-5.052261452869404756e+00,-5.072691447001827392e+00,-2.151633684505364741e+00,2.157972782614010043e+00,1.848844584163128912e+00
