-1.407220725640380588e+00,-2.128513984708610973e+00,-1.631984539038980664e+00,-3.358596662639818486e+00,3.448038211371672102e+00,2.161812640785341078e+00,-1.766685553392262076e+00,5.252800935570006047e+00,-3.687077010183607229e+00,-1.744004678523407792e+00
-8.739615818062572428e-02,-4.979774796544288229e+00,-8.910402940223672852e-01,2.677653558659998545e+00,2.418324294782981276e+00,-6.865250632935852859e-02,-8.545287078642666012e-01,-1.330143301142597601e+00,-1.727644493547905835e+00,3.211648174118336474e+00
8.919406701314857022e-01,4.449941633132863394e+00,1.244427617607661921e-02,-1.905478052505464648e+00,2.676526861606804086e+00,-2.211172802493901468e+00,3.691270598484573284e+00,1.428573171680124210e+00,-7.365130008110326587e-01,-7.507937386721516004e-01
-1.498507992398966815e+00,-4.047575121027875866e+00,-2.646292203519675090e-01,1.311695343322525131e+00,-1.959594367528526559e+00,2.054045949715665120e+00,-3.000389460397244523e+00,-1.421643811079750686e+00,-4.081512378899251892e-01,5.584576218600389996e-01
5.659269260378318317e-02,5.308999106271758972e-01,-3.794004167222563839e-01,4.800989632595369094e-02,2.350820400115796183e+00,-1.312137968375137298e+00,1.961802987519063235e+00,-3.152533552906700565e-01,-1.495696837814110891e+00,9.192807040194531654e-01
3.588369943741537837e-01,2.510421244512596406e+00,3.871768288294527016e-01,7.740609626932298815e-02,2.115582869134163269e-01,-1.579675925323943408e+00,2.312707636102643072e+00,-1.287036827505162240e+00,2.225084982712011716e-01,1.913280944976231968e-01
-1.975894176876065167e-01,-1.493797714360248552e+00,-6.050947258237110438e-01,-1.826349240179850675e+00,6.598002640652175232e-01,1.935266629559939444e+00,-2.367746696038186549e+00,3.733731770885633683e+00,-5.505352774970964091e-01,-1.483710577154653487e+00
-1.750396094344789377e+00,2.286640577901068727e-01,1.027059079354808724e-01,4.304413171466791033e-01,-1.430151901663624825e+00,-4.828521057372299474e-02,7.219192942428350745e-01,-2.975261112955945197e+00,-1.079483121991295480e+00,1.211096248423471633e-01
1.585113831113538430e+00,1.509230810045562698e+00,2.783842781756424301e-01,5.189606682958485262e-01,1.245382821808797225e+00,-1.615732768735255620e+00,1.659900969614532373e+00,1.051057849367048325e-01,9.386088009496417195e-01,7.792430001705459297e-01
5.370298497078000999e-01,-5.471641214183424751e-01,4.382253948904979435e-01,7.223388947218049028e-01,-1.724489935695128429e+00,5.557148866500062345e-01,-1.304640366515460004e+00,-2.247278588939575772e-01,1.725762899663431327e+00,-5.380438882610440871e-02
