4.367623489680606541e-01,4.407791979769319357e-01,5.266373462009338313e-01,5.694406056577024922e-01,9.043875846435875387e-02,-1.792416526919516251e+00,-1.813580526754162425e-01,-1.735768727648468734e-01,1.253636752428628709e+00,-5.528394529607539853e-01
-6.999397347988216556e-01,1.163143097941748749e+00,1.154296736290795877e+00,-1.572084704265305444e+00,1.979234576445488836e+00,8.888638970619386903e-01,2.024506716005171736e+00,-2.962200735535313711e+00,2.052878431258516212e+00,2.723840570138399197e+00
-1.508229394787851341e+00,1.254214114453042539e+00,8.046321033132396161e-02,3.320262490975904868e-01,2.087149691678046537e+00,-1.674770475246273316e+00,1.175664823687351035e+00,-3.024807833126303080e+00,3.139833125145918391e+00,2.543070231351749921e+00
-1.883907677282593784e+00,-8.005726626746746399e-01,-2.202660583276778272e+00,1.152192150582075802e+00,-1.629487991181387541e+00,5.934964376967759581e-01,-1.687461499004854648e+00,2.435119561260291388e+00,-3.469212847362975971e+00,-1.182400960448024341e+00
-1.098165226483448276e+00,-8.970879491923836602e-01,-1.405244873529197136e+00,-6.621184567155311007e-02,-1.626111218129570268e+00,2.144503524474314027e+00,-1.088159447226191512e+00,2.379249332926314686e+00,-3.898418380382429937e+00,-1.066927342726375239e+00
6.002575814821784483e+00,-2.452894573097348818e+00,7.173641160972692443e-01,4.193127327597804821e-01,5.352086870280721165e-01,-9.844952470207311845e-02,3.166125029645192601e-01,-3.820880834118833835e-01,3.399214553808300732e+00,-5.508104675609071244e-01
-7.540279985212658964e-01,-1.874103743694739976e-01,-7.424181223297948717e-01,-1.190909996743915178e-01,1.043305680907058663e+00,8.719823635954759844e-01,7.022058785424836191e-01,-1.392797909518521227e+00,6.640722739403092101e-01,1.895328963840746228e+00
-4.467965237882327578e+00,1.813247763898444109e+00,-1.198399909783835149e+00,1.549107938571421261e+00,-4.723211379254445008e-01,-2.706065428695416220e+00,-1.155282912039862442e+00,4.758718402775177214e-01,-1.226441478564666232e+00,-2.982056014847367931e-01
1.040357333463749256e+00,-9.233246379731643305e-01,-2.318118559457693906e-01,-2.701786684705000802e-02,-1.105780338512478034e+00,9.369551367522211960e-01,-6.896646093533044253e-01,1.648996731647375702e+00,-1.591877045573294014e+00,-1.337817296847499948e+00
-2.199004772333870150e+00,1.046904778062274222e+00,-1.421316903262668796e-01,2.462910539532767173e-01,-1.012480813144994718e+00,-7.845562502491427725e-01,-8.308044701342015559e-01,1.251041656356654652e+00,-1.962381025896676068e+00,-1.116778463947771360e+00
