3.568798449566420311e-02,1.119923416261663224e-01,-4.882828207078195315e-01,-1.678893701252041903e-01,1.299201124589380307e-01,2.110178379548869609e-01,3.782918157399317027e-01,-3.267086787052792540e-01,-2.735975439910724449e-01,-8.431103548142160342e-02
3.505494059523877048e+00,1.894991401421172394e+00,-2.779766982461274516e+00,-2.163776244658723313e-01,-5.559946311687952170e-01,2.860208031745390400e+00,1.388990211294366173e+00,1.046996032742057325e+00,-7.774051033842120928e-01,9.530866717234918184e-01
-3.390442896023622144e+00,4.120512400684024634e-02,-1.127006561599178669e+00,-8.049115881905606340e-01,1.410155607313020032e-01,1.972637936082945742e-01,-3.959081024312633423e-01,-2.878550981733636771e+00,-2.207970351860490066e+00,-2.662726869593844192e+00
1.377162530608851743e+00,7.698336496955489050e-01,-3.635975308735552858e+00,-1.019374953107704984e+00,1.100086650114133202e-01,1.202120551513650382e+00,2.138233307214905121e+00,-9.723155390081763549e-01,-2.296699704929648700e+00,3.229394402693308019e-01
-2.125792354640648973e+00,-6.523307355870756608e-01,2.692351192231454693e+00,3.750440635648472631e-01,1.768004837394025808e+00,-5.068491016810513505e-01,3.383142403359984396e-01,-1.507030737564476919e+00,2.681294369543866019e+00,-1.090724070108293198e+00
2.095241936212028033e+00,-7.341354042390746404e-02,-3.082023072722034907e-01,1.717396920873521735e-02,8.388205138217130763e-01,2.037043526063948493e-02,1.858398314147274855e+00,5.975444095827797675e-01,1.178759940578590237e+00,1.646326115110084087e+00
-5.128010527244533101e+00,-3.508187354207385589e+00,2.312433177157632525e+00,-5.588375715653998155e-01,1.964997607063923679e+00,-5.151420884295132119e+00,3.426077437847031004e-01,-3.029675126305883648e+00,1.919524361731012041e-01,-7.697280708861732323e-01
-3.065931316414753985e-02,-1.189914865884166062e+00,4.103793921538735567e+00,1.237314026755574670e+00,2.134325344636867350e-01,-1.857718109423080577e+00,-1.448771905328275933e+00,1.927896466863437963e+00,3.329648576774207669e+00,1.092993246794404794e+00
1.227723410908035495e+00,-1.111393987001601635e+00,-5.989124160459455837e-01,-4.231355975938406178e-01,1.478823161861315461e+00,-1.529381447381358283e+00,2.698632505360617273e+00,-3.381073267294255058e-01,6.715990081074244555e-01,1.911219741015247164e+00
2.055212331985409424e+00,2.151570373174679585e+00,-1.780970192880459324e+00,1.557696899489919573e-01,-1.733174656188845031e+00,3.050415075315983771e+00,-1.035672908356533473e+00,1.405329534690417326e+00,-1.282086947982098657e+00,-3.481163159161933529e-01
