8.422100970589612157e-01,1.336198907265615077e+00,3.362829771568344173e-01,-3.252759341059147102e-03,5.879808603527041100e-02,-3.053295149209973580e-01,1.740811909811907920e-01,6.544930224649275763e-01,-6.302343394709981617e-01,1.678088674832719229e-01
-1.616947232421912961e+00,3.859420826205215427e+00,-3.587273673500521731e-01,-1.864752101111628591e+00,9.930663258382683711e-01,-5.536752873996324542e-01,-1.940780864716739718e+00,2.482128996196322213e-01,9.977861386048946235e-01,2.148124406842169432e+00
-1.106302693049146857e+00,-3.274714120409858431e-01,-1.923950363861352875e+00,1.879399662888072697e-01,-1.478535699395671532e+00,1.281057241055780338e+00,-2.251849241578578464e+00,-4.629912198272166712e+00,4.448505953776333843e-01,-3.091135828521043294e+00
1.419124547677065085e+00,2.021238812095928150e+00,-1.922271039512101209e+00,6.674325329372571280e-01,-2.120185843553662242e+00,5.690753783771231866e-01,-5.409875144920308632e-01,1.054289133357072528e-01,-2.331526485763154299e-01,1.527098795159008947e-02
-8.688348174650248890e-01,1.676165010398002586e+00,9.669389892137827403e-01,-1.163017925313883483e+00,1.486311957178353182e+00,-6.983448847806785764e-01,-5.747555857069562846e-01,3.140967215978588412e-01,1.171280393706914946e-01,9.223648821406666976e-01
7.756806988491242727e-01,5.314916509382339171e-01,3.078363393260731051e+00,-5.368644432960402169e-01,2.464831286896061791e+00,-1.450739792912559833e+00,1.608615607449008555e+00,2.347386560513541109e+00,-1.281749026214518583e+00,8.806197689041689314e-01
3.119508329886007569e+00,2.137646067712858589e+00,1.363486090620928959e+00,6.961875771076562192e-01,1.413487860471712709e-02,-8.457531502800432754e-01,1.691087602877453744e+00,2.668242601623167065e+00,-2.126831252121270666e+00,3.200349832353126533e-01
-1.079630197958593829e+00,4.170881180385336506e+00,2.681753833972982282e+00,-2.518434507193761274e+00,3.589762942963052428e+00,-2.096680138428859586e+00,-1.053062326184358022e-01,3.409321006668549536e+00,9.993369728857731671e-02,3.932687029509708942e+00
2.044045439651911433e-01,6.216108429596901574e-01,-4.273323565425911630e-01,8.281900870152281158e-02,-4.489995010273248877e-01,1.855668436759383144e-01,-4.331249130916240420e-01,-6.454524669425333316e-01,-1.525993115715166548e-01,-5.178593975957235251e-01
1.732333305779440558e+00,3.223030097568430286e+00,1.539526586690245669e+00,-3.673427894534562199e-01,9.560106468851903294e-01,-1.104403265535234713e+00,6.389232972239117236e-01,2.095449687219118395e+00,-1.507863927666949877e+00,8.916133465819843229e-01
