-1.552141964524787143e+00,3.713550274229449055e-01,-1.107782026479494503e-02,5.194232219455001687e-01,5.879500915219867396e-01,-1.157572263185790984e+00,-3.097483095755131366e-01,-2.698959859540373540e-01,5.308602783615047338e-01,4.654450939854646863e-01
3.930376887836333766e-01,-4.019775896224826894e+00,4.031334918066205475e+00,4.253760211166566663e+00,-5.525982034572844093e+00,4.133078125374045619e+00,2.969267443267226358e+00,8.572436260151192755e-01,-3.416212343136765028e+00,-2.668534347502313331e+00
3.607773378182378199e+00,4.314781202292072848e-01,4.608428636514726451e-01,1.954008634965465896e-01,-2.531892424138418307e-01,1.942155993457951091e+00,-4.673254376870311644e-01,1.623603190152095532e+00,-1.306381201764814648e+00,7.248814399621431037e-02
-4.353736455402274608e+00,-1.781889492361127036e+00,2.631694556109127170e+00,4.828562535488604368e+00,-1.668537064605529530e+00,-4.312552771976637112e-01,1.169352420469658149e+00,1.446662514059000038e-01,-1.001039406837674672e+00,6.580624827085961304e-01
-1.648567038863251843e+00,3.305043462723122882e+00,-2.850136691350446227e+00,-2.659164562888573613e+00,4.401311368822241832e+00,-4.073933360361681189e+00,-2.467903373161286940e+00,-9.333560750614614543e-01,2.994490302075310861e+00,2.001344133382744417e+00
2.547109524166547345e+00,3.183158086674728326e-01,1.664392116748869332e+00,6.114672026100345104e-01,-1.979836336263968377e+00,1.405846122379278862e+00,-3.143517931879886707e-01,6.811139712323349693e-01,-9.908324539507196160e-01,-3.194205284541220546e+00
-2.166370821924330503e-01,-1.808016605128712762e-01,-1.970185915626655015e+00,-1.734213684479518180e+00,1.749774961646218818e+00,-2.736366884097050645e-01,2.396414072040600196e-01,-3.033570886838420910e-01,6.128633148990361157e-01,2.609077976287383027e+00
-6.155030972896888386e+00,-3.435286889723310644e+00,2.617184496962223328e+00,5.677820515223656272e+00,-1.975157284576469996e+00,-8.119545791236040810e-02,2.462367190590402100e+00,-1.181024468225902457e-01,-1.379388412852635248e+00,2.297382196124272191e+00
1.330559773760234377e+00,-1.517159999131734605e+00,2.615953724330302155e-01,-5.116546336673217787e-01,-1.645028235042006903e+00,1.913640211628885313e+00,1.256966943441763851e+00,-7.788018915970117140e-02,-8.996999916446158929e-01,-9.922962398765876602e-01
3.900272325766943382e+00,9.793802142865403182e-01,-2.426747591491565714e+00,-4.349314825434512422e+00,1.238815119241526208e+00,8.703347607114600981e-01,-5.510876432601716779e-01,-1.515590260000328204e-01,6.406173956086700372e-01,-2.469281157555092698e-01
