3.599981430538325089e+00,-8.210286368932456780e-01,1.479728530915535578e-01,1.063044862997105655e+00,-2.212095954149329025e+00,7.493878461286811898e+00,7.673919509003270800e-01,-1.438673242737235292e+00,3.581622375055655561e-02,-2.288739135235205335e+00
-2.134149980903699451e+00,1.471998264865272743e+00,9.354203867309294207e-01,7.064031817864540042e-01,1.096156981471286818e+00,-2.505474982741174195e+00,-4.671628097732311580e-01,2.338627508054076931e-01,1.018315784064356189e+00,6.483751041047056685e-01
2.668409598230093938e+00,2.211569993777366960e+00,-1.236658134406580511e-01,-2.616059201930498013e+00,-3.130064477881249196e+00,-8.948255775152306191e-01,3.272818913128852092e+00,1.266989273013279460e+00,-1.386146312755715204e+00,2.853506965890560743e+00
-1.708734830176255048e+00,8.653713769694952873e-01,-1.225745298294987018e+00,-1.167518389747243424e+00,2.581449382861720349e-02,-3.711548239151630124e+00,-1.356761183344871613e+00,3.102536304165632447e-02,-2.695572268972332264e+00,4.669482510742823944e-01
-6.006409000080767946e-01,2.047352288355976935e+00,1.044786563708590910e+00,5.788227822846327975e-01,-3.491520796178509412e-01,-4.273705204900823951e-01,3.899944577935727241e-01,-3.157567768933155355e-02,6.483514022052500048e-01,5.260363498940413551e-01
1.849523587373144595e+00,3.426170668688744980e-01,-1.711339029535897116e-01,-3.882632252970095316e-02,-1.734186837599591469e+00,2.994711647754774386e+00,5.430171834348501703e-01,-6.357093210007185302e-01,-8.940875341903486984e-01,-7.015451422974385842e-01
-5.003644222673705455e-01,-1.089646891153248642e+00,-1.063325660308723108e+00,3.058550673252138918e-02,3.757432736285725161e-01,1.834177441067147696e-01,-1.582690016465437832e+00,-6.672127524445691238e-01,-1.471278646954846447e+00,-1.261141544985588947e+00
7.305769462200758513e-01,2.818729287038898024e-01,-7.248821880878967283e-01,-1.136675262012557308e+00,-1.040861156746908822e+00,-4.862182838130257867e-01,3.934700890726090527e-01,1.703236378510669669e-01,-1.513970683823999686e+00,5.023974754982997171e-01
-6.107486508842532302e-01,5.157815194884945997e-01,2.389079510744849699e+00,6.355572364085133596e-01,1.666669952281142342e+00,-1.920356920360466457e+00,2.349561531490704347e+00,1.756485246144600332e+00,4.762442375869937017e+00,2.414352185460276523e+00
-5.926107079903388808e-01,-3.780480702433920648e+00,-3.180049177594718834e+00,-1.212966851212453179e+00,1.058215196144134840e+00,-8.799607217768207201e-01,-3.015933500371964282e+00,-7.050765367297611164e-01,-3.666815424284157299e+00,-2.002286292385041300e+00
