4.008743730974867470e-02,-2.533227342915696845e+00,4.639220490208889047e-01,9.990539378357604638e-01,1.495382350104402125e+00,-2.889864285225959839e-03,-2.924177372782170714e-01,-1.205721452585989173e+00,9.410297572528807386e-01,-6.356968741574051673e-01
-2.291102574608983033e+00,-1.624167385369210459e+00,3.778721245297179676e-01,2.202840488961710363e+00,-1.047255032485635784e+00,-6.739492886158948703e-02,2.381831104554607226e+00,-1.765421164447396274e+00,-6.250802333368647989e-01,2.086701871122482732e+00
9.283195672053043968e-01,-1.493980761458054474e+00,1.227386893438382476e+00,3.093798443011245070e+00,1.512191915862904246e+00,3.517358280704714346e-01,7.066557107957451844e-01,-2.366408521787402019e+00,-4.531683263739424428e-01,-1.075270811282523553e+00
-5.845426297673090854e-01,-2.052674906661017040e+00,9.678883947829841627e-01,2.961627933094719722e+00,4.703731678646556613e-01,1.216834546627012514e-01,1.375709824186457153e+00,-2.551149487241115565e+00,-4.379668188218878155e-01,-4.617350826760402427e-03
9.275047003460175077e-01,3.883058823780714874e+00,-9.210081696775440641e-01,-2.220152216085732544e+00,-4.767217961859097075e-01,3.546345547238634044e-01,2.886660619226156799e-01,3.633341862395933042e+00,-5.610352171264911814e-01,2.317566474822576605e+00
-3.806889325678711078e+00,-1.946587590319259320e+00,-1.503307701981999589e+00,-2.655190246668643006e+00,-1.357101104732384655e+00,-5.668842497223627319e-01,9.157240178747128034e-01,2.105091327399513546e+00,1.748148920021912245e+00,4.426449034323088227e+00
1.103298545199510983e+00,-6.365844898993324730e-01,3.028497653942642254e-01,6.525699648365568262e-02,1.012269033604665136e+00,-7.612952497272285068e-03,-1.233321195957328698e+00,-5.942850081971604581e-01,4.503529185953047409e-01,-2.000032748345777822e+00
-3.434502067289115779e+00,-2.701607617070137302e+00,-1.170256644206247421e+00,-2.731084781232676839e+00,-2.005363092945556591e+00,-1.049720011684370569e+00,-1.051156418731380660e+00,-2.785664042777025173e-04,1.771136629542936713e+00,2.849559468269652340e-01
8.797879404444991502e-01,5.115327719602849932e+00,-1.028834123818756607e+00,-2.506569670118836690e+00,-1.576972050780809820e+00,2.592403456011722618e-01,2.345191148154130989e-01,3.611944548450591874e+00,-1.242824023034379888e+00,1.819072988264268664e+00
-1.164708963898254845e+00,-1.550765993896249473e+00,-3.782605715021422066e-01,-5.731734015114203773e-01,4.101822462946925762e-01,-9.995029826979377752e-02,3.625685367500288137e-01,6.557368841676296523e-01,1.048951239593894025e+00,1.790257801308338781e+00
