3.288069291793778159e-01,2.460999076500084648e+00,-3.931815283374037184e-01,1.963696811898907768e+00,-1.727467710792243150e+00,3.386622353851637124e-01,-2.884757569518470177e-01,1.669715632535233363e+00,-2.388151113287857896e+00,8.166306016604498730e-01
3.531813316015835480e-01,-1.822097599764527232e-01,6.739305961948993673e-02,1.368785256004153350e+00,-1.264370482610331470e+00,5.189304001904312402e-01,1.795613055091697108e-01,1.163389831411142827e+00,7.224746382380262677e-01,6.013233293929831635e-01
1.475513183331919720e+00,9.380120137350905773e-01,-1.221665424699328151e+00,1.647459796525944764e+00,-2.784797265195547933e+00,1.226322377953531939e+00,-2.041292394180121317e+00,4.897152112552468628e-01,-2.535932266913636379e+00,-8.246965725908542710e-01
7.569850761023276808e-01,1.914705565519481345e+00,-7.819339704032477467e-01,7.609654359522367573e-01,-1.266123309073408754e+00,3.941470833599399759e-01,-1.134737029626272431e+00,3.678090854159027367e-01,-2.973562410353016716e+00,-2.414011713237014245e-01
3.566636578526430346e-01,-3.671864134247145195e+00,1.640543499107562697e+00,-2.305843651271413108e-01,8.123736258901572693e-01,2.111397791017425862e-01,2.615124429258596006e+00,1.160002292444905381e+00,6.153942866810409917e+00,1.851974093893406170e+00
-3.621408242858741744e+00,-1.485847637485315120e+00,6.431509483915157643e-01,2.082351921597021871e+00,-8.760655353042157145e-02,-7.177751987089788788e-01,8.543430396421249906e-01,2.746717602500431954e-01,3.647653518808237294e+00,-3.021348295005401585e-01
4.892409268873769701e-01,2.609196796425993004e+00,-2.094571131838542932e-01,-9.936740420020828690e-01,8.768058460210528260e-01,-4.990770651161582361e-01,-1.984443938498470228e-02,-6.428099126549335907e-02,-3.271516032202950175e+00,4.391785872688501180e-01
-9.543626967565447261e-01,-2.082988982086308116e+00,-1.377801812544813265e-01,-1.002565498300991509e+00,7.892399260004129280e-01,-2.062514194743298168e-01,-6.775509355864284267e-01,-1.864155814904548070e+00,1.546564818231157767e+00,-1.663767952729143351e+00
-1.366714890446201647e+00,-4.499386691330022892e+00,9.185815872051561470e-01,2.016094311358665792e+00,-1.124825269890134205e+00,5.681557612494538834e-01,1.080853024448622079e+00,8.106212433774200310e-01,6.733591416966568488e+00,1.285544714468057903e-01
-1.340576331212973038e+00,1.137767016524017905e+00,-3.984782561471814644e-01,-2.344387454631277623e-01,5.633842663302806031e-01,-6.443169174687551903e-01,-6.932394286455683119e-01,-9.880517842432845477e-01,-1.687949795864242875e+00,-9.899074048085296784e-01
