-3.051418820047328673e+00,-1.217989777363018833e+00,6.083852380574650276e-01,2.195996633365325135e+00,2.883301834086097859e+00,-6.890790953793198836e-01,-1.174245043511227715e+00,-3.532261787975335299e+00,-3.281200017027683380e+00,-2.526932698870622551e-01
7.765346215031584398e-01,-6.495187140601060838e-01,4.463312235917109572e-01,4.929784144759376541e-01,3.073048003675418194e-01,-2.185078894365047875e-01,-7.968486225254424182e-01,-1.319675158827015693e+00,-1.133177214587697934e+00,2.423007422796116805e-01
3.088853030720239978e+00,-4.625435665813140140e-01,4.277505386185058156e-01,4.641459733926864284e-01,-1.153807821169531983e-01,-7.500514730084471005e-01,-1.033731286397398863e+00,-1.198628529605124671e+00,-2.279168886648188508e+00,1.233712044580177025e+00
-1.714934055774921307e+00,-1.434402810001015549e+00,9.006573292330259939e-01,1.774230912002912497e+00,2.097321807544659134e+00,-4.959431771152801316e-01,-1.375963218655307019e+00,-3.499573582444234443e+00,-2.848813599079984105e+00,-2.949693632931206233e-01
4.053937578488037374e+00,8.011258656553350566e-01,9.351041278853475802e-01,-1.040450679827697344e+00,-1.935188678954002262e+00,-1.171198064807927208e+00,9.389702073026043871e-01,7.121086381302813573e-01,-2.702698337681476382e+00,2.670276908391319703e-01
-3.421114368410672846e+00,-1.395899034913311132e+00,-6.056869786522280918e-01,1.567058549398567369e+00,2.326263730979316158e+00,9.689872150509750703e-01,-1.719942934931775858e+00,-1.929783430830637192e+00,1.678678220684844513e+00,4.459221948014990833e-02
5.912772506550229012e-01,-9.010370812253069017e-01,-8.238118586874886295e-01,3.353342526097233822e+00,3.764840166873383076e+00,-1.695914015689173437e+00,-2.652780248518348927e+00,-3.381998776925303929e+00,-5.067528911116151669e+00,3.380243776960605739e+00
1.976288251680158037e-01,1.348145442590690024e+00,1.146644359019761472e+00,-2.139288780190172545e+00,-2.476643036486308347e+00,-2.361719393103957620e-01,2.756555504306752002e+00,2.092683550928472691e+00,-1.388631935337822088e-01,-2.283248221816791101e+00
5.678853045420643397e+00,1.227243370945995671e-01,-7.109770848217027428e-01,-3.784171479169172736e-01,-1.365558862878530899e+00,-2.176284832527134450e-01,-1.195192821044338771e+00,9.844468210818255738e-01,2.704344506201960541e-01,2.670970629401483887e+00
2.035190529254351510e+00,1.071817461351344258e+00,4.619203062663496673e-01,-2.751190035028470593e+00,-3.476903532772386285e+00,7.832435210175292539e-01,1.948996291510274981e+00,3.120540510814381552e+00,2.980360406846903842e+00,-1.490770101836925488e+00
