2.752490762377390432e+00,-1.246992605603404414e+00,-3.067021919775927863e+00,-2.369094036070140685e+00,-4.703189685414738697e-01,1.333439391215535119e-01,-4.672869784178720898e-01,2.186254310667698153e+00,6.816915531295715258e-01,-1.674111167417162038e+00
-1.465778279433729070e+00,1.590628425208159058e+00,1.193976316372224566e+00,5.164765336331177126e-02,1.613892157769811764e+00,-1.088740470273690253e+00,1.213389289983477060e+00,-2.473885481583966428e-01,-6.607830380516761526e-01,1.177630275130507220e+00
-1.106404832696102458e+00,4.067262119665580045e+00,-1.009974264788058518e+00,-1.987701727320913214e+00,1.431927161522809078e+00,-1.678897731379746627e+00,8.120710157204570345e-01,2.452711959661534991e+00,2.330044061343024553e-01,-1.193416639801269552e+00
-4.174612605615770633e-01,3.885255535690133044e+00,1.244421713244638683e+00,1.229939062965870189e+00,-1.711307372182365505e+00,-2.815679214652668350e+00,1.864452960914634971e+00,5.359380145616995939e-02,-9.185579997493142912e-01,1.827095017521783271e+00
2.882402351903516902e+00,-3.482993595338891524e+00,-1.212689793202651023e+00,-4.677856422027293903e-01,-7.869342629556189683e-01,4.061324682923047602e-01,5.137343050427290586e-02,-1.895099438532479308e-01,-2.057425802042227025e-01,6.580913808522631525e-01
-6.667120614520484212e-01,-2.769360390984984654e+00,7.258155570481787944e-01,1.127706426682374141e-01,1.977209602202078864e+00,1.602266405555705653e+00,-5.069931580290599760e-01,-1.308617722502154468e+00,-7.266064383819235972e-02,3.286196924205103675e-01
-2.010559394004894640e-01,-3.902816281107838181e-01,-9.946346092723514776e-01,-1.982951342579694742e+00,2.564273117609249475e+00,2.054525480293511730e-01,1.435832982151497850e-01,1.089007603424941628e+00,1.682595420926728813e-01,-7.309813098263512332e-01
-5.030492849765237473e+00,6.708929875031301115e+00,-1.251962814469173568e-01,-2.902464018185180183e+00,5.059179632377954761e+00,-1.090533976651159476e+00,3.787173202472257638e-01,3.011171549178555118e+00,7.357768431375835139e-01,-2.718788527787143749e+00
4.696423889112456784e+00,-3.828707986757598380e+00,-2.289151800017190652e+00,-7.455859350752853665e-01,-2.360854007764980889e+00,-7.681213069927128601e-02,1.603741523268010782e-01,4.338186163021640063e-01,-1.644306789975660821e-01,6.093325587331224202e-01
-1.810593505408743420e+00,-7.058306444757281861e-01,2.193418109783976000e+00,2.461918465687150448e+00,-6.438633496437867754e-01,1.439139477162085790e+00,-1.007864796074006142e+00,-2.284432010620822684e+00,4.523383359987271507e-02,3.976887459542647330e-01
