2.006634088306029629e-01,8.474568122828703975e-01,8.529659697753474434e-01,2.534443728721345601e-01,-1.013859568667727418e+00,5.267129862051963540e-01,-2.041780355431732641e+00,-4.729802814409553302e-01,-3.921872386427043833e-01,-5.105302281468071524e-01
3.622500900698100851e-02,2.822190184103336552e+00,1.174942684176972563e+00,1.009382846741988082e+00,2.913279396482009731e-01,2.397507458968421989e-01,6.922059494648530320e-01,1.402364534680742736e+00,-3.692734940535016275e-01,-1.815406191895574173e+00
7.638432158154426777e-01,-3.082430785596414591e+00,-1.702178311934910981e-01,-1.055596291823705846e+00,2.440391917991966975e-01,-1.594302535278359079e+00,1.640795725250698001e-01,-2.713035936570653561e+00,-1.619265563675286734e-01,2.011876804838344857e+00
-1.430251804409740313e+00,1.027230535866706873e+00,-6.783104136513499194e-01,-1.467832070053316063e+00,-5.014743905805972624e+00,-1.903105758040158912e+00,-1.013853599087787050e+00,3.558319373580532408e-01,-1.554360074832627170e+00,2.005705212092422141e+00
1.111278514151886831e+00,-2.649190032052668453e-01,9.411657643963770026e-01,1.018854597602627754e+00,2.989914298453918207e+00,9.437446187408601306e-01,4.697522007586203419e-01,-5.173000143440876775e-01,6.958695569705882766e-01,-1.431003525900017781e+00
-8.021149945872656228e-02,3.330846096646705723e-01,-5.164016128563833630e-02,6.342719407764881023e-02,3.810540088720152929e-01,-4.019177358504205100e-01,1.189108724041637588e+00,4.815235778491992469e-01,-2.431624186622497602e-02,-1.064765295800736006e-01
9.019928340761992347e-01,5.392664297432110398e-01,1.275351813945549306e+00,7.572384316759314116e-01,1.502112520963893028e+00,1.663866816746347455e-01,1.755051455287781892e-01,-5.698676591066241803e-01,-1.011917917624668636e-02,-1.132993759119323762e+00
-1.242065593793956757e-01,-3.684688447587839200e+00,-1.874191310478838579e+00,-1.236648139344857622e+00,7.720669550714694962e-01,-8.193602340311971766e-01,1.273005944990167837e+00,-1.112849020669316458e+00,7.137323564197018966e-01,2.295644236024325213e+00
-8.680336884584164414e-01,-8.450933349914268033e-01,-1.612004004351930586e+00,-1.872527828074927736e-01,-3.612998471499205277e-01,1.814947164985640571e+00,-1.365349666819088092e+00,1.024846969589222612e+00,9.395984154188009585e-01,2.526599188647407623e-01
1.142823136003194434e-01,2.899809767666873483e+00,1.230309283964145850e+00,1.457732190486567436e+00,6.488930778720862769e-01,1.735420457174444264e+00,-8.403763243380130143e-01,1.534210240736362474e+00,1.055887235872714630e-01,-2.550113251119845881e+00
