1.105196405502441914e+00,9.649450281084305525e-02,5.141904554548514250e-01,-9.273355709666042390e-02,6.373588161649395012e-01,5.270997933765172228e+00,2.252470309152707184e+00,-2.979490078972342637e+00,-2.277462759619958810e+00,4.630773531249207764e+00
-6.632082236602365732e-01,-1.043786191261850682e+00,-1.098685101639971518e-01,-7.639040315023020167e-01,-1.975372622322050464e+00,6.125113490791809667e+00,-4.000447365195741511e+00,-4.848752597239616158e-01,-7.232471742867514486e+00,-5.157623284892683735e+00
9.225072654563646335e-01,-9.920322455810675066e-01,5.660971514358236201e-01,3.410606294218379575e-01,-4.530772648444433837e-01,3.943153205758865631e+00,-5.046928058544768447e-01,-2.436123712880575720e+00,-2.421110423329276562e-01,1.521842081323242502e+00
1.319344953701415246e+00,-9.987410033020907019e-01,4.371604906622807429e-01,7.596575383537629289e-01,2.031737781266381493e+00,2.615140752506846855e+00,2.287686554614225098e+00,-1.476334254523832046e+00,2.917768902303933931e+00,3.883867736557970574e+00
2.442619786107039503e-01,-2.265505574321534932e-01,3.051299470727560359e-01,-5.703545358968568069e-01,-1.300131150603245578e+00,6.143934016510069540e+00,-1.087086792283210146e+00,-2.382704503948191554e+00,-5.659082154815113341e+00,6.882313774112883142e-02
-1.758281280169559646e-01,-3.828585671659225365e-01,-1.085532294623366978e-01,5.954907371920936665e-02,6.155135999353913284e-02,-1.158692967508838378e-01,-6.928431467810096667e-01,6.250243734115539240e-01,1.699803357809147042e-01,-1.365259046875192617e+00
1.005904394954124870e+00,-5.899965037202322890e-03,3.218985043813852864e-01,6.402734453849688867e-01,1.700987239186799282e+00,-6.663804875692006524e-01,2.863132592167910051e+00,-9.088748679547702380e-01,3.956777099129747288e+00,4.420343623880658157e+00
8.591193283752243670e-02,-3.022044627263482663e-01,-1.048883059168557452e-01,1.305392769200762193e-01,1.056949898463189763e+00,3.358214655077047528e-01,6.905095683169829579e-01,5.606351785471019866e-01,6.010084185067149365e-01,1.305179448626485605e-01
-1.051796678426241805e+00,1.132359055146662907e+00,-3.443601299836572815e-01,-7.316832042487403376e-01,-1.639278534200447446e+00,-2.032820284673423128e+00,-1.383762178565874468e+00,9.783630810748262796e-01,-2.843833019855771749e+00,-2.475559798581886906e+00
-8.096469197994945466e-01,8.446291660199432005e-01,-4.401004488636487966e-01,-4.591819365879218906e-01,-2.491666717680628487e-02,-2.147003348459425531e+00,3.887282495145011341e-02,1.636616371786616231e+00,-1.213402310532577300e+00,-1.528727476961293519e+00
