4.451257210006327014e+00,4.001535921688986974e+00,-2.835972572589810614e+00,2.900120576246460136e+00,-2.985157779571458114e+00,-1.052421867034810221e+00,5.316997674537121021e+00,-1.890478123191404514e+00,-3.544253270827905311e+00,7.306485582964309389e-01
-1.279338959648721241e+00,6.125589833211672053e-01,4.790493488911909958e-01,-2.594929546147329180e+00,-1.995523295187202173e+00,9.810304329630759046e-01,9.601734946506166324e-01,2.869450787990472485e+00,-6.704540935881388997e-01,-6.059931400764542175e-01
4.058782253693205555e-01,2.831592582874526975e+00,-1.422982654834873406e+00,1.893873178197282847e-01,2.980130106361948972e-01,-1.094782003481928445e+00,3.251040963881452139e+00,3.970840916273926435e+00,-1.485977620711155245e+00,3.195206175317337749e-01
-2.621175209960601826e+00,-8.463160611249719301e-01,2.168144903878253871e+00,-2.898656529699435325e+00,8.997191693146393554e-01,6.519367437155596523e-01,-3.052592108848358521e+00,2.046028750415264330e+00,1.959686014751816474e+00,6.476844209258746377e-01
3.158082548204278472e-01,3.517487790893841115e+00,3.680877013897241312e-01,-1.450592540209088233e+00,-6.077685597112869598e-01,-6.559274189313882841e-01,8.074556263642125309e-01,2.514455733367193524e+00,-3.891192398264037844e-01,2.307322251241478384e+00
3.238250543907034817e+00,-4.322176051217718751e-01,-2.439369170258276931e+00,3.831307596153826545e+00,-1.505568360529586425e+00,-2.428599669746658862e-01,2.941353200965160397e+00,-4.398766901176277777e+00,-2.147733472727745063e+00,-1.476895932599203487e+00
-1.891097694988394640e+00,-1.997420867950515933e-01,3.027049877144231127e-01,-3.909795817483276981e+00,-4.478951464834241669e+00,2.301581869715040973e+00,2.348458936661916407e+00,3.630600877849435193e+00,-1.789547192862096514e+00,-2.474438941799446123e+00
1.094009481224566427e+00,1.256336578219692690e+00,-1.055866838112248907e+00,1.279504258875571621e+00,3.571263390053778797e-01,-8.171434112050015575e-01,1.581019629002862636e+00,2.918766643946200112e-01,-7.939874547911740521e-01,3.077298605245964991e-01
2.768619237434911007e+00,6.359688525667712256e+00,-1.567674807248792934e+00,6.100136546646681701e-01,-1.109723749610941557e+00,-1.909094106973370009e+00,4.156556035649927594e+00,2.631237732953742636e+00,-2.310923997706432420e+00,3.038978152268610788e+00
1.153438319494389935e-01,-4.339162681057920357e-01,1.210098980064352903e+00,2.736121520670109497e-01,1.352837252144079905e+00,-3.152192312110415617e-01,-2.933079595760040625e+00,-2.336444942256045376e+00,1.682633266039403441e+00,1.639684267746541524e+00
