1.016364352030562745e+00,-1.827112144582283770e+00,-2.694110761463415216e+00,1.229040111380196754e+00,8.438586011634948703e-01,5.879757483041341271e-01,4.477841620417811086e+00,-6.780727806451056772e-01,-1.483036796260588819e+00,-2.216567614815377674e+00
-6.267316873744697148e-01,1.795490633742430120e+00,1.564844340319410110e+00,-3.227792526734725165e-01,8.233662893813441519e-01,-5.770282739881168466e-01,-3.996327406778223401e-01,2.109403411279739071e+00,-3.647381804365296132e-02,-1.537991786678438721e+00
-7.942621329710632949e-01,-9.586008871112755569e-02,9.787108857028428144e-01,7.383815972825642504e-01,-2.032142899730534857e+00,4.474618445940087841e-01,-1.825200644536516981e+00,-2.842422172007459391e-01,7.532919191209573873e-01,8.327453861619171782e-01
-1.470441083452453057e+00,-1.633932802876925550e+00,1.328753785036420609e+00,2.242694675740379395e+00,-4.725284347302772581e+00,1.641651027405810481e-02,-2.123616553399181317e+00,-1.120496868958466230e+00,1.619516640786107242e+00,3.222075514124383755e+00
-1.735586744448436025e-01,3.286257135571351018e-01,9.218807215900778340e-01,-1.001563432190687442e+00,-3.809238774770216662e-01,-6.762675412396372820e-01,-2.349088758659803045e+00,-4.551801821523567826e-01,9.676489241759016480e-01,2.677043680052701102e+00
1.547329303297576342e+00,-2.017363565860158303e+00,-3.741289183027729948e+00,7.243373829227164329e-01,4.731641184063279937e-01,2.904580970244962312e+00,2.606856720405475780e+00,-2.610085992467931604e+00,-1.607608256736659857e+00,-2.821994197966481988e+00
1.227461102861483244e+00,-6.566920353649828845e-01,-2.209756973438240735e+00,-3.984740878729085001e-01,1.648056378416118184e+00,1.042820328428178955e+00,1.975214663287995664e+00,-1.008149264422142588e+00,-1.146404072594372714e+00,-1.697659447148456069e+00
-2.235154528634027971e-01,-9.972700216426499953e-01,-2.274633722300380967e-01,1.367471659570669518e+00,-4.507549353977626794e-01,-1.090807417281801417e+00,2.626100968220711263e+00,6.792465260013296202e-01,-2.395006839048284819e-01,-3.640738202526305756e-02
-5.511129128936561594e-01,-1.137464904046565417e+00,-4.812917284684575803e-01,2.502621916954767656e+00,-1.762990067202232281e+00,8.578754388854374913e-01,2.219569657415163544e+00,2.709065507377699245e-01,-5.378270058506073870e-01,-2.217839444775157709e+00
9.494873406129410442e-01,2.036901546218397030e+00,-1.282368031318932289e-01,-2.633371924431459732e+00,3.723816187656010523e+00,-3.130748814908173028e-01,-2.512670804180654471e-01,9.509066807826962453e-01,-6.783354566474393277e-01,-1.333147188867180866e+00
