5.529745854071621558e-03,5.052231203727245434e-01,1.586760141526757817e+00,3.482696323219130363e+00,9.296644445863886386e-01,-6.708256748020732241e-01,-1.089782959552581865e+00,1.698329581621736417e-01,-1.020644894041917716e+00,2.124576899263015406e-01
1.781338911826366722e+00,1.758030384145328195e+00,-4.065069196077753411e+00,-2.874353251484743410e+00,8.046661074787053725e-01,1.403998511413765138e-01,-1.464410014673302340e+00,-6.640217615375325622e-01,-2.658730610913045744e+00,3.389500898550059649e+00
-1.595647127784351582e+00,-8.300925078980834204e-01,6.718148160161919513e+00,2.084701235429665900e+00,-6.146593699745446227e-01,2.174016671825807490e-01,3.242239712743759661e-01,-3.755062040461266903e+00,5.605472440449656091e+00,-5.787260293096831099e+00
6.486713364353058342e-01,1.551096625197898315e-01,-3.274323034080745209e+00,-5.985397678482733408e-01,2.048379696666971506e-01,-1.896674975374982031e-01,3.071205949973143667e-02,2.450340197587175695e+00,-2.867629945197166741e+00,2.772374922467164549e+00
2.375516110000722936e+00,2.434518698176238338e+00,-2.084696083831190094e+00,-1.703335647698484667e+00,8.906624791741013514e-01,-9.944140783862065458e-02,-3.244539209500490795e+00,-3.153958191350846985e+00,-5.737076879363692816e-01,7.401698442331822170e-01
-1.964587208334093837e+00,-2.017002153553747734e-01,6.679213392379503844e-01,-1.512678060312169226e+00,9.916944141882251262e-01,8.148189401846850366e-01,2.991701415949923337e+00,1.445163274595069325e-01,-2.168822215299921918e+00,4.285331463368541094e+00
2.631480502662320919e+00,2.606636412528795521e+00,4.125520724449889265e-01,3.447913200151262458e-01,7.475195565251623320e-01,-4.684683562143516777e-01,-4.681847737518028296e+00,-4.862359511913174615e+00,1.744735096735032798e+00,-2.486631671919606212e+00
1.997118118553279364e+00,1.352773380698610195e+00,-6.974129111534452807e-01,3.757324834167677263e+00,7.553511427975584391e-01,-1.257874535050715892e+00,-3.626074913359239815e+00,3.385876225599811495e-01,-1.291372300799846995e+00,-7.113909774288356136e-01
2.295832421652001187e+00,1.668605763025309052e+00,5.282934824857619116e-01,8.633050546970046923e-01,3.164604281183258649e-02,-5.695976897595431687e-01,-4.074300965990534706e+00,-3.497905177677989919e+00,2.429547345915440193e+00,-3.692128278097749572e+00
5.076240295622902465e-01,3.891846928547845197e-01,-4.259751964222818210e-01,-1.468704569728203957e+00,-1.834262005282504826e-01,2.236520663820808774e-01,-5.075557666648191635e-01,-1.324298165262087990e+00,8.666519069176850110e-01,-5.909254183912153735e-01
