7.531494724382190586e-01,-1.303263887733501214e+00,-1.127493157511588073e+00,-4.994641477060807744e-01,-2.939603430075340196e+00,-6.231745162954156925e+00,1.697710630691335876e-01,2.578995062386002068e+00,3.254125109906591540e+00,-5.294170053490462324e-01
5.458634290148323825e-02,2.498990206082481791e+00,9.660936769925578815e-01,3.929085299740772808e+00,1.372631161035492431e+00,-9.178679030451827314e-01,-4.384936008491622239e-01,-3.212311222077981476e-01,-2.336327094036921626e+00,-4.901858017284500546e-01
8.576009276912218704e-01,2.551206886836835164e+00,3.362634917237377619e-01,4.314279552357810132e+00,4.764961303431263229e-01,-2.898309129039962517e+00,-1.445022071423970100e+00,-1.697611720269479152e+00,-1.750924789678613536e+00,7.427533984937160216e-01
-3.295364056968877353e+00,-1.030839054462686644e+00,2.311181272733138226e+00,1.522864633897636377e+00,-1.392706495635735120e+00,-3.079563272274380203e+00,-1.096119036593001139e+00,1.562431549755657123e+00,3.435994560482625859e-01,-9.966523519200904957e-01
9.518893102253240812e-01,2.117717360414455907e+00,7.494445997431646578e-02,3.186345730499849704e+00,6.260786854547254476e-01,-2.530143638384161786e+00,3.966754998791349740e-01,1.271975026511602547e+00,-1.026950090113105896e+00,-1.095405785219175865e+00
-1.524777879772297728e+00,-1.651054007247676259e+00,5.721616801798237173e-01,-3.113965051419095964e+00,7.656508341417324059e-01,4.876044434228352209e+00,8.859150539291047455e-01,2.867008195686923111e-01,-3.337305932873785991e-02,-4.184724718312051728e-01
3.166655587721535436e+00,1.770084357906085870e+00,-1.881503318451840823e+00,1.974325879786202664e+00,-5.476131782164455064e-01,-4.162058989875056625e+00,-4.421404235080970968e-02,-1.921057443721507774e-01,5.275981513507037590e-01,5.470355601326225559e-01
-6.287496851088393290e-01,1.195744544988050384e+00,1.016411163262334494e+00,3.693853132619401514e+00,-7.556942345206143496e-01,-5.044077268498706523e+00,-6.022309258801387122e-01,1.652373941490379972e+00,-2.521418594292841320e-01,-1.090438343173422364e+00
9.360228014615828984e-01,1.562018708301380787e+00,-1.316016990219301130e-01,2.641798528207436547e+00,-2.126865770356966417e-02,-2.943888405380937101e+00,-2.883001498677036367e-01,2.609819510375752105e-01,-4.958396524086780000e-01,-2.122995368930435667e-01
1.055388529560663535e+00,2.804332691522466003e+00,2.471433325250747548e-01,2.062127928611613648e+00,3.256864571717540180e+00,4.649552408041818019e+00,6.042584475669191685e-03,-2.683073580760128252e+00,-3.614200451991735008e+00,6.022342848524071535e-01
