-4.304957483904741644e-01,1.039850215735441896e+00,7.707640397047659242e-01,-2.288208735919628811e+00,9.416733459709244469e-01,-1.304762494268364881e+00,-1.871334089802574319e-01,-1.206243031566919921e+00,-1.186630706844329808e+00,-8.634332540131169909e-01
4.337882345902108194e-01,-7.083222019615834641e-01,1.692806934851072420e-01,1.854307575790438811e+00,-1.113446535186258357e+00,1.339114498802317366e+00,4.667497438587409064e-01,-1.000856560739948220e+00,1.854994176272938278e+00,-2.628622607131696487e-01
-4.430792267909711146e-02,-1.786883811327887095e+00,-1.855555452493985902e+00,2.812195760702981051e+00,-8.541455296883078141e-01,2.627470155978250066e+00,3.550924173500291658e-01,1.040590242512713370e+00,2.493683329834073703e+00,9.836661228229268694e-01
-6.834424644803969162e-01,-2.929183445814906861e-01,-1.265607728946578137e+00,-2.678268989260574884e-01,9.338993676589867343e-01,1.347378345872488614e-01,-1.087771947335436085e-01,1.601058782353983023e+00,-5.254106605760722193e-01,8.702560932405167815e-01
-5.936411740324710751e-01,-9.366548357164697358e-02,-6.140694210799473307e-01,-3.878072547333092368e-01,7.346114767696234615e-01,1.289834098831028342e-01,7.442197854371739030e-02,3.216213657474240040e-01,-1.368760984921485180e-01,2.190750538276168280e-01
-1.744157806166324987e+00,1.235397650021047067e+00,-1.476971984896552348e-01,-3.223523323839543320e+00,2.992195396019539544e+00,-1.924873622777407256e+00,8.317635621379274036e-02,2.945766772547654400e-01,-2.668053472104716661e+00,-2.632350178077065561e-02
7.974751951868038757e-01,8.086937289371303184e-01,-2.471389811875233100e+00,-5.481973882462707337e+00,-2.106762111274978477e-01,-2.044254067706934741e+00,-3.808051246775969734e+00,3.983991081024293113e+00,-3.179097267305914354e+00,8.714792997501478178e-01
-4.740280211693665424e-01,6.974083222141774785e-01,-1.187561672689309233e+00,-4.230927218609697782e+00,7.757071805677573373e-01,-8.314944308178395804e-01,-1.676862129354356856e+00,-1.271700972084013892e-01,-1.056562078246660263e+00,-6.278606930494744498e-01
-4.280903242910235607e-01,-1.666037365381338509e+00,-3.934629884556399393e+00,3.550900442986144601e-01,7.395312657134825440e-02,1.807868873862426895e+00,-1.190650817361457170e+00,4.155376776523546312e+00,5.712755417238565281e-01,2.166500615632590332e+00
3.149350456746074362e-02,-3.180460081478919232e+00,-2.065929366008103063e+00,6.776575341380573825e+00,-1.675165166762355273e+00,4.763884811967484367e+00,1.722456460247208998e+00,9.641045728588435448e-01,4.855515462880061861e+00,1.575800897587376959e+00
