1.677581081452339973e+00,1.962227686533391413e+00,1.225031915652908143e+00,4.453523979612823425e+00,-1.399240367808128216e+00,1.460133569177090918e+00,-4.396129801787753699e+00,-9.715566080272741711e-01,2.665899362765578484e+00,2.163237994578753653e+00
2.327595752952970384e-03,-8.932743131728785313e-01,-1.121518465223601130e-01,6.706322687592116694e-01,7.543904016216643302e-05,1.549960452748914974e-01,1.196279231901518081e-01,-4.998314791281408542e-01,2.721500602943233149e-01,2.406936951931535618e-01
-1.735542087608448747e-01,9.077135961074357384e-01,-1.205718957049897178e+00,-1.086406991112254250e+00,-1.683537208231017823e+00,7.549984371043563236e-01,9.637743363171902278e-01,1.157920835468257525e+00,-8.584639710840532567e-01,-1.507733084102085508e+00
-1.498180099091184658e+00,-1.473683603532015107e+00,-3.360204186914927948e-01,-3.057401046259765831e+00,1.952829462886200629e+00,-7.301710166542220160e-01,1.085956721182387952e+00,-8.977373022341538222e-01,-8.485774355855315587e-01,4.030826484966530399e-01
2.626877788978176476e+00,2.393571900667292862e+00,-8.386155835168142003e-01,6.487866952380358043e+00,-5.754036624405562073e+00,3.347485900946823190e+00,-2.579812194481730714e+00,9.618140712740929077e-01,2.152070461835944304e+00,-6.831372010104830306e-01
-1.840291730248336144e+00,2.087942655348233867e+00,-1.057648312354175113e+00,-6.131296494455400037e+00,5.836078560355753009e-01,-2.014580396352856628e-01,7.695733177076004017e-01,1.036196419877048358e+00,-2.054384928905760965e+00,-9.798071531284701097e-01
-1.816268281147202401e+00,-1.757949267665585680e+00,-1.679001138596934117e+00,-3.886335325555552611e+00,5.699759732235293308e-01,-1.181924956646764197e-01,2.714839054146558794e+00,-1.251775072340025885e-01,-1.729847410360708437e+00,-1.088699037469009312e+00
-7.350163247420632429e-01,-1.491814983132483174e+00,8.143046395553216188e-01,-2.445795570038562072e+00,2.978197919315905384e+00,-2.563741273581353841e+00,2.649558285270072755e+00,5.341296082020166036e-01,-1.548084984986062729e+00,-6.909294948327603381e-01
2.101226000304112329e+00,2.581836153747811835e+00,3.416832096104366334e-01,4.984349173509950326e+00,-3.349452508831015418e+00,2.180102940192534255e+00,-3.514451525840916357e+00,2.189881708258925863e-01,2.230850493491956410e+00,6.737977316585537224e-01
1.952549257899974244e-01,1.714731567124793132e+00,-1.023082069253466786e+00,-1.961934561894375373e-01,-2.244075490607087442e+00,1.304021280706400887e+00,-3.070539954850892150e-01,9.776550185322140374e-01,-2.143540946245308942e-01,-9.947390889504760247e-01
