2.539267998053601261e+00,5.344219167316077712e-01,2.127696119517138662e+00,-7.655795970663207273e-01,-1.211457881717173057e+00,9.843835224462893496e-01,-1.227746409628496904e+00,2.128316467933021983e+00,-1.032345483663412056e+00,-1.640571203967356340e+00
-4.748356351490574667e+00,6.687638538007532052e-01,-2.345462467843716592e+00,1.138657759089042099e+00,5.867760548898437456e+00,-1.249028062443713782e+00,1.595367655589553513e+00,-4.469213478993927957e+00,4.705310786080630497e-02,9.055610779045143444e-01
-2.052189388319374252e+00,2.491487971231355569e+00,-1.877788823881036517e+00,3.226145118400056244e+00,-1.357693528643289627e+00,-5.733954956802558289e-01,-1.533009629948482555e+00,3.470568691798672223e-01,4.439497304531656585e-01,6.036484360097970070e-01
-1.299192390967948807e+00,1.659019837528570740e+00,1.526009271116193222e+00,1.153801316821329914e+00,2.849544778315548643e-01,-5.713198912460094592e-01,-2.058944691504207114e+00,1.170552141921328282e+00,-7.054080856856409509e-01,-2.622732608299074286e-01
-5.897128521626510134e-01,-7.416419697494499585e-01,3.926354704464883327e-01,-6.896850721576914811e-01,1.207886575522895578e+00,-3.351839689001310241e-01,5.168403180939535879e-01,-6.792258387172045442e-01,2.744999673986993523e-03,3.203573873012882101e-01
-6.313697151887573078e+00,-3.014732208161771121e-01,-1.222992760562003456e+00,3.216904316649930706e+00,-2.576386553266166946e+00,-3.646429232872928416e+00,-1.572180181506563912e+00,3.276924649295530623e-01,2.601059800200073990e+00,5.023752904156487453e+00
-4.071586292432370691e+00,2.266232404420998492e+00,1.441613176426572274e+00,3.191513013303450830e+00,-1.715520782238136421e+00,-2.226823720986024213e+00,-3.737816854317776105e+00,2.265733013245976757e+00,2.855315476812975706e-01,1.809410259346195815e+00
3.979114774720831638e-01,-2.342122191285399779e+00,3.279311814063816222e+00,-2.137468671536195242e+00,-1.060779813825728946e+00,-8.377201020034672485e-01,-5.006021846958508270e-01,1.720285018357450513e+00,1.680308099815230605e-01,1.015913714136728485e+00
-4.801742025750413312e+00,1.177545698343101854e+00,8.242115756746521971e-01,3.001807541830906256e+00,-2.083507605045376909e+00,-2.783892723302360039e+00,-3.034253624823586737e+00,1.745418887716742695e+00,1.087102990144776848e+00,2.992486601004763269e+00
4.535893144360075624e+00,5.104885078256569120e-01,1.105245290658588120e+00,-1.610031623572203863e+00,-1.434786079620901100e-01,2.353691934184034551e+00,1.641788429767886415e-01,1.053124488005066972e+00,-1.528032409883244958e+00,-3.130746305759222636e+00
