3.915860047202092131e-01,-6.949563720485463225e-02,-9.251049955420614923e-01,-1.667810867585860946e+00,-1.773322703184150306e-01,-2.951541986941108586e-01,-1.257792436736801411e+00,1.626551143704584756e+00,1.239295128805650847e+00,2.681891059879454531e+00
4.024515150989382839e-01,1.254872520229490807e-01,6.929461375092984543e-01,3.420121999952519531e-01,5.178070585529210845e-01,-2.710996923946741077e+00,1.978110522569000107e+00,-2.696149640992268059e-01,3.676655401203545726e-01,3.240144079911118635e-01
-3.816520388141454445e-01,9.909234138300135886e-01,1.330238016646443588e+00,1.268194783259892766e+00,1.451146127794128438e-01,-1.427046296933933700e+00,9.575618396798580845e-01,-1.284339742612435664e+00,-8.955889229764363302e-01,-2.338678469847964791e+00
3.373615820472753435e-01,4.871882150075582119e-01,-1.682123332640733215e+00,-1.592559975256718774e-01,1.088438236082024835e+00,-8.259610423011634062e-01,-2.497746762976669199e+00,1.943652728774188709e+00,4.680358181660267403e-01,8.269074920287472485e-01
-1.096241073013169309e+00,2.631974348706754285e-01,1.061108150982011250e-01,-1.214234092445402258e+00,-2.045774202664861097e+00,4.836454756160158297e+00,-2.825288252646951825e+00,-4.102811074109556921e-01,-6.919063921045373045e-01,-7.188952228980312054e-01
7.632512544637333196e-01,6.781179658722719106e-01,1.026395446840457915e+00,-1.081583002808520350e-01,7.970663260012886830e-01,-5.342477645214277260e+00,2.603315728631425241e+00,2.354586132711089519e-01,1.110559436889001939e+00,1.433502828299631604e+00
4.938735010663666269e-01,-1.343251857541348571e+00,9.332098819039799653e-02,-7.637400571263429638e-01,-3.233210355211396103e-01,1.146066641951744430e-01,2.077728212222496929e+00,-1.304080986216633875e-01,8.067588503468857697e-01,1.959608500306870171e+00
-1.188710918549090945e+00,1.084575657458774378e+00,-2.238496016745109181e-03,2.940503665529365374e-01,-9.580736379494241284e-01,3.508300921926242211e+00,-3.335847443802498979e+00,-4.931155090693618015e-01,-1.445108371762984678e+00,-2.705254816651601502e+00
-1.007869067171481420e-01,-1.994851514528306891e-01,1.270049863382618716e+00,5.187211526143070683e-01,-3.342972234290160216e-01,-4.752762912115562899e-01,2.212929746884520821e+00,-1.390643945899443068e+00,-3.414298929996286147e-01,-8.086019623756938168e-01
-2.641079970351042222e-02,-4.385458891492166611e-01,-1.172287666024030978e-01,1.594721180416358020e-01,-5.614706604360757830e-02,8.641400241117863645e-01,2.073501802592339904e-01,-2.297747753058291542e-01,-1.711550697393352805e-01,-1.723807642642993243e-01
