-4.512962294495546645e-01,3.685140629420815550e+00,8.970922433790139150e-02,-1.993438448550293174e+00,1.064701203353862313e+00,-1.351877512330561248e-01,1.833405241865084134e+00,2.774816331759468291e+00,-4.796109370464071708e-02,-1.275447495296433864e+00
2.258987453510779286e-01,-4.858332090127097103e-01,1.039738715478928377e+00,4.496233350201929713e-01,-3.861142335023834971e-01,6.017269240802195496e-01,1.776307269229973895e-01,1.018833458827021587e+00,4.242642249444631974e-01,6.502768347965512952e-01
7.359420068338704546e-01,1.903405856742266256e+00,-9.139220712804144164e-02,-2.288800055716919413e-01,2.111638854396320486e+00,-3.458905372954323987e-01,-1.526946423897140415e+00,1.500250242321255811e+00,-1.967438097658433138e+00,-1.081101846830769597e+00
1.224017845186255782e+00,4.218351713385120938e+00,-3.236313916819567593e-01,-1.050687427061349322e+00,4.342615657392030037e+00,-6.175664165159783225e-01,-2.218204339930812452e+00,2.637488530615064164e+00,-3.892298799325029091e+00,-2.709935858165322564e+00
1.041364770850811361e+00,2.840824460827215514e+00,1.331001326397597273e+00,-3.913119309411404456e-02,2.030913177684460891e+00,1.605774894793148833e-01,-1.367484710991456520e+00,4.710842059876987342e+00,-1.485399853017011385e+00,-2.688857960262470148e-01
8.469050177673422830e-01,-4.118114289389087190e+00,2.861943602100559758e+00,2.084105952864818700e+00,-1.414918847383539902e+00,2.213389919393529137e+00,1.992412358843969333e-01,-4.547230052093619856e-01,8.385995061977220555e-01,1.696309923583560364e+00
-1.541912813160357221e+00,-4.700714554943048462e-01,3.332717921177813514e-01,-2.366607328943824307e+00,-1.240640341185456963e+00,1.447588692506866614e+00,5.694609623771622609e+00,-3.139344215567981156e+00,1.833114568816979650e+00,-1.696661770670584435e+00
-6.474682147828281220e-02,1.294903393455148155e+00,3.192855025310681327e-02,-3.265310218594187908e-01,1.721214559826641788e-01,-2.715144043927394946e-01,1.805735118657728761e-02,1.639463701835556897e+00,1.360070519456323401e-01,1.113339989749360104e-01
-1.103453843870183526e+00,5.420255800912916477e-01,-1.607477079971688649e+00,-1.378491701197591679e+00,-4.971102635326654084e-01,-6.603323894979006292e-01,1.726983727429156623e+00,-2.240367201368693717e+00,6.712456923489076299e-01,-9.430247831822738958e-01
-1.026926109999642955e+00,-4.557701574570515723e-01,-2.133066121979258600e+00,8.591658603200471589e-01,-2.677817786830528846e+00,-2.130081793223633557e+00,-1.414950623260395224e+00,1.651090006301163537e-01,2.391478043932823372e+00,2.688719724579224923e+00
