-1.016282408804123349e+00,2.488111301127121644e-01,1.071922591064882635e+00,2.212993800717811155e+00,-2.438475003129657814e+00,8.620182333305411726e-01,-2.067061007896770164e+00,1.009457077082889453e+00,-5.205659591580040768e-01,-1.584000817940988126e+00
-1.049444649426539033e+00,-5.284008616677328796e+00,-3.006746218306871832e+00,5.989610529726108190e-01,4.464975796889036452e+00,4.993154182747616687e-02,2.100750448876246956e+00,-5.343079952027129931e-01,3.007164904524975313e+00,9.139520684207416146e-01
1.369805637158409528e+00,7.535228054485545446e-01,2.367891966848756358e-01,-3.830309698305296440e-01,-2.154109593214565521e+00,1.648150304659822485e+00,-3.976608295162872508e+00,3.772431402334103012e+00,2.528824818301288468e-01,-2.882000497493084623e+00
1.701982558766570008e+00,1.306388798993240563e+00,2.581576822519907610e-01,-1.220408643855183550e+00,-1.650121473709179165e+00,1.299983084083084162e+00,-1.338438156767590037e+00,1.854612114844759185e+00,-1.141886982055604904e-01,-1.305589309616700611e+00
-1.657186740887737653e+00,1.964489860108691310e+00,2.058091702068780560e+00,1.895659676358166568e+00,-2.005744350438170898e+00,-9.605026101997130583e-01,7.174411615881562954e-01,-2.263459784387277907e+00,-2.058873749825999688e+00,8.570519290802713908e-01
-5.036957766365690592e-01,9.708585994357769033e-01,4.716100147327385583e-01,-3.384841724421181475e-01,8.467188155895080115e-01,-1.798179753851652185e+00,-4.403825001572112541e-01,-6.917808014809518902e-01,-7.948884856797246989e-01,7.598112340445295487e-01
-5.392358257250793319e-01,1.778192574274504834e+00,1.693812865592757344e+00,1.403528790680111271e+00,-2.898678727110588049e+00,4.668859829990480437e-01,-1.000120045278440450e+00,-1.086348357739230774e-02,-1.397404875696262927e+00,-7.673393228868181648e-01
1.236146333503247874e+00,-4.145296682164911317e+00,-2.949565156534902588e+00,-8.774061318705744794e-01,2.320735652185700548e+00,2.446728172310545624e+00,2.690480132593565443e+00,6.045995341665618694e-01,3.117236962301939585e+00,2.005196900039260544e-02
-1.949558207101266039e+00,1.288274568051060109e+00,1.121577460453430763e+00,6.494883193064977522e-01,1.326473038817891581e+00,-3.293741470972746388e+00,4.959140679052422840e-01,-2.635502915541542812e+00,-1.641489246599673102e+00,2.006403153593122379e+00
8.903066026274000233e-01,1.078421068575608821e+00,4.690065355673689318e-01,-4.340765335973518768e-01,-1.531231052440618967e+00,9.229638306282134108e-01,-5.068220016581996834e-01,7.763085211787912332e-01,-3.458690696623131222e-01,-7.107068011907435867e-01
