3.973606798430518450e-01,3.076905791710861093e-01,-2.002766941078564678e+00,-1.052871103675548037e+00,-7.719893169676852462e-01,1.760732892769578006e+00,1.492435038487396781e+00,1.908517727418523879e+00,3.880533734256833789e+00,2.601841436445453848e+00
6.302640897246558627e-01,1.762666418789392342e+00,-1.267913813588396721e+00,1.814959078166578088e+00,6.474979160788482124e-01,-1.424756432417376706e+00,-3.410787334083467570e+00,-3.348502290833528239e+00,-6.374448596344445939e+00,-3.296042997827138166e+00
6.255914306049233931e-01,-1.587683423046753584e+00,-3.425580602886251214e-01,-5.143065799036954377e-01,1.738022669383418872e-01,-3.932817461543194892e-01,-1.019538790082235691e+00,1.163718561898123172e+00,-2.250862028644309842e-01,-3.507652433215112109e-01
-1.664941029676608730e-01,-2.895664103589836724e+00,1.908685038322203820e+00,-1.671876862132454455e+00,-9.801150586042566004e-02,-7.487186721226162245e-01,7.538833954208841170e-01,3.523383210376425101e+00,2.144316977843081951e+00,7.635249231277242421e-01
1.466047670659776370e-01,-2.020103466304255857e+00,8.684106450901182273e-01,-2.405079330648596692e+00,-6.441891411475583196e-01,-1.461569281135678633e+00,1.293237318080093790e-01,5.332634945104341995e+00,1.067618767623840004e+00,9.025886362774899752e-01
-1.826727537852057104e+00,2.541090695988617476e+00,2.307170537070624583e+00,1.444824499677723972e+00,1.381668487392642003e-02,8.828965369458362522e-01,2.794953749344450067e+00,-3.343481701760246505e+00,1.069990690573059622e+00,5.133569041991735693e-01
3.290968233326696968e+00,-4.195515786552091342e+00,-4.684635258613025321e+00,7.864914968911544957e-01,1.452325798375613930e+00,1.186641832414974562e+00,-4.964893115826745529e+00,-1.775228907945589407e+00,-1.450786912927982675e+00,-2.036017190089457252e+00
-2.056707989836917605e+00,5.492583274951411632e+00,3.427291182409210046e-01,-1.537226525267303412e-01,-1.651288468037740875e+00,1.675966330365682433e+00,4.880460412127774816e+00,2.141515466141295787e-02,3.688535108752591718e+00,3.553639873970812602e+00
2.136530715219158716e-01,3.781992345181941495e+00,-2.767046107902776164e+00,1.866916350554905124e+00,-7.959103117321748855e-02,1.460621501879949102e+00,-3.710193120777528497e-01,-4.038311607240276935e+00,-1.524009104199251174e+00,-2.121926251278802300e-01
4.965938618022864293e-01,8.683194795437798597e-01,-1.958132984982040359e+00,-6.325201940307291215e-01,-5.974387133153068463e-01,6.434000025751448471e-01,1.283450952586394633e-01,1.313255151340057880e+00,9.933852645504382961e-01,1.170542821516139975e+00
