-2.086927292850914162e-01,5.195839901073732170e-01,1.427196287484038706e+00,5.519854577960758846e-01,-2.313178151167853525e+00,-3.416926861723498798e-01,2.182330183959519498e+00,-2.646398708710234082e+00,1.804067613328076414e+00,1.615779963857782997e-01
-8.746981062412789720e-01,-1.850425465243986656e-01,-5.240271480963742956e-01,8.257185822432050459e-01,2.563812670799697546e+00,-2.950434394033934371e+00,9.938352856801871971e-01,-1.998140330124506425e+00,1.363620072609167400e+00,1.799083254339348681e+00
2.643891459987349549e-02,5.436924870116965902e-01,1.047666776134522859e+00,6.995670065528070136e-01,-1.659833941603735319e+00,-2.158741471958382174e+00,2.361318182185002446e+00,-3.763729982611882185e+00,3.223179520278949273e+00,5.599768392398830619e-01
-3.375139207315128065e+00,1.271892950373128883e+00,3.050838500184005486e+00,2.119681349420804661e+00,-1.885476565346703381e+00,1.437310427520762657e+00,2.822356186201930406e+00,-1.881826979720032655e+00,4.155912158437997661e-01,2.170348847559262495e+00
1.796316622009447306e-01,-1.604172106249415197e+00,1.041897512054806990e-01,-1.187155758309469400e+00,-4.385635433529526672e-01,5.351391677514163447e+00,9.691966510697311854e-01,2.349132892407395090e+00,-6.084384248450331434e+00,-1.598701426176237561e+00
-2.446560468025602564e+00,1.509133231633490446e+00,9.051415775840294664e-01,1.886658079958322132e+00,1.033568930998970625e+00,-2.287160229717912774e+00,-3.810599370427910082e-01,-7.388881826830986377e-01,2.770537786826745119e+00,2.578706034341748499e+00
1.335657375274832692e-01,-3.505500338530566640e-01,8.727862529527661284e-01,-3.062318947939632330e-01,-1.802818014448298367e+00,2.294923272139283377e+00,1.482397892105151049e+00,-3.093689411086764096e-01,-1.582630054105520490e+00,-8.217173992807855765e-01
1.944139947103428634e+00,-5.912787330997728574e-01,-6.445792594446062562e-01,-1.287277342633739385e+00,-1.148575411718061545e+00,1.014037488583968027e+00,-5.383581263929929639e-01,7.310846856362941404e-01,-8.031425521797612710e-01,-1.912145951665088273e+00
2.394333411112394838e-01,-1.206790531875282513e+00,-3.146449267332651067e-01,-9.241833221866291304e-01,2.945692160354779210e-01,3.426171117004134015e+00,1.963721284660063515e-01,2.005830149025740639e+00,-4.303134196333636474e+00,-1.088204866258462911e+00
1.138838339492908247e+00,3.049215829461695004e-01,-9.602272249328733800e-01,-1.490852433590581783e-01,5.766812554890908826e-01,-3.097298395196580234e+00,-1.026010786512859818e+00,-9.247892162026519758e-01,2.920363261834734381e+00,-2.092518976723761054e-02
