-3.809399775272724886e-01,-5.758211662312981982e-01,8.377559776470814429e-03,8.672204029177753570e-01,2.243834232422640129e-01,-7.579574007655328627e-01,2.601540379554166948e-01,-1.487251887102207237e-01,-2.042016107653213675e-01,1.589364942673472114e-01
1.627836416177271150e+00,1.886977282374674436e+00,-3.286018192406836014e-01,1.513250624281047285e+00,-1.247353621968951387e+00,-9.344982545166563570e-01,-7.153968246930807462e-01,-4.881210161636820866e-01,-1.173478456408908022e+00,-1.654932264120398733e+00
-9.665892585169337803e-01,-3.995649934011416882e+00,6.180448157466327253e-01,-2.108239408029465967e+00,-1.346678060462859761e-01,2.225809504611754086e+00,1.005061374108050298e+00,8.880806794697680973e-01,1.860764545188955177e+00,4.551819567234391961e+00
4.594798846426915162e+00,-2.938811731876312283e+00,-4.326127015022021571e-01,-5.832052159196156049e-01,-2.105141662403213765e+00,2.726205412937811712e+00,1.507691361402777153e+00,1.586448138411423292e+00,2.175796922324089611e+00,2.177887865875932860e+00
3.772087131643541813e+00,-2.598310557500593809e+00,-3.381665547363091884e-01,9.759178639654447762e-01,-2.273785772854624021e+00,1.148307596601630287e+00,1.127990701250137562e+00,8.830707947644141909e-01,1.038275320986294492e+00,1.993901855752117758e+00
5.269823566572837681e-01,-7.555631934105577763e-01,4.995944739389092670e-01,-1.165251634486277776e+00,-2.377575647905385559e+00,1.616335485544886819e+00,-7.925980110863040107e-01,-4.744808060786114522e-03,-1.064530394599763966e-02,3.047655731712794580e+00
2.326510163947130838e+00,-3.071340373046701711e+00,9.491504226743455175e-02,-1.620903350088189754e+00,-1.704062235310977336e+00,2.869866241414901431e+00,9.650766745672184621e-01,1.242312898955639122e+00,1.949586077772960557e+00,3.439018083142904469e+00
2.962230706693388615e+00,-2.856099162950979320e+00,-2.157367396959902761e-01,9.076015932408022513e-01,-1.868513696063916596e+00,9.500964516503195290e-01,1.162082649697673498e+00,7.947891246974946311e-01,1.013942280207639213e+00,2.256081971744795300e+00
2.996082591211367774e+00,-2.983558818325144024e+00,-3.155959719083941684e-01,1.069019215325351269e+00,-1.453200312223524415e+00,7.891857791007262923e-01,1.436431910584907934e+00,8.921281094500073117e-01,1.172805848502390225e+00,1.879064832740751312e+00
3.419083949516510401e+00,-1.814747496472861377e+00,-2.902417116863269531e-01,-4.082303155333119271e+00,-5.299444054452381314e-01,4.828236785961585120e+00,1.268552311514862696e+00,2.170527143068590625e+00,3.394879787554482498e+00,1.505360020328099679e+00
