7.740113189185280351e-01,-6.168074323465060349e-01,1.603511165812329109e-01,1.409485205378899320e+00,-1.269781477959126104e+00,1.698432225864244138e+00,-1.839968733841290671e+00,9.017593549903683003e-01,2.170573824022927756e+00,4.276564219264556987e-01
1.574720710277914826e+00,2.517494467515350109e+00,1.521135783486578852e+00,6.422271178301677264e-01,2.072840844163737817e+00,3.128353240532810275e+00,-1.038149692801902724e+00,-4.904202731713325214e-01,-8.007025035272093971e-01,4.286552514521044799e-01
1.633695275782034440e-01,-8.624704996985386174e-01,2.253129802984180641e-01,1.632952025614675007e+00,-1.591144907345472648e+00,1.071945620945299771e+00,-1.123948991511389384e+00,1.066001110868544766e+00,8.508976006732517083e-01,-7.939712013031858806e-01
1.286500361092830946e+00,2.684294638650007503e+00,5.413701654204525759e-01,-1.832747872817694690e+00,2.580116161898375005e+00,7.317696531388399039e-01,-8.424820908203163317e-01,-1.183858411786292919e+00,3.675746763267327966e-01,2.254244880692729325e+00
-4.239008822579289903e-01,-2.076389480129744669e+00,-9.707685305537110398e-01,5.167479722494431327e-01,-7.986572256507447065e-01,-2.212402750332491119e-01,9.013972139676168505e-01,-1.253841740729061405e-02,1.318749090305637139e+00,4.674852471287436195e-01
1.284257766006068113e+00,1.763960833324652810e+00,-2.103566070096951623e-01,-2.142933091144993973e+00,3.419668727282276777e+00,8.580717234945326455e-01,4.684601576117621846e-01,-2.064217545956913202e+00,1.194000671407356773e+00,3.577408021790501103e+00
-1.042652197250024448e+00,-3.555958232075922876e+00,-1.362820330257344947e+00,1.318496368747256620e+00,-2.639175201205489874e+00,-8.853474645244586716e-01,7.057714477611694015e-01,8.852449187158741850e-01,1.829485926082330405e+00,-4.773029853582193560e-01
-1.377343914752488185e+00,-3.025991578829086759e+00,-1.287968631926916352e+00,7.281826661626655817e-01,-1.301634525510211748e+00,-1.288599594122961101e+00,2.259317985290015596e+00,5.413264979290099976e-02,5.357095558389590728e-02,-7.755504876819414584e-01
-9.055662282826087983e-02,-3.679731219243587148e-03,-9.958844197891475458e-01,-2.117126787608307303e+00,1.428958413804158223e+00,-1.441082901843155017e+00,1.126916498273705880e+00,-1.293093368550072508e+00,9.306572353687199151e-01,2.188725486428820588e+00
1.450086178428316441e-01,2.278278585678256141e-01,1.061964902859897225e-01,-2.268663469963023149e-01,-2.344261182478429184e+00,-1.036924923256829167e+00,-3.014659731210905136e+00,1.587435803989863281e+00,1.859602642918693816e+00,-1.630755540015250693e-01
