9.052191657387723689e-01,2.805111818134973234e+00,5.212264676273145048e-01,1.826132887832416563e+00,2.221138886122832723e+00,-7.414019463544707644e-01,1.235119021221342095e+00,1.488602599652052438e+00,-8.575284382321004539e-01,2.874620493589608028e-01
-2.692043399326213976e-02,2.919984517880374941e+00,1.114526809398929563e+00,7.009078667603688695e-01,5.890108250771629583e-01,-2.164000476373216131e+00,4.694612916442814643e-01,2.896053833873459382e+00,-3.512137215130030354e-02,1.084007262077639977e+00
8.208170854835231123e-02,1.367020343902035417e+00,4.330644777908922854e-02,6.019303457389013623e-01,5.319034281143079218e-02,-4.211879319095986896e-01,-1.320208659309204113e-01,-7.403427419940862286e-01,-3.160575876295035891e-01,9.098380844880509244e-01
8.579849533568304487e-01,3.717383432798116338e+00,3.714267578618188348e-01,2.500139769112679655e+00,2.005366071181589493e+00,-7.925540443253311640e-01,-6.653067644909208544e-01,-7.684434343688668623e-01,1.192919679443937425e-01,2.353293095241362654e+00
-5.123444973853689133e-01,1.361192803310694366e+00,7.661041308142871875e-01,-3.168937503167593706e-01,-6.795583357627699161e-01,-1.690882115874060343e+00,-4.712644202232257884e-02,1.928883704177082326e+00,2.330071406744444462e-01,8.125041032041203648e-01
-1.681936804488375625e-01,4.700275896629657169e+00,1.259278510437609411e+00,1.047579392713925417e+00,8.954225746761169946e-02,-3.064331871902724824e+00,7.533830222378948838e-01,2.394481732502014903e+00,-8.525604826285078097e-01,1.995777346331630175e+00
1.257813286837241862e-01,1.038417550354820307e+00,1.603942804819334933e-01,7.058798420339611468e-01,4.183614968569466797e-01,-3.182314529009192539e-01,-9.837182828284518621e-01,-4.757931129330746911e-01,6.972580814397818516e-01,1.276874710567982962e+00
-1.451609460873047597e-01,3.317728085436339125e+00,4.975600050272163677e-01,6.465899012916239696e-01,-4.629152772402004290e-01,-1.842716425735566821e+00,1.102023109489959962e+00,3.751302874499448103e-01,-1.615465192352653956e+00,1.139828359986840400e+00
5.495600455453383826e-02,1.431184100307379525e+00,4.395825611934411903e-01,5.301942304827993446e-01,3.861998958006432892e-01,-8.613176554978277943e-01,-1.515884979519390996e-01,8.169347504705841700e-01,1.939032850771468808e-01,8.282269069954800722e-01
-1.585804960285420284e+00,-3.235858026188464631e+00,7.694150893525597557e-02,-3.515266143512972619e+00,-3.488220458521742895e+00,-5.413409154767773179e-01,1.378966987978912595e+00,2.252328414266677736e+00,-7.288473117398130974e-01,-2.456965904720959326e+00
