1.809357151340327263e+00,1.527700662596652048e+00,4.535619218261806584e-01,3.870429881221685964e+00,3.261612053418591728e+00,-9.534069738427806140e-01,2.191168462238975712e-01,1.267901307278164857e+00,3.790246053882578181e+00,-2.230769720262730793e-01
1.795778083765050326e+00,1.994401834014547736e+00,4.797580092048271405e-01,4.327686424838455004e+00,3.354082382686311092e+00,-9.822953535368793565e-01,5.761356037176315059e-01,1.362761194487914107e+00,3.796883930183192035e+00,-2.581373764127513071e-01
4.388166129373890501e-01,4.593481254167961492e-01,4.884064532287243909e-01,3.316352645972825641e+00,3.206145285021857028e+00,-8.596856735434373897e-01,3.104532380846456441e-01,2.297084885907320739e+00,4.445124745404909206e+00,-8.245582663468091766e-01
5.874015487925102752e-01,2.736371076759823051e+00,-2.488347198322926057e-01,1.104590299993394309e+00,-2.589341167864066540e-01,-4.405177742598830742e-02,9.524685651286236565e-01,-7.149645889464216753e-01,-7.561354889463884899e-01,6.556596756046559338e-02
1.593449058028070908e+00,7.575726136763796248e-01,7.425625546416817491e-01,2.093627009978705100e+00,-4.493357546256178114e-01,2.106718547013226583e-01,1.830057737912952120e+00,-1.341889613866363629e+00,-3.501544473896867515e+00,1.884639843619374755e+00
3.226897009535105276e+00,1.168659547130206811e+00,7.975925453130386922e-01,3.856263133858592429e+00,2.321518111148586527e+00,-6.562419122360250157e-01,4.956117300087341526e-01,-4.560869636450954889e-01,6.807960072202194901e-01,1.381885014378479326e+00
-1.535711882723921118e+00,-4.882338565439151346e+00,1.316639595754003134e+00,1.520504125078362856e+00,2.530966503465649886e+00,-3.267131432787065970e-01,1.785230038633775496e-01,3.539522680688072853e+00,3.268283791815393968e+00,-3.826161959376248589e-01
-1.413810688287598483e+00,-4.559522236662230554e+00,4.617944876842015045e-01,-2.297807123398207807e+00,-7.317622853743724898e-01,4.393469289980749259e-01,-8.511199752303932886e-01,6.482161913103996476e-01,-8.152224012820135091e-01,3.070697132452190337e-01
2.725090927877792613e+00,6.135422785097669696e+00,5.423905077249348006e-01,7.692892975604863182e+00,3.945146155724875925e+00,-1.246845957966160157e+00,2.837836496549200671e+00,1.151855770759396380e+00,3.385898540077024066e+00,-1.177084646091111630e-01
2.681005260842326265e+00,3.172337499394479288e+00,-7.663199934500991573e-02,2.341361160342499304e+00,1.031080061000483328e+00,-4.725333552264597281e-01,2.113307920379972615e-01,-1.293623557145284986e+00,1.977251495262803971e-01,6.756031863812206328e-01
