-7.513132852738280132e-01,3.012146643752657837e+00,-4.228529324951516344e+00,-4.157483493708505229e+00,-1.241578779263460053e+00,5.862794347866241429e-01,1.361424268590512909e+00,-1.836425006064588583e+00,-9.923124027079293086e-01,6.347252379949626100e-01
-1.746832560358568820e-03,-1.927407153070359813e+00,-1.771733763035309994e-01,5.341803743663029458e-01,8.239048310324619262e-01,1.994640496895055737e+00,-1.273351788555021402e+00,3.417631968351170890e+00,6.314234314965179173e-01,-3.870386142152538511e+00
-7.904783806068924612e-01,8.421873427579265048e-01,6.872261370040717576e-01,2.424665281108692172e-01,1.186595506116981724e+00,2.035918501024077898e+00,-4.174928068141462445e-01,2.059383816996438465e+00,-9.251158266718660927e-01,-3.419324666416301284e+00
-8.267760310646412591e-01,2.139989966050857007e+00,1.856306729308108139e-01,-1.127215415587950798e+00,4.414128205675387773e-01,1.371073155087738416e+00,2.277171924427669469e-01,-5.510928947000987010e-01,-1.378531721357494577e+00,-1.726366868199885385e+00
4.787830384136786410e-01,6.591575782283261020e-01,-2.093592940245851963e+00,-1.965289277877438234e+00,-1.742732571915522666e+00,-1.982127854835423530e+00,1.066290808072364094e+00,-3.425821490782821499e+00,3.683162518001621422e-01,4.036086583566998343e+00
1.053758199009495466e-02,1.630118166559265669e-01,9.642944149378765983e-01,2.187579873734516178e-01,1.136775728478356257e-01,-4.501391280020680674e-02,-9.950000031694601621e-02,-7.525902533821388074e-01,-2.209996200233877162e-01,1.502442799198619450e-02
-1.023366422671691867e+00,2.862299251263673128e+00,7.472336342118788277e-01,-7.592473761066057536e-01,6.432983733907310375e-01,1.136267333998464579e+00,5.142594370257257408e-01,-7.798450422632650092e-01,-1.791527518496763394e+00,-1.300229745077239762e+00
4.308628382345074392e-01,-6.695124690521329081e-01,1.800444850129321983e+00,3.034286963082541422e-01,-1.260391101724492036e-01,-3.362070760320959306e-01,-5.054068249923763245e-01,-1.922549603370107274e+00,1.362635753722213627e-01,3.079431980480151765e-01
4.630494381209356303e-01,-1.128610537652290358e+00,-4.371868467599345776e-01,-1.254958827486416517e+00,-6.108518682231900421e-01,4.590545284507233648e-01,-6.611402398095005406e-01,-1.253226311985167207e+00,5.674814358355655397e-01,-6.953045511018240976e-01
-3.050612785686882544e-01,1.390699142039476310e+00,2.331476618600475614e+00,3.103521284089434396e-01,4.164068239298857610e-01,5.258085504379261810e-02,7.336349223060410762e-02,-1.986561807342797525e+00,-1.074943620426248359e+00,-1.351983239396981062e-02
