-1.035203973745027373e+00,4.688434761429904341e-01,-8.219326455835570533e-01,5.548243948001480019e-01,-3.911489068774044231e+00,7.520117604079530338e-01,2.579233246075978703e-01,-6.986769513683455113e-01,1.189463506365977308e+00,3.575754115217381734e+00
-1.520246991098087586e-01,-1.326540785773889342e+00,1.808497570201886617e+00,1.499714304229316231e-01,3.314597850465724527e+00,2.661820930929604589e+00,-2.743625250605756793e-01,-3.361335346526316270e-01,-1.637474495398295593e+00,-4.022602706301860453e-01
4.161680925719293822e-01,1.050968069067544919e+00,-6.388289369258531858e-01,-4.116620443369449767e-01,-8.112045468406696713e-01,-2.502244442016689163e+00,-2.119306151912441760e-01,6.254859564843270325e-01,6.361780684665577779e-01,-4.692508883311586887e-01
-5.868184610498071718e-01,-8.010714786626007555e-01,-6.557453299881186304e-01,6.178599019486976651e-01,-1.646196480015061692e+00,2.155830852028445488e+00,7.804621932356292646e-01,-8.740135829904341902e-01,4.105067605155059418e-01,9.145736475874365334e-01
1.775362593767239316e-02,1.094029964680284461e+00,-1.173714646580302778e+00,-5.794956691586141545e-02,-2.507646963902702808e+00,-1.865645885653711700e+00,4.894346125196955000e-02,2.448740747540628093e-01,1.161879259263876252e+00,8.821394896327651169e-01
2.876907961371639733e-01,-2.006416960595998500e+00,-5.652288725596822383e-01,1.371617152862526501e+00,1.627032947355670833e+00,4.701424971148541410e+00,1.004117289271367675e+00,-9.250444387608336427e-01,-8.558949153753887540e-01,-9.355863391081385982e-01
1.004043167564108163e-01,-1.719726397995939182e+00,3.383733161892952812e-01,1.412066644885217492e+00,2.310470799283965260e+00,4.960310410867724507e+00,3.519622973024071899e-01,-8.102063041713702951e-01,-1.336252294009092401e+00,5.151617696664589907e-01
1.951233568752461789e-01,1.073711448975048777e+00,4.772578893659731869e-02,8.086538430850664927e-02,-2.367043837522549155e-01,-1.087710248103492150e+00,-7.173525647246827841e-01,4.963696974943546114e-01,8.615635629246591598e-02,1.540721525749826792e+00
5.810830091783473206e-01,1.683737494928582823e+00,-1.811706765345512338e+00,-9.899258375713789748e-01,-2.738650791818890706e+00,-5.013207079902745278e+00,2.294433904068452490e-01,9.036744528827883594e-01,1.787773192053942140e+00,-1.808974456437603351e+00
-9.009381167449106442e-01,-1.899111115337045019e+00,3.455473680312481477e+00,-1.053928887163212147e-01,4.322085307501566831e+00,3.845710094968308290e+00,-6.378651803488744054e-01,-7.001880846285369886e-01,-2.399340001760132512e+00,5.413774635147642345e-01
