1.680558679552321300e+00,-4.641219700969637429e+00,2.077794705534203423e+00,4.777581350228278012e+00,-1.197324498570028206e+00,1.734642588523752860e+00,-1.811328724713913152e+00,4.022954246913468257e-01,3.935666745273635581e+00,-1.455283192283119087e+00
-2.800138853950484563e+00,-1.141174892347336378e+00,-2.889078401345238412e+00,-1.120288246676049315e+00,4.766316569102691858e+00,5.844103438879547641e-01,1.499643992902032208e+00,2.826670961650508129e+00,-6.753263520132442299e-02,2.077786401230516056e+00
3.885773605190252944e+00,3.128244995105581960e+00,3.401773202075352831e+00,-1.818703843911502194e+00,-1.936289586794465167e+00,-4.482137869371795702e+00,-3.811117342756973336e+00,-3.805499595275780411e+00,-1.080465643281887322e+00,-3.907350829289034877e+00
-1.957613332572037956e-01,3.746615768131201119e+00,-3.663176520994540497e-01,-3.058458203327924174e+00,-9.362057436649002806e-01,-1.377246150326430163e+00,8.082834161316541088e-01,-1.338631398708293174e+00,-2.831484581005385248e+00,4.098086212360690928e-01
6.451075535433546948e-01,-4.363942692026534509e+00,8.612664528462343760e-01,4.907530807996289823e+00,-1.631548573369874022e+00,2.711062967853248296e+00,-4.514022162224711199e-01,9.647218421772264518e-01,3.531155771544206345e+00,-6.359970577555048576e-01
-9.687332859852579858e-01,-8.418276858605562574e-02,-1.379019470509803114e+00,1.661604231191305958e+00,-2.395432362128032011e+00,2.070757933773589965e+00,1.899436612161246263e+00,4.785927865496621969e-01,7.188258417992671179e-02,5.754037878341538015e-01
-1.115262249806521666e+00,1.496193807923417163e+00,-2.645955410578036737e+00,-9.700492763332293489e-01,1.593536360911311567e+00,-1.348423857917137036e+00,4.586532311627918301e-01,7.191983041452142400e-01,-9.397255357891957095e-01,-9.244216162603031695e-01
-3.075295760810068391e-01,-1.244020966762810820e+00,-6.868904358925783660e-01,1.068198782965799953e+00,9.454811809293879321e-01,2.524387765112350857e-01,-1.699211567026486236e-01,8.650918876445725658e-01,9.776721829343949510e-01,-4.033780368076139156e-01
-1.993952037443299963e+00,7.955494338828759116e-01,-3.403135791125646126e+00,6.043663424087918346e-01,-3.074799716678922601e-01,9.477045375740467126e-01,2.167126746921143710e+00,1.300249989848090815e+00,-5.963366564838588069e-01,1.640814469022446320e-01
1.469241472063952392e+00,-2.145474862780439196e+00,1.361767489180391477e+00,1.128169329484965733e+00,2.021783327512385320e+00,-1.396435590404528027e+00,-2.665326533235577777e+00,1.067781333736791821e-01,1.999421576045703253e+00,-1.929184722833519272e+00
