-1.529834325532144768e-01,-9.416838414765543730e-02,-5.345415146639131976e-01,3.781858130806451390e-01,5.688051393944633105e-01,1.946055531406375994e-01,2.274684930717571774e-01,2.155731114523222747e-01,8.434287876284427554e-01,-1.273914526105731637e+00
-4.277693229789577556e-01,2.913157472656151992e+00,-2.904962644451203335e+00,2.285941585940652221e+00,-2.374847235695564329e+00,-1.556750634341819373e+00,9.631075219437728041e-01,1.538484188549442411e-01,2.119007592783492822e+00,-5.335960667493705678e+00
-1.173134537480792883e+00,-9.719142399494540285e-01,-4.684051870420397057e-01,-1.136422416191929852e+00,-1.261321789265809290e+00,2.646816781131573065e-02,-1.428385872966495551e+00,-1.903906182433470207e+00,3.693088456355849925e+00,3.844489481041689860e+00
1.686278528705045021e+00,8.345204780208180795e-01,-3.754202570143595707e+00,2.622268926590743732e+00,-2.278005677285031005e+00,-1.504619153038150525e+00,-4.195484932354527352e+00,-3.043614881191067933e+00,4.210288459044253528e+00,2.356865905653650728e+00
-1.164917010226907301e+00,1.373827589461745546e+00,-1.018758518300473259e+00,7.754225974719264336e-01,-1.370823115811271864e-01,-2.122037415864433951e-01,2.358629511009360691e+00,1.353536343463468183e+00,9.001828033378794780e-01,-5.381583164566695388e+00
-7.723300395128034346e-01,1.154767304552782869e+00,7.551382096061781679e-01,-5.017310834354625493e-02,3.580144588275636641e-01,4.268931718123993718e-02,2.951937928653218801e+00,2.100155529163253210e+00,-2.164990380255213953e+00,-4.539757110154217123e+00
-9.398865666221127568e-02,1.187664194311087051e+00,-1.123225330288536439e-01,5.393122509386396590e-01,-3.428817339794386077e-01,-3.784095296131679831e-01,1.346747308449265601e+00,9.822798190170421995e-01,-1.167664151570872777e+00,-2.872101120064638913e+00
9.280260751726149282e-01,9.966407569638409125e-01,-5.210506279058997325e-01,1.352584547018900407e+00,4.120331571570861051e-01,-3.216191119625662065e-01,5.232748662131228023e-01,9.101848276136513816e-01,-1.568370707167830336e+00,-2.911219550989943450e+00
-2.070286068574280769e+00,-2.840481601601030359e+00,4.095507724692661888e+00,-4.395160424331162830e+00,1.149876651469222910e+00,1.720295038075223770e+00,1.121848696919373944e+00,1.919870833230817309e-01,-1.193817588324574297e+00,5.401665376515907724e+00
-6.011075069385781733e-01,3.970635787733645117e-02,-2.444380886603086278e+00,1.079323968167949399e+00,-3.526544884998377150e-01,-1.735060568486134769e-01,-8.410785197304145866e-01,-1.015729439650947086e+00,4.479932968513004710e+00,-1.134814564793699132e+00
