-1.079313999355165921e+00,3.642480737817220260e-01,-1.775150318010514372e+00,-5.071292481346143521e-01,-1.064077778621983716e+00,1.615347508493967243e+00,-1.013634218997849779e+00,-3.646845303006781780e+00,1.874685384687345913e+00,1.044576177561754582e-01
-6.383088692859126834e-01,5.933992281120772372e-01,-1.980728755615484560e-01,-7.347946552850738167e-01,-2.590065964514933761e-01,1.386437959416521704e+00,1.348265139954275771e+00,-1.562498042712566093e+00,6.805492010680975756e-01,-3.391668514838806492e-01
9.760641161488503581e-03,3.393612985672164184e-01,-1.858296330278170760e+00,1.203352578904329562e+00,3.822106387390475923e-01,2.155328835623395167e-01,-2.880105421903833562e+00,2.554876892165417468e-01,4.714790758002243010e-01,1.474128214354644140e+00
-6.494763426290072195e-01,1.264905205713391378e+00,-9.245197558606963462e-01,4.385120407201567594e-02,-1.952702690159574539e-01,1.937508771162738785e+00,-1.095782237352314059e-01,-2.364950482306313440e+00,1.194960197856630213e+00,1.693538705190414939e-01
8.400852574119800353e-01,2.114442793745653137e+00,-5.252241731255002932e-02,2.566151845848089863e+00,1.015666684500063255e+00,7.189936400010028539e-01,-2.565719432059642813e+00,5.830705514576439707e-02,6.991219002188575615e-03,9.363098105426422846e-01
1.502650458008308432e+00,-3.420695110879637735e+00,-6.161893549727175401e-01,1.098750269242232624e+00,9.784668223560324396e-01,-4.995607748393169345e+00,-3.567865826711794863e+00,7.007960662722064527e+00,-2.500516943699847339e+00,1.793250286431998131e+00
-3.792480860683045574e+00,1.712325298214069758e+00,-4.544810878775474627e+00,-3.210143048631244334e+00,-1.944261126257567529e+00,6.423057399714719118e+00,2.184176067381977226e+00,-8.540503296016765944e+00,4.686224379083859581e+00,1.369388513501678395e-01
8.248354247221033608e-01,-2.171835310038479072e+00,2.845429981217279192e+00,-1.028245758080084560e+00,-7.622352053621106460e-01,-2.989907532775030408e+00,1.728533998274044636e+00,1.411692975922578253e+00,-1.499929910724486115e+00,-1.880274439067801451e+00
-1.596870572232373053e+00,-7.706573822941958918e-01,-2.093443667510121176e-02,-3.489114231835404922e+00,-4.380715616135354429e-01,1.613703172423757159e+00,5.600657824296176202e+00,-4.487557841791356417e-01,2.955227367582121678e-01,-1.001173793996925410e+00
-1.177117851518369340e+00,4.946149182812574208e-01,-1.369154807850966993e+00,-1.195705541092675794e+00,-1.791098368431603416e-01,2.029480507881606943e+00,1.461462879487433586e+00,-1.519846134848152897e+00,1.062351623011780433e+00,2.385809206542208738e-01
