1.348980703955644511e+00,8.003657270137465307e-02,2.867908285729383056e-01,2.819467426966527857e+00,-1.221608035338330289e+00,8.191113975616023390e-01,1.030047373991340054e+00,-5.630693280476435358e-01,-2.319777518872400801e+00,-5.841818430492528025e-01
2.161400820398306610e+00,7.859260605561439739e-02,-1.635443054833105814e+00,-2.926269678606657543e+00,1.655392541484392410e+00,-4.782265074325775522e-01,-2.101979953465964002e+00,1.259199179967325000e+00,5.633717184678173062e-01,1.838961947339826430e+00
2.503652116273317851e+00,-8.117385824694315355e-01,3.136466584928044643e+00,-2.369402028066933674e+00,1.390924677807148235e-01,2.983501201699290117e-01,-9.879342376340249920e-01,1.074799043763280171e+00,-1.583155978821737753e+00,2.355211186649461552e-01
1.516004746116204283e+00,-4.490256825111096917e-01,-5.743337596515607490e-01,1.614012034270192741e-01,-2.536114012597364131e-01,1.312302079673761390e-01,-1.564204158132703082e+00,7.033626788600277902e-01,-8.518881838048053545e-01,-6.312540823969567394e-02
3.504036392686370682e+00,-9.433750286248471228e-01,4.557755254298918590e-01,-4.602489450643545865e+00,1.461507351183966463e+00,-4.032513031881613808e-01,-3.827599115134936891e+00,2.366439731764899079e+00,-2.265997578687263814e-01,1.451929327916577916e+00
-6.294426585887771264e-01,-2.989602414791541207e-01,-3.582970921515338247e+00,4.418091394579753306e+00,-1.693743145327636812e+00,2.064087802349386103e-01,-1.460701111328638335e+00,-1.979102744724734741e-01,-4.340938693708045748e-01,-1.555763695236006994e+00
-1.681081035658201106e+00,-2.778216590844196920e-01,4.554935129887431877e+00,-5.335007373591328594e+00,1.524062431935765405e+00,-6.665276048785546692e-01,8.429388490151289437e-01,3.661687020993873998e-01,2.038284078315864445e+00,5.745817789887576188e-01
-1.256227354496014081e+00,3.619537514640865372e-01,1.106524444776523231e+00,-2.601925474723310594e-01,1.706016445322957598e-01,-4.060558789209342545e-02,1.631423591888744973e+00,-6.619663467579787186e-01,5.451279222103876387e-01,8.633265500922290836e-03
2.133220239206502722e+00,-8.295324376957233792e-01,4.204266851383966497e-01,-3.874173457293876854e+00,1.180854987325619776e+00,-4.648490735622655134e-01,-3.151635585612737156e+00,1.886098129635829013e+00,3.266002866369931978e-01,9.742127105117553976e-01
-1.186860489114005546e+00,3.401490028097984286e-01,1.598659502753372763e+00,2.523876891927685051e+00,-1.164468498307296818e+00,5.917964721652253512e-01,2.748974137052771827e+00,-1.369787378245389320e+00,-9.978996406908792194e-01,-1.017636508295450826e+00
