1.860164867513475206e+00,1.901995284893310600e+00,1.039314461161783054e+00,7.685155433186254825e-01,-3.201302748302174983e-01,-2.300547419016457651e-02,1.348529680813249199e+00,-1.013732098697530004e+00,4.775639717699676212e-01,-7.688293747818475410e-01
-1.930718559203637996e-01,9.299737802245638951e-01,2.802955478237137976e-01,6.377846194253518064e-01,-7.821530853149770701e-01,-8.790507711640787036e-01,6.040969523728385582e-01,1.094047561759506904e+00,2.574031124982891772e-01,-1.406510053429697038e-01
5.958850776302564434e-01,2.986906800426687436e+00,7.904864429227609346e-03,9.268183049751388403e-01,-1.278662570264957887e+00,-4.100585037859251214e-01,9.480347979469517794e-01,1.359150298600198870e+00,-4.519195473945761266e-02,-4.915435732078485831e-01
9.517560268076307173e-01,-5.843756881260434577e-01,-7.912942265315486834e-01,-8.487394723093233395e-01,7.126968638473450690e-02,2.642442683051839381e-01,3.791466219480043587e-01,-5.615234829038372455e-01,1.467133646497948418e-01,4.319034569946165192e-01
-4.335386295542992263e-01,2.632329297903599929e+00,-1.171820918058554817e+00,2.252397607075632968e-01,-7.908993807352752148e-01,7.685320411930599560e-01,-5.872021923066458315e-01,1.712513042574387079e+00,-1.041173875949576777e+00,-1.611798489149980917e-01
-8.351384301287805290e-01,-5.169851401418801728e+00,1.383924286392771985e-01,-1.135104454089369330e+00,5.651699673272061464e-01,-1.898769455620627156e+00,4.157695831445367141e-01,-4.392694327041180014e-01,1.381127154620762632e+00,1.285906740492657185e+00
1.647914615870137212e+00,1.649541034997707989e-01,-1.144425447109931326e-01,-9.947295215918865452e-01,2.376390144513805147e+00,3.843303903023591150e+00,-1.780860008638903036e+00,-4.076302000392823643e+00,-1.314777284847653771e+00,-6.703868944227060478e-01
1.034167760181101237e+00,-5.500213638553894668e-01,-2.121375430670909168e+00,-1.799855889103607387e+00,5.976270796101068594e-01,1.815465027050435110e+00,-6.843914104156541001e-01,-9.486168745336123198e-01,-7.489898051147023672e-01,7.099053882785664182e-01
1.959942132935357240e+00,7.825985610696497563e-01,-3.007058130736002810e-01,-4.240049080794957570e-01,1.332802351399575702e-02,6.422811096673947118e-01,8.517288022397837555e-01,-1.222486274938316742e+00,1.645954139565896368e-01,-9.293060860334723117e-02
3.009023312557649321e-01,1.363571558310429532e+00,-2.468513938164893950e+00,-1.325097896427899213e+00,3.634519684439012632e-01,2.611728044950993421e+00,-1.566496131718626561e+00,2.088014036484743541e-02,-1.676253714838134679e+00,3.175149239062470263e-01
