7.486198661948194610e-01,-2.837237329693537702e-01,1.265064771652470554e+00,-3.403497620562204729e-01,1.399690309811028877e-01,8.356140744346454152e-01,1.921831000668135503e-01,-1.109110170773432991e+00,-7.683723754176166043e-01,-9.902278156539856546e-01
1.255777462388322219e+00,-5.853760267712295295e+00,-1.204686883131663278e+00,7.985947309486343126e-01,-3.413573236276857159e+00,-2.172950549435436862e+00,1.369045752985787789e+00,3.635276187358434385e-01,-1.266780694334086244e+00,-8.478573773315464246e-01
5.289249743745475518e-01,-2.906032502838233444e+00,-7.729094089395484035e-01,3.813047293536430682e-01,-1.632654000135865147e+00,-1.180102919215044732e+00,8.297643463746342540e-01,5.196961397240004166e-01,-8.410689868543976822e-01,-2.685812847470374076e-01
9.402023451944999666e-01,-4.668406247296160494e+00,-1.188879783269477297e+00,6.302697460980818400e-01,-2.739112891935985949e+00,-1.838664555529899269e+00,1.308504373468188930e+00,6.989506975022392599e-01,-1.249047875696119414e+00,-4.968637657411277830e-01
1.499061193050557517e+00,3.879425347222869025e-01,3.224993976287868214e-01,3.051987586431050836e-01,-2.188900690415512162e+00,8.945043765637828992e-01,1.120733930321496097e-01,-1.365883722742753381e+00,1.407180634196967040e+00,-6.218486808084013884e-01
-8.455527602234299556e-01,-7.758916911540896244e-01,-1.754955584972264226e+00,2.385108903271768166e-01,-1.046046855793109076e-01,-1.392015374949372442e+00,7.120527012246138376e-01,2.339617400148305215e+00,-7.714086844244718577e-01,1.203264863435651533e+00
-1.950421913151342279e+00,-4.524703512936116390e+00,-4.799368229836588284e+00,7.550588495075194473e-01,-9.322538767008415883e-01,-4.524241959951784686e+00,2.408772055627418585e+00,6.337894156328653494e+00,-3.128407226736533264e+00,2.715178640876531713e+00
-4.723358799020137000e-01,1.240754667334448058e+00,2.759451365333985273e-01,-1.180151596073942960e-01,9.151880731042282280e-01,3.432131180216838051e-01,-6.298508047151856193e-01,-2.787073652651287925e-01,6.098344582456983742e-01,1.916497181908180802e-01
7.276176702478960312e-01,-1.352362182897833831e+00,-1.199668686929322270e+00,5.422301142842017585e-01,-2.293535874575737044e+00,-7.267633012983228946e-01,7.983780973239683609e-01,6.662286137887858395e-01,2.890131501591901020e-01,2.178528100421145697e-01
-1.270026986605183872e+00,-1.278637976890829586e+00,-5.447396563704379746e-01,-3.944182733070478869e-02,1.387884624634153186e+00,-1.273815342798103378e+00,-2.025386850667909300e-01,1.069939274747813363e+00,-9.751295055126980582e-01,4.542108093412750014e-01
