-3.263897557350925460e+00,3.004796110551872346e+00,1.091837436850765286e+00,-1.697774641512827420e+00,3.793387921126024409e+00,6.707803159122370795e-01,-3.824596465838056014e-01,-2.540818493596869398e+00,2.116007230138019501e+00,6.845757457893583142e-01
2.931131064976792100e+00,-2.432023679785047854e+00,-3.055215862072896638e+00,1.459383514837174989e+00,-2.835972230399046445e+00,-1.757748505823202079e+00,1.164004743090465865e+00,3.093473284421976111e+00,-1.162787529332139913e+00,-2.355278709220347544e+00
-7.290516239871694948e-01,5.009084074242797779e-01,2.302332166906426281e+00,-7.120641516802330706e-01,6.426433844908818749e-01,4.483043792598380151e-01,-1.681880183292640663e+00,-2.259996772493778838e+00,-7.731997610331530213e-01,1.152225463688836937e+00
-5.520188687648972525e+00,6.853913675033295405e+00,1.329272269086154701e+00,-4.677551732972091258e+00,6.364474511098467957e+00,-6.173643263654350344e-01,-1.725479996597217180e+00,-6.782035881305079172e+00,3.057375320516534600e+00,-2.833734563702248188e-01
4.753921738301384314e-01,3.808344081231635592e+00,-4.490600051309940888e+00,-1.539234770072643199e+00,-2.546648425497227031e+00,2.604643560285359316e-02,4.282370450089435288e+00,1.744182186712741833e+00,3.238581050389414795e+00,-9.168295779519445299e-01
4.446571849149812961e-01,-2.039645420768225748e+00,2.206262519182272897e+00,1.017565318844131816e+00,-1.654200890600777130e-01,6.110067339549632992e-01,-1.502290861779876918e+00,-1.674597419930058950e-01,-1.659638436497056668e+00,1.134642276010604078e+00
-1.343366955947186581e+00,5.299265225790230183e+00,-3.882072172041406866e+00,-2.174724283514576584e+00,-5.590546552321198348e-01,8.603070027220738325e-01,4.488263560661045481e+00,9.091672930712590972e-01,4.681213110234692998e+00,-1.615161356441404683e-01
1.895315067328738001e+00,-2.540486584398448322e+00,-4.894984180647433680e-01,1.679193434997499290e+00,-1.996548222496378866e+00,3.263279896519116763e-02,4.479043109414953538e-01,2.329939497999297338e+00,-1.160269260297540850e+00,-1.023193748911330747e-01
-1.984940309424001015e+00,1.373967086881572097e+00,2.231571526076500334e+00,-1.397359578008225522e+00,2.749577120691025556e+00,-2.447326838339940469e-01,-2.278733095337369452e+00,-3.439222772014141949e+00,-2.453116725480558591e-01,3.542360370201423914e-01
-1.469906503282830013e+00,2.623642836937969847e+00,-1.302166494780829797e+00,-1.332023156413050247e+00,1.360891001012343837e+00,-9.964558281811991547e-02,1.136681491406934530e+00,-6.460466242600435560e-01,2.083517276218875836e+00,-5.056466085894525397e-01
