-1.391952194138331933e+00,-3.661383455403148801e+00,-2.786043946620648804e+00,3.424846656876331163e+00,4.427137529226791379e+00,2.949690859590766046e+00,-3.615133663498631744e+00,2.726921864613596203e+00,3.585441969232503467e+00,-8.777929657682571885e-02
-1.356629512607322674e+00,-2.849311490659756974e+00,-1.543985899478611312e+00,3.804321591026624816e+00,6.345239027402284071e-01,2.318608868961876901e+00,-8.280932001587285596e-01,3.344027333036348804e+00,4.425388931850580576e+00,-1.326782826950520411e+00
-1.413818363404823586e+00,-1.479433841320201282e+00,-3.437593201755293038e+00,1.600757472872698317e+00,4.212112070960526644e+00,2.612482157295430985e-01,-2.795532086819269679e+00,7.792227985105375510e-01,2.835589179895891057e-02,2.165438016258983411e-01
1.517622643108216041e+00,-5.145970368532303343e-03,4.365566674039283335e+00,-3.318616867728078068e-01,-4.910644358703810219e+00,2.360379077564715988e+00,2.719596838022350305e+00,1.234746498665763026e+00,3.207580169132563164e+00,-4.510944373474873870e-01
6.908926168469684548e-01,1.729528172531865415e+00,6.566585313801509734e-03,-1.713873198085865690e+00,1.152301079881540513e+00,-6.284968241364984110e+00,-8.403651624454995528e-02,-5.655011438915801492e+00,-5.908401814791885087e+00,-3.058063633288186645e-01
1.589274747347138694e+00,-3.928012055278494175e-01,3.570285889926695599e+00,-2.502534075542292014e-01,-2.401557300307919807e+00,-2.275147046261171424e-01,1.140165960653206634e+00,-1.349201531781823782e+00,9.433597854454591758e-01,-5.233379461998235449e-01
9.288888812045608123e-01,9.297632715823197502e-01,5.506204404694182708e-01,-2.191773945116837208e+00,1.696382775032753809e+00,-1.300902548148647364e+00,-1.110820625658188288e+00,-2.651897097672730297e+00,-2.940697701150540411e+00,1.248764679082257079e+00
3.090503809013390502e+00,4.777386946479342811e+00,5.331567218930457486e+00,-7.006284695117778405e+00,-4.491562288022856286e+00,9.256830050535317378e-01,3.079586908053407068e+00,-2.291040067451958873e+00,-3.494656293991448948e+00,2.878056233848007572e+00
9.004035051901057018e-01,-1.103692301745739401e+00,2.344936109866711416e+00,1.256498401718723734e+00,-1.666330066231824558e+00,-1.744436988269881139e+00,8.187685127116762773e-01,-1.682105415860680964e+00,8.287664395316449717e-01,-1.506234507920024335e+00
-2.684127235834005809e+00,-1.948386508253276306e+00,-4.097564708608931738e+00,4.434580866660570386e+00,8.845029377570922113e-01,-8.049575077027573689e-02,-2.471761347120508823e-01,3.196310361191688099e+00,2.668951462127421070e+00,-2.137714484098697021e+00
