-2.966787199867887193e+00,6.035822760934670406e-01,-6.615503584235515877e-01,-4.343700133394863272e-01,2.459734462638538677e+00,-1.610594947784542486e+00,1.344386612620174448e+00,-3.137631863977395630e-02,1.379267770754150302e+00,-3.303646720267104375e-01
-4.098953896119616469e-01,-3.952118484439610113e-01,-1.890047747444033865e-01,-5.827477602205960450e-01,1.551447598503438607e+00,-6.884706558253224085e-01,5.188717789824666138e-01,-1.961344681220428043e+00,7.678445010119731018e-01,-1.439810689806414690e+00
-1.264996152600742219e-01,1.116739865090225603e+00,2.955175677985169891e+00,8.140632068149852296e-01,-2.192583510200315278e+00,5.777833812967486660e-01,-1.954068313428677373e+00,-3.006964235282891806e+00,9.322698604647114973e-01,-7.897088682009592020e-01
-8.888867202796387756e-01,8.532079137220024978e-02,7.839445086031836540e-01,3.209176612860902000e-02,6.225125374308010384e-01,1.038248712603600521e-01,-1.240593240546668530e-01,-1.091386393698295487e+00,-1.751032945002274632e-01,-2.629633797403356232e-01
1.415727010821473231e+00,3.502199028696838523e-01,2.470562675623574567e+00,4.168093955862409716e-01,-2.152295519272291902e+00,6.158599444599442974e-01,-1.925311396908093053e+00,-3.991294386494034896e+00,1.024186587448876917e+00,-1.757911919696976133e+00
-8.645041179184062008e-01,-1.023527768272728622e+00,-9.517518369483307650e-01,-6.978243525966313365e-01,2.778055328841772198e+00,-1.539311567457648244e-01,1.224293339981650464e+00,-1.064972599224844330e-01,-1.095408736484253520e+00,-2.314252700301652199e-01
-2.978992614967752139e+00,-2.715906816572936644e-01,9.981754898398269293e-02,-7.615141076539955201e-01,3.850729540919134664e+00,-1.032299174756883708e+00,1.268137853738660281e+00,-2.327789310464188244e+00,3.382331191370659962e-01,-1.288934413853538796e+00
-2.435925364257200965e+00,1.249212933857736241e+00,2.403630954577880452e+00,7.560101988613909807e-01,-2.816020699075394984e-01,3.563798105369713753e-01,-9.162005768771210867e-01,-1.179363004950488403e+00,-2.552644689038797987e-02,4.716894905417137740e-01
2.000175498705858423e+00,-1.584670584236752333e+00,-2.813290752531696803e+00,-3.643131375590321630e-01,5.024060388400422017e-01,8.887837541663758945e-01,1.199550341102945117e+00,4.573306069048085121e+00,-2.796534145265368920e+00,2.038783370942385265e+00
2.501792981539095351e+00,-7.424329562424903939e-01,1.042698754871575345e-01,3.337164146603159576e-02,-1.378625228600724784e+00,9.184976629682842786e-01,-7.412434391032437508e-01,-4.948309373745215511e-01,-7.099688720578261059e-01,-3.302863829765679271e-01
