-3.903018584087255549e-01,8.709147177842144760e-01,2.764236754741029145e+00,-5.847950219159266938e-01,7.036629393427186185e-01,-6.008663996988674594e-01,1.112304520513208717e+00,2.376098691052943579e+00,-8.532650115204947205e-01,1.332611389504307020e+00
-3.289313790236626511e-01,1.091957585890805382e-01,-2.877486093930041178e-01,1.155221334618327766e+00,-2.166393638128946419e-01,-5.261044964319032680e-01,-1.551619628456082811e+00,-2.518253129138743329e-01,4.827152584308754824e-01,1.624976921992045131e+00
2.239492665916045233e+00,1.535861891397101386e+00,-2.896638026860259174e+00,1.240094065154628389e+00,-9.982720447353983229e-01,-1.279049252876513831e+00,-9.554031043453395933e-01,-4.096816996796513344e+00,-1.125596438110784581e+00,-3.401298404176507972e+00
1.887868049043138208e-01,8.885126370131865570e-02,-9.726253172518511958e-01,2.391084935845438908e-02,-6.409483974743348522e-01,-3.699751444004218404e-01,-8.153787171036581682e-01,-2.606231999994110260e-01,2.002227374114049774e-01,-6.815057820068268768e-01
1.218210091383276517e+00,-8.955775745786798137e-02,-9.766572830245353609e-01,-2.984281411052358557e+00,-5.889362257196301131e-01,6.808821611769121374e-01,2.602448964015014354e+00,1.994417881210069909e-01,-9.325722202714706865e-01,-5.498207813439920599e+00
1.607596591584364853e-02,-1.800093376862156869e-01,1.166691502046216966e+00,-1.310409587592949343e+00,5.940656432067974446e-01,6.892101948300211056e-01,1.998227807155809943e+00,9.546505314951683197e-01,-5.313814296655259284e-01,-9.106487491982152571e-01
1.273129759279447937e+00,2.520096973063903345e-01,-1.396820254188229971e+00,2.024084190492906554e+00,7.174692100585431387e-01,4.707472775616424188e-01,2.820561891694679524e-01,-4.470513143826613245e+00,-6.141670645384406102e-01,-5.655596787189357544e-01
1.631153455551578979e+00,-3.106050118943168847e-01,-1.044945264994133982e+00,3.865269939105377972e-01,1.260631156247467688e+00,1.718979321351408629e+00,2.788506308421673907e+00,-4.390330515989917970e+00,-1.127361254702401450e+00,-2.775165886371221191e+00
1.382287530455681868e+00,1.064908375642050098e+00,-1.791619809120653439e+00,3.291114915058279244e+00,2.289670598003469837e-01,-7.461975300145912149e-01,-1.504427430023481227e+00,-4.908558159700213253e+00,-5.855100195189144596e-01,5.128644628930079108e-01
-2.578940978973207621e-01,-1.567583112913486065e+00,-1.592698078726543676e+00,-3.393228113525383449e+00,-1.291177050089262091e+00,1.184397825287156758e+00,9.699724082170610995e-01,2.085488633305966122e+00,8.986340592756500989e-01,-3.966302420310216625e+00
