2.729040494429036956e-01,3.062330405420226123e-02,8.755278449701544563e-01,2.936049989973018581e-01,3.711851940485100809e-01,-5.075903667703047795e-01,-1.222407067578351603e+00,-2.768488483433024228e-01,9.905025396859773457e-02,-1.826440981631149985e+00
-6.514276808068599767e-01,-3.049677140234199335e-01,-3.803701562632749722e-01,-1.820713803339966408e-01,-2.290224018367399972e-01,2.836089365222972392e-01,1.940105146660692226e-01,-8.353371074128265739e-02,7.529825935341053489e-01,2.660804276782127720e-01
1.717379374637615363e+00,2.007203883571967218e+00,1.791740048192087986e+00,-6.349775993699208199e-01,2.634198928752082391e+00,-1.001892063795073895e+00,-1.161376614656722372e+00,-1.397444770747729548e+00,-5.748209723917843683e-02,-3.673179137763428859e+00
1.188428592119420389e-02,-6.074314289154625346e-01,-1.044287818981725346e-01,6.270034297674177415e-01,-8.710419736220280651e-01,-2.107034547359937574e-02,-1.025743288490599675e-01,6.445175085150958161e-01,-7.751344446963718271e-01,7.789029402407301461e-01
1.696070303119384892e+00,3.685267092757098961e+00,1.143025085670176466e+00,-3.384305381161234028e+00,4.975748612383796399e+00,-1.208961605435623143e+00,-9.913472217320908886e-01,-9.022777140980866584e-01,4.982123146639839129e-01,-3.263461666529004823e+00
-2.382022682171146322e+00,-6.400692074572786883e-01,-2.369267237455297881e+00,-2.625618024713916032e+00,-5.670000537445026023e-02,4.802131875481192025e-01,9.676991294788207798e-02,2.390145537417328825e+00,1.255968112786725266e+00,3.326651553352524271e+00
-1.334716890406878242e+00,-1.579434291018766867e+00,-2.092466816484574998e+00,6.393778029330350332e-01,-2.596426632391520606e+00,1.351255647170922725e+00,2.392146948166072207e+00,1.024904458364833237e+00,-2.476669655805688319e-01,4.571531729109859832e+00
-1.115024292101881365e+00,-3.070398950657340365e+00,5.985045569645762731e-01,2.462004576807016232e+00,-3.012962035785941239e+00,-5.649505155874673390e-01,-2.876506363759899099e+00,1.754883083047941827e+00,-7.237855475398884408e-01,-5.569203253186809643e-01
-8.060848244013665287e-01,9.368572090552839127e-01,-2.789600947231392514e+00,-1.451735053663468555e+00,-1.319203243744738463e-01,2.184768608848111970e+00,5.307311880095885392e+00,-1.081092674433337120e+00,1.225234736972285354e+00,4.941701290470573049e+00
2.660403838997288162e+00,1.004702301770489692e+00,1.840466003172331444e+00,1.344505896102962561e+00,6.151002036529934491e-01,-1.076641825100100647e+00,-7.999759673876726263e-01,-1.943014789991735491e-01,-2.828927186542336436e+00,-1.675747774078721886e+00
