8.693311419299574183e-01,5.429428141695259447e-01,6.707534550880774882e-01,-3.141956052991206061e-01,-4.178779058934524171e-01,1.475459055288429022e+00,-2.598412117859390524e-01,-2.262584114970247473e+00,-1.747756435242484307e-01,-4.769355155303089261e-02
-3.565142625621787076e+00,-1.987444288517116187e+00,-3.051679248896195240e-01,7.442199949665393888e+00,2.015177629424493855e+00,-3.134747350534679011e+00,1.067886997866417803e-01,4.263666094688896457e+00,-3.731560325076359597e+00,2.604470110948903239e-01
-1.136674188235110350e+00,-1.448826917906532064e+00,-1.764620963314443403e+00,5.219080657645575272e+00,2.543703402330979468e+00,7.228183540475523472e-01,1.130587028025409335e+00,-3.668329357168518823e-01,-8.663431556985058402e-01,1.498188505241917767e-01
-1.236393756998196869e+00,-4.836364777926213665e-01,-1.827665614653549486e+00,1.404728615769428757e+00,4.871352594337957087e-01,-1.501273983781853172e+00,2.389742186639923549e+00,4.888007455311812244e+00,-1.051011952388081899e-01,-3.396621440244688150e-01
-7.798093928137977970e-01,8.860940721979293500e-01,1.705865747782565167e+00,2.759859381143797474e+00,-1.525218618730255438e+00,-3.561436798622384381e-01,9.821188998977503637e-01,2.481231135171650948e+00,-3.677360787034709588e+00,-4.952242818856310569e-01
1.191821367430780709e+00,-4.211775404221307362e-01,-9.418129024668635552e-01,-4.503699300661937244e+00,6.933558022180378311e-01,1.586614960284602749e-01,-1.645797212093982331e+00,-2.770323660129502041e+00,3.924495639078384723e+00,4.987536573211904245e-01
-5.574385366038049350e-01,6.717744625915313961e-01,2.031757582299715814e+00,-2.422946977635049404e+00,-2.013881337930937043e+00,-2.656137762217025688e+00,-1.436562355296067794e+00,2.723307250257377632e+00,-9.316056242741730387e-01,-1.868265649876536469e-02
-9.847602893453348549e-02,1.867961204782058848e+00,2.973416872470857619e+00,-1.239717355643720431e+00,-3.390741368114694065e+00,-1.275138553629289628e+00,5.278004083033211585e-02,3.172994369507089019e+00,-2.961285954506625462e+00,-5.776301666643092192e-01
1.289426593576780578e+00,1.203279951596043063e+00,8.926190108327962669e-01,-2.722021948350358045e+00,-1.546077456157484153e+00,1.005302813903989456e+00,2.376626078890606633e-02,-9.549954088732911517e-01,4.521169552304793449e-01,-2.501555837396222670e-01
9.613342903226984593e-02,1.441219821196018380e-01,1.412613950333386104e+00,1.574118258135123627e+00,-1.104303810299833155e-01,8.398876756923721043e-01,-1.129641233293013469e+00,-2.397278520316972639e+00,-1.547789135392343418e+00,1.391124369897949742e-01
