-4.181585945374056479e+00,-9.930759938569793110e-01,-1.906229809204266656e+00,-6.046302438537247692e-01,1.094390167811596370e+00,5.551748718963165352e-01,6.221937126002178964e+00,-3.047584055034036621e-01,-2.780148289807751638e+00,-2.129566419464679339e-01
2.967837962247416250e+00,9.777724020661163751e-01,1.544839412899194464e+00,2.153275456398047627e+00,-8.522441798520801193e-01,-1.359794680781481357e+00,-2.856088969854353454e+00,1.357676454246500519e+00,6.421689820089478973e-01,-3.642305438484808588e-01
3.939976088252286623e-01,-6.878781800644522271e-01,6.298565223500437460e-01,-1.893876228397691486e-01,1.878095526848178320e-01,3.840221650107412676e-01,-2.102128376669404997e+00,-2.724984088084186351e-01,6.939391944517426802e-01,5.775897594381685929e-01
-9.666673553580750200e-01,1.252176799563381904e+00,-7.330930702570847002e-01,-4.434596174779391831e+00,-9.919085650592932568e-01,-2.086207277872645260e+00,3.749835604915103815e+00,-9.299218060622668758e-02,-3.252514577809000773e+00,1.076896479130589751e-01
2.423174584873762694e+00,9.464197374901918147e-01,1.013413347796784381e+00,1.395568309857914802e+00,-7.279779143489510940e-01,-8.103912129899014660e-01,-2.418357535657984503e+00,7.911291309851140596e-01,9.868746368954096626e-01,-3.364204730275876520e-01
1.791931176781416113e+00,3.498659212768716831e+00,-1.032233707237263154e+00,-3.533256737846962814e+00,-2.055672971479189037e+00,-1.818340746054694979e+00,1.745146558290697980e+00,-2.598772284163277657e-01,-1.790052990174682557e-01,-1.001796145515505554e+00
1.494259493544363160e+00,1.434154056935790678e+00,8.604403153519277203e-02,-1.143801347030258153e+00,-9.723665553771355663e-01,-8.829303130326023874e-01,-5.986819894281435461e-01,4.650056631208554503e-02,3.327899022477869284e-01,-2.915365457095421275e-01
3.929346621546665475e+00,1.800747737726449360e+00,1.983814597607891139e+00,-8.505956957006921559e-01,-1.790798318650711929e+00,-2.672301212072789145e+00,-3.602989434653634415e+00,1.166113595522276336e+00,-1.363506121625414069e-01,1.007647266394395419e-01
3.393347550647609623e+00,2.528785720900488698e+00,-5.287631176599129068e-01,2.997162715959871826e-01,-1.178357163036329869e+00,1.156952826424836545e+00,-3.598357243239834968e+00,-9.743558957075196814e-01,4.901297945495197261e+00,-1.078428773686693098e+00
-3.064468293411724886e+00,-2.581964051516070668e+00,-1.310994356213288359e-01,1.733786835944694182e+00,1.689487003296954892e+00,1.001777975235315088e+00,2.096423149245766115e+00,2.086892384916647913e-01,-1.706477955739592822e+00,5.563323926989192092e-01
