1.546105402961337472e+00,7.433259596494670163e-01,-1.671769058865096191e+00,2.921098980491961594e+00,1.917763748164316606e+00,3.370465807806303449e+00,2.322409740607393136e+00,7.771770459462730152e-01,3.839393954854286584e+00,6.773809637975510833e-01
-7.621751788015620477e-01,-6.018228313776751159e-01,3.553135420558069524e-01,1.920785340615762893e+00,-5.861868061378229244e-01,9.913833495262194262e-01,3.365670381764390484e+00,3.886205686504703438e-01,4.264609897945916273e-01,-2.050310760769235685e+00
-9.962124650015108385e-02,-2.049344340618091120e+00,-1.392106515738879002e+00,-1.624659903985784082e+00,1.023236331553897260e-01,-1.944737480052974865e+00,-2.040079423738846209e+00,2.152218414022259108e+00,1.284735477583086038e-01,1.489487081597013374e+00
-7.371504025150732442e-01,-3.063851955172425257e+00,-4.847360590405842551e+00,-1.091555275149379778e+00,8.693474963931002719e-02,-1.306468638209439259e+00,-1.731337723803737072e+00,4.589557861983058373e+00,2.276113675366252309e+00,3.200706429017241117e+00
2.132987832582829313e+00,2.742278676048086616e-01,6.486633830160027925e-01,-7.503911514097687530e-01,1.883878099732785083e+00,-1.896742841322486550e-01,-2.198313034742228389e+00,-2.437817987461351477e-01,7.179372735113953574e-01,1.336427523325529609e+00
-2.696322610941215281e+00,-1.304596842054816186e+00,3.913645154073154941e+00,-1.152448034941300659e+00,-3.159436852726103417e+00,-3.010015074101748400e+00,1.653343008027579497e+00,-1.414633946373435647e+00,-4.985006777595527794e+00,-4.327455380715348632e+00
9.527982762026312447e-01,7.638519573273692131e-01,-3.561422789577405101e+00,-1.765646292436934273e-01,1.355649519163920846e+00,1.269526954068374014e+00,-2.148373262714413645e+00,1.241843780154766819e+00,2.738904239394608808e+00,3.642069494662950824e+00
2.514868494554675094e-01,-6.272777235166848264e+00,-4.436309025062529776e-01,3.414729588606828958e+00,1.002961033272725677e+00,-1.362735455220471792e-01,6.079116359407662706e+00,5.727685500906154026e+00,3.388154975558164139e+00,-3.098338319834734289e+00
-6.347480066491251183e-02,-2.180662850518612750e+00,-2.473840138891997276e-01,2.126790668806446405e+00,2.939611880220714957e-01,6.864105976481195137e-01,3.460629375465444468e+00,2.108777670473354515e+00,1.679295316243155867e+00,-1.663573262159057764e+00
-1.921676168245849969e-01,-9.973073772366436440e-01,-1.879211357477292288e-01,1.492590134072721231e+00,3.069632181607018229e-02,7.095254350545159294e-01,2.369438134888469882e+00,1.026838606261982090e+00,9.999589713752419229e-01,-1.116596340494941497e+00
