1.169032075872017629e+00,-1.316646895443925880e+00,7.536009724311887314e-02,2.850488231463318201e+00,-5.323535193715203118e-01,4.091090455253371672e-01,2.258648953560711714e+00,1.012132378908222829e+00,1.877418105659801828e+00,-1.090250670493549956e+00
1.665399426578668018e+00,-2.467426550871239521e-01,-1.986460795957074588e+00,2.214831579573228293e+00,2.758563705669368482e-01,-3.780708105459814061e-01,-1.202814209498090925e+00,8.417586720036960291e-01,-7.971366240251720470e-02,-9.673897788404378639e-02
1.184894838716625820e+00,-7.092313075557114210e+00,4.182962359114851258e-01,-1.849060603177577145e+00,-3.905775510073071555e+00,1.714636547903627406e+00,2.623640467525054643e+00,3.025492245337966679e+00,1.804760223730987878e+00,-1.410084881338862672e+00
-2.497631488105078290e+00,5.235464980693476988e+00,1.388626372590096247e+00,3.101635875780825113e+00,1.099538095052854825e+00,1.190616931753901486e+00,-2.319041149833229731e+00,-3.617120773129471889e+00,-7.742027526131377568e-01,2.096416441460293267e+00
1.706251810185512641e+00,-1.556017047223676508e+00,-9.940828678328981205e-01,4.318683869290546262e+00,-1.006708965212153029e+00,9.361351994820843458e-01,5.710796610596029499e-01,1.105177321872375718e+00,1.533381965610057351e+00,-5.472181751531932647e-01
6.473940225537109683e+00,-8.899109039724510950e+00,-4.654001170132954890e+00,4.165491600948163509e+00,-3.043807400176572475e+00,1.311665586667812300e-01,1.875896603714223954e+00,6.367817254081145073e+00,2.789881969873983181e+00,-2.943673963553006256e+00
-1.293895407020968058e+00,3.019979481833782398e+00,3.326182551728776859e-01,-2.051972170215002222e+00,1.788329036713564468e+00,-1.121101000793726321e+00,-1.262544721615834753e+00,-1.511996921672567273e+00,-1.527584611111304280e+00,7.632527596452618468e-01
-4.884862963234415933e-01,3.726633815879778489e+00,-9.825598552841970923e-01,-1.981485817140365757e+00,2.784551834634876766e+00,-2.140649863382487528e+00,-2.282922070908247392e+00,-1.226527541301835722e+00,-2.199518534998731845e+00,7.573576401336419295e-01
1.656512243816298691e+00,-5.036275028869662052e+00,-8.140370394258659159e-01,-3.078565267482572754e+00,-1.719019105875816633e+00,-3.183685585588620359e-01,1.604164962281377615e+00,2.907636152205710367e+00,5.516554279697318819e-01,-1.439639803191965051e+00
-6.428933525360784884e-01,3.124477325263606553e-01,5.322323294649085046e-01,-2.239063886263312320e+00,4.019280159651902884e-01,-5.359824056890479804e-01,2.460502821685236208e-01,-2.313942858770984545e-01,-4.993138006291658049e-01,-1.433909771746222361e-02
