-2.706948386956710806e+00,4.264615798493858745e-01,-1.074998396466886774e+00,3.884600191852670470e+00,2.884806441458617421e+00,4.256299824204273996e+00,-2.810126394962010110e+00,-2.153956798389010885e+00,1.274971029296768865e+00,7.827147913415657410e-01
5.296718820131729899e+00,-7.144858875430117884e-01,1.199301107658059751e+00,-1.430779109908317803e+00,-4.493673895035615651e+00,-1.171327365533319398e+00,1.003643999270602327e+00,7.442560101612618606e-01,-7.277963532033257521e-02,-1.780637786373010067e+00
7.749519250576965002e-01,-4.119445881907815021e-01,-1.047443146271151981e+00,1.788074677201431539e+00,-9.748236980982118993e-01,2.771804201072889828e+00,-2.017185598485149889e+00,-2.379354906471685460e+00,1.454688512328730088e+00,-6.899495678587943548e-01
1.513011371314084474e+00,-5.318022444132636251e-01,-4.044096779443732692e-01,7.961080099573536462e-02,-2.055836425725661609e+00,8.656104029384559251e-01,-8.345286780612526378e-01,-1.328743278809872308e+00,1.042954026970056347e+00,-1.112664162091984377e+00
-7.027073657558510211e-01,-2.708442806130184621e-01,-6.574865503237710129e-01,-8.814224993296729815e-01,-5.157541444417159671e-01,-4.354296237618917598e-01,-1.470087130070279469e-01,-7.819006121783477203e-01,5.128431654367350268e-01,-3.554760022974628453e-01
-5.411309165866832194e-01,-2.793776975710676735e-01,-2.223563429764036758e+00,1.077792821881672358e+00,6.992318102466487106e-01,1.770318051677100657e+00,-1.224113732669279253e+00,-2.323090753950003418e+00,2.251439704543699016e-01,7.997447108352172540e-01
-8.931906513436328465e-01,8.607381840675129014e-01,2.557138984760619849e+00,9.695407430672358107e-01,1.580567513425018333e+00,-1.766170386318202112e-01,4.887438367405030348e-01,2.575086434980963457e+00,-3.022864610154948894e-01,3.074486891977529224e-02
-4.124090297430591967e+00,1.570121835002362687e+00,1.850821846403648996e+00,2.164749471165578587e+00,5.450412253449369082e+00,3.616803204447482933e-01,3.991794992973272116e-01,2.818326576410486783e+00,-1.241448670754563999e+00,2.058359186628854864e+00
-8.840002601816432382e-01,-1.777322684089179816e-01,-1.945973561045628575e+00,-1.030536461232518075e+00,9.670542949013120060e-01,-9.082844934795712977e-01,5.905920392463257507e-01,-8.089599430684348835e-01,-1.036380245291534496e+00,1.348041880879101262e+00
-6.190670752501348240e-01,5.563648882410279217e-01,-3.112186326431413130e-01,1.165584494469734445e+00,2.646975399284010599e+00,3.462371649347992797e-01,4.886598040315661695e-01,8.019324644345808828e-01,-1.616561475161816919e+00,1.943819203093193337e+00
