-2.426271694925882016e+00,-1.306578549613248041e+00,3.503900827477259838e+00,-2.715537377319268586e+00,-2.756077259496771070e+00,-4.676752457041412292e+00,2.129287001786833056e+00,1.082271862256825923e+00,1.669839862969308530e+00,-2.184351270127428801e+00
-2.299769868614633950e-01,7.672067901794112910e-01,-6.017741075524934979e-01,2.535914037715938929e-01,-3.081402033440993060e-01,7.818521412985843799e-01,4.471672668186844057e-01,-5.153045599288047507e-01,-3.241090679362524929e-01,-1.390383742810150647e-01
2.753028565420447271e-01,9.943253721531976064e-01,-2.619654049455311551e+00,5.815352503984155819e-01,7.422917525009865569e-01,1.848396148219817903e+00,-7.683644937703243416e-01,-6.961577350799952324e-01,-1.591319720798257897e+00,-2.573324911097025769e-01
-2.023273828387152307e+00,-1.612320241962524880e+00,4.575038710584603541e-01,-3.684783638106529313e+00,1.323402957311166528e+00,-4.932401414699442377e+00,1.328417986998344236e-01,1.514681904062880724e+00,1.254366022704923589e-01,-4.320385676525448915e+00
4.303594116387341462e-01,-3.920373153500153474e-01,2.077421064892361446e+00,2.865164058993702190e-01,4.310584987922487787e-01,-4.313232037476029124e-01,6.682310049171290567e-01,2.754262104421300039e-01,1.632778920818344304e+00,9.170473433649117823e-01
-2.271902217409859759e+00,4.164931108946832716e-01,-5.958645814558117815e-01,-1.333950491621213263e+00,-4.299330159006158780e+00,-1.245801057197128303e+00,1.013335815969754305e+00,-3.108182866734429672e-01,-1.399635731741664557e+00,-1.726018479563503405e+00
1.578606173181215322e+00,8.325514060762205792e-01,-1.581573963950936079e+00,2.915604551063380345e+00,-2.575635639254137743e+00,4.022723932156998750e+00,-1.354983467887690196e+00,-1.057830549860016234e+00,-1.543357446153502899e+00,3.629089550992740332e+00
-7.649525464024309329e-02,-3.029404059828090245e-01,-5.571970824212576501e-01,1.050765453421730555e+00,-5.378667121139706353e+00,1.080657030897245630e+00,-1.021109403966488527e+00,-2.654743602580881268e-01,-1.765039173622238167e+00,2.131097558104585676e+00
2.399774543917858605e-01,-8.398664575591392456e-01,-1.525170597268990180e+00,-3.628750533692870484e-01,3.314101080892739581e-02,-3.356177847243451140e-01,-1.816920174586592385e+00,4.938693503203814839e-01,-1.436770074238390205e+00,-2.969847801459841730e-01
-7.984047441179706883e-01,8.041887165968274187e-02,6.064004784370287116e-01,-1.081988802173861508e+00,9.526820468960260913e-01,-1.329503160460748790e+00,9.948166396973752157e-01,1.660530270632833427e-01,6.966414839156345185e-01,-1.559877218880385108e+00
