-3.695630413443011242e-01,-1.720649716058469281e+00,1.066344742198761297e+00,5.752918705925051668e-02,7.306762827643359381e-01,5.437440343388892927e-01,1.333663899482825599e+00,-7.638263365133233229e-01,1.407165884410341850e+00,-1.200579620390983759e+00
1.753139983269195845e+00,3.695804294776334320e+00,-2.425920740752310234e+00,-3.063943548068888134e+00,-1.353003988269898983e+00,-1.688774920828078452e+00,-4.645257035474840701e-01,2.380031620791442037e+00,-1.344526977513503363e+00,8.564515835337102034e-01
-2.242314718413226160e+00,-2.838203343344667839e+00,1.078842815684609491e+00,4.028893331644903597e+00,2.231467934084968352e+00,-1.135975832224750820e-01,-1.987822772313042607e+00,1.565210282385316010e+00,7.603241002672753712e-01,-1.455985231956299364e-01
8.469029476444094318e-01,1.643146147896385800e+00,-1.349759077894036929e+00,3.494047968964498763e-01,-3.088816470492767308e-01,1.870211670765336232e+00,1.018612850119386293e+00,-4.150343611418064738e-01,-8.124950078170364298e-01,-1.045829168796025499e+00
-1.552328383083029673e+00,-2.398739037876061742e-01,7.025963809550610506e-01,4.125976729157821765e+00,-7.114015196847011113e-01,3.312359294951446320e-01,-3.961253683753812371e+00,-1.725020183533283014e+00,-2.635172483808634780e+00,3.331932075758213596e+00
1.519388296372061076e+00,-7.978083549226335780e-01,1.443029619208112402e-01,-6.044929595949184886e+00,9.326770568554382246e-01,-1.989385872198199179e+00,4.465451341548110520e+00,2.367879190201326089e+00,4.008133749424788839e+00,-3.388394961688113050e+00
3.153856846162136907e-01,-6.317337987798811449e-02,-5.373004857805828705e-01,-1.071603309170445328e+00,8.817396362344079863e-01,-4.606468237076342676e-01,1.083895642221768041e+00,1.926231412873112836e+00,1.204121143849954390e+00,-1.520701413243731093e+00
5.376562887849595240e-01,-2.850847265196005398e-01,-1.181915845972204282e-01,-2.237779067377872355e+00,5.872781982086778818e-01,-9.099397560024692355e-01,1.615133768580542029e+00,1.477475487447064140e+00,1.631734696554593800e+00,-1.453976565541696742e+00
2.454154793330283815e-02,2.714980628851401678e-01,-1.221204266814913675e+00,-6.101988748964255749e-02,1.436541888694630620e+00,-7.058264297760412642e-01,1.160245323003711720e-01,3.518754006187522432e+00,8.784900845857396279e-01,-1.507269627126261557e+00
1.012275603116127964e+00,9.533678509476717355e-01,-9.223074023463969651e-01,-1.333331268473923359e+00,3.111663245632840386e-02,8.635876086649026950e-01,1.953849012861167189e+00,2.880148782129816620e-01,4.893590424332571742e-01,-1.682111984051421594e+00
