1.978491307991102399e+00,3.435366273168496853e+00,2.299112110523330088e+00,1.806335086446794191e+00,-1.118692611566851181e+00,3.441350286965042748e+00,3.024628413570215280e+00,-3.166604530473395851e+00,1.772736224167886565e+00,4.453502188871254042e+00
-2.345703291889277287e-01,-2.956030374909401015e+00,4.337597910141962609e-01,-6.262935221393505225e-01,1.613984191964658255e+00,-1.946178409731615044e+00,-4.937662560074297935e-01,1.168173541748166233e+00,-7.831848653931243742e-01,-3.649533537399851646e+00
2.398746152050525993e+00,1.678095053746752274e+00,2.786476277822782954e+00,1.444782372333682341e+00,-1.050900544133375636e+00,3.143803246975092502e+00,2.200355835154652162e+00,-4.093801189953500064e+00,1.358533613823141195e+00,4.741536843156613834e+00
-6.941674784110194452e-01,-1.598081683797623498e+00,-8.264605421909747562e-01,-5.538088738914247466e-01,1.016696666271990290e+00,-1.114746920817247133e+00,4.087331595406553664e-01,2.430892343023668634e+00,-5.601301383311874105e-02,-3.793044887349764860e+00
7.095917783297811532e-01,-5.564955954808059602e-01,2.954538337311605201e-01,-1.987870053509666057e-01,-1.195186118356057481e+00,8.002450730418786407e-01,-1.394643818880292319e+00,-2.427473925400343902e+00,-2.716624527989486282e-01,3.460204130776797893e+00
-1.196335937301549190e+00,4.211140430128499368e+00,-3.581913175874976707e-01,1.108802979801241761e+00,1.032470841691892405e+00,-4.120452831310905673e-01,2.234873817414603003e+00,2.785383601011395704e+00,6.171277561718966354e-01,-2.527255199801706098e+00
5.041020066574621872e-01,-1.242829026655963620e+00,-5.389685600607108107e-01,-4.603013299153965038e-02,1.342095096516917607e-01,1.570589552569132241e+00,3.110619608970476513e+00,1.904754658304605108e+00,1.711465800840676676e+00,-2.807261446311428710e+00
9.074185100625138389e-01,-3.726812585310351089e+00,-2.107232163030046124e+00,-1.586056795089378912e+00,-2.895529126884179849e+00,2.415724132582098616e+00,-1.602775007044646705e+00,-1.711645315097688913e+00,5.716360039061396670e-01,3.689253047208632452e+00
1.770159482637251314e-01,7.117540106969411973e+00,8.209050034287767028e-01,1.715210077354818452e+00,-2.246671951601537653e+00,1.782917910742475520e+00,-1.167264074259300788e+00,-3.976060500116310958e+00,-1.321668680787428940e-01,8.456298522700036457e+00
-7.303051299830827237e-01,-7.065736396314576062e+00,-1.848143666519711736e+00,-2.282039867457765769e+00,1.289761391995475792e+00,-2.265864556474461722e+00,-1.283648374259216185e+00,3.227596317855088603e+00,-7.553891237980793205e-01,-6.263303042568119317e+00
