-6.006851539672593887e+00,-2.060579511539788911e+00,7.570700182783418164e+00,-4.443366873607081047e+00,2.439722825382415028e+00,1.773273650238936794e+00,6.508751240475771915e-01,-7.719767405906836633e-01,7.529384242982604114e-01,1.353153742524725978e+00
-1.359586075787137860e+00,-5.833465153023138505e-01,1.656206521846770752e+00,-1.818385763093620433e+00,2.439965063051418692e+00,-1.560711703106302251e+00,-1.689934290699022457e+00,2.078283634426425941e+00,1.716881924093804468e+00,-1.007435373624570030e+00
1.359110108706158559e-01,2.312806038368079520e+00,-1.915707391014969563e+00,-1.194376348530527876e+00,1.096796971873316817e+00,2.605172195291181048e+00,1.440713567748547197e-01,6.625600150447708003e-02,7.353507710033374556e-02,1.158357092997789994e+00
3.729066404853226269e-01,-2.337608940710743655e-01,-9.370900750909392229e-01,-1.178881749562498582e+00,6.382714846330219682e-01,1.057636220207296640e+00,-1.439330253245587055e-01,-4.813660141710248142e-01,1.902885358317015774e-01,3.613582569257846600e-01
-7.902744862339955434e-01,-7.676310937249830602e-02,1.725011766097978239e+00,1.362963749490035514e+00,-1.048027596408900308e+00,-1.022848840051919117e+00,5.225437813578250879e-01,8.653863454808946587e-02,-4.637071766916823212e-01,-2.169130320597796313e-01
4.060260071384732328e+00,3.132626810545435792e-01,-5.202706658877811918e+00,1.400747357309907404e+00,-4.363924553910067949e-01,-1.193144620554941415e+00,-1.195394231453263068e+00,6.166312086975604956e-01,2.402633082549911758e-01,-1.143816051126552491e+00
3.217910825459985080e+00,-3.688486042319456981e+00,-3.048072515679710826e+00,-9.438772691897862055e-01,3.588795979670506009e-02,-1.163827469183673191e+00,-1.252326813814099715e+00,-1.192527250677607453e+00,5.469261307915582737e-01,-1.172688761389222289e+00
2.852195637314543397e+00,-1.158908752013321664e+00,-3.390196583096210858e+00,4.692382932129255391e-01,-1.473925452041771944e+00,1.089684306280710224e+00,5.377553872247393674e-01,-2.179800387204455348e+00,-9.070560328501811043e-01,3.354182140907983056e-01
1.735196296659656578e+00,1.241543505470122710e+00,-3.110243307352589248e+00,-1.353873764154350234e-01,5.005717440999523093e-01,7.591674797208476377e-01,-5.188569248798527989e-01,3.701411792013796220e-01,2.263832892103319061e-01,5.912019135401505587e-02
1.104009910036933384e+00,2.972017789639252783e+00,-1.648699829812733553e+00,3.161353339048652344e+00,-1.245727577362921723e+00,-1.196791374713200407e+00,8.390163167343049622e-02,1.622967191265626052e+00,-4.884263849664686186e-01,-4.915511688598378504e-01
