2.811566909838121298e+00,2.939695327225360089e-01,2.996004283573825422e-01,-5.959936090239615902e-01,7.844367804600762550e-01,-2.999738328668542398e+00,1.208469258230382870e+00,1.095967179609166120e+00,2.065422577561977224e+00,3.115127360288826204e-03
-1.993626047342637042e+00,-3.508028123435366297e+00,-1.922959919001798523e+00,-2.053837103949258114e-01,-2.255948714861137905e+00,-8.736204821880558802e-01,-5.015850081347098532e-01,1.461075642328971136e-01,-1.715684542792479617e+00,-1.641972223379873252e+00
8.452959816797580572e-01,2.391114524976181599e+00,1.950696154031172913e+00,2.185071711483833390e+00,3.077972268578077486e+00,-6.706751773300144784e-03,-2.340055381951735847e-01,-2.080156544985678035e+00,-1.804090168347679990e+00,8.407817514975470807e-01
1.773189404897603239e-01,1.691994186005222611e-01,-3.837997119818326586e-01,-1.547361463081660560e+00,-1.612273116979201726e+00,1.871299301028880757e+00,2.340153641534968854e-01,7.502328609364929957e-01,1.582305632123907513e+00,4.195086636308407169e-01
-8.861550449270196861e-01,2.904325645614109774e+00,1.505462295953090779e+00,1.173494753838076221e+00,2.436791393048966192e+00,1.597064260184735573e+00,-5.814943461740076369e-01,-2.734892550474550266e-01,2.129683413831077177e-01,1.232528834824000663e+00
-2.434578923866754341e+00,-1.293615553725285361e+00,-9.187403464352777993e-01,3.712176597775836417e-01,-5.318149908463275927e-02,-9.668825580082619497e-01,-6.628147197569237425e-01,1.132807799100913337e+00,-2.342428060694137226e-01,-7.984518684948834766e-01
-6.582690284700613848e-02,-3.039556945089883833e+00,-2.521519732596170016e+00,-3.630285731181893016e+00,-5.177971314561714777e+00,1.447798096371793131e+00,6.124901446255365256e-01,2.050813767729275483e+00,2.394453066723957413e+00,-7.889927764779511854e-01
1.705206216325205304e+00,2.196420101568316241e+00,1.341877583215312697e+00,5.723101188392274441e-01,2.601108185883304724e+00,-1.747480280395449004e+00,5.704843249464420785e-01,6.070126306493979218e-01,1.600874117811358577e+00,7.689891406173421373e-01
3.632907793875155722e+00,-9.139606835283669017e-01,-2.906503443629602779e-01,-1.778115032549028918e+00,-2.369019765314972492e+00,1.993744961571315422e-01,1.319351498403251277e+00,-9.216533325394667964e-01,4.498369284550037817e-01,-1.788329797636174431e-02
-1.552175346847854298e+00,2.428078074453247748e+00,1.340277045007438605e+00,2.390235996474108671e+00,5.302135506899705142e+00,-4.040193894851204170e+00,-4.609806876283313315e-01,2.265096910412017994e+00,1.603130189088754598e+00,2.962478580770417369e-01
