-2.035843780656489077e+00,3.005406754851764894e+00,1.240017413932419377e+00,-7.818823925599893698e-01,6.806530972998829920e-01,4.867986291359999163e-01,-5.066841918771994302e-02,-1.048800088092203042e+00,-1.085691438480184123e+00,4.102965798096780969e-01
1.133516270478717169e+00,-1.266875743696509904e+00,-4.953240198329901034e+00,-1.038569573447392536e+00,-4.486279712405457865e+00,-8.636936792421425757e-01,5.324703398573245039e-01,1.169870070308034693e+00,2.834965015284940382e+00,1.269659131919101291e+00
-4.369171853808178074e-01,-1.893527131567963817e+00,1.410592940637493520e+00,1.278487786526178449e-01,2.359172461842417690e+00,8.813191146187004943e-01,-1.085106312032069864e+00,1.273290477639996254e+00,-1.718237794821955988e-01,6.101954173447032836e-02
-1.302749809775779033e+00,1.066498098066425371e+00,3.535763875482763829e+00,1.166269008996626111e+00,-6.255186528148071190e-01,-7.021291745127746786e-01,1.095976120035353496e+00,-1.283492458310849793e+00,-1.934944632233067896e+00,-2.170353128086401906e+00
1.852711503456081044e+00,-3.909265945184317470e+00,-3.980401391330339766e+00,-1.893939612868576483e-01,-3.480565297688547055e+00,-7.729330717682030283e-01,1.523429549554602414e-01,2.207173543483855305e+00,2.879571308674174990e+00,5.481694535578880423e-01
4.863340283605004921e-01,-8.716193267811038758e-01,6.538591567744959088e-01,4.665437047371685519e-01,1.028519913082799109e+00,1.278588130461069949e-01,-2.291617327337936438e-01,2.027550605620382085e-01,-2.226731716739028810e-01,-3.252210054474677925e-01
3.269531826275131614e+00,-4.104068957537814200e+00,-1.285692333516320618e+00,1.113557474645515022e+00,1.466145682452373089e+00,-1.314538225257120066e-02,-6.451986792791061243e-01,1.410317791693054712e+00,1.141165318397506789e+00,-1.491934967179031901e-01
-1.555653921156904262e+00,3.133131899623175176e+00,-1.495571962094936369e+00,-1.273988279380120936e+00,-2.876721694715044908e+00,-4.194844342129758763e-01,8.082234054471832962e-01,-1.000697222762557903e+00,2.910790993413913119e-01,7.777163614782680590e-01
2.406513528146017933e+00,-4.067255828684784191e+00,-2.121696620886287743e+00,6.786827394122834090e-01,-1.199498564302597048e+00,-5.302607616038400584e-01,-7.425185260959042688e-02,1.718964521497051923e+00,1.783592438988034878e+00,-1.758608772547419208e-01
-1.116590122503579696e+00,-1.954630886728432326e-01,-1.233525745382788141e+00,-1.594704522450093975e+00,1.706994579603628326e+00,1.391857217149540027e+00,-1.537518508299599240e+00,1.431818633457445200e+00,9.376551817559514168e-01,2.094567246572492270e+00
