-5.148165009491143529e-01,1.505663883398723257e+00,-2.898940910259462100e-01,-4.707824880992887984e-01,-1.832056833928777273e+00,-9.768176652329603193e-01,-1.569760980593749355e+00,1.358124513267524813e+00,6.666573740119628999e-01,-4.540391133618052466e-01
1.820205011568759135e+00,-3.279068564026511368e+00,3.491746018691935238e-01,3.563014240840056690e-02,4.328794113463494853e+00,2.425795082806436742e+00,2.965269562973787743e+00,-5.540197974018010285e+00,-1.138965718725851062e+00,-1.673972680505208643e+00
2.293059595761848257e+00,1.007739979012885367e+00,-9.472661672149498280e-01,-5.136945087679338329e+00,8.107222300592011877e+00,-4.561647560070460017e+00,1.620418448878214512e+00,-2.034364299996794578e+00,7.062965625009628989e-02,-3.901950372089280084e-01
9.606483582606790694e-01,-1.770960720153302859e-01,4.630004585184849253e-01,-1.917368654165758080e-01,2.463557217158552248e+00,3.439290413651515665e-01,8.150378677785465875e-01,-1.649955843922084719e+00,-4.738223846276300444e-01,-2.763925646933829694e-01
2.218108327843487104e-01,-1.998368822476753515e+00,-1.496450439018215173e+00,-2.273835504942962604e+00,1.769355343845855799e+00,-1.400597616361846987e+00,1.495057845753107406e+00,-1.334953479169804336e+00,2.661719565116928421e-01,-6.191325129474963829e-01
-1.432878622830529247e+00,-1.190141512272629321e+00,-8.536998590439398571e-01,4.415270265469056765e-01,-2.789407217134577621e+00,-2.171081129397189335e-01,7.712342699626756337e-02,2.181389302222405124e+00,3.487404110148434322e-01,1.213703945571232179e+00
1.054634894415622526e+00,9.543125849953637552e-01,2.825416757940563128e-01,-8.454140616548244669e-01,1.451986462895216379e+00,3.896874251102266928e-02,-5.329459243112649736e-01,-2.198642519929661976e+00,7.634610756810947252e-02,-2.016929728432812929e+00
-4.519532803360810647e-01,8.215554639276072268e-02,-2.338683649877947024e-01,2.185310974897873015e-01,-1.927412850202782968e+00,3.378094978991327269e-01,-7.964371474282947450e-01,1.324842067051761330e-01,3.626436534777184861e-01,-8.040322134904036577e-01
-3.909502829913822364e-01,-2.257444275430111169e+00,-3.924530601855922840e-01,7.775892606520166117e-01,-1.305948548924457553e+00,1.577210926776166922e+00,8.419654291481120101e-01,-1.177465124533258800e+00,-1.249033504155084018e-01,-5.852825373132001241e-01
-4.485974191207034445e-01,-4.455387728340254760e+00,-1.781757414299351083e+00,-1.149394838370995320e+00,9.396919979694398073e-01,-2.115504558708023453e-01,2.961716599173545017e+00,-1.105341253996164674e+00,-1.262927598009217778e-01,5.737983184675400361e-01
