-5.437423964753475003e-01,7.935847034489734719e-01,6.880935680188892123e-01,-1.572747796223798566e+00,3.025187569123961029e-01,-1.523519736027439508e+00,2.240367076834198556e+00,1.678613156319261668e+00,1.272614824815990198e-01,-4.689079106500665395e-01
1.155793834402994325e+00,-1.103142728453567978e+00,-2.190894611422455895e-01,2.546704791163764359e+00,-3.246436924607627450e-01,1.891230530543322574e+00,-3.359951811024478818e+00,-3.211870146689676631e+00,1.717975835194635037e-01,4.026521582966182677e-01
7.687065789898476220e-01,-1.420313535050607312e+00,-1.272725570336561418e+00,2.930293256978824701e+00,-1.418544595385251128e+00,3.873427198699865404e+00,-4.358600467040469439e+00,-1.469793242763115071e+00,-2.140160484081971015e-02,1.160762229475317930e+00
8.909877309211845509e-01,-1.728213039791057781e+00,-2.011135536789795619e+00,2.733972252755108023e+00,-7.140792042048669241e-01,3.673558928371539523e+00,-4.480932613049659174e+00,-2.504991403639758474e+00,-3.932822958995555451e-01,9.626571627842439582e-01
3.687956934252170083e-01,-1.857239775880015209e+00,-4.740227487840313003e+00,1.641741753910508583e+00,2.670022839673791282e+00,-4.353716361754222941e-01,-2.666382939975792787e+00,-6.750937270068644303e+00,-2.781973312414495858e+00,8.608030347614499256e-01
-5.632972802175864047e-01,4.657228607666258346e-02,-1.244887369288038226e+00,1.844346430140471060e-01,4.535360013303814108e-01,-9.638396201957688536e-01,3.039811986082866513e-01,-6.709704703299095296e-01,-1.050722652674499269e+00,7.124653570572400119e-01
6.690547077546318278e-01,-1.602513987474999624e+00,-3.205412699867844495e+00,4.229779391267035615e-02,2.153602035404476478e+00,5.950025998412460382e-01,-1.768638623413715472e+00,-4.071058516000448435e+00,-1.368975069478973516e+00,-4.218170642401831150e-01
-1.429200911563404564e+00,4.108086164468078394e+00,7.216549551151256736e+00,-1.442809686015820159e+00,-1.641802606185741364e+00,-6.325674837341831669e+00,6.647428052375682128e+00,5.079507492964335569e+00,2.062829420893847576e+00,-1.102280858699066224e-01
-4.853954852319580793e-01,5.225475763787421624e-01,8.315175652532309503e-01,1.885802119740791483e+00,-1.804564726929360319e+00,3.774507344294242284e-01,-7.305752960639595450e-01,1.071228917672231828e+00,8.261742604671548640e-02,1.542382830480759859e+00
-7.702439640704454860e-01,5.012208313900974321e-01,-2.406508521592671812e-01,8.631193743513193573e-01,-5.831760854233781766e-01,-8.717461487086317629e-01,2.997610136536359438e-01,3.829051483558538749e-01,-6.737327822118206466e-01,1.253742156846203493e+00
