-1.849453068256635246e+00,-6.712168012869428324e-01,-2.436497223781421528e+00,-6.470106253319207745e-01,1.687547990579765678e+00,-2.772811954133379775e+00,-2.349738731707567974e-01,-2.327197068009264402e+00,9.206907215133580680e-01,1.706354734054391864e+00
4.899880115604872799e+00,3.034456584861617845e+00,2.239508120495361965e+00,-4.964607170487304266e+00,-1.744612141306582043e+00,4.450276565591157585e+00,3.623644799705857178e+00,3.023985322646297380e+00,-1.404126687217265301e+00,7.315236677010187316e-01
-5.333549428591184416e-01,-2.702396682959851693e-01,2.314961983248614796e+00,2.222952403935194443e+00,-9.406150380819011669e-01,1.471295463320922758e+00,-1.336831766565481416e+00,1.334964779046384331e+00,-3.849630010820447729e-02,-1.936740142647724650e+00
-5.399149569252250647e-01,-4.415249092593253044e-01,1.281585910776250614e-02,1.044242732241227101e+00,5.359979995188252078e-03,-3.192293415647522448e-01,-6.159488923388171111e-01,-1.309653351890429640e-01,7.514461376602174503e-02,-4.522562616722682893e-01
-6.868298828945053058e-01,-1.039834773437323001e+00,-4.014595478251090199e+00,-2.164838317419510716e-01,1.543310457660739932e+00,-3.579356426533755631e+00,2.910811038093933378e-01,-2.675006898824907164e+00,1.932598374516119599e-01,1.729701605776775786e+00
-2.142545218661065842e+00,-2.228551395841037230e+00,-1.550578587422641874e+00,4.355992469484556651e+00,4.491076801387950401e-01,-2.596470083826449837e+00,-2.323539139065488257e+00,-1.431741287161603982e+00,1.848128866157543737e-01,-1.342447070234247475e+00
-2.548757592621636370e+00,-2.260468778656160305e-01,-8.843968623568960741e-01,-1.112910612317698833e+00,1.641334539341865684e+00,-1.776490888990708061e+00,-5.497229033618555860e-01,-1.787648803549717336e+00,1.424335588650940787e+00,1.593381619592071141e+00
-1.035451005681117254e+00,1.196738366580534896e+00,1.858615157447393695e+00,-2.558437673952508540e+00,4.750033443346859396e-01,1.271173567314646258e+00,2.814878898784959338e-01,3.513521435253357250e-01,1.069672391892037222e+00,1.038254137928062537e+00
2.403736872591154317e+00,1.340387213134496269e+00,2.001551258533282862e+00,-1.353328955355999508e+00,-1.362774258881676692e+00,2.832510241133447071e+00,1.264012054951936914e+00,2.120700820262447550e+00,-8.463441462074723365e-01,-5.705919610180771873e-01
3.582219654464713798e+00,2.303077241094703798e+00,4.361301825601701765e+00,-1.897950639404292872e+00,-2.465818060711004733e+00,5.340559247929229869e+00,1.668028038930801538e+00,3.976312975846610698e+00,-1.219237051284665529e+00,-1.408800168553181908e+00
