-9.269109096501406686e-01,-7.057307185603312050e-02,-1.401131398071928214e+00,-3.039874758224104800e-01,-8.168485579196615998e-02,-2.602664629757456716e+00,3.714223037780106207e+00,1.390840402829055744e+00,-3.402225255592820297e+00,-8.183422821927748281e-01
3.373612018804281187e-01,-9.256800731959291539e-01,-6.265887647865530097e-01,-1.551594795564530394e-01,-2.750297290201278999e-01,-2.684914604422619533e+00,-1.995908409682518592e-01,9.026454337473349687e-01,-1.772968226364040500e+00,4.675439655645478865e-02
3.670007806661333971e-01,-8.665020910560985445e-01,-5.066029350175325074e-01,-1.347604994312970317e-01,-2.661389120274757492e-01,-2.399799516475783712e+00,-4.134447532595717512e-01,7.760068921828613409e-01,-1.486591172007809769e+00,9.131134075563872299e-02
-9.219519336918891028e-01,1.376721389805181994e+00,9.103733543156039554e-01,-3.167722229818209501e-01,-5.757500808456783581e-01,1.699158575958358952e+00,-1.531322809767476922e-01,-5.886603733142073969e-01,9.888763484075346888e-01,-1.623632090341916578e-01
-7.660508184275858223e-01,-8.109057046374046340e-02,-4.192991583823857393e-01,-8.147909450569663647e-01,-1.349817268696976935e+00,-3.883213242490247019e+00,3.089025768882827094e-01,1.410301577080875335e+00,-3.159160181316968963e+00,-3.233609690987551688e-01
-6.395837451824407660e-01,6.629316734954591173e-01,7.176336343446637622e-02,-1.480195324666604417e-01,-1.420833743506142444e-01,5.162368013255846932e-01,1.014999275620878105e+00,-3.825709871887339464e-02,-1.628881564232431689e-01,-2.885364163320731090e-01
-5.889709998112675482e-01,9.509843443920686923e-01,7.959491273705048275e-01,-2.762171427059574302e-01,-5.596067500422281515e-01,1.081367225345858829e+00,-6.539422382664549227e-01,-4.436811225454467822e-01,8.116514209108580680e-01,-2.440593586463850329e-02
-2.613684294706196121e-01,2.602892773171739949e-01,5.443302784482410006e-01,-4.473708122585990377e-01,-9.399625884126557862e-01,-9.632201277303555909e-01,-1.493524825938075118e+00,1.565822088808541124e-01,-2.898756182162464667e-01,1.266197452476507945e-01
-2.077339718823841608e+00,2.905428756379141664e+00,2.189802607636065268e+00,-1.040350183878570700e+00,-1.981915668222514304e+00,2.275756306945023510e+00,-1.466425847644313052e+00,-9.244947782747741094e-01,1.471633527499300653e+00,-2.427000619373797241e-01
-7.616018234065407011e-01,9.410591121854618990e-01,1.095058882087770691e+00,-7.366008951059920262e-01,-1.499773722834390588e+00,-5.859872592370222177e-01,-1.991111850957861140e+00,-2.446523522733179412e-02,-1.175179636745549150e-02,8.473683192502108608e-02
