-2.424029153484785759e+00,-8.674128607212202580e-01,6.482178696329248258e-01,1.378283384558939506e+00,-3.422584592695383510e-01,1.175497877342403630e+00,-2.457911055411762025e+00,3.979044609808787492e+00,-3.179738537811489962e+00,-1.337200307754074835e+00
-1.997138729065699669e+00,-1.212492698653807377e+00,6.107829076015498515e-01,2.538558507134557551e+00,-6.901183228739968811e-01,6.438313565784166137e-01,-2.349163739629260395e+00,4.896167349623687493e+00,-2.943265496361584521e+00,-1.831117537066009771e+00
1.800517032884889623e+00,5.137608579056832658e-01,1.138554386077183234e-01,1.596360031028403847e+00,-9.716423849615873909e-01,-5.023715597124549515e-01,1.992430733335432080e+00,1.845234099631300750e-01,4.868807775685242700e-01,-1.907145750955248908e-01
-1.428325882476377817e+00,2.241899222044427820e-01,1.420443350285804929e-01,-1.755749654727232212e+00,6.473712931578093910e-01,1.071823250822871110e+00,-1.024983417356873927e+00,-6.426664001745946431e-01,-1.001838717378225274e+00,5.078723780338613158e-01
1.081783324272625357e+00,-2.838654815571463666e-02,-8.092454295325397784e-02,1.120947455952091110e+00,-4.686129825079766165e-01,-6.811607424685920398e-01,8.895658404734659852e-01,2.559400329052802792e-01,6.998833851656589555e-01,-2.610771352592364258e-01
6.437588414875283771e-01,-2.151479713599357968e+00,-8.994126531262258695e-01,2.061670838762875491e+00,2.667788107741963510e-01,-2.732739485211278296e+00,-1.376807093902385759e+00,1.516953275371782262e+00,2.702328641048863389e+00,-1.246071350200967043e+00
-4.935990960027163976e-01,1.368528319394685666e-01,9.827556829084995726e-01,2.917468840849656964e+00,-1.561460213941298747e+00,1.156346165661401582e+00,9.704302396014374832e-02,4.036391222559442937e+00,-3.241761600908999341e+00,-1.364590025941601947e+00
-4.610748070065235349e-01,1.308780061279854801e+00,2.748143946399596027e-01,-2.408664602269390276e+00,4.066353733476173460e-01,1.484760261384263647e+00,6.576573561053644656e-01,-2.244864506585687369e+00,-8.254902449358872962e-01,1.251504422613828327e+00
-1.124878435758315115e-01,8.209619354097338895e-02,-6.959567858833344278e-01,-3.049777019235696773e+00,1.459945999871895106e+00,-4.261372456211161008e-01,-3.438857527182034857e-01,-3.551865930911002334e+00,2.132759466198158371e+00,1.337647314963501755e+00
1.009132988752025284e+00,4.108315949273259049e-01,5.474457653187978501e-01,2.516186324493400406e+00,-1.421372342283792944e+00,1.968823662527690865e-01,1.416633261905231311e+00,2.076921763100436635e+00,-1.211309641631862277e+00,-7.941711221258191955e-01
