-3.623498473383945928e-01,-5.180246533519669572e-02,-2.539043260872580476e-01,4.336290539254413767e-01,-8.322512379582157616e-01,-2.053482412952580827e-01,7.042886958790873786e-01,-3.690424993282386268e-01,-3.958897188073161599e-01,-2.107928039931108999e-02
6.166897281318989288e-01,-2.017442576831425874e-03,-2.088624563555389890e-01,-3.270980769416590994e-01,-9.913313397892380419e-01,-1.859938320703446113e+00,-5.967398577341760380e-01,-3.664728488499779946e-01,-2.022566570932404328e+00,-6.476637182866720188e-01
-3.214121262237594756e-01,1.846426927658289419e+00,1.676476975335504882e+00,-7.520645600212924609e-02,1.556534794120919996e+00,-9.678052358153799162e-01,1.255698318834341132e+00,1.246196475518406011e-02,-1.214198225924891128e+00,1.386300937445565262e+00
-2.967667776766929610e-01,2.862533784265913206e-01,4.299017107070363664e-01,5.790169981221668372e-02,1.001337456599416420e+00,9.509508165560227599e-01,3.332519756570868075e-01,3.034978983811891240e-01,1.055614002554475794e+00,5.713236159208615605e-01
1.293373923474357312e+00,-4.336341147465254675e-01,-4.804688701187035393e-01,-8.566796010502127912e-01,-9.748995458675449033e-01,-2.134065330774972402e+00,-1.841498539477119722e+00,-1.540282234803191930e-01,-2.110741204469235299e+00,-1.241236079059876207e+00
3.418510216207200081e-01,1.617146570538715022e-01,4.942751485061393502e-01,-5.364132366440957922e-01,1.512248752363818616e+00,7.238909421724042392e-01,-7.891143397105622181e-01,6.196766445613020036e-01,1.025028524567797916e+00,2.620095946647332807e-01
-6.441150906759912642e-02,-1.741983707812183813e+00,-1.665104077295275653e+00,4.123835740840963160e-01,-1.742435228418675486e+00,1.178258402597622156e+00,-5.918986137821176108e-01,-1.610536963154697021e-01,1.323403086337613832e+00,-1.154311124230118279e+00
3.007211532519251662e-01,-2.524117565472763225e-01,-4.044126752884916742e-01,-6.314185048949476353e-02,-9.966798830271630383e-01,-1.006298007001287909e+00,-3.175306861955717874e-01,-3.125552874427422467e-01,-1.119800228667518160e+00,-5.583996699123153773e-01
5.666574940556888818e-01,2.737924509949873908e-01,1.610351659564654148e-01,-4.212219465490786852e-01,-2.594715819058714401e-01,-1.513417466382129595e+00,-5.436277605175395822e-01,-1.522316563634149023e-01,-1.606420542304743071e+00,-3.053770207314196461e-01
1.758109558418695095e-01,-7.540076811916597288e-01,-5.115823394646075162e-01,-1.258131254270550281e-01,7.791095283054720599e-02,1.028152274927453869e+00,-7.716884242511447001e-01,3.026044626636985591e-01,1.284571817501153568e+00,-4.022124333979797961e-01
