7.466208680642619222e-02,1.575323566445199219e+00,-7.847944544929874588e-01,-1.015284416420528579e+00,6.742983995972069433e-01,-8.547432856758914177e-01,-3.460594539462704677e-01,8.641144728163124844e-01,3.673126475192819429e-01,1.051924288307296562e+00
7.434920705804661800e-01,6.858125938126957699e-01,-2.702511784330670075e+00,-1.530037513336783839e+00,3.393596454224568237e+00,-2.376105419374366257e+00,2.921290168813734045e+00,-1.846792581291480939e+00,1.067324590591706368e+00,5.007589724386588559e-01
4.739740996505771298e-01,-5.368091700177785031e-02,-1.549103491813169420e+00,-9.649917216999638336e-01,1.676093348498241653e+00,-1.488886592160015176e+00,1.556195965207273435e+00,-1.040300202928872597e+00,6.303497246630154205e-01,5.243496821440172262e-01
1.767214334882786508e-01,6.384286089106030460e-01,-8.042288119638120181e-01,-6.422405561937407636e-01,9.025758769522597147e-01,-7.635197820743939712e-01,4.799318330941100275e-01,-9.596525102648778560e-02,3.366400329084220377e-01,4.481889963125201826e-01
1.436552544573453383e-01,1.042981997764412583e+00,-8.538107825754408520e-01,7.917775142631180985e-02,2.111479194698052897e+00,-2.521544809774770579e-01,1.882150026693445666e+00,-1.309247371770422941e+00,2.485084866663158643e-01,-1.058443686820419005e+00
5.173736716348018572e-01,-7.905680715515517321e-02,-1.678274568177422932e+00,-1.280776000875064602e+00,1.490144566570277496e+00,-1.771536848466416680e+00,1.252341100909172278e+00,-7.261260159353780663e-01,7.152239056879653445e-01,1.028852890497757411e+00
-6.312829013021975522e-01,5.618696879694195623e+00,1.311336645805259993e-01,-1.424375750424922149e-01,1.439659612054798421e+00,8.431356019183902095e-01,-1.106488019589946026e+00,2.158443778940285274e+00,-1.056424009410419362e-01,-4.406987922747480635e-01
-9.864342498142149029e-01,4.911587516147486454e+00,1.527501284221079114e+00,1.808461320578740317e+00,1.139210644718362309e+00,2.782176073631860813e+00,-4.323149584268393131e-01,9.991601962301576156e-01,-8.097335420039669662e-01,-2.903943198302011197e+00
8.417483244616168203e-02,-9.619220310556810816e-01,7.180413525780521278e-02,-5.637361648386812751e-01,-1.225553879685444825e+00,-4.810861367405331879e-01,-1.102567849349346041e+00,8.120395613323915240e-01,6.775429275807962060e-02,1.302088185584821201e+00
5.238885088217077879e-01,1.339419988694247610e-01,-1.794684312959007766e+00,-4.818113288459367483e-01,2.869211974331154380e+00,-1.274917659675543158e+00,2.961219742343032646e+00,-2.247216355922640574e+00,6.408666262649881373e-01,-6.588976890861486524e-01
