-1.683120489500208095e+00,-2.304612173140722309e+00,7.873407752711392149e-01,-1.317818658729071446e+00,8.530916499566862932e-01,-2.840236445021057654e-01,-7.855066644844865831e-01,-4.364377183712166430e-01,1.082315744096931931e-01,-8.092153314444152645e-01
-1.164638431434075194e+00,-1.818292571088154119e+00,1.627979998594371480e+00,-1.037886809332310700e-01,6.465838918928861201e-01,2.129139637353072434e+00,-1.004396200039849862e+00,-1.187158723422941931e-01,-4.438890805623956215e-01,-9.730294637123426682e-02
7.641250485164327033e-01,6.573820291742060729e-01,7.925482756144019980e-01,2.579607458781247864e+00,-3.702795929535573904e-01,2.652979205869574031e+00,-7.453518419170962472e-01,1.480927962278575150e+00,-3.001729644233238625e-01,8.217935460672864956e-01
-1.268828925556226395e+00,-2.068027685022521212e+00,2.372773339153666061e+00,6.233595607656483573e-02,7.458941472078934876e-01,3.592770541742549284e+00,-1.201065441619546315e+00,-2.910217033335141812e-01,-8.430202062022443821e-01,1.587811724254292733e-01
-2.209162831850256525e-01,-3.017108589682531150e-01,-1.332238444002386446e+00,9.479960699415069802e-01,-4.601763951202070269e-02,-3.012462802145497776e+00,-6.877300283711624829e-01,1.823080070725151547e+00,1.286619832451289636e+00,-7.910832404263905548e-01
5.463533265267878081e-01,8.451049736169896631e-01,3.161394593671406628e-01,-7.403471572753491659e-01,-1.865441662663290812e-01,1.241785327220417123e+00,8.814046137234309297e-01,-1.306267663088112707e+00,-7.344318614552263202e-01,5.590394680606840527e-01
-2.623231709295456238e+00,-3.969402115449661483e+00,2.739124039593227700e+00,-4.408873789317068193e-01,1.389705503604205861e+00,2.827448200704258507e+00,-2.132082205325555258e+00,4.543473754157667521e-02,-4.260742447618872664e-01,-6.312800430467341295e-01
8.476411645795306482e-01,1.350092608371267877e+00,-2.816808554041120516e+00,1.158306366273995636e+00,-6.429061757047805914e-01,-4.941112366715608495e+00,1.708716399220480686e-01,2.038441934561475488e+00,1.718422959801239935e+00,-7.014626550032204699e-01
2.963924491585263610e-01,3.517729530771658286e-01,-4.699914447569157883e-01,8.930319637293302470e-01,-2.019951619416456845e-01,-6.170220784765118038e-01,-2.159832973979378401e-01,9.004964037847219549e-01,3.819494841171698907e-01,-2.873455037429932524e-02
-1.228807653041464221e+00,-1.784745925991140236e+00,1.025313289312656417e+00,-5.577956027840172970e-01,6.436358562212596279e-01,7.632220078896889692e-01,-8.023663969601916301e-01,-1.763119316699486294e-01,-1.185372420047067221e-01,-4.006121781384224256e-01
