-4.412839513017441373e-01,1.646258650579544236e+00,2.183823905954015432e-01,-4.284600651854393316e-01,-4.720968504473802563e-01,2.124389206848889433e+00,-1.914676148074060169e+00,-2.544924228747034611e+00,-5.009920025506118257e-01,-7.371939423920303991e-01
-1.918229135028791221e+00,3.069096869339079880e+00,8.991507475869018329e-01,3.162940358675236929e+00,1.388674569597369679e+00,3.116783734784214221e+00,-1.735904873014779692e-01,2.051820713350161363e+00,-1.022173681893095321e+00,2.511100832766500091e+00
-2.633447028323997685e+00,-3.790403652245625254e-01,-2.526945110145678353e+00,1.899692429218419409e+00,1.314618622248890922e+00,3.803498136780048000e-01,1.274923918376078547e+00,2.924315040891908968e+00,-2.999378886795204036e+00,7.381882994307087387e-01
-8.586748709651492728e-02,-6.666171199376653700e-01,1.508535046824686088e-01,1.393205570382088698e+00,8.839965620469261154e-01,-1.160716889631364879e+00,1.843898963517387690e+00,3.147344130641601900e+00,2.756887205047928169e-01,1.533688771550729024e+00
-1.428104403893361685e+00,2.237728461046207151e+00,1.325622844988928017e+00,3.846823280648908217e+00,1.863885457093074294e+00,1.722270737042619126e+00,1.319887413944381027e+00,4.272212978480928847e+00,-2.345299629880908121e-01,3.554251432941838207e+00
-4.759144391503090654e-01,1.645195250927286024e-01,-8.340108843892031221e-01,-7.733309185379135808e-01,-4.160880127545270035e-01,7.229010196507097419e-01,-1.018623457362899831e+00,-1.720391616418032621e+00,-9.049684997421100219e-01,-1.129534749765074730e+00
1.791641514954745995e+00,1.558173623353906745e+00,2.567341898147494028e+00,-1.074257009705350763e+00,-9.877149711238535357e-01,1.019196917451495654e+00,-1.743161198082773478e+00,-2.876038035931759218e+00,2.323117659380731226e+00,-2.695360735383857675e-01
-9.598990446504473972e-02,4.431978358210058033e-01,-7.014474794816266678e-01,-1.835353576203596182e+00,-1.076787192050015385e+00,1.191856710055782420e+00,-2.133490920713910555e+00,-3.787874743078599060e+00,-7.189819191105620844e-01,-2.127846476450328428e+00
-1.222852169338213946e+00,-1.996841777138730789e+00,-2.992056243891533462e+00,-8.010268167005644147e-01,-1.809198693296697191e-02,-1.106171219070655409e+00,5.166334032169112023e-01,1.080441825964275626e-01,-2.281339641184327416e+00,-1.538167413344522227e+00
-2.088953378209392753e+00,-4.462372190797923466e+00,-5.511238759419566868e+00,-9.210001880964984178e-01,3.883028757790239482e-01,-3.152270231995177863e+00,2.179978960464797666e+00,2.029255443282040439e+00,-3.902338803571467452e+00,-2.111595076115396985e+00
