-4.472614337250911953e-01,9.154557829894665044e-01,-3.971887820630315979e-01,-1.173052827935331832e+00,1.880663322914618574e+00,-1.279688634349108511e+00,1.199263425091326267e-02,-6.303447412696077112e-01,-1.210104423846600635e-01,4.405573837093365586e-01
9.206381281210455070e-01,1.517463336836638810e+00,5.124184104135384166e-01,3.095628344154194078e+00,-2.368610267749226672e+00,4.234463731190453828e+00,-3.682602431266751020e-01,1.228171548538698810e+00,-1.754999894611552147e+00,-1.048767745524453510e+00
-1.614405262315625977e+00,3.014248441806600454e+00,-4.551133539422755336e-01,2.880151868971152496e+00,-1.197133777271555122e-01,3.060029742107424067e+00,8.838100974050203673e-01,1.089001967021874018e+00,-1.675644842062904649e+00,-5.926327659609536003e-01
2.833529704660517012e+00,-1.488536683710468100e+00,1.371252350446725554e+00,2.584539674206385751e+00,-4.612726570310835328e+00,3.913125073692886868e+00,-1.157225284136777610e+00,1.231891714247113967e+00,-6.507871476581487125e-01,-1.223467706355872098e+00
7.203468433000076665e+00,-8.527653211635519703e-01,1.938167675367131304e+00,-2.517842766904373253e+00,-1.286128272172013087e+00,7.843076581354405663e-01,-4.332284544736266341e+00,-1.458208099006446989e+00,-1.479711001399557802e+00,-2.717749647224901866e-01
-2.555378660979919836e+00,7.216752907073328283e-01,-7.817378151473470815e-01,5.510087330971286113e-01,1.044155555314909556e+00,-5.453373840443312970e-01,1.446320241545454799e+00,3.092375954377704073e-01,3.617297449561869271e-01,2.093174908162467873e-01
1.073941024320509641e+00,2.629931313989927744e-01,5.026271130779009777e-01,1.575156578921138140e+00,-1.789392519536066040e+00,2.340805662820146793e+00,-4.735100275578027484e-01,6.513802732101002801e-01,-8.184731714609104758e-01,-6.298077196818326895e-01
-2.161830746813457882e+00,-2.086989432726262361e+00,-4.017330263534694690e-01,5.893161474352587997e-02,-4.336441467174999564e-01,-1.585658675729538558e+00,1.511039183060708169e+00,3.787704174513552013e-01,1.869080710401615608e+00,2.489812820611531086e-01
2.525399691886162756e+00,9.262330981339599312e-01,6.827661431271907500e-01,2.148283064393966268e-01,-7.153622188713874008e-01,1.780033253495620249e+00,-1.546165274191389383e+00,-1.371341667395306607e-01,-1.408062281595163778e+00,-4.072093666357757824e-01
-1.446599667211918128e+00,-7.327733643398356422e-01,-4.288397631770939911e-01,-5.842782702385559412e-01,7.181758344709823216e-01,-1.573235464577203979e+00,8.585101095100886592e-01,-1.143291187328337732e-01,1.008389709505590925e+00,3.704513148984912019e-01
