-3.987094564080193027e-02,-1.052385661059763278e+00,-6.720398816517572094e-01,-2.743819525011382821e-01,-7.588448596489002496e-01,-1.635665230639145706e+00,-8.332530966826255936e-01,4.231572193419641525e-01,1.035223073257557136e+00,1.556925542036125654e+00
-2.852251221261097758e+00,1.970723956611583727e+00,-1.471929251291459739e-01,9.799255324542479606e-01,-2.711178788605402623e+00,-7.280338528942077225e+00,2.889377870802447568e+00,-1.405612068892741817e+00,1.960970040444579343e+00,-1.133930772496052120e+00
-6.589595954009765943e-01,2.594768541951900098e-01,-2.452263362572225935e-01,-5.635903294610485580e-03,-6.384188274011907138e-01,-1.879243420635539286e+00,-2.027794252461541102e-01,-1.277907743112241257e-01,9.247651347169274505e-01,2.216583547638549534e-01
-6.729864594690315727e-01,1.397832102168434121e+00,5.900110723509620625e-01,5.722493660247617298e-01,-7.780642489796842087e-02,-4.342943274892251959e-01,1.801445547589509921e+00,-7.739661293678835596e-01,-5.560342991690256920e-01,-1.727864793672554855e+00
-1.266572965018071928e+00,2.633404765733978192e-01,-7.649006298535805382e-01,-3.691986952142088940e-01,-1.189137757116534466e+00,-3.813434749621911646e+00,-1.750527990443372595e+00,4.267456681919796352e-02,2.472211845258458496e+00,1.095099955384226220e+00
-7.641436372802458410e-02,3.481251247117091108e+00,1.686193245348254433e+00,6.553725188747885899e-02,2.793893358466656096e+00,5.068346205556519379e+00,-6.147784775823980086e-01,-8.755111684283459761e-01,-1.740138114211596587e+00,-4.057375288611654973e+00
8.744341790884135879e-01,-2.772823963816485104e+00,-1.596554257086795214e+00,-1.472538092245653241e+00,-2.247381827823601019e-01,-5.812311546994876066e-01,-4.990657754084418585e+00,1.705299834864000497e+00,2.376723707286124920e+00,4.161166893242739029e+00
-1.103207342876925123e-01,1.752645621509541618e+00,1.614488802966997927e+00,1.647490227420855158e+00,2.470228399869526803e-01,1.576615494231189185e+00,6.070510236257666392e+00,-1.495957052623968941e+00,-3.356891078457289179e+00,-3.768310724580449467e+00
2.422250329341855690e-01,-6.763888912513611462e-01,-2.531911346941932428e-01,-1.186147374770295387e-01,-1.758388207103993850e-01,-1.498867766987878047e-01,-2.596640135614660672e-01,2.629491384190631997e-01,1.471422933287483137e-01,7.268208497254936562e-01
1.103186864518580945e+00,-1.445806006365882190e+00,-4.804072944202700951e-02,7.801972161294332131e-02,1.702417419718598723e-01,1.557318076156111841e+00,8.611301022877883016e-01,4.090891337205472822e-01,-1.148195698710856805e+00,7.284029884184792802e-01
