-2.091005927445071411e+00,-5.034411182103402993e+00,-4.721717578693134243e-01,2.492983757222456465e+00,-5.665328448029960384e-01,1.029972570081931549e+00,-1.146297931823414551e-01,1.140391888872605564e-01,4.051041611523752195e+00,-2.796410855002188445e+00
-1.635427660475497147e+00,-3.830192799694829286e+00,-4.934508216948970682e-01,2.042954384117916966e+00,-1.996641651372436238e-02,5.472783353805227291e-01,-1.419408430572357827e-01,2.020590323171985239e-02,3.129505974790175227e+00,-2.133973517574944800e+00
-5.130089708155487482e-01,-2.158966063568382054e+00,-4.666170231375337263e-01,2.766110900300369768e-01,1.562098635586220530e+00,1.619619892442137221e+00,1.349347634049729461e+00,3.465050343278907458e-02,1.253133703752534078e+00,1.877957909463172870e+00
4.172799751465377516e-01,6.014712660598034999e-01,-2.849463037784917274e-01,-5.694091529542479879e-01,1.706538526391204735e+00,2.546965917767221588e-01,7.718065430745362221e-01,-1.133578364516837494e-01,-7.073278907587413622e-01,2.158428674754684806e+00
3.020894740761421171e-01,2.010344912066015066e+00,-2.141261283056007658e-01,3.580296081803783226e-01,6.160471550885247005e-01,-2.511288588598551641e+00,-1.393619349828438825e+00,-3.440262591554210103e-01,-9.863234742900731655e-01,-1.518690157983244138e+00
2.071243787586581342e-01,6.223968638347392446e-01,-2.348472524398065586e-01,-9.407994981546316526e-02,1.065264750884912681e+00,-4.832448221994736781e-01,4.162858900573489229e-02,-1.481031505510675694e-01,-4.535079070472242124e-01,6.332139900545541433e-01
2.961577566937704797e-01,1.090326758041767263e+00,6.597494620338144322e-02,-1.688924804132994895e-01,-7.182093333078294617e-02,-7.910606792517373975e-01,-4.521086680884880415e-01,-7.850244144628994170e-02,-6.873249387210602634e-01,-3.441596614136510635e-01
1.304846771430953956e+00,2.465804685663920637e+00,-1.188767046133282490e-01,-1.749197201189130135e+00,2.188657105865376540e+00,2.625912213184553590e-01,1.181754991750676886e+00,-1.311887890177541038e-01,-2.346678724295962581e+00,3.954814583338795764e+00
2.219752137614917853e+00,4.731939208217445625e+00,2.833331446592475267e-01,-2.873392149571981857e+00,1.674063852450752288e+00,-1.783575881339304059e-01,1.025319972931782342e+00,-1.105839898581468111e-01,-4.127820953579693253e+00,4.637259734615557072e+00
-4.539207090036497250e-01,-8.042635099075340355e-01,-2.294104780197701587e-01,7.235792248539635318e-01,2.358357210557505967e-01,-3.460929726295045583e-01,-3.006776826521582180e-01,-7.515003352451855856e-02,7.858098788954618330e-01,-9.045934138577206296e-01
