7.717859959519463020e-01,-4.236491817738412546e-01,1.445067878827590135e+00,-1.641035606799679414e+00,-1.002827537508288180e-01,2.068246116788401423e-01,-1.332939158518163136e+00,-5.251592175503563276e-01,-7.335579280309946215e-01,-2.057099694684833668e+00
1.585130895620008307e+00,-2.068670021398502090e+00,-5.807809554204428348e-01,7.339890059159692726e-03,-3.184252801613293160e-01,-1.304103782553904134e+00,2.398111612446962582e-01,9.366324097341189869e-01,-1.143463861008340077e+00,-4.975626570250492042e-01
1.599647040672228515e-01,-8.149798930653628926e-01,-2.465877974269610640e+00,5.214137553196266373e-01,3.860777931718245570e-02,2.468651946421777765e+00,2.081159107544086062e+00,2.879440511522408208e+00,-5.537381356610171501e-01,2.404284158407686611e+00
-1.759059857949228700e+00,1.418720624292177046e+00,-1.780087193680336632e+00,2.796583681799580390e+00,2.352646524745448664e-01,-7.929505899647872891e-01,1.757723264176525912e+00,-6.048047104190046319e-02,1.709207392752999599e+00,3.119591133079102185e+00
-1.610664720787229554e+00,1.590934216570068394e+00,-1.534843318204857532e+00,2.460757811152314012e-01,4.031135026558352319e-01,4.059590141443088385e+00,1.576405371082372664e+00,1.671653888234359009e+00,6.952507009186376097e-01,2.663637038811774715e+00
1.312097758364428324e-01,-4.637511693667026313e-02,3.304040876507033375e-01,-3.342227649890691099e-01,-1.647418065034557400e-02,2.228323922024570691e-02,-2.982355922282700633e-01,-1.577502529923182906e-01,-1.235534642977441366e-01,-4.376586766624566138e-01
-5.223499974244009136e-01,7.732977834885401691e-01,8.680524176824091498e-01,5.258256612907057370e-01,2.902871869706608043e-02,-1.738684789920228679e+00,-6.713978413113496080e-01,-1.631684104845681160e+00,7.608857192011264647e-01,-4.977953834020858448e-01
-1.980222586863126466e+00,2.085657523116889678e+00,-1.146465127560789110e+00,6.286097985841611058e-01,4.334668787198389106e-01,3.154988243488172195e+00,1.295110456203956373e+00,8.091112170854426466e-01,1.177645732129850131e+00,2.540040805039621929e+00
-3.078778368874683036e+00,3.310327601571796396e+00,-1.168554482562170538e+00,1.589221756338522695e+00,5.940617359153783639e-01,2.655295106297041130e+00,1.473355060249539772e+00,-4.858546898472981823e-02,2.230710003210233605e+00,3.354302995517222996e+00
-1.675183498063439913e+00,1.201920300944805398e+00,-2.121760951135043261e+00,3.112790465767687031e+00,2.069128086618752249e-01,-1.055752945660963560e+00,2.030882950340087145e+00,1.497567194203209828e-01,1.688199170182570708e+00,3.420690216965414976e+00
