-3.359242587712618633e-02,2.655656867066619187e-03,-2.607843459407419573e+00,-1.181031720190343970e+00,7.977819550460454323e-01,-1.152289080991493186e+00,-1.785630258095574074e+00,1.648501850419671788e+00,-1.906660920553691740e+00,4.309374177670923789e-01
-8.590103697933778593e-01,1.227529525526116272e+00,4.826547474057793607e+00,2.004527174743419238e+00,-4.070179559837861838e+00,4.037218927639170118e+00,6.694429444208905622e+00,-5.938801487296560211e+00,1.878535866878548122e+00,-1.159374427167894961e+00
-7.263422473780692945e-01,5.816772693711780295e-01,-3.449272996108329048e-01,-1.705731322183789422e-01,-7.073629174425789534e-01,2.222500264424404626e-01,4.146873963809549757e-01,-6.098281292312923707e-01,-7.453492805073014260e-01,2.421974179747400369e-01
2.887114981301140748e+00,-1.743993504778099446e+00,-2.309189435328483864e+00,-1.187881206136665480e+00,2.079610441203023630e+00,-7.823539742109405504e-01,-1.068337983591375995e+00,2.555742987451727011e+00,-9.494489501286542676e-01,-1.101241347318869357e+00
1.565626758195477475e+00,-1.459908407760183824e+00,2.357937639133882435e+00,1.171880546655351463e+00,1.709117217494502627e+00,-3.980605151329892899e-01,-9.234476241079931924e-01,1.095777858749560352e+00,3.233066239569438061e+00,-5.138322257571915630e-01
-2.552472125304057204e+00,1.664660397075373277e+00,-1.506581277077414072e+00,-6.075735695668313952e-01,-1.196535799723615012e+00,-4.462345529907113528e-01,-7.124690117673394552e-01,-5.465193321404737681e-01,-2.048120731339886369e+00,1.358007143275688389e+00
7.516239852609777117e+00,-4.573803074658533419e+00,-7.257963018216551099e-01,-6.724337200946047810e-01,3.983528110727388771e+00,9.290636123729734130e-02,4.666096005295105043e-01,3.543837381709338263e+00,1.519041203513839644e+00,-3.621787325185707562e+00
-2.303594102180466507e-01,5.755819483081334731e-01,1.132313772684035991e+00,3.818713002816704893e-01,-1.825993676776679342e+00,1.730772254007843403e+00,2.975481398450962267e+00,-2.413158662977392677e+00,-1.291433083290546291e-01,-5.868951720034140118e-01
4.033104241713196814e+00,-3.153746071548388485e+00,-1.787474499539545070e+00,-7.655807910749672374e-01,4.762913616979062681e+00,-2.572965882977058527e+00,-4.303395284706086343e+00,5.368156218427994730e+00,1.233660620311015421e+00,-8.801869826550695608e-01
2.922154366627680577e-01,-3.761979795240722596e-02,1.133932278245387837e-02,-5.468566501031617288e-02,-3.013627952365128260e-01,4.278993314090622224e-01,7.750088183536076869e-01,-4.097458733475325965e-01,-2.033413253231865503e-01,-3.176764258347564707e-01
