3.972256192480940307e+00,2.193578015240495727e-01,-1.261808496939445190e+00,-3.374280006051363912e-01,1.447888447323759653e-01,2.769731340798215591e+00,-1.909345258059177708e-01,3.918383744413005410e+00,4.709290412332968745e-01,4.923994770382644215e-01
2.362135044183791166e+00,-1.663227144178851535e-01,-8.564036512720110128e-01,1.430019547455604889e-01,9.493217825865165604e-01,8.436502946665379588e-01,-7.712660118304295320e-01,2.813371340077549521e-01,-9.431181199649631974e-01,6.581334713417072990e-01
1.627051385304436826e+00,4.636821589040354130e-01,5.055792831202250426e-01,-5.275906553944628152e-01,-5.774877478969758782e-01,1.418513143130466281e+00,4.116078403544387587e-02,2.940183330252902127e+00,8.087397494764912986e-01,4.179642802638230265e-02
-6.796528507632205729e-01,-3.735587208340436227e-01,-2.707662368575604273e+00,3.095825636275457149e-01,-4.685997971080491653e-01,9.126544062594699191e-01,1.524726005240903737e+00,9.385779050289181358e-01,1.451889688611957663e+00,-6.177919496732838800e-01
-1.537431499921999567e+00,-3.658558680110639560e-01,-1.849024932144137434e+00,3.464121095599977940e-01,-3.728737212985293592e-01,-3.451420649772234139e-04,1.236038022016178184e+00,-3.212436768545191557e-01,9.876723707389022389e-01,-6.005221318494037286e-01
6.562698941233598759e+00,-3.680591192918970522e-01,-4.183265072595530043e+00,1.984344244126565460e-01,1.432412402275878849e+00,4.103537623155240510e+00,-4.682852641666186977e-01,4.005955216393364715e+00,-3.204448925883795485e-01,1.091888673085629424e+00
3.961306654110376080e+00,-9.576536582575790879e-01,-5.288217534670266673e+00,8.490503085909644199e-01,1.736425922221442875e+00,2.533768343300464299e+00,8.217987270970140978e-02,8.444455155545335101e-01,-6.228839119821556469e-01,7.197056815000575369e-01
-1.512956870125361064e+00,-3.785403894765738686e-01,-8.546862390921380337e-01,4.099011266415540367e-01,1.794215379408910516e-01,-8.461865537219410704e-01,4.001970768205131423e-01,-1.805406128871905214e+00,-1.153527046544912948e-01,-2.399344501919583594e-01
-6.366967261102417508e-01,-7.272511624546948439e-02,1.636723737507393972e+00,1.684821196116436104e-01,8.200890480066275190e-01,-1.731573446880925404e+00,-1.207883836351897111e+00,-2.916503319899692137e+00,-1.737077360948091842e+00,4.565149615311861475e-01
2.476393070543944364e-01,-7.459717412276284376e-02,1.604993453965237182e-01,9.443931789322780601e-02,4.030299278160032750e-01,-2.880272590848360070e-01,-4.235335609566593940e-01,-7.444971830146929204e-01,-6.161842939978826594e-01,2.308261883350916366e-01
