-7.271551126031419177e-01,1.728085578597047256e+00,-1.434115986240585228e+00,-1.467215031962493255e-01,-3.587172971518856612e-02,-1.076591975597940731e+00,-1.101725034290937932e+00,-7.810738788714767511e-02,7.066129353958074955e-01,-3.917483191592301406e-01
1.415072461029311723e+00,1.184957114574749948e+00,1.010001288869991631e+00,-1.124325051536334996e+00,-2.382555952002972377e-02,1.089388235403909944e+00,2.902610298149437829e-01,2.558774701058953438e-01,-1.429950121079593295e+00,4.331031511393348965e-01
-1.573539271972444364e+00,7.716546753765947120e-01,-1.797709931374770642e+00,1.144698048780290023e+00,-6.245558229475175471e-01,-1.790229933910028493e+00,-1.548558225028132451e+00,-2.660836541766086749e-01,1.954677856680230086e+00,-1.038062247019592155e+00
1.583240584976907339e+00,-2.916197821981675875e-01,1.729998453383809753e+00,-8.825916960045135928e-01,1.480063747501038363e-01,1.603678358587101505e+00,1.071009727853761362e+00,2.561492316349544551e-01,-1.671002967338826917e+00,6.958744640635631251e-01
6.288904613944750199e-01,-1.873189255717763518e-03,6.673936008760075200e-01,-2.920995521652904325e-01,-4.876465055376388857e-02,5.915930208149292602e-01,3.142267750535412407e-01,9.928469779421504604e-02,-5.976789913893215678e-01,1.980507691951381710e-01
1.651019294215647415e+00,3.397889460396126271e-01,1.820382317196439281e+00,-1.058864211452509724e-01,-9.962373321609325760e-01,1.311425088195726341e+00,1.545063763948458790e-01,2.270664885936638788e-01,-1.021196860703001530e+00,-7.887031543710182335e-02
2.560186871575154677e-01,-1.713290651510269491e+00,1.052053812955526579e+00,8.266477812345276455e-01,-4.496555126344444764e-01,5.301832188308559513e-01,5.397605404938450313e-01,-2.108725777584040395e-02,7.548169791621991975e-02,-1.053118282860920490e-01
2.894222049941580721e+00,-1.416725285389878630e+00,3.336984870676728665e+00,-1.987426191277274823e+00,1.015431439902504618e+00,3.266606336878267403e+00,2.765210310175520991e+00,4.830526455408697406e-01,-3.509851226242385991e+00,1.820319363862224371e+00
-1.039836471042851818e+00,3.324050547801081779e-01,-9.591082847142312628e-01,1.413432539119525932e+00,-1.084165937855276596e+00,-1.273483580607575716e+00,-1.366417929487140137e+00,-2.123920355837355667e-01,1.726631708988792369e+00,-1.123016033105758149e+00
1.019466127739235145e-01,4.593922612164406116e-01,-3.305372170497175577e-01,-1.167172886452844560e+00,1.078702578230487985e+00,2.048378758313874060e-01,5.380771009497126167e-01,7.936401432187989435e-02,-8.050946958103420981e-01,7.292533884277154765e-01
