-1.604971684731466286e-01,-3.425437613004946730e-02,-2.228874023872173815e+00,-5.856039265509294101e-01,-4.699105301458951445e+00,-3.046996683530635686e+00,1.741567023772993883e+00,1.420597351070661540e+00,1.062641140436913156e+00,9.349434120786404012e-01
2.568122300543206338e-01,-3.246478066060906054e-01,1.919105086709771646e+00,6.401541232973193551e-01,2.245981534533888713e+00,6.355517504071145352e-01,-2.620694525758530680e-01,-6.258555455900919329e-01,-1.468951930078376211e+00,-1.282942622037534175e+00
-1.495630353423947900e-01,-4.485402378516444299e-01,2.470619254950691401e-02,4.070930165297415027e-01,-1.606063172776011738e+00,-1.799584749969361352e+00,9.548185437122457264e-01,6.461624293771027761e-01,-1.044825649085496577e+00,-7.984245339089882654e-01
-5.832663118707537286e-01,-6.400911735842610417e-01,7.281852887757597204e-01,1.087367825723990045e+00,-1.022374546315872254e-02,-7.172457647908010436e-01,2.426669828612561600e-02,3.647835774229151173e-01,-2.302130649775631532e+00,-1.700072523942653069e+00
-1.020333349152868330e+00,3.828949006874244887e-01,-3.106183678812912241e+00,-4.877586643874994299e-01,-3.011338660883862595e+00,-3.441473708748513660e-01,-3.632407000890857107e-01,1.047461588053694381e+00,1.439268800120494074e+00,1.490093152628594098e+00
-1.869427056151995448e+00,-7.206534209184763951e-01,-1.850137955531584000e+00,1.268716255169516582e+00,-3.351066277799541027e+00,-1.935954521369570802e+00,-1.359737333037697692e-02,1.725377825485108430e+00,-2.358512657725259309e+00,-1.346708240981590698e+00
2.420488546550161768e+00,1.248565053135196834e+00,2.869303279103356807e+00,-1.688819253187766822e+00,6.761426100842572673e+00,4.727101519014353492e+00,-1.293328471569375582e+00,-3.033950556960189449e+00,3.385763535009644887e+00,2.002621792846936977e+00
-8.587833515884555347e-01,-4.792423310868295649e-01,-9.834479701240501637e-01,6.335995461598916689e-01,-2.482407711010387263e+00,-1.802688909131141326e+00,5.312086469317111037e-01,1.111770411027035221e+00,-1.291527952835477722e+00,-7.836178882604206697e-01
-8.667593986947380591e-01,-3.233857325093893453e-01,-8.433156346802518355e-01,5.861341079188456815e-01,-1.474794311437202410e+00,-8.243604853492816353e-01,-4.951423116933062474e-02,7.737649997403501789e-01,-1.081257443723164791e+00,-6.147850424977258088e-01
3.214684960592514518e+00,5.835497079092261119e-01,4.677764002156761691e+00,-1.274538394345747783e+00,6.159982710289695795e+00,2.327307429561051855e+00,5.655128226992507390e-01,-2.881716091667545498e+00,1.913309589577496972e+00,5.698859506987362655e-01
