1.702182997954707400e+00,-1.092511362657701213e+00,-2.028820518581706978e+00,-1.016348949448435457e+00,-8.456215185550701730e-01,5.047284343653087646e+00,2.273920397421483330e-01,-4.821081390736618455e-01,-7.360264016166888634e-01,-1.376414520109238079e-03
2.298669125760912202e+00,-2.281355867391357872e+00,4.788164931743168040e+00,2.053979622537209782e+00,2.427848859666736470e+00,-4.499604975519645222e+00,3.974751758730641349e+00,-3.350466350407548255e+00,9.488353303404813144e-02,-1.049405409581885218e+00
2.685900807629100218e-01,-1.138955796265716663e-01,-9.632393366911261579e-01,-4.420982956284831844e-01,-3.292011394224271803e-01,1.642433769556600920e+00,-1.818546073835039523e-01,1.514296725886427886e-01,-1.792155852931797688e-01,8.706918994300644199e-02
3.453188409761561717e-01,-4.477444916868904556e-01,6.233357060493829316e-01,3.872237749795394146e-01,1.534176893700686772e+00,-1.874321129611085546e+00,1.613949797620403803e+00,-5.034914492524077412e-01,3.335126554589945558e-01,-1.688282097940595194e-01
-2.860089447122065032e-01,1.563721696672691897e-01,1.552943975903336105e+00,6.136184556987066552e-01,-3.640113990971364233e-01,-1.475530039238223567e+00,-3.938880931628094828e-01,-3.228570621137203389e-01,2.611104823610377323e-03,-1.466041754633278793e-01
-1.480250933185514484e+00,1.293606247668477316e+00,-9.691674594761108263e-01,-4.143313124819516524e-01,-1.096888801255891721e+00,3.119367003946303951e-01,-1.998762879286282601e+00,1.414691533183825012e+00,9.771924656869139525e-02,3.923964263155611532e-01
1.868660570940259280e+00,-1.792767128116647513e+00,5.072976100149548806e+00,2.007369578687830280e+00,5.502162980903191336e-01,-3.240712565740459183e+00,2.070173985983554399e+00,-3.090574565714049093e+00,-2.959249424712322440e-01,-9.773196642386228206e-01
-7.570841836078903153e-01,5.702915636095005070e-01,5.221327840041587454e-01,2.326455038672847475e-01,-2.642746351423879703e-01,-1.164933577627170314e+00,-6.891476997131794624e-01,3.638683100139125104e-01,1.462164223813466890e-01,6.281394877648474595e-02
-3.417265548482134596e-01,4.827316522923879027e-01,-9.717612070975578664e-01,-5.464854838991661801e-01,-1.703855797595656751e+00,2.407463976315298293e+00,-1.785253417909279827e+00,6.260131223308303960e-01,-3.861309749254873691e-01,2.168094064898294926e-01
3.084453432351124680e-01,-2.000579927657666901e-01,-3.929039509898504812e-01,-1.905832425403110875e-01,-1.146963901683658305e-01,8.967550259822543168e-01,7.311754251129541637e-02,-7.973707949095854008e-02,-1.231752367080984206e-01,2.246845153342506146e-03
