-6.034101959053364550e-02,1.097247105378114318e+00,-1.037518169116147249e+00,-4.611490881083932791e-01,5.349957351703945596e-01,7.477551474873862514e-01,5.433900272646570440e-02,-3.163957152372456894e-01,-1.123131384275655620e+00,1.238275220376868213e-01
9.747140689005339143e-01,2.310547445085486373e+00,-2.513664993626612443e+00,-2.518523424439109704e-01,1.456559937641060731e+00,5.921729389516009467e-01,-2.939007376023845472e-02,-6.385735031786721194e-02,-1.776867478435101955e+00,1.724541506118534295e-01
2.360638378823849859e+00,7.695482078935343695e-02,-1.562272963747663557e+00,1.989442225761190564e+00,8.887384977963846966e-01,-5.131400218248993728e-02,-1.569480617152298474e-01,-1.962625566113957554e+00,-1.068379656327458349e-01,-3.070347259648073535e-01
-2.712092662139798938e-01,2.447128201350353971e-01,2.245433672136848968e-01,-5.023203768032576955e-01,-2.701493725651589461e-02,-5.731417921720763919e-01,-2.578602890972966910e-02,1.352445468079112700e+00,2.361260625541792835e-01,1.093110368383174436e-01
-7.465175516103192965e-01,2.792604961852853229e+00,-1.106741789080895710e+00,-2.388522364810382825e+00,9.365181438888707799e-01,-1.039972187438777951e+00,-4.046082346963802284e-02,4.469644626937994580e+00,-9.402619944920075357e-01,5.811967355849159134e-01
-5.755881572448229289e-02,-3.967946853522565043e+00,3.826306087530988442e+00,1.492484112701776944e+00,-2.015831472664844970e+00,-2.437813891442070169e+00,-1.590050350146871849e-01,9.605314003163794023e-01,3.901214358794997672e+00,-4.269765975107806533e-01
1.171886476895149576e+00,-6.142222128405427917e-01,-8.729362196601220258e-02,1.201396602929004853e+00,1.012773047458321862e-01,-5.932640234192190221e-01,-1.169886302989460725e-01,-5.555469085958365527e-01,6.955033770186314079e-01,-2.134066495005059738e-01
-3.992111690160061732e-01,-2.220347591850287738e+00,1.617971384266706281e+00,9.815604392391759081e-01,-1.122507402584701275e+00,5.819510532473277653e-01,7.837125747298200051e-02,-2.273928613670731291e+00,9.450513865897169907e-01,-3.114052833156266686e-01
-4.239873945714542902e-01,1.158465355563251142e+00,-7.200709074485361905e-02,-1.280805588189659394e+00,2.898731425866026279e-01,-1.232679747924219749e+00,-6.850308906011774723e-02,3.248266819666355332e+00,1.303000686749835602e-01,3.071095263685778010e-01
-1.640723818641893206e-01,2.281852262806773890e+00,-2.576973456755265346e+00,-7.213454403702006523e-01,1.179624193509847707e+00,2.691883035429341486e+00,1.993806804102118413e-01,-2.457014309596060819e+00,-3.065907723942588259e+00,1.912159599774494179e-01
