5.577260507684915769e-01,-1.575200899855541681e-01,-1.202618060543555023e+00,-1.237797337049164059e-01,2.064216469557357492e+00,-2.156265432703318385e+00,1.157228284745057456e+00,-1.017063863328281914e-01,4.152058158528614817e-01,-1.607455806814854116e+00
6.575706967512650047e-01,7.369224389270183362e-02,2.843773647005367056e-01,1.369829783290937852e+00,2.500136092509683619e-02,2.022163223081467009e+00,-2.381915898199249870e+00,-9.628334292616436141e-01,-2.544722464783522931e+00,3.657554003448725499e+00
-4.960837727154156163e+00,-2.361873668475791277e+00,2.277790020441946783e+00,2.314358049005282858e+00,-7.440721991052363649e+00,1.048726714865951398e-01,-2.795077306909131476e+00,-1.013185508958704739e+00,-3.034832938740839037e+00,2.627468706261888443e+00
-6.700263176863081593e-01,-3.146115604035647495e-01,6.702611740605001200e-01,8.141265999380213891e-01,-1.538444914508108718e+00,1.058263921916965389e+00,-1.401789893504619133e+00,-4.412495401761391545e-01,-1.350554409625794872e+00,1.861639329432973167e+00
4.546161452889235233e-01,1.378522148771911537e-01,-4.318075946915776453e-01,-2.540785469372515704e-01,9.796567344072713013e-01,-5.447891237460219527e-01,5.486961286238124513e-01,9.384399667979202719e-02,4.176870023379857244e-01,-6.844153574891083114e-01
-2.675011130637686030e+00,-1.664630178004849803e+00,6.271263272169588232e-01,1.764402651653902865e+00,-3.281574474330462454e+00,-1.132614955853348038e+00,-1.516126921771728364e+00,-9.836244615543757730e-01,-2.297503326797614154e+00,1.362849965526689022e+00
-7.072360915777644447e-03,9.260192159534048617e-01,1.614502088714753203e+00,-9.637757820993441138e-01,-2.016656604009960940e+00,3.355295855462966603e+00,-5.083517673442787821e-01,8.791243374839320390e-01,1.080262008336454027e+00,9.048152989453184247e-01
-1.709483543494011881e+00,-7.457669318143368420e-01,1.159920621077186853e+00,1.092876437189569616e+00,-3.090277859680048422e+00,1.026163517083789944e+00,-1.739634290885883949e+00,-5.078857362888413718e-01,-1.650703781997068686e+00,2.058750192328445916e+00
1.327673298025626503e+00,4.211909475642224843e-01,-9.564647305121991572e-01,-3.731074702747002036e-01,2.418867724141879449e+00,-7.350236985289175795e-01,8.083727744223481171e-01,5.497159165665677777e-02,5.159660246682629126e-01,-8.280823800462681072e-01
-1.425185361710176180e+00,-1.076726622731042138e+00,-4.431864946941431738e-01,4.986522562008596782e-01,-6.770503857636814837e-01,-2.586894097458813491e+00,5.853429931719823509e-01,-3.143875483236323043e-01,-2.516239547730825254e-01,-1.354782235047122141e+00
