2.693761371595974619e-01,1.028185083168309477e+00,2.252246415219760767e+00,3.578421614746404522e+00,8.197944886218779814e-01,-4.650471003299223027e-01,-1.638637230781181120e-01,-2.318324891989199443e+00,-8.846767509668442830e-01,8.786661520459797536e-01
4.172471513793828829e-02,4.716999158611281939e-01,1.008161432448271499e+00,1.843291701705770613e+00,5.053741770186184201e-01,-2.300542208138290634e-01,-2.006148120019673464e-01,-8.942119143263335124e-01,-5.661267272346266477e-01,6.046437400564419473e-01
3.537318982742498896e-02,1.134949763781949728e-01,-1.367183793328708319e+00,-2.858230838794866280e+00,-1.432521116415745865e+00,7.071461230407599663e-01,8.669775523216919355e-01,1.791780039472561648e-01,9.747685976952324971e-01,-1.160926891083396084e+00
-1.180219055436771969e+00,-1.486029109185913744e-01,-3.126990900955631147e+00,-2.615624661976114762e+00,-6.108131211232079583e-01,9.821115209009453340e-01,-3.969420634465993802e-01,3.373520542056397620e+00,-4.979865897183349821e-01,7.974973501515114638e-01
7.214191052004415017e-01,3.586490343494596056e-01,-7.951458550997807517e-01,-3.848316672098496927e+00,-2.364794080214545957e+00,7.960339263820652711e-01,1.865127550140914581e+00,-1.617163363546368027e+00,2.083394185119885833e+00,-2.602099044769379699e+00
8.056438919617040506e-01,-9.597251303041246517e-01,3.621726069198185627e+00,4.870214217460738126e+00,2.619953166238012443e+00,-1.878426839856482733e+00,-1.152965430570640493e+00,-1.514590299265271556e+00,-6.478803139950813916e-01,7.302356861169372326e-01
6.445787647645709884e-01,-2.539497097935196734e+00,-1.558033632786437694e+00,-4.848973059020251775e+00,-7.208256126563279409e-01,-2.710444283737631355e-01,4.597891510731534903e-01,2.020599672742029007e+00,2.385395280954377917e+00,-2.624178680907360395e+00
-1.300287407145693352e+00,2.811346432717407140e+00,5.794234984775811226e-01,4.879624803729488036e+00,8.208231601666575727e-01,6.323720268352757135e-01,-8.849602037656802977e-01,-7.563212883260310715e-01,-3.155906271639175031e+00,3.607061812246983301e+00
1.556606275735818334e+00,-8.498972012569208090e-01,1.236696374810011267e+00,-2.228043524207127479e+00,-1.098072819406150868e+00,-4.477217558943946685e-01,1.478853108915080483e+00,-2.470122195853345914e+00,2.539739888046296468e+00,-3.143665574429521659e+00
8.955259868935212808e-02,-1.024931709229853993e+00,-1.776304423165872892e+00,-3.730090815925370507e+00,-1.046652984671051279e+00,3.685575049562980210e-01,5.175432697077733124e-01,1.470958536779355619e+00,1.347362203144627957e+00,-1.481382461269769246e+00
