-2.715333786657581072e+00,-1.029927958113380893e+00,-8.383775225385610153e-01,-2.765709676902374792e+00,3.234754960432836945e+00,6.946595049893922180e-01,3.672998521659105897e+00,7.218236197078844452e-01,-1.785286694197300905e+00,2.455384287027746026e+00
-1.744517986060854176e+00,-3.315142436831851613e-01,7.218658065626032405e-01,-1.402920533438969830e+00,1.609242686455735205e+00,3.927597608940779916e-01,3.475051607462728231e+00,8.740406053353754201e-01,-1.806017595500388317e+00,1.114667103157519268e+00
-1.945094267974700530e+00,-1.128311075449199175e+00,-1.075344917955672885e-01,-1.677900834449090883e+00,-6.511948256531394641e-01,3.424345953370023232e-01,2.329250640495847069e+00,1.630430660766845952e+00,-3.465553970312642118e+00,1.201857013061606860e+00
8.737633158546603829e-01,9.228989383837733484e-01,2.548137953572145786e+00,1.567522828609986041e+00,-1.917154022964291826e+00,-3.216789312499905851e-01,8.263515309964899469e-01,5.190979075084909411e-01,-6.364832234492980856e-01,-1.630557853482482722e+00
-6.706517313237640998e-01,-3.965788093737410147e-01,-7.786453992372700528e-01,-8.549412351888090456e-01,1.051917689456211003e+00,1.977915799655168838e-01,4.121455308462763090e-01,-2.156004187525159543e-02,-1.141835528459473892e-01,8.217671959738231946e-01
-4.966502948801641004e+00,-3.906085844713455213e+00,-4.860786725930200447e+00,-5.698138429543456951e+00,9.880286398471453957e-01,1.114666290241988378e+00,2.139880057757012288e+00,2.347119860495192167e+00,-5.796848956770132233e+00,4.880269503804989029e+00
1.464136332530404427e+00,9.521753268090780153e-01,1.600054546701934033e+00,1.802845380824764421e+00,-1.656269589990302826e+00,-3.984999186146761518e-01,-8.282909126365888275e-01,-1.917790341979687119e-01,7.191927947151660616e-01,-1.675960089497695371e+00
-4.071405425999175876e+00,-2.255893971213120519e+00,-1.136599669700767201e+00,-3.886668433315623172e+00,8.228499149051426986e-01,8.445026432510158720e-01,4.558458407143016977e+00,2.484182687757050978e+00,-5.498294253890153804e+00,3.099714724768270369e+00
1.281102629642971280e+00,5.911705279623434839e-01,-1.681619557700879675e-01,1.061218805774190033e+00,3.889051454694664178e-02,-2.384725562930058995e-01,-1.872499438333642408e+00,-9.877775013847439611e-01,2.075759663157869195e+00,-7.684880933648151613e-01
-3.893772996110991813e-01,6.420271743481609228e-02,-7.355930683395873748e-01,-6.918876236910170840e-01,2.692165661508504115e+00,2.221201888639353084e-01,5.121134685882127169e-01,-7.808822449322233572e-01,1.450525127800991854e+00,8.479884236730103053e-01
