-7.650878180748078572e-01,1.899111000485378620e+00,-2.478013488017883903e-01,5.078316345315964792e-02,-6.643509144791250876e-01,-2.943083425821533816e-01,-3.079834229783287469e+00,2.498192938043155009e-01,-3.341221843191200525e-01,6.442585365061638258e-01
1.477823906155165901e+00,-1.153938258484692447e+00,-6.966919110347655764e-01,-1.868632849118842532e-02,2.107533972187678739e-01,6.124951007174964795e-02,3.873351595415374771e+00,-1.403072150024134768e+00,3.159255374823171647e-01,-4.636213596641267087e-01
3.755122208325563649e-01,2.006268334927120645e+00,-1.250004383252299789e+00,6.108696970233096213e-01,-1.998164836422463120e+00,-1.210220316856507106e+00,-1.562712220212498559e+00,-2.559138267743903850e+00,-2.242665731634875259e-01,-9.158962414376401462e-01
-1.281539446661091430e+00,9.250652383532882439e-01,6.435287487372584048e-01,1.148489888768962297e+00,-2.388255664501638620e+00,-1.629958870129178949e+00,-4.652049064694593561e+00,-1.599094483105464093e+00,-2.708256482733847337e-01,-2.781358345770785334e+00
6.100133925219131809e-02,6.167455406461058720e-01,-3.394883037793341440e-01,-2.592423315980985424e-02,-1.837065125714446023e-01,-6.676687090361274612e-02,-3.334423374859356581e-01,-1.855388785716587940e-01,-7.373825049670572340e-02,3.156602037123971694e-01
1.726859365634622279e+00,5.878183806222252450e-01,-1.719612312152650979e+00,-8.046745093648179081e-02,-3.433995400978935297e-01,-1.509636803422242102e-01,3.070829572626694759e+00,-2.048213051023910936e+00,1.161740587756151105e-01,3.931018999308680262e-01
1.966194140913749833e-01,-6.798005346669665494e-01,1.529088892777512587e-01,-1.338971725472382912e-01,4.789063325696968354e-01,2.753833430580935326e-01,1.086911085542725086e+00,2.936665539836709193e-01,1.116756765741368229e-01,9.456383462588308086e-02
-1.544576986520084461e+00,1.630402766636366518e+00,5.296349889094117414e-01,-1.381085893656593122e-02,-3.090929707135822713e-01,-8.403481319577534026e-02,-4.342760758006486199e+00,1.428228736240606755e+00,-3.855189568132796341e-01,7.465112726685737554e-01
-5.405688815355726984e-01,1.708456510104009896e+00,-3.501017759982165134e-01,-9.741051838838331589e-01,1.388890239900400170e+00,1.151483134867685054e+00,-1.258267991819072451e+00,2.602315785215404187e+00,-2.780212878996899395e-01,3.413988136629537706e+00
1.118271240377154641e+00,-1.963946257775853299e+00,-1.617389766066837722e-02,2.704615644299694366e-01,-4.470863455315614472e-03,-1.812760195102881000e-01,3.450228567742062769e+00,-1.461902891113784131e+00,3.800816578339323848e-01,-1.578062450710079112e+00
