-4.161230337787134914e+00,-2.055638073452870973e+00,1.890945110945736252e+00,-2.948325074199867335e-01,2.027446856702536104e-01,-1.649759400733066261e+00,-1.459150684261682152e+00,-9.802912451308849473e-01,3.161027270032854997e+00,1.225625980889094302e-01
-4.339444551259624916e+00,-2.761743718600527586e+00,1.890453764410751081e+00,-4.993430992856567885e-03,-1.822942996418404515e+00,-1.996234610229647100e+00,-2.549788260086289338e+00,-2.740813573527265401e-01,3.487109770347015747e+00,8.220211593267074957e-01
3.610989818757530667e+00,1.862959837403715291e+00,-1.028680954574896500e+00,-2.656017955089600147e-01,1.729941360131164618e+00,1.369808151603658875e+00,1.920816620473127845e+00,1.340538579391063356e+00,-4.329016021189604047e+00,-6.828462109411480574e-01
-4.944700537722390266e+00,-1.088161502235921230e+00,7.539158475048204355e-01,3.276571633316772703e-01,1.288488409092662934e-01,-1.086135239140074482e+00,-9.333188005594273973e-01,-4.431372939274991651e+00,7.675807288469048473e+00,-2.131558838977837267e-02
2.624686069923384490e+00,9.027799615985554471e-01,-9.027448389231327308e-01,1.044516930684081663e-01,-4.893575254001922281e-01,8.096660159777390176e-01,5.623561003235150180e-01,1.427755472501144096e+00,-2.759418129966006550e+00,8.801116447699507128e-02
2.215466586341619415e+00,1.994172384841832457e-01,-4.878304255025334157e-01,8.408295501302634478e-02,-1.312498061491787826e+00,3.761433186022332675e-01,-1.585093343684280676e-01,2.225209179581363994e+00,-3.059462207730050842e+00,4.239723967831012796e-01
1.618005195368330984e+00,-1.699199787335128331e-01,5.291178580386246555e-03,-1.075582517617590106e-01,-8.949006241520629512e-01,6.881963743449714954e-02,-2.903375884978310895e-01,2.399479064876198553e+00,-3.183171687200952338e+00,3.374076494819128746e-01
3.897273561086977423e-01,8.525728086619446255e-01,-3.505190859847811535e-01,-8.649719181444726068e-02,1.441508339600461763e+00,4.910949930077244119e-01,1.008323679876669487e+00,-9.606535611174225053e-01,1.760621607704880853e-01,-5.418279693160054089e-01
-1.219893932402202452e+00,1.009115376340152803e-02,7.356607696107744232e-01,-4.669315059060048512e-01,2.351100564217829536e+00,-2.264333939728991885e-01,6.788587147168346769e-01,-9.312393243667601572e-01,4.767208587695326849e-01,-7.337359771796178043e-01
-1.358292993123945358e+00,-2.152691206856582884e-01,-1.417693022986744877e-02,2.354104187795930669e-01,-3.244350410326626299e-01,-2.235401320231663047e-01,-3.191093940611305357e-01,-1.544618258261951427e+00,2.685495847493181376e+00,8.841712402644148761e-02
