-5.940259164423234983e-01,-1.103153785252644514e+00,-1.377215338350277207e-01,1.514463752070250191e+00,3.578858463875129736e-01,-2.353724697558311707e+00,-1.430556729298503305e-01,5.816058978877761687e-01,1.893369087383055260e-01,9.955719115662911012e-01
-2.348733675956240941e+00,-1.399593100469956330e-01,1.411052752604668559e+00,-3.600681686188016872e+00,-1.773070004022179402e+00,1.583546759284185868e+00,5.071734567105171676e-01,-3.737345144535342278e-02,-1.940737651068527303e-01,5.818339846899036605e-01
1.547001019638947206e+00,-2.166184226345017061e-01,7.498186398848660783e-02,-1.004610791255331620e-02,3.971153281603849727e-01,2.744916582453831300e-01,2.754263946707732891e-01,2.393886466913686395e-01,-3.036498078654021986e-03,3.450691385626787344e-01
2.165768076512680107e+00,1.098956754117153878e+00,-6.747064131191216063e-01,6.413108950885725301e-01,7.475237903156224384e-01,1.368023547304371812e+00,-1.149870511114529648e-01,-4.956598655680551357e-01,-6.846605977429764955e-02,-1.232610545854690098e+00
-8.079664434234773429e-01,1.428136515871227585e+00,3.837739299868867526e-01,-2.481161183864922126e+00,-1.037530285144054210e+00,2.905583079108212896e+00,7.867397779715956663e-02,-8.600614793699361549e-01,-2.596190771461622249e-01,-1.303459411021301140e+00
-1.030615018714906350e+00,1.587367869560915690e+00,-3.839944714092483058e-01,-5.772487602541764851e-01,-4.771810442602235081e-01,1.692421379123097314e+00,-4.178444624666022844e-01,-9.965843646788654642e-01,-1.456223109481713518e-01,-1.798435769247421101e+00
-1.132826418161790860e+00,-5.323020649421945638e-01,-1.409011706167513367e-01,9.477387537716213117e-01,2.617908446844636680e-02,-1.551990075879892128e+00,-2.369303771438048545e-01,2.161065863071096604e-01,1.157427134739543173e-01,3.948188953011342317e-01
-1.041040768225768298e+00,9.595570009544276413e-01,-1.099470178923509955e+00,1.989909705542618479e+00,3.658609690971612038e-01,-7.128468294272393146e-01,-8.335100090415803464e-01,-6.660420469604166893e-01,6.865678022081278531e-02,-1.478992490184730002e+00
1.286648461289794654e-01,1.782780561575089795e+00,-1.244190004938945382e+00,1.510203673087348930e+00,4.970203829013984387e-01,8.272034686448009877e-01,-7.693246513694683708e-01,-1.056559545769758524e+00,-3.933697426748923587e-02,-2.279537917481431641e+00
1.069781875158392070e+00,-1.148300395117617834e+00,-2.914131779127753785e-01,1.940468030756117512e+00,9.242977409861236060e-01,-2.166061204512644167e+00,8.233152188662218318e-03,7.228214560699623981e-01,2.000903567711055375e-01,1.082205750219038976e+00
