3.965179032070791920e-01,1.824889017403294122e+00,2.757316585588095226e+00,1.919570388462506771e-01,-6.969240315648843609e-01,5.845746671666823824e-01,-1.691493474691120324e+00,5.392420475571196858e-01,-5.490559991017391894e-01,2.450406513789820662e-01
8.752118448746489809e-01,-1.607367959022251380e+00,-1.809989767667626870e+00,-4.942675367120847318e-01,4.199972288013325006e-01,-3.863439986044533980e-01,1.583239236048852527e+00,-4.001141039084151196e-01,6.179501327353580376e-01,6.626950279708553326e-01
1.828905692813912687e+00,3.589839543645183539e+00,7.343866348925051746e+00,1.833914287953244848e+00,4.768056912632966104e-02,1.026395241200132036e+00,-4.054382940141700864e+00,2.737527887013413430e+00,9.416220760612437068e-01,3.114913279463251139e-01
3.523152203683327377e-01,-3.185713633281581636e+00,-3.036732005912301968e+00,9.465348136637363741e-01,2.475340732154813761e+00,-1.120823525650043395e+00,2.307342137673671800e+00,5.716874177870902018e-01,2.786468565117296681e+00,-5.078913007224810094e-01
8.758958105808538619e-01,-9.561406621906848313e-01,7.455632319262793795e-01,1.662165110837140691e+00,2.066626436414138457e+00,-4.687071011418165734e-01,1.512174987036027894e-02,1.689771614456413218e+00,2.660105058649523180e+00,-4.419540889754494661e-01
3.263737272524867006e-01,1.317834922873188930e+00,4.518289916203545253e+00,3.257200011417226371e+00,2.348727171409357606e+00,4.871687947193638173e-03,-2.673928383831531530e+00,3.300596536695594718e+00,3.046901312588416566e+00,-1.459334642243871327e+00
-1.486058852396774932e-01,-4.894525991240782775e-02,-3.004652720692745138e+00,-3.539730554368860638e+00,-3.221562551254637086e+00,4.508505271199961806e-01,1.695915904969920840e+00,-3.342506846055335323e+00,-3.925192629656169441e+00,1.794636622408846360e+00
1.100332428408068219e+00,1.142389925419315722e+00,2.428476924015267713e+00,2.332039261521139939e-01,-2.612166587104529092e-01,4.096997568416410052e-01,-1.151745154966231643e+00,7.050890202547869245e-01,1.227104231366845377e-01,5.842091688877355526e-01
9.366507283089418046e-01,6.020134426884652390e-01,3.488983987694174171e+00,2.560777845363236160e+00,2.119273489829252011e+00,-8.776472635885143592e-02,-1.757734997479895034e+00,2.747580133703986238e+00,2.887190498710995534e+00,-7.837234967932031893e-01
2.091227146834696793e+00,-3.050321072793952815e-01,2.366122337142551491e+00,1.563045222990363081e+00,1.755362705309952087e+00,-1.632328396062354414e-01,-5.612009582337575964e-01,2.057113995062230138e+00,2.711246109755567790e+00,3.533785768125115578e-01
