-2.603199991142217229e+00,-8.883138143691204913e-01,5.633897266185847741e-01,-6.024463732594231846e-01,8.911551287695338441e-01,-2.805660148105868501e-01,1.573078255936102288e-01,1.942809102939966337e+00,3.350074677333738649e-01,1.789454378592054695e-01
2.485119248919740731e-01,1.164027334244849277e-01,-2.546008287928365199e-01,1.733923444895887206e-02,-2.622225570830409302e-01,-4.338440565554177453e-02,-9.057875030827178264e-02,-5.425483678091064244e-03,1.896838673078129478e-01,-1.810895836075132048e-01
7.537437077549210551e-01,5.936544571084220179e-01,-3.286723538024406976e-01,1.955846344112537744e-02,-5.412078345887244568e-01,4.997280781748906220e-01,-3.700948672012203122e-01,-3.513989127861579798e-01,2.798386500416930045e-01,-2.694865166549951785e-01
5.472245111986439037e-01,-3.628000500778279402e+00,-1.320696549418860499e-01,1.621169201205225452e+00,1.487059962891002396e+00,-5.803171645733859130e+00,3.186716604442541900e+00,-1.167328110782458683e+00,-2.442254171201720503e+00,9.653998291085862382e-01
-3.363658663009640115e+00,2.002099789741632607e-01,3.033865142656746894e+00,-9.882806512661510556e-01,2.429686919094122821e+00,3.068699908092800133e+00,-3.746365946264880176e-01,7.886620069084357976e-01,-1.042510391386361146e+00,1.659850405283715968e+00
-1.693150239486370667e+00,-2.737708774244798970e+00,2.154521215826388780e-01,4.345625467698036593e-01,1.411258160222316205e+00,-3.586341609531058072e+00,1.890530353812459374e+00,9.577993366672525877e-01,-9.810256450245870008e-01,5.732950400462196727e-01
-4.805498816358194647e-01,-1.005391442754801190e+00,-1.998254262586071917e-01,1.768251503054458773e-01,2.893747313977002023e-01,-1.522549553710029979e+00,6.660273076406608705e-01,4.513824146562782080e-01,-1.588623688332346795e-01,2.116677881568082564e-02
4.414577717509096999e+00,-6.696690885811720229e-01,-2.401340645708042842e+00,1.675268906993315765e+00,-1.724757610345523329e+00,-3.718043026311439903e+00,1.220020169505097396e+00,-2.483943913500891831e+00,-4.751865031277110463e-01,-8.456949401732454241e-01
3.821764971504045816e-01,2.547998116399472490e+00,2.844411816228594736e-01,-8.091218326911558956e-01,-9.006449778667724448e-01,3.968164719623507697e+00,-1.976399232741063772e+00,-1.142794847868884300e-01,1.093514963875834134e+00,-3.841281932547437883e-01
-2.824099726832042911e+00,-5.607181899665375502e-01,1.612205766891461112e+00,-6.731867541803671084e-01,1.602162065731377982e+00,9.055268658624660016e-01,7.373902867073617307e-02,1.323456568946626444e+00,-3.909868278488174420e-01,8.627249736357034404e-01
