-2.103167439320272170e+00,-1.353543143602343957e+00,-1.357438810974635812e+00,-9.375355531952669907e-02,4.634539668288947034e+00,-1.711900137587433646e+00,8.747877055333058705e-01,1.608726287200966443e+00,-1.575249937745543560e+00,-6.941428300416291330e-01
-3.932707230644286178e-01,-6.540096653090937684e-01,4.373174312222991716e-02,4.740568092982108128e-01,2.635007460239351396e+00,-1.157444888895319712e+00,-6.803095723104242154e-01,1.295271452505618370e+00,-9.878265263989568501e-01,-4.557912359668850333e-01
3.153522052225409267e-01,4.932438868633947648e-01,8.945719459102160487e-01,-3.993942848460151351e-01,-3.661488164506143117e-01,5.847881528392879780e-01,-1.938942754151169456e+00,2.820956863122158875e+00,1.222845297641331763e+00,-8.155717824422356044e-01
-1.020272841255944751e+00,-1.348207080741928410e+00,-4.937675480246751514e-01,8.246367880119831462e-01,4.680057191506035608e+00,-2.167932257320339229e+00,-1.012998044661828217e-01,1.041570897535800677e+00,-2.146451759838810869e+00,-4.547086125465535922e-01
-9.944182558289393903e-01,-9.979180191790444632e-02,-6.042193354543583528e-01,-7.345148985420638654e-01,5.870516934725757974e-01,1.842293778009907179e-01,3.805144539861787800e-01,1.250446285903713761e+00,4.237768970913550759e-01,-4.480542628646189129e-01
-1.604213804397861987e+00,-1.415238013776491111e-01,-9.042927904618723867e-01,-1.214181962926139668e+00,1.011894162593403479e+00,3.117985455705698516e-01,4.283052378282916073e-01,2.323160958355904970e+00,7.626867940897029685e-01,-8.152112763730384737e-01
-3.048397068220150441e+00,-5.745344617293806078e-01,-2.471997800248194377e+00,-1.870321877456242232e+00,1.530350254782142816e+00,2.551021158057194538e-01,2.786753155297876372e+00,1.081830635937777396e+00,3.966216650546217082e-01,-5.476175987342286611e-01
-4.456344155966822651e-01,-5.328497730496509766e-01,-2.754513774713577834e-01,2.926494465479166363e-01,1.764735288103357114e+00,-8.243196768029563692e-01,1.222497103513285055e-01,2.400198856171510964e-01,-8.503889259466788086e-01,-1.298455388148528344e-01
-8.830424701576018442e-01,6.534849581503777982e-03,-7.895890716257654152e-01,-7.573472063752535455e-01,-2.222383637152859637e-01,4.183081884006861761e-01,1.024940915533359975e+00,1.132410151979072188e-01,4.433163205200060797e-01,-8.793019444192132217e-02
-8.570899981107819032e-01,7.387339951268405425e-02,-6.168273633309701021e-01,-8.305598618439228309e-01,-1.591093867358773506e-01,4.857781183127541369e-01,6.041598412143271979e-01,7.755361880520845741e-01,6.538237986213149000e-01,-2.850060269010982195e-01
