-5.586459540111539113e-01,-5.314270199491208935e-01,2.538386529066970265e+00,3.248015556668720216e-01,1.719010528990373210e+00,-5.169237382107501055e-01,-3.721045565285174384e+00,-3.980370219954498801e-01,1.592897220009053649e+00,-1.527074977139027956e-01
8.489812102188715182e-01,7.939793160854853316e-01,8.456134023943857603e-01,2.888268153802753258e-01,8.550296195898204887e-01,6.803496170878792215e-01,5.417922311359741894e-01,5.692150797884599767e-01,-5.609122635249009781e-01,6.466367809566672675e-02
7.772839392675241044e+00,6.379184467442927442e+00,4.495203498300132772e+00,-8.994671258201062392e-01,2.568496728966190190e+00,2.917377977060110705e+00,5.775857731502622272e+00,3.630646579818069597e+00,-5.494404869885535447e+00,5.342081514594880787e-01
4.524292400288742577e+00,3.622535729321225695e+00,2.645150709926956445e+00,-8.209080703666038481e-01,1.227872874892527832e+00,1.357058682945081252e+00,3.057752218640794162e+00,1.951568845823979714e+00,-3.093731815964429366e+00,2.924833697526074139e-01
4.603503457039581637e-01,1.851202411760139999e-01,-1.615350177863331016e+00,-1.027955861053236886e+00,-1.866406974225512716e+00,-5.306061552016716476e-01,1.789728117294856702e+00,-1.243480616705906483e-01,-8.657088887854373915e-01,6.041769882839091027e-02
-4.528770240636228461e-01,-5.303373644082266525e-01,-1.795221879249967456e+00,-7.473326965116708909e-01,-1.799774810043047069e+00,-7.493292331225187564e-01,8.382391662648989161e-01,-4.910146050189346800e-01,-1.184859400531201867e-01,-7.988267001353292762e-03
2.752804963411725758e+00,2.314253392454867608e+00,7.712576066128878916e-01,-2.793091939884898012e-01,4.722857589152724689e-01,1.249625041436220663e+00,3.096687374870655596e+00,1.386000660427860964e+00,-2.324566210335699434e+00,2.285545526411683626e-01
3.836945544368311367e+00,3.122960320738872753e+00,7.330118701854567709e-01,-7.925199330343988269e-01,7.570966791453415112e-02,1.359228752238271110e+00,4.375106167912310440e+00,1.749343805381160966e+00,-3.268647180910614125e+00,3.107483245708590469e-01
-2.125114197729446097e+00,-1.546761042391749275e+00,-9.486323635544343658e-01,9.541939526909950509e-01,1.357810824087154478e-01,-5.843734138980676701e-02,-1.286048083069999848e+00,-6.411188531173637184e-01,1.409313581861139753e+00,-1.178405551799400069e-01
3.679507875288603458e+00,3.261837788158692852e+00,3.955562403801820448e+00,7.042500237920245043e-01,3.351423510539736306e+00,2.270775677178574092e+00,1.493686667468556717e+00,2.146293997083803085e+00,-2.132582556022214693e+00,2.355112378472037082e-01
