-2.925259251260721172e-01,-1.297191400704539976e+00,1.389489998726445297e-01,1.834723933352775394e+00,5.257856410281140924e-01,1.050423294917560924e+00,1.710611941547766301e+00,1.346238997621499678e+00,-4.185227534665718063e-01,2.592416622502807133e+00
5.364120434963002282e-01,3.447574948749714707e+00,-2.822829904230224063e-01,-5.020668919098373317e-01,-6.022705321899164410e-01,-2.651558988510547277e+00,8.006474253905322414e-01,-2.165644352698529840e+00,1.390050750939171575e-01,-4.749066968721002091e+00
5.466791159160320213e-01,1.536390136188313216e+00,-2.234318925786391574e+00,3.906546158357214971e+00,-3.790153300294359096e-02,-1.171345312667041894e+00,3.387450406787825941e+00,-4.023790605646654917e-01,-1.746590609610409350e+00,-4.777381872026551513e-01
-2.254188789569870621e-01,-1.580249797589119876e+00,1.141897649313770025e-01,-1.030379158012154212e-01,2.134613104429951003e-01,1.204229019407331513e+00,-7.821555510374211817e-01,8.820696535079264322e-01,6.939613318851847561e-03,2.012245970386664862e+00
5.990601874603065924e-02,-1.822769000263391392e+00,-1.206260776644419552e+00,2.005750054447193870e-02,-4.696374020376590380e-02,1.318791773211648977e+00,-1.967610721141851648e+00,5.905248413200756552e-01,-5.672853812460088019e-01,2.154729924709915423e+00
7.899578301698138016e-01,1.339006921225013524e+00,-3.179856275049357528e+00,3.158641349956511135e+00,-3.693398096132449182e-01,-1.097146264097875301e+00,1.520444256162939656e+00,-8.621058678938142705e-01,-1.965938642237402556e+00,-7.513379598970455486e-01
4.348818056152449762e-01,5.872771360182166278e-01,-1.848102769655963984e+00,1.830648046108386051e+00,-1.908444203176018206e-01,-4.926865882241146521e-01,7.852689133276870015e-01,-3.970087014131308267e-01,-1.149038025640728211e+00,-1.923830437751786471e-01
3.998407928426436775e-01,-1.429447153551140159e+00,-2.472012967536926009e+00,4.135136126524484590e-01,-3.288467768473091746e-01,9.615012918634310290e-01,-2.470010650362208793e+00,5.178176841192470153e-02,-1.156220842313108399e+00,1.616378480473718904e+00
1.762995392737848332e-01,-3.648162114812301127e+00,-1.809851931413460457e+00,-4.021292822984006143e+00,-6.695395977582909719e-01,2.547503809937066155e+00,-8.271538028660005537e+00,1.116694924659198257e-01,4.655640184127081416e-02,2.444494193745179178e+00
2.642716664904246060e-01,1.253311532388633742e-01,-7.054944815371286815e-01,-1.509094414313496335e+00,-4.509778533719198124e-01,-1.812526934228233244e-01,-2.406515766752136187e+00,-7.942782040513500785e-01,6.654465277892347708e-02,-1.018641551162401626e+00
