-5.590491093920485488e-01,1.035398738252140127e+00,1.101413601638258966e+00,-1.728289164306090253e+00,-1.774772412570663871e+00,-3.557312501186363773e-01,5.402249087679666495e+00,1.814889981317463929e+00,2.898073990561038094e-01,-9.671543640661359742e-01
-1.540028945977745423e+00,1.125594243167982594e-01,2.335055169601767400e+00,2.674246142543769689e-01,-1.138325988290505686e+00,3.011242870787777526e-01,2.510876988133065257e+00,-4.363049356605813167e-01,-1.136690409478088998e-01,3.556619146767897588e-01
1.434629761610975329e+00,-2.533066461241202383e-01,-1.288795537686696857e+00,-5.746665782482556217e-01,8.649384863517658451e-01,-5.075589555843088574e-01,-5.427823602712978923e-01,4.366204980526160462e-01,5.574444676391772380e-02,-3.228435662403125739e-01
4.641031234032213959e+00,-2.482341873318847369e+00,-1.722459301659785336e+00,-6.644895986264277576e-01,3.836158761572149967e+00,-1.785233596978910375e+00,-1.603067573705500237e+00,-8.782739308213682872e-01,-3.754851497374472880e-01,3.066392635020453450e-01
1.935749065039863881e+00,-1.795555456207727607e+00,1.519966671954906756e+00,-4.555774970329101170e-01,1.591539820479829448e+00,-1.169280284422315797e+00,2.389570279156150612e+00,-1.020117271127689129e+00,-4.115840394447687900e-01,5.575394231873540551e-01
8.913516730830215451e-01,-8.190501629512228488e-02,5.835657809742763602e-01,-1.378721091777278085e+00,-1.547560310672706774e-01,-7.884567101393438193e-01,3.646219319760355848e+00,9.005790004781585312e-01,5.868577738943592942e-02,-5.129218907941823780e-01
7.175011373305527629e-01,-1.441918741824079087e+00,-7.994001191262092854e-02,1.544151087323152316e+00,1.844854593486568106e+00,7.242898684416491928e-02,-3.808085919278691112e+00,-2.074952599949955179e+00,-4.106552221797469260e-01,1.137186396705968550e+00
2.542132707003264436e+00,-3.479827470619512475e+00,4.335289662675372024e-02,2.538845655168074256e+00,4.344736873550103518e+00,-4.765099216632251999e-01,-6.374429418018721094e+00,-4.150912150031778047e+00,-9.126394351083070289e-01,2.248482026559220248e+00
2.202258412027443268e-01,1.392396415092507667e+00,-1.158920386241245382e+00,-1.857117247963390394e+00,-1.254585698154872420e+00,-3.218001630865242046e-01,2.840351789102952385e+00,2.440918053568398971e+00,4.860583597809195466e-01,-1.404607327650554627e+00
-4.836742764918218751e-01,3.172540143671312984e-01,-6.065889177904216778e-01,4.800314794421189357e-01,-1.344196230324523900e-01,4.155893669651548050e-01,-1.706120100722996025e+00,-7.370281246733940972e-02,5.925366182976121721e-02,3.796491096252639641e-02
