2.921737800997181722e+00,1.247882353519877086e+00,5.910349334065255755e-01,6.038248255690834121e+00,-8.976279987936317539e+00,4.926960961550514995e+00,2.924667731748685995e+00,-4.781902014965638159e+00,-5.087856419036955735e+00,-2.192928583339213977e-01
-8.481768747135951525e-01,6.046430725632307990e-01,2.964429413691684889e+00,-2.104769405040114449e-01,3.067358995839757796e+00,-1.857519643199017967e+00,-2.117263810245021194e+00,6.418601924917801682e-01,9.192437110737108341e-01,2.289058033801623648e-01
-1.188697972529565217e+00,4.856794511016743199e-02,1.599286614860749633e+00,-1.618109118857596229e+00,4.064484106024402799e+00,-1.974345789940937346e+00,-1.421520947530024781e+00,1.273878961257890907e+00,1.880493549715937185e+00,2.634199595010453532e-01
2.247713254094996227e-01,-1.770715350084375306e-01,-8.394108885818029053e-01,2.783328887608504942e-02,-8.176411695896690368e-01,5.058181243901074264e-01,5.942260785105537568e-01,-1.624773510530074239e-01,-2.309746825778979384e-01,-6.178222126788458085e-02
-2.309844084182297863e-01,-6.942372879850532419e-01,-2.062387307295972860e+00,-1.312213605091885782e+00,7.847945667022750149e-02,-7.775642632217247829e-01,-6.252007315384797703e-01,1.409443199564181848e+00,4.357147463486221728e-01,-2.711949703312571680e-01
3.955020544887932060e-02,-4.288345272700398725e-02,-2.272006939291084660e-01,4.309740218749989749e-02,-3.207488511353304705e-01,-2.273927280394607842e-01,-4.603786660495822192e-01,2.627683268530640048e-01,-1.869972816256644799e-01,-1.050921280828735344e-01
-1.339537214958430145e+00,-1.270379037179729220e+00,-2.511385910127289733e+00,-3.915580458023916854e+00,3.882390328674339308e+00,-1.761985100944448268e+00,-8.508685313968211705e-02,2.565973795916416389e+00,2.825122725110745581e+00,3.522232478510471665e-02
-8.762542065003696701e-01,-2.712043327774591450e-01,-5.175159031288234512e-03,-1.424041617923108349e+00,2.071553628683935777e+00,-2.780515495028976769e+00,-3.281304733999746759e+00,2.458396771453517538e+00,8.677596482494874808e-01,-2.771847457040633733e-01
1.040870439894709509e+00,2.077809781352681906e-01,-5.980267421718358234e-01,1.829172524417783663e+00,-3.478649993302789678e+00,1.544776683649786042e+00,7.838955553151094602e-01,-1.244193883966743908e+00,-1.825991459296665509e+00,-2.089419601969610407e-01
1.117375717865819018e+00,3.985222984449214856e-01,-1.068268901688829153e-02,2.158185010549668714e+00,-3.393693131445869593e+00,2.063076241674933531e+00,1.481697647192624423e+00,-1.894474671048882453e+00,-1.831779707796074685e+00,-5.600789362881239408e-02
