-6.574582729514224511e-01,-7.209660451438189011e-01,-5.574023651442837624e-01,-3.275474080515585751e-01,1.464018635294859871e+00,1.443039377403429357e+00,-2.345944268905830743e-02,1.406218996956964062e+00,-7.658131535438968962e-01,-1.504861810507270303e-01
-1.768524710699466151e-01,-1.692031187433885586e-01,1.801225914627625713e+00,-1.281473090690767314e-01,-1.833944781956928338e+00,-1.699570167897276551e+00,-1.092950845241724922e+00,-2.071795099315419275e+00,6.033370427635802447e-01,1.955948465781904178e+00
4.167224829166528366e+00,1.955858554955524520e+00,-7.015956038386713667e-01,1.705613269441286661e+00,-2.340382263911260807e+00,-2.138617156450719925e+00,5.555175956648208846e+00,3.045187354539011793e-01,2.789777816348883110e+00,-4.307510409320324030e+00
1.479189909197736963e+00,7.835677134260685683e-01,1.926376145775979598e+00,5.718116986091708043e-01,-3.365280435639672607e+00,-3.146539713281414130e+00,6.868134265425598350e-01,-2.717619597781128604e+00,1.900029797570251144e+00,7.192867221832264235e-01
2.013639106320932459e+00,2.711787554350021168e+00,-3.467991939179695393e-01,1.139980113106864312e+00,-2.574114562537713979e+00,-2.734357716470015909e+00,5.851402723381133875e-01,-2.534653897055123117e+00,1.557181517751493605e+00,-1.448646455951239531e+00
-1.165480028466136658e-01,-7.306171332766034920e-01,1.707730984306404798e-01,-1.719042838251782501e-01,4.499780673126605457e-01,5.538487666167957180e-01,5.674639164661536839e-01,8.343056073372407955e-01,-9.680064095919345413e-02,2.930819530885918345e-02
-2.683425196754285924e+00,-2.198100348014049743e+00,1.207094952419798917e+00,-1.283213576691903057e+00,1.424006451354808744e+00,1.486311015525337842e+00,-2.868890570286193764e+00,3.000162303839704059e-01,-1.597111198730779558e+00,3.202713179871246041e+00
7.663838887385310272e-03,2.339316180208736551e+00,1.443952137236090172e+00,3.875024196278877842e-01,-3.559059770253371724e+00,-3.792302494640822808e+00,-3.553700531654125250e+00,-5.344586036383078387e+00,8.831580017948008621e-01,2.311270433751473341e+00
-1.510360339714150180e-01,4.685349581043654066e-01,-4.735459492218924149e-01,4.592370978615464838e-02,2.059901481673417911e-01,8.343009163281661644e-02,-5.732047306250478425e-01,-2.158805086543733043e-01,-2.424875871743581990e-01,-1.565100714307952612e-01
-1.401817265404309731e+00,-6.366753839075506294e-01,-4.077874578473617562e-01,-5.552861174013437040e-01,1.498166517348795690e+00,1.379812556702111115e+00,-1.545193340147215766e+00,6.611573254376219566e-01,-1.201965595412846532e+00,8.009437411619155789e-01
