7.095126161059033265e-01,-9.267237718256542411e-01,1.099879349657479244e+00,1.068326229940051553e+00,-1.805432058158507047e+00,-1.612627625148503663e+00,-2.794359516080354933e+00,-8.221594275374550786e-01,1.106025874461474379e+00,2.842528926249784371e-01
-3.262144463979436138e-01,-1.226309216388418860e-01,7.737050069981238343e-01,-4.246765533655252334e-01,-1.942366566021282104e+00,1.605232947495421891e+00,2.012661475114894682e-01,5.968512114620097009e-01,-8.826146601857368656e-01,2.208230351852451534e+00
3.457238988137728009e-01,-5.211606176770281484e-01,6.895757008299187030e-01,5.846424597788577593e-01,-1.264370178283021673e+00,-6.363719440790823745e-01,-1.513257813254279549e+00,-3.427266070511592599e-01,4.206891953976788501e-01,5.451774009612739835e-01
-2.369224803984110728e-01,-1.557001511435826824e-01,7.565219722544220815e-01,-5.531166349917396863e-01,-1.597520356011905118e+00,1.089713715970359820e+00,7.920935233323546376e-02,3.231948208569269676e-01,-3.648689386978425375e-01,1.388106435153882989e+00
-3.282346238851812648e-01,5.322755700309567128e-01,-9.096340034821646103e-01,5.200613033750242087e-01,7.496196453734944587e-01,1.318458697536805557e+00,1.234707656627521688e+00,8.950495399911270189e-01,-1.747513355435662552e+00,1.457222875911542426e+00
-1.906586632639686585e-01,-4.563450873953336373e-01,1.355762066142415678e+00,-2.444144405437164713e-01,-3.053448601100583915e+00,1.513067838599695403e+00,-6.310025639659989638e-01,4.790603471692104209e-01,-7.236085766107362982e-01,2.845618269816779122e+00
6.232735329858318796e-02,-7.239034509036641474e-01,1.670805784399930660e+00,-3.187795472607806158e-01,-3.114071025667395354e+00,5.184537840965517397e-01,-1.388767575957263745e+00,-8.156793444234120005e-02,2.831934475021408160e-01,1.793884215141123395e+00
-8.494004601845217550e-02,-4.287985839592459852e-02,1.756487173063597806e-01,2.215605999072900456e-01,-7.572217028315709753e-01,6.721410726777006239e-01,-5.378260597499626150e-02,3.388995726490659499e-01,-6.581694443715028209e-01,1.275686971060439934e+00
8.333832730532786393e-02,-4.955933474582681630e-01,1.185657069278100328e+00,-8.246453354923847234e-01,-1.574988563455191670e+00,-2.946771248982589242e-01,-8.370185585121835414e-01,-4.821727987553423023e-01,1.134729483540646067e+00,-2.892487213950081237e-01
1.018944031927681293e-01,-6.361505972904321071e-01,1.385210170221990555e+00,-1.354699530803531449e-01,-2.593632078135040153e+00,3.097502699433073436e-01,-1.305222486557938044e+00,-1.068785889780999587e-01,2.610062079448603467e-01,1.493436258058272958e+00
