-1.124711419003674218e+00,1.918351366639486022e+00,-1.172987903122647557e+00,1.689283468680234490e+00,1.224874115220814241e+00,-7.363834617632202262e-01,2.069543443478528921e+00,2.249888992610930227e+00,1.272692611153335429e+00,3.507395957658741015e-01
2.314151410156832789e+00,-1.893343883842220743e+00,2.192868133340115211e+00,-1.703579612612983629e+00,-9.979185083267236855e-01,1.101606632097095195e+00,-2.522275283743414587e+00,-1.762240510445275410e+00,-1.185038577986617048e+00,2.203539239054438381e-01
-7.242417196393390322e-01,-4.431165192695057375e-01,-3.727090742589324601e-01,-1.029320113390395086e+00,-1.367242581028531578e-01,-9.001866203809932854e-02,1.311404612090685817e-01,-1.629857401917740756e+00,1.607502939868150904e-01,-4.838202802060415086e-01
-8.368972170334870730e-01,-1.126217344398863895e+00,-1.352277389143740516e+00,1.545048637701985861e+00,-2.168525808920545472e+00,-2.058809532256519192e-01,-1.427481441844977716e+00,8.497946181646371944e-01,-2.745997691855573741e+00,-1.134525714528006768e+00
2.417733241087276941e+00,4.051564448314207700e-01,2.315642128917292819e+00,-6.509413675966634338e-01,1.165914971409499401e+00,7.351169984119469980e-01,-3.195820006090882570e-01,4.655616761526852887e-01,1.136768002318577331e+00,1.406832363406386843e+00
-3.969520195203575241e+00,1.608129939295840583e+00,-3.481534669551857419e+00,1.164201572604308899e+00,6.599539723845914141e-01,-1.535763585538953091e+00,3.052122845934943651e+00,3.565245529815945225e-01,1.151399348689800872e+00,-1.099134211017801066e+00
1.225793126926312260e+00,-7.758740322245706311e-01,9.938214891913098592e-01,-2.326549577162502769e-01,-5.860612230956309121e-01,5.050681405910422139e-01,-1.297990283357369545e+00,-9.537616822216006540e-02,-8.325490786564595513e-01,1.782143934854470424e-01
-3.642527730749717474e+00,6.103646659528700891e-01,-3.500245289205075050e+00,1.638741531460936152e+00,-6.633096358517732716e-01,-1.326014532478397179e+00,1.641685307939560134e+00,5.679002634424120677e-01,-5.573536904286432447e-01,-1.523999567366842500e+00
-3.849544237852446482e+00,2.664036259760992342e-01,-3.397317010673275739e+00,5.417799816113826328e-01,-5.703473248542285656e-01,-1.265486315446932464e+00,1.695251575242583186e+00,-8.780142309421632429e-01,-1.913562324900622558e-01,-1.706606816589699038e+00
1.678974922904389100e+00,-4.365834249874867012e-01,1.983285921488100012e+00,-2.056896772810242524e+00,7.469418965029058777e-01,7.231318256302013969e-01,-5.088432965519492646e-01,-1.762697591816365428e+00,1.043787748023180084e+00,7.363199613467109605e-01
