-4.705292590213969728e-01,-5.504479415213334725e-01,1.064403893369392451e+00,-3.097893750850131855e+00,-1.821498801666917799e+00,-8.883535500531650753e-01,-6.209935317175572234e-01,1.338290037151495859e+00,-1.047740942091636707e-01,-7.598758970097936327e-01
1.393576226739796864e+00,-5.521126839973683476e-01,-1.104079722550564080e+00,-6.903918632290102775e-02,-1.285055321339811485e+00,-8.454539361562066757e-01,1.280016680797245510e+00,9.252995898024345411e-01,1.478287758400445018e+00,7.712871102965821457e-01
-1.309541709270778842e+00,9.935766767673938349e-02,1.742181039658805553e+00,-5.675866939967312064e+00,-2.364351661377361413e+00,-1.860586141849478459e+00,-8.979754345620584166e-01,-2.177497103796235123e-01,-3.009782507922282857e+00,-2.546838746324058711e+00
1.981637299935941066e+00,-8.389915529073477263e-01,-1.856930492316762216e+00,3.976186496563913320e+00,4.912199326168861790e-01,8.685354558527321744e-01,1.358785649638355242e+00,1.749016406092064546e+00,4.133709938655928617e+00,2.729346081568846838e+00
-1.065002365638043846e+00,2.437541642145097387e-01,1.223771953522440725e+00,-3.414145657816125556e+00,-1.128783143329683103e+00,-9.971382535684157888e-01,-7.417549642922526276e-01,-5.049663198056123514e-01,-2.296815949556046288e+00,-1.762334307170631664e+00
-8.773956899320991543e-01,-6.513272950170849451e-02,9.189766741660657656e-01,3.799931741155535003e-01,7.491181258228055695e-01,9.197738966216306711e-01,-1.128518188803050659e+00,4.934779378948747630e-01,2.605885096562564618e-01,4.339516285784062594e-02
-4.240952929254084403e+00,1.254813127285262730e+00,3.800084568253940809e+00,-2.112660515422684959e+00,2.308009606120439816e+00,1.634167457354009256e+00,-3.950177173527247731e+00,-1.900782956673457091e+00,-4.513563069122000115e+00,-2.837604476362189043e+00
6.969769241807638460e-01,6.450939520819743977e-01,-1.367315904822646866e+00,3.236157187261373025e+00,1.812509589587838033e+00,7.281650016099046052e-01,9.419087954963207832e-01,-1.646799663504001421e+00,-4.759452078419316307e-02,7.652171152167610568e-01
1.590803518511624715e+00,-2.402060087828293555e-01,-1.619552633862778368e+00,1.485648558671480712e+00,-3.236938638730227358e-01,-3.877249870693896261e-01,1.570235206750568713e+00,1.761125498699156189e-01,1.437940516620553888e+00,1.110804529255194240e+00
3.139884804457597212e-01,-4.026077195291778432e-01,-8.220562556339668092e-02,1.152557551643581223e-02,-4.452485359000764586e-01,-2.943402333624695402e-02,9.171812596695101683e-02,9.192837201595220886e-01,1.043105900685912246e+00,4.528611634460376068e-01
