-1.870515202170582869e+00,-3.122074700676844561e-01,3.310811988713793785e-02,-6.768766441541457235e-01,9.429589066143209131e-01,-6.405014597178932956e-01,-1.895694948432931737e+00,-2.683711049982387298e+00,-1.371605878648495924e+00,2.119622591020798641e+00
5.793464905696818157e+00,-5.771387681639528200e-01,2.386619373791991183e+00,-4.268392141266703632e+00,2.101657371881996639e+00,2.394984402201106644e+00,2.767083665111968127e+00,2.162702351991897309e+00,-1.262897922237600890e+00,-1.699459518525422430e-01
2.274975608538721605e+00,-8.354866257013872088e-01,2.580557059933446418e+00,-2.655062746625348247e+00,1.679219318599752153e+00,9.634225779998710770e-01,9.269007908907213045e-01,-7.858880629514142235e-01,-2.191075086172706854e+00,2.342541570727749156e-01
-7.460572970528103198e-01,-1.642693090293698699e+00,4.839984611821910754e+00,-1.024917465012446183e+00,1.264749290162771267e+00,-3.515047375005397878e-01,1.813559314924284571e-02,-4.277848002683894535e+00,-4.247526632010327319e+00,-8.500026689649997635e-01
1.994188587735592044e+00,-2.274592745271148408e-01,7.824368148246928500e-01,-1.785678079467300616e+00,9.625824256920376687e-01,8.500320043603724063e-01,7.570787106545734391e-01,5.277399717605504303e-01,-5.992273007818633701e-01,3.476174779581995278e-01
2.297237908359302416e+00,-1.723428571324081782e+00,4.908227911370025787e+00,-4.262516911890838145e+00,3.052389072938254344e+00,1.021205400703504518e+00,5.891685259633530070e-01,-3.242381301695572926e+00,-4.714055448558496231e+00,9.136309842754180011e-01
2.624344904330510708e+00,-5.268730872355342765e-01,1.551809497383546121e+00,-2.928622639561202945e+00,1.742488851470918476e+00,1.146569920396228959e+00,7.886498093629115136e-01,-2.635428302382791799e-02,-1.488530305791686992e+00,8.786947439475548682e-01
1.352732739735760914e+00,-4.456848564353679265e-01,3.946700736296712142e-01,-3.813450931409569034e+00,2.631625325360059442e+00,7.815844876583688539e-01,-1.046482016867427589e+00,-1.525187985283558589e+00,-1.883885082909643627e+00,3.475092603899609500e+00
5.570599836898937340e-02,-8.007335550908356581e-01,2.222255433322986473e+00,-1.197003033832588770e+00,1.045284074547653486e+00,4.187156869062191866e-02,-9.670088083464578599e-02,-2.051511691367148948e+00,-2.187804578665130784e+00,2.136415581931570273e-01
3.259268181045682500e-01,8.082088911786220464e-01,-2.456645878000918160e+00,3.673021481382361397e-01,-5.132043400098513786e-01,1.706991979409190341e-01,-1.413707649109319231e-01,1.995466613256203336e+00,2.037187372386590312e+00,6.545280608657058075e-01
