2.447577409516978886e+00,2.801332606317765150e-01,9.584098661108095829e-01,-1.540081941314089820e+00,5.886758307504350585e-01,-1.696802182905188250e-01,-1.434472459257375987e-01,1.002477345849138501e+00,-2.234024501493298009e-01,2.046075571572752771e+00
3.275693994666961650e+00,7.114291326925248349e-01,2.664227548038392568e-01,-1.903403437185451352e+00,-2.973097675333751244e-01,-2.881918428752140660e+00,4.112260417603449958e-01,-1.552432319141675787e+00,3.825439300487362138e-01,4.445422042079224312e+00
-6.418518929816066643e-02,-8.023497769030918381e-02,-1.538611906528062789e+00,-2.923800835246377905e-01,-1.309432416231314678e+00,-2.149027417866333334e+00,6.456407051952159915e-01,-2.951694025414487221e+00,4.249389902620330783e-01,3.208889593125220152e+00
-1.819513279176436571e+00,6.203658350025842427e-01,-2.381487758508042951e+00,1.676865054764469676e+00,-2.374624313707032197e+00,-5.099330551998455086e+00,1.220575531299486371e+00,-6.163860814960728796e+00,1.571823298315495832e+00,9.362782563196807573e-01
-5.285192439378169738e+00,-7.103943728047927841e-01,-1.278413119777388474e-01,3.555709209612612387e+00,5.006188661759611858e-01,3.753268190938753968e+00,-6.026439346718683865e-01,2.068429361279077838e+00,-2.618258362558447683e-01,-8.354186542576117702e+00
3.994120975540917495e+00,7.865587190658042127e-01,2.830852600647338679e+00,-1.969227893780598704e+00,1.893175163740910882e+00,6.839203552697898925e-01,-6.514590931453531075e-01,3.437189996683120974e+00,-4.367285121781340762e-01,2.712466060522995548e-01
-2.969353173965205706e+00,1.003216027121637266e-01,-1.131056952584106989e+00,2.309157933663918527e+00,-9.332193894385426569e-01,-1.124731637666205541e+00,3.565646354685070851e-01,-2.213043135597578370e+00,7.176070117173893870e-01,-3.100890561604630946e+00
-4.582198775833480342e-01,7.709701793914016665e-01,-1.037510037011601938e-02,1.131751435714396514e+00,-4.231186404015605529e-01,-2.284466887008268721e+00,3.193844985542403925e-01,-1.827441049810518248e+00,8.413245715094306298e-01,-1.770387423470391575e+00
5.612379674286857245e+00,1.922694237015171836e+00,4.318689887433828645e+00,-1.899951848343071958e+00,2.502209023509779584e+00,-1.066066282550722999e+00,-7.021129029960029300e-01,3.556523280043891955e+00,1.234665100747188715e-01,-1.358746556407839812e+00
1.137815022808703613e+00,-8.562121452923920906e-01,-2.387614959589722474e+00,-2.179462185648178618e+00,-1.671703634361586532e+00,-1.444417937189613532e+00,7.551422124158966298e-01,-2.959907019183350307e+00,-2.017108041178554689e-01,8.124965944622442038e+00
