-2.848700600265321667e-02,-8.570931412413904660e-01,2.128418359251824377e-01,-6.397535878958170441e-01,-1.459100122980707015e+00,-9.218185590475519442e-01,9.915583930660747392e-01,-2.109317834624770960e+00,-7.328319788172326099e-01,-5.456251795076463296e-01
-1.321261463230994693e+00,6.318882261203755124e-02,-1.373823168894246771e-01,-8.020168463081790433e-01,1.272383203969966070e+00,-1.407539580239232757e+00,2.349131822799920943e+00,6.712560828254643397e-01,-3.381505215516917850e+00,7.997612556663635797e-01
-1.545240973909586701e+00,-3.333910317297645420e+00,2.619300645255676407e+00,5.302218064594901747e+00,2.989177711741345389e-01,-1.274687393876662522e+00,2.946318143126849254e+00,5.453042112673347042e+00,-1.485392014297018282e+00,1.405109166900979645e+00
-1.774504182150516307e+00,4.626385061876884253e-01,-2.543445626813153337e-01,-6.893863792505148247e-01,2.424597307587907036e+00,-1.446979236309668515e+00,2.694706484830633464e+00,2.007286562044344969e+00,-4.184581911771587670e+00,1.357142849542168905e+00
6.328518172635957395e-01,6.834073085856864349e-01,-5.705284458261109526e-01,-1.167916247110300620e+00,-4.930466845959363686e-01,4.863073785048194209e-01,-1.067298861642649532e+00,-1.667837913890669377e+00,9.592617323420453701e-01,-5.575715515119414878e-01
-2.693754472094676555e-01,-8.549483304897095293e-01,4.811469111458464565e-01,5.252315500363636813e-01,-5.304410234895415854e-01,-5.965385193843826261e-01,8.950976768229395031e-01,-2.827701987910458473e-02,-5.865702014111185969e-01,3.182759829673636499e-03
1.856462962257365845e+00,1.517266373768578092e+00,-1.081277270974476234e+00,-1.651642418418741043e+00,-1.139520372255022007e+00,1.875517182154899931e+00,-3.460374987228940213e+00,-2.898951554490365901e+00,3.682342990717752063e+00,-1.294709300415074038e+00
-1.517544331712261885e+00,2.116365723544392452e+00,-1.229912211850705317e+00,-1.968110294168470276e+00,3.632614155717085680e+00,-6.294313114527320119e-01,1.484580286733070853e+00,2.024608703990237402e+00,-3.790089566538915822e+00,1.473597246810412598e+00
-1.492928631980701581e+00,-1.013359520036720474e+00,1.452401062816524591e-01,-1.566954432629817262e+00,-3.726516447747978966e-01,-2.660415931461522998e+00,3.792221842623174410e+00,-1.735995160007958171e+00,-4.581242322297629066e+00,2.314795749083832788e-01
-1.835778621820057133e+00,1.626077761250496412e+00,-3.794436300064947809e-01,8.985035669475377462e-01,4.917041872725887330e+00,4.463639984170360980e-02,1.213581358393828191e+00,6.087766229637779247e+00,-2.991497278152055905e+00,2.398402479079143834e+00
