-2.151450125880618902e+00,-3.477533273545045045e+00,-2.810754460325027182e+00,-1.853483573493152514e+00,1.936754599355536177e+00,1.877065860210549886e+00,2.030931707506211936e-01,2.129733242105701141e+00,5.278406919637927963e-01,2.210951487423480799e+00
-2.144584074418575681e-01,2.644394449457825313e+00,1.337989250270146036e+00,1.508788458138138555e+00,-1.433317608748123639e+00,-2.404890951499062179e+00,-3.427309395562868066e-01,-1.470955785683052852e+00,-2.660566862792584253e+00,-2.722694344916637199e+00
-1.240792930307738073e+00,1.379974481206662995e+00,4.638054333000980467e-01,6.026886106952908939e-01,-1.114975543639054933e+00,-2.358334915023292400e+00,-2.812070196289926383e-01,-1.126637279259075752e+00,-2.853573805011262454e+00,-2.695631992012566869e+00
1.692967462991569860e+00,1.064230010196920651e+00,1.139089461592343699e+00,6.743975053126330943e-01,-3.553201145899896329e-01,3.084297520699465500e-01,3.481577753863902835e-02,-4.365135383884896081e-01,1.159208407269434415e+00,3.298591738528619532e-01
3.454576899998212380e-01,2.812057915776650319e+00,1.000450944432651923e+00,2.222740943779105471e+00,-5.015811065117674605e-01,-9.127431474309162240e-01,-3.392229416856977209e-01,-4.204008931147951711e-01,-1.898991149912636622e+00,-8.803561842467735321e-01
1.699068489078790378e+00,-3.250346144122291392e+00,4.635170095410067748e-01,-3.372889724741672701e+00,-5.666900912985008976e-01,7.350950529190631855e-01,6.408741742116997875e-01,-9.492880926015531129e-01,4.511855763909597528e+00,3.969386335216529282e-01
1.696699339659482275e+00,2.199679101634978373e+00,2.063595065735557732e+00,1.018173828152970861e+00,-1.449371015288502873e+00,-1.291439954986568939e+00,-8.734366533539761335e-02,-1.623766280396483408e+00,2.783636335330957542e-02,-1.564590182446053745e+00
5.604684455504881369e-01,-2.415979714898952857e-01,4.903505968898405065e-01,-5.339360505403016877e-01,-4.657604295214542445e-01,-2.532530178193427850e-01,1.050780112325995080e-01,-5.818745396387066116e-01,7.733080554063384016e-01,-4.037592618495644547e-01
-8.050179928762875026e-01,1.253449758456634200e+00,-5.083409165364064508e-01,1.565317883351621253e+00,6.307745770694102028e-01,1.677175338811205674e-01,-2.754779029073348151e-01,8.484262115872726051e-01,-1.831870451978169223e+00,4.315067524888476225e-01
1.323643672481004563e+00,1.059344675887574194e+00,1.246276377668197100e+00,4.305457648911936719e-01,-7.607717137389687911e-01,-4.217506268002017000e-01,1.114136199515648566e-02,-8.824105367533323641e-01,6.202572318076184921e-01,-5.534086165826185288e-01
