2.895918202867858504e+00,6.507764920592499225e-01,1.629722406565527804e+00,-9.609246849405620461e-01,-1.787898652635494745e+00,-7.677942262162055220e-01,2.998809995591759758e+00,-1.882096291851172776e+00,-7.763941484705971785e-02,6.280586348174366229e-01
2.242750993558008332e+00,3.977800638456597815e-01,2.623841003517732862e-01,1.706646918197183282e-01,-2.234661884470561244e-01,1.490250320589731281e+00,4.588651088226480823e-03,-1.864922420398595349e-01,-1.054178081146470491e+00,2.362729921417522583e+00
-1.367578942350395010e+00,-2.545911563920738585e-01,-1.199349753759967108e+00,2.345914913622731746e+00,5.696834374290384861e-01,6.836835430314119888e-02,-1.559599922817073381e+00,-1.127761661501198498e+00,-2.098683881068725832e+00,-1.175127080794696077e+00
2.528916342048354693e+00,6.735816497318753981e-01,2.865966451570494122e+00,-2.890715143607347493e+00,-2.859530517596509114e+00,-3.098450416942768904e+00,5.547614864222059516e+00,-2.227481111313495354e+00,2.200119029556791173e+00,-1.337188090395458051e+00
-3.187455070622168041e+00,-6.741014373860477749e-01,-1.931836250613805595e+00,2.050159297740261621e+00,1.681096785454789355e+00,4.450944322244944629e-01,-3.127917540925136741e+00,7.660350247051210815e-01,-1.038858710203961255e+00,-1.405937383137407348e+00
-2.924835448724567133e+00,-5.174016856950032217e-01,-9.145964069093998061e-01,1.248338816527317929e+00,4.673563989634258453e-01,-1.501927850829738897e+00,-7.941869302917149431e-01,-6.484509933863148445e-01,-2.736440338871604094e-01,-3.071724891821865810e+00
1.433891711506707578e+00,3.637144812579122255e-01,1.193444882070016533e+00,-8.229927676260732072e-01,-1.337512303984680351e+00,-1.191310530028516501e+00,2.384589334033035524e+00,-1.434383803689448067e+00,3.384677451258709668e-01,-4.216818605752257199e-01
-1.904905076900939909e+00,-1.794158074476644715e-01,1.086324003814928885e+00,-1.048108544867214942e+00,-1.482960507611482459e+00,-4.230052203741948347e+00,3.199085371815205470e+00,-2.010263718193597171e+00,1.861087025426270136e+00,-4.795324895121948039e+00
3.614108838866541440e+00,7.735706677991831537e-01,2.125014977668824745e+00,-2.018133435739791093e+00,-1.957449016766592997e+00,-5.641133897429391197e-01,3.535274913024769372e+00,-1.207065475489844442e+00,8.318703195438251763e-01,1.439659756949088321e+00
3.091928841833138542e+00,6.023939631274614070e-01,2.211826052718239843e+00,-3.629439491748378988e+00,-1.335804039504093987e+00,-7.893351239873491743e-02,3.059915726540745062e+00,1.104085064282374740e+00,2.861039364246085182e+00,2.226545599314978308e+00
