3.120526902302085848e+00,1.311940309247959346e+00,-1.634655575987901344e+00,-3.419922858350087358e-01,1.577476045429710538e+00,4.949336462135638937e-01,-1.976960504424414566e-01,-7.652348011271927763e-01,-6.846959434893887808e-01,-2.369249933547089793e+00
-1.826780293221791363e+00,-1.529261536519284315e+00,3.661416782311313067e-01,-1.411029608110494937e+00,-3.625989246642865593e-01,4.337243766786911259e-01,2.081904722145942466e-01,2.208625689339865694e+00,3.117781785962521646e+00,4.414634472661306930e+00
-1.292758070107621116e+00,2.542433702557223008e-01,-2.273040631368819842e+00,2.159254965030748874e+00,6.339710269791878350e-01,2.542130054761826408e+00,-1.155782085691751782e+00,1.962246141962752821e+00,-7.021209980871478962e-01,-9.471372171758944969e-01
6.192279752619256339e-01,9.666859751451325478e-01,-2.201747967649303028e+00,1.650805597079628706e+00,1.066930771112083454e+00,1.808966600571222827e+00,-9.002461841314155500e-01,5.863039503859835966e-01,-1.391936301355074068e+00,-2.433986884516721183e+00
-4.411829797293614241e+00,-6.952374108694573396e-01,-9.522307159018030820e-01,3.321724948068590422e+00,-8.973466261760316698e-01,2.286793915958809098e+00,-1.191944899041208261e+00,2.470976695085556951e+00,-9.994848429252414235e-01,1.888679326527027413e-01
1.689586587893318059e-01,-2.213480644681257714e-01,2.755404276382954265e+00,-9.204792307936304763e-01,-1.312493979980599468e+00,-2.711061042962560563e+00,1.006262192723677895e+00,-2.368007255635612651e+00,-5.950097710511131899e-01,-3.581603591776194584e-02
1.276751637230054470e+00,2.294670002426612565e-01,2.619525826461234219e-01,-8.981684847749060729e-01,2.575370716506444335e-01,-6.537302585312313452e-01,3.301425129222275712e-01,-7.456991779942262477e-01,2.068870874113881986e-01,-1.547013206108556194e-01
2.453757708753223632e-02,4.211225170581759381e-01,-2.463556941151565205e+00,1.122150581504702149e+00,1.164762561537842522e+00,2.333310207063715502e+00,-9.366071653135901176e-01,1.752031026891999188e+00,-2.724779468714622066e-02,-6.871251534801067207e-01
2.011303612868877266e+00,5.495753200615860479e-01,1.308567201534134972e+00,-1.085941685266244239e+00,-1.268669013958497183e-01,-1.945069220685125444e+00,7.369203010924412212e-01,-2.343067576862477353e+00,-7.364957753623639913e-01,-1.253193102708114459e+00
4.074876495108837204e+00,1.553615681916717950e+00,-1.984043788588604862e+00,-8.095903615553333710e-01,2.033326533770421385e+00,5.284901183384909107e-01,-1.510887634330095874e-01,-8.985283423643538603e-01,-4.677143017655648327e-01,-2.554883283576001585e+00
