3.648476450216236455e-01,-2.113272841525803081e+00,-4.020734938156278915e+00,-8.177845632622253724e-01,2.357843445321956111e+00,-2.046480577575741755e+00,1.626437191291868478e+00,-4.135695328507538182e-02,-1.321156297974026117e+00,-1.839788507619356528e+00
1.557463769807464260e+00,3.852878335971795298e+00,3.776755020392188911e+00,4.114654647499775275e-01,-1.502701112948872986e+00,-2.055993250872238498e+00,-1.128648251215002896e+00,7.442224808094549671e-01,-1.664326232604867783e+00,-8.881459022554877292e-01
-1.149449281273183132e+00,1.504454025342252921e+00,5.250102062482187470e+00,8.675666347809596335e-01,-3.051611140671865563e+00,3.598772813080204358e+00,-2.382512957238560158e+00,-7.126967429698206624e-01,2.698850117338082555e+00,3.354550762850107670e+00
7.288312570208415053e-01,5.712974377082137289e-01,3.755956027885642534e+00,-7.877368611742184834e-01,-6.461990071603622710e-01,-2.323679661035776167e+00,-1.780336038331617354e+00,-1.702063138609690940e+00,-6.301695873659606262e-01,3.514705834948378960e-01
1.059397328490652601e+00,-2.992996022064917661e+00,-1.195776534299863636e+00,-2.237664479544086316e+00,2.610923373225024324e+00,-5.282530091135325456e+00,3.055243521777439852e-02,-2.533073927446398255e+00,-2.154444196760704422e+00,-1.714438921004948213e+00
1.042800896310169367e+00,2.510223696672723159e-01,1.214744168974575267e-01,-6.402647978204273338e-01,7.232715521398741521e-01,-2.834722359014410387e+00,4.248526331531443656e-03,-3.468228922240889633e-01,-1.650494521686409088e+00,-1.358874736520839122e+00
-7.178337081717245383e-01,-2.100172942779475527e+00,-2.198618816741489734e+00,-2.985725247444296349e-01,9.657345577793332581e-01,7.666725971676655593e-01,6.882165141259439789e-01,-4.004811388447944154e-01,6.761570689241096499e-01,2.588710735872208901e-01
4.942878212720840381e-01,1.209617558915631719e+00,-1.705534075140548111e+00,5.648766445572392936e-01,2.929528940988426200e-01,-1.376268627790031562e-01,1.111933027824913101e+00,1.652234640142851596e+00,-9.142787658023017183e-01,-1.324159173108602872e+00
-2.882704759074115053e+00,-1.553431884176371680e+00,3.263485921192015304e-01,1.196177728212904245e+00,-1.768838669020010856e+00,7.017443612180139567e+00,-5.176153136905385921e-01,-1.153908359775382975e-01,4.570204396802071578e+00,4.031214968909049290e+00
8.290744353702471647e-01,-1.175784702696750783e-01,1.155851771820706864e+00,-8.446543963055435089e-01,4.458153369256201426e-01,-2.703359423010883944e+00,-5.965541191480280281e-01,-1.072669032225615382e+00,-1.201420494247444237e+00,-6.863430451932763798e-01
