-1.971414308791258341e-01,7.025450415722396258e-01,8.964539811239804479e-01,-1.040612709025400706e+00,3.875678572614079664e-01,2.443362476313986620e-01,-3.141872118026768357e-01,6.621998058400552223e-02,-6.355631551996325790e-01,9.318732878501592154e-01
-8.949124395076505367e-01,-2.043896120504095082e-01,1.067841313343118381e+00,1.571024024467955194e-01,4.222820827393078957e-01,7.968024664254064193e-02,-2.673355122881985735e-01,6.877569644123199266e-02,-8.555645704758013670e-02,1.838716893742591063e+00
1.839709049829152399e-02,2.040498909289210072e+00,4.847609238153994582e+00,-2.391899547060688302e+00,2.603337835064855277e+00,-3.252076452604222290e-01,-6.896804235232777414e-01,1.079977653984160180e-01,-2.161318539824167662e+00,3.846235786153784808e+00
9.022319788358400539e-01,1.815860085967139215e-01,-1.161340903405574165e+00,-1.342946949747736984e-01,-4.726044703965835425e-01,-6.839455894817036974e-02,2.778758676025760987e-01,-7.039939296400515856e-02,1.163869121826774655e-01,-1.921379665253273972e+00
1.605456316087776614e+00,-7.823957249589698071e-01,-1.195546715628038825e+00,1.676503044950395704e+00,-1.861642226597378658e-01,-1.024217293823532327e+00,8.721262399699137857e-01,-2.186842003177671412e-01,8.279669097601269900e-01,-2.722451662427237018e+00
2.107023990987151318e+00,1.838102070822013712e+00,2.050792336501780166e+00,-1.729195854844322922e+00,1.524864757782409042e+00,-8.081903731391647527e-01,1.662944709451911474e-01,-1.017986991824930132e-01,-1.447812523738552848e+00,-6.873980510464697824e-01
-4.601180712978181209e-01,1.918537330355285508e+00,4.738262080838301138e+00,-2.407445973186354671e+00,2.429510443759758775e+00,-8.118430984789126725e-02,-8.283464434948037969e-01,1.503822371942494796e-01,-2.091240721815818659e+00,4.286435687877094836e+00
-6.907481253164482471e-01,1.918839300218444288e+00,2.790349069958552697e+00,-2.842710314054707865e+00,1.220437205095996624e+00,6.517670959154182597e-01,-9.154961463488808793e-01,1.936932767842674541e-01,-1.799526496847084545e+00,2.985906634643387569e+00
-2.410906040959822860e+00,1.933176818222477111e+00,1.424510907942746929e+00,-3.791512934529637668e+00,-3.594080021946699510e-02,2.087585081549477195e+00,-1.568687487134938552e+00,3.902755816819405421e-01,-1.704873155749029534e+00,3.791389056948342162e+00
-6.373199233255772977e-01,-6.709272130090869757e-01,-1.639231323063162105e+00,5.269134046840737717e-01,-1.047493932979206122e+00,4.909653578630068238e-01,-1.111034901366793337e-02,3.181558138482393217e-02,6.771991635981305935e-01,-6.051671438474421905e-01
