1.603629529928199071e+00,-1.155399999438223357e+00,-1.059438053961255566e+00,-1.734506500900323100e+00,3.637993433451216507e-01,1.451843762175064168e+00,-3.220252894327274573e-02,1.053214877064294841e+00,1.929047053752901864e+00,-4.507649906303692333e-01
3.148613312735837333e-01,9.506477544700218107e-01,-2.095324683561122781e-01,-2.595960212162026881e+00,1.843758125176309104e-02,1.376001688940246437e+00,-2.009145674212406418e-01,1.353890273264411581e+00,2.198909486130717461e+00,-7.297955924334472710e-01
-1.149068440900177013e+00,1.888428633026697057e+00,6.265293991453215749e-01,-1.053410579105160227e+00,-2.765289660325447874e-01,1.313394760218888624e-01,-1.992290496116869147e-01,2.617708490947430189e-01,4.571187674802428824e-01,-3.184007180502681500e-01
1.395603660178543759e+00,-1.772192617979823748e+00,-4.017485693716845718e-01,1.007129005235173347e+00,2.249804967313804860e-01,-1.949292247146102719e-01,2.848070814833612574e-01,2.358241036593834439e-01,-2.977056075140362967e-01,2.777149676179952453e-01
-9.849999474113070308e-01,3.140126412539884448e+00,2.951932541321975467e+00,1.061350559197961729e+00,-8.925525277586788819e-01,-1.959896998805391810e+00,4.441230790921148475e-01,2.014151818670987470e+00,-9.399507867851818466e-01,7.353709706495736853e-02
3.917802602094851316e+00,-2.784035175891562464e+00,1.470186286527310981e+00,3.880423988238116184e+00,-9.875897355142509992e-02,-2.264399031559841902e+00,1.369724285522365026e+00,3.127520446358811768e+00,-1.412890969026632249e+00,8.508626084468681183e-01
4.511312428264578678e+00,2.332055581770444974e-01,3.820690540271892477e+00,2.185046015672510666e+00,-7.863997998976977044e-01,-2.493192945593675436e+00,1.773204384896174268e+00,7.222978941356525517e+00,4.393000680894532106e-01,1.434702909088246825e-01
-1.549773927005881902e-02,2.119299625044824276e-01,9.770004152341221770e-02,-1.907202914973375185e-01,-3.385805568983298042e-02,4.559343331412239048e-02,-1.422977230969943441e-03,1.965701165360761449e-01,1.580000902478036762e-01,-6.233535446417816372e-02
6.850981146635962915e+00,-2.130177003223383991e+00,4.882202287667150031e-01,-2.655883444476109467e+00,2.090898966993015584e-01,1.572669793410176542e+00,1.197426389097750343e+00,7.871828294602092768e+00,4.930733448458926027e+00,-1.014239403838772091e+00
7.630237758058533437e-01,9.386857494231024557e-01,-3.235619612405593593e-03,-2.661417554871934321e+00,-1.600893948875553585e-02,1.345458930173118128e+00,-8.107675793040958201e-02,2.015148307544978756e+00,2.452377344914157931e+00,-7.806684515891418874e-01
