1.104734359974211877e+00,1.054037379684611642e+00,-2.532058604276393066e+00,2.201988774150785422e-01,2.784216921196549954e+00,4.493456198199912599e+00,2.309912905380834935e+00,7.008046971963798333e-01,2.398281185811743654e+00,1.089105753221399686e+00
-3.112434887660590288e+00,2.439481689538711251e+00,8.331086782931361734e-01,1.937142587543809302e+00,1.120009823768428614e+00,1.471840193974297550e+00,-3.420474708633084449e-01,1.050537490016974385e+00,1.100667702441680884e+00,1.112000534461395240e+00
4.490136686112656150e+00,-3.251492297788306285e+00,-1.425859775349586744e+00,-3.275625597365462216e+00,-1.125435242250850676e+00,-1.103604923005884197e+00,1.116040213077312826e+00,-1.394459373341946806e+00,-7.215994454253182866e-01,-1.472758659214490340e+00
-1.482125243729667918e+00,2.627961632642832335e+00,-1.267302085701466741e+00,1.312218614677624684e+00,2.986576127604307906e+00,4.691530716378103705e+00,1.667046817086314414e+00,1.305939819083251630e+00,2.892527586065445355e+00,1.625029942897661783e+00
1.930737160579020228e+00,-1.521462500827055697e+00,-5.434053241949163837e-01,-9.559829639431629555e-01,-7.274312258143115217e-01,-1.065839424703626470e+00,7.254515473941963721e-02,-6.444762027885736488e-01,-8.906525508458157381e-01,-6.651148545146468027e-01
-2.552556496511301010e+00,1.734844027600246363e+00,9.807403626466182356e-01,1.546780249347073477e+00,4.716086249926076945e-01,4.684985172697083144e-01,-6.272683956700918495e-01,7.168639364310651629e-01,4.507418426607904816e-01,7.169477423971336583e-01
-2.514350303488054106e+00,1.239489304385716917e+00,1.493503700500379061e+00,1.435068459897793858e+00,-3.235478855079800264e-01,-8.350678784556301304e-01,-1.222582461384032593e+00,4.499299361965617416e-01,-3.426113723172429792e-01,3.600262360802176098e-01
1.620907069106828802e+00,-2.296175472376772220e+00,7.379743090416325257e-01,-1.335304850544567934e+00,-2.295300728265348589e+00,-3.529784982137361471e+00,-1.073873103558186992e+00,-1.113248822976790287e+00,-2.187731920880287007e+00,-1.352148242395389000e+00
1.182139366205207931e-01,-4.616520616722179504e-01,2.908800955960232359e-01,4.930507687701500830e-01,-7.107832930126126714e-01,-1.410283707775314310e+00,-7.946242003881208715e-01,-2.112816746781352728e-01,-1.159874196598949192e+00,-2.353140798863004868e-01
-1.600636470357163388e+00,8.675713038944148359e-01,9.910600268392972811e-01,4.068627958332221572e-02,-6.202730261682333837e-03,1.528344367517443514e-01,-2.136037714739730808e-01,2.873849121288941655e-01,6.106460606079127107e-01,1.767793522261931760e-01
