3.579540459424843113e-01,-1.459791929863914484e-01,-2.208102721680143266e-01,2.032456563199493971e+00,-7.767239954863718321e-01,-8.052292259262125995e-01,2.562958917476274578e+00,-3.940635598930042893e-01,2.513180792602773828e+00,-7.759781811775019467e-01
2.563304725635396686e+00,-6.713116076601953752e-01,-4.778557575661995793e-01,1.714472721197590754e+00,1.493667890773216378e+00,-2.067405539390320790e+00,2.003058529355130624e-01,-2.615214532440554684e+00,3.363832705342558960e+00,1.986279873536360430e-01
-4.225621660850953365e-01,9.312100718475169181e-02,-3.716687636953681928e-02,-1.920574220297447177e+00,-1.379594082565280821e+00,1.086603607776291947e+00,-1.643836678463532541e+00,9.695192060394227651e-01,-3.397890048324929246e+00,1.012052513296278322e+00
-5.191307929482689154e-01,2.041250998720602894e-01,3.618857267566487623e-01,-4.527368283382404157e-01,1.783752361420585020e+00,1.758473476685479264e-01,-8.928490210750719136e-01,2.060808887594167693e-02,1.726890481898740726e-01,-3.027423892814555262e-01
-2.064482204463940818e+00,4.624340059857181551e-01,1.762665213871351111e-01,2.079559111496884771e+00,-2.401409307996297926e+00,5.735143561130886525e-01,4.487213063385255829e+00,1.873536500825658146e+00,1.572135698798013514e+00,-1.818471751183558860e+00
8.534288329114906313e-01,-2.549473756516086320e-01,-2.790364485134499417e-01,7.009237313748453158e-01,-4.357406549085507397e-01,-6.097363520029034367e-01,5.492904883056071164e-01,-6.558618008195663540e-01,8.544238465303798380e-01,1.394109332771713838e-01
4.590143419217260767e-01,6.032494116821496277e-03,3.066014077473387389e-01,-3.336629932462150006e+00,2.896050577842590013e+00,5.950424065013907304e-01,-5.332610417117135349e+00,-5.673760548348356636e-01,-3.249282896755765648e+00,1.573134403406398096e+00
-6.354018597977817429e-01,1.121382064405667123e-01,-7.919850212609752527e-02,1.267838981036125967e-01,-1.863585843834392630e+00,5.138576962714979102e-01,1.143000156704526926e+00,9.390689268832449477e-01,-7.766343327109506145e-01,-1.147785700080380944e-01
-5.160036389338045204e-01,1.379552379823694996e-01,9.414477844313788590e-02,-8.034493806482456701e-01,-3.770521760266590805e-01,5.924247058092029228e-01,-5.745110554217645049e-01,6.164799619647376439e-01,-1.357126109620474308e+00,2.155887425959616965e-01
-1.558404396487622634e+00,3.343150130459433544e-01,4.278128950351964971e-02,4.452777436521324628e-01,-2.675419804356802711e+00,9.563337800468845185e-01,2.310675596297829593e+00,1.805196875114436939e+00,-8.059494007217781197e-01,-6.424884201066548561e-01
