-5.368609182171939498e-01,1.388654923842042033e-02,4.423140066906457862e-02,-5.691334842469817357e-01,5.809104600973720167e-01,6.056758944065039341e-01,5.831562527581966027e-01,8.730931625597281309e-01,2.840019890663191271e-01,7.310143848692637336e-01
2.400478768028941001e+00,-9.567227967210556461e-02,1.579887150472618351e-01,1.197277761796518236e+00,-3.939607863381824893e-01,-2.231169185890994999e+00,-8.389585288592468215e-01,-1.899111930976817852e+00,-1.431211640604808100e+00,-2.532762216080513440e+00
-5.575041779707867740e-01,-2.104611637029990767e+00,-1.051147888595326679e-01,6.576546081787845166e-01,1.253183811022576366e+00,2.723671489221625830e+00,1.722793829772203633e+00,6.196854194018439621e-01,3.217249021762283334e+00,1.115545597280171108e+00
4.378130583694520794e+00,-6.971096543650623367e-01,5.055126372069980167e-01,1.519602374821699797e+00,1.000919683181817232e+00,-3.237208512397850235e+00,-9.927273194845182003e-03,-2.106041007101672413e+00,-2.037218397104868739e+00,-4.012391399719770213e+00
-4.173551352390314051e+00,7.273914129243053139e-01,2.475301544779776319e-01,-4.253161671455064408e+00,3.465776454618719971e+00,3.922117819829326724e+00,3.520146506152052268e+00,6.083197118537075454e+00,1.435020519965680919e+00,5.292307364233225897e+00
-9.120208767634687685e-01,-3.194062509149286022e+00,-1.673152461324223794e-01,9.792079487587674880e-01,1.893545945976232714e+00,4.193409125570022766e+00,2.623078314469819095e+00,9.739665722363759492e-01,4.927476318594839810e+00,1.756357199584610340e+00
2.496333610493494781e+00,-1.599623537586364996e+00,7.601033177643486127e-02,2.057887441055806121e+00,1.645850630233288980e-01,-8.142508246461899191e-01,9.591640027219544562e-03,-2.073512954079645088e+00,5.696370496640144054e-01,-2.343566157831780128e+00
3.409329789570870517e+00,-2.769433636536993593e+00,8.309247142012030074e-02,3.075075992871673325e+00,5.325215459160286269e-01,-5.080120382275635782e-01,4.238975328677558330e-01,-2.793442798187485199e+00,1.572267945566120595e+00,-3.059587003514157910e+00
9.051497852113687959e-01,1.710228645661101110e+00,1.713202602161598420e-01,-5.289761053796548929e-01,-7.621258281949248037e-01,-2.583340661082401457e+00,-1.299282822000197513e+00,-5.510217181878783732e-01,-2.940588664637949989e+00,-1.274714880137683526e+00
4.355998896551947830e+00,-3.784985584864617003e+00,3.136991015147245765e-01,3.214847515647266007e+00,2.134478581843263001e+00,-1.263948629932930556e-01,1.772028558131719000e+00,-2.339583666272788687e+00,2.218352871216753730e+00,-3.408727480873172233e+00
