1.230557634710061077e-01,-1.537584570855700994e+00,-5.857985363584506944e-01,-5.044663768042420005e-01,-7.055877711704529043e-01,-9.806296795953721723e-01,8.183780620581433407e-01,7.716556506545370064e-01,-3.776667862111391383e-01,1.905279370683331808e-01
3.008769519741319343e+00,-8.393885862329688585e-01,-3.285488106096213556e+00,-2.962140986285341615e+00,3.899030579351420722e-01,2.276130876932887848e+00,-5.342946258294118067e+00,3.599628268237077044e+00,-3.837307439643051765e+00,1.059124229704643261e+00
5.876494789751183223e-01,-1.617383667466029351e+00,-9.436905403978965712e-01,-7.356174369285962689e-01,2.822100672976547986e-01,-2.832547156010759792e+00,-1.783372159573032967e+00,-4.114399497588163701e-01,-1.487981054243887602e-01,-2.305081675534903229e-01
-1.064888181229692865e+00,-1.099022101581963173e-01,1.117507510483230826e+00,1.066720731865954619e+00,1.834296561603991904e-01,-2.376638111477846316e+00,1.175367237877851911e+00,-2.087528945721567997e+00,1.763909668652888341e+00,-6.665018663704734836e-01
2.562333562472616233e-01,3.133424321475406504e+00,6.868112486615800538e-01,5.716025464815411850e-01,1.599598694865194126e+00,2.413380356566142027e+00,-2.719838325147144076e+00,-1.078151522969274634e+00,1.690980268636347872e-01,-2.416767777991583876e-01
9.253554860740524912e-01,-1.776868137484221677e+00,-1.497748004376951547e+00,-1.347850915068768751e+00,-8.188426787140870022e-01,1.350806004352635425e-01,-1.911568356669649249e-01,2.136847306912939448e+00,-1.592172291523602734e+00,6.090482289428384988e-01
-5.242325257296300833e-01,-8.855441796014644484e-02,5.265061584194742350e-01,4.952538791903701165e-01,-1.551203043549548820e-02,-9.734075209143355778e-01,7.745155296388732680e-01,-8.436087429339358401e-01,7.828693172435806646e-01,-2.674678532899182337e-01
-6.046159497237741931e-01,1.679263760702167207e+00,1.046701251928009668e+00,8.738011066836333107e-01,1.954452985350209893e-01,1.739602929144076437e+00,9.017732641473752420e-01,-4.928229843099561358e-01,5.863960733070727738e-01,-7.128524326185942117e-02
-1.448891573763531948e+00,1.116902367486096948e+00,1.874394501241817057e+00,1.732392546376373410e+00,6.800260510751636733e-01,-1.889530860162537129e+00,1.067730646963729768e+00,-3.029032235677358020e+00,2.426110584354215671e+00,-9.170554762273253058e-01
1.644711017571306222e+00,-1.483656205434031872e+00,-1.996961782426686760e+00,-1.710999565710853654e+00,4.387276979907416830e-01,-1.265401614082583004e+00,-3.597140768201665839e+00,1.029192452761266141e+00,-1.601749458694407435e+00,2.190602858146367404e-01
