2.760259240252491253e+00,4.237398671429603025e-01,2.829922212283733085e-01,3.651721845004084477e-01,-2.214712588900762391e+00,-1.038987484972625053e+00,-1.184850203210077613e+00,-9.271617440739410299e-01,-1.236873328136151251e+00,-7.747345045512154908e-03
-1.722320067263084509e+00,-1.282626378441285020e-01,-4.541704419974159079e-01,-4.378736446220857226e-01,7.654010229137572230e-01,8.167317537952205331e-02,1.289591749756108907e+00,7.363675133853728738e-01,7.134926456828838415e-01,2.232136028060295541e+00
1.898224396937832514e+00,-2.170726082043717697e-01,1.206308931990034861e+00,9.627562948948468202e-01,-1.314160644166645353e+00,-1.244834863486862925e-01,-2.577587546085577386e-01,-6.407001101225804351e-01,-1.730598565942353284e+00,-5.441616948749065669e-04
-1.519039448605418396e+00,7.361603612388951667e-01,-2.095646734130262256e+00,-1.590141696477787914e+00,-1.154736873191503504e-01,-1.235396669556110938e+00,7.579688682741007044e-01,7.783221170772491870e-01,1.867577858158073312e+00,3.716388815712919236e+00
-2.345814201122665921e+00,3.823183026174928334e-01,-1.716814790004379754e+00,-1.346857329290036098e+00,1.650323890358323498e+00,7.480673097861431642e-02,1.023094191794453739e-01,7.719778809013135845e-01,2.374414469080087908e+00,-2.912079324753767962e-01
5.504803569721949508e+00,7.772766125230052836e-01,6.994129436770820663e-01,8.236026471411480587e-01,-4.375663478259975037e+00,-1.983699429612601595e+00,-2.305284782635969698e+00,-1.853183382286919922e+00,-2.577053413762146583e+00,-6.769834727890787496e-02
3.348440686936121624e-01,-9.769491905714285940e-01,2.087695997630007572e+00,1.504660837682172181e+00,7.623539469402847990e-01,1.510856507593250520e+00,2.236027438770546993e-01,-2.891810699659371764e-01,-1.610740019922863642e+00,-2.410532015917058679e+00
1.917522479186420048e+00,-2.275571648618047504e+00,5.318099390888020750e+00,3.874183363312191819e+00,2.019654343682207587e-01,2.759470157448062011e+00,1.138075076589474044e+00,-8.515095714741502952e-01,-4.947973102326889361e+00,-2.703283304006499854e+00
-1.960984611304250835e+00,-1.622839693205929246e+00,2.427846368194411575e+00,1.587466027151489545e+00,2.030193194148965929e+00,2.209055501643504282e+00,2.397446277126813907e+00,6.748025906213641623e-01,-1.454082758382825968e+00,3.607711487453202914e-01
2.506748536350801526e+00,-1.091489739235137257e+00,3.196791201473258237e+00,2.404833570531643705e+00,-1.201679738879049664e+00,9.175914231919130026e-01,2.878984258919095596e-01,-9.078841319952449807e-01,-3.571782393816910428e+00,-8.006774910335900941e-01
