-8.643970168729674386e-01,1.429726172011129004e-01,-5.576574040501844909e-01,1.500911754872960913e+00,1.992223753123370800e-01,-2.254007993819534761e+00,-4.750793411987700443e-01,3.520279344698750701e-01,-3.059623071463481447e-01,-1.009239554010846529e+00
1.376922883262490904e+00,-9.475162148154656627e-01,4.577064987093026893e-02,1.402498719415308015e+00,4.781913489097042169e-02,-2.344220084700488482e-01,-8.195730723887443281e-01,-2.078382948904351046e+00,-1.588816704554369408e-01,-1.864108440496435204e+00
3.657393574829527871e+00,3.637711680785393753e-02,-1.369601981334216401e-01,2.847825598070728326e+00,-2.536992940901601212e+00,-2.386065646765293646e+00,1.009053009145602475e+00,-9.155220611671889275e-01,-5.434818296743376687e-01,-5.376929972744830533e-01
-1.079141045353702699e+00,-4.040987402431611142e-01,1.729379758101541875e-01,-1.064135613883044895e+00,1.198070547460620139e+00,1.413351765485734823e+00,-7.199235768667224811e-01,-4.171549840377035134e-01,2.479777453326955927e-01,-2.958245463693436883e-01
-5.106090433794756578e+00,-1.068262462366026844e+00,8.196991317964671953e-02,-2.803906390252191461e+00,4.514071028210414838e+00,3.031722847868814963e+00,-2.835663733033524370e+00,-6.079070710883002215e-01,6.493626498287486948e-01,-1.524783354398828283e+00
3.117095968945833295e+00,8.359966474616152832e-01,-2.409276562284245193e-01,2.315802808471560947e+00,-3.020139596792668968e+00,-2.791094639893224816e+00,1.832884968406160775e+00,6.614397257277132569e-01,-5.332211144651990420e-01,8.294930492411494161e-01
2.439168630635210722e+00,1.178957042425812674e+00,-2.627888297385640518e-02,7.974548270890221557e-01,-2.820071642297874437e+00,-1.529587910143562546e+00,2.248673045244400370e+00,1.515735833281534495e+00,-2.821027288967360436e-01,2.080391709278177181e+00
-1.543255612458010795e+00,-1.123608440873302472e+00,3.972171176075861565e-02,-3.160575930294565739e-01,2.171947119365331691e+00,1.157094441366597781e+00,-1.905251481881412357e+00,-1.643853682159996721e+00,1.851910590847848093e-01,-2.006039194910473888e+00
9.803987203798792960e-01,1.167025416596975118e+00,9.181807055209372237e-01,-3.787152168225550231e+00,-1.435694805132408769e+00,3.622756460061794304e+00,2.508825881467710683e+00,2.098871392387914980e+00,5.962148081556338797e-01,4.465138807712117242e+00
-4.888245548309702038e-01,7.528100791453637246e-03,-3.763514355558939539e-01,1.138994967558682347e+00,1.603321079207818134e-01,-1.547034214573938193e+00,-4.108443174178879054e-01,5.042514501883226669e-02,-2.203947383476564659e-01,-8.639661790245318773e-01
