2.023485118553922657e+00,2.133685191981392393e+00,-3.504601794187052644e+00,-2.151734139990753858e-01,-2.263740057709440645e+00,-2.992576154131796784e+00,1.811950533641303318e+00,6.229688211730184388e-01,-5.238987652488908964e-01,-9.330047986478436917e-01
2.023083850602683142e+00,1.932662697348193959e+00,-2.583532241563811560e+00,8.987524483292874677e-02,-2.847181918362071240e+00,-3.290603432256068217e+00,1.310734384668170049e+00,8.499458745684707051e-01,-1.423123504560261487e+00,-5.874167503777096844e-01
-2.362969928253173535e+00,-4.610581644019954295e-01,3.142805212647885593e+00,-1.051439463405540398e+00,3.184190465430175809e+00,3.472073499027867438e+00,-2.038112975957443229e+00,-2.649756206466700181e-01,1.728140596377498728e+00,1.290852387592992256e+00
1.394961792248052612e+00,2.273157645539643834e+00,-1.747813076807008592e+00,-4.404201000119123410e-01,-2.016671395177048076e+00,-2.451751460598618593e+00,6.573073213268654236e-01,9.565601751988267454e-01,-9.162276734266050493e-01,-1.025243990727475740e-01
-1.156178179507683090e+00,2.639746534351047558e+00,2.745450910496415542e+00,-1.809188533463791382e+00,6.856506232104331300e-01,7.395980996484476933e-01,-2.407635363827764774e+00,1.363891803732131480e+00,-1.149315473630133089e-02,2.041714543930440051e+00
9.197517150229685967e-01,-4.664228988223608624e-02,-1.417492865008744385e+00,4.903269789943497381e-01,-1.107088232756277657e+00,-1.239761108344860085e+00,9.636112075384883902e-01,-4.735805512294462977e-02,-5.106090711311892516e-01,-6.574263543922113096e-01
6.299506083766760467e-01,2.229202991868824146e-01,-2.716831778972128131e+00,-1.746846935605746720e-01,3.536588023846961026e-01,-2.598462874419237845e-01,1.640383074287727005e+00,-5.112764575593500282e-01,1.343347181971721316e+00,-1.143955824247143038e+00
4.808977619426668682e-01,-8.805411940631671097e-01,-1.639847526277345979e+00,5.285026192870632133e-01,2.699456733899040575e-02,-1.658278328596580198e-01,1.246164580699423485e+00,-6.485351497465130510e-01,5.025515583766920757e-01,-1.002775182875252913e+00
1.019469238295504621e+00,-1.765338380227364556e+00,-1.068913687525341327e+00,1.579020951309151100e+00,-1.491316431648083585e+00,-1.246197266856786223e+00,1.180955947948184592e+00,-5.415747540866333587e-01,-1.222380062787464139e+00,-1.030851182693066637e+00
-1.899741455391966261e+00,8.417969447882324152e-01,4.237143777155444546e+00,-1.137337610440635416e+00,1.421062403939117980e+00,1.948947659995157178e+00,-2.951017219921483914e+00,8.148092049422827055e-01,-1.182845593347564284e-01,2.164560656074213885e+00
