9.647122832200298870e-01,4.398252937922527694e-01,1.113920585725347356e+00,-1.450857350010253954e+00,-2.685400145273411088e-01,6.187969051851630042e-02,1.366483805386745909e-01,5.390659117055432992e-01,2.151110371126569165e-01,3.720205069225969718e-01
1.013914289061564666e+00,1.408954479404648907e+00,1.892158381201606288e+00,-3.068237684919971286e+00,2.173884019832432180e-01,-1.008934774867835227e+00,1.039035366494245771e+00,5.742616255380537105e-01,8.658037564137424091e-01,5.451846702305715997e-01
-4.543183631868762618e+00,1.686202221191456907e+00,-1.593789539753231566e+00,3.211795696739074835e-01,2.395423968127401881e+00,-1.421584282571334290e+00,2.064376652902002895e+00,-1.026055435635701008e+00,-3.625226283277976913e-01,4.466132769638203603e-02
-7.135351225324607638e-01,-1.086437512486047030e+00,-1.187921815856398666e+00,2.208344658313400100e+00,-4.364661236906099973e-01,1.675532914269463935e+00,-1.052668880868179890e+00,9.581520017923894628e-04,-1.190626767139133291e+00,-7.470249466062350852e-02
-4.270890193171689830e+00,1.178692215892432893e+00,-1.680397078642601461e+00,9.021609125126539563e-01,1.899461691491578730e+00,-3.684874203936945869e-01,1.419332401403610611e+00,-7.280885972019633945e-01,-9.210016774861335964e-01,1.674498712973616632e-01
1.311407384308303170e+00,7.113737397315481603e-01,1.957966298793993642e+00,-2.331961938019050606e+00,-6.912032064179975954e-01,1.374282890619396902e+00,-9.014302498442555711e-02,1.405026195474795125e+00,-4.863582128744972088e-01,1.060805331513734906e+00
2.796909998536131869e+00,-1.456344495103043313e+00,-1.850947929559954019e-02,8.171440527119553376e-01,-9.595878784134737050e-01,-1.354905990824282425e+00,-9.360136326554154840e-01,-6.513159337110230318e-01,1.571129967426453167e+00,-1.118442459987230686e+00
2.323934291467859570e+00,-8.809366334101118579e-01,5.920312044310293009e-01,-3.198547434589615879e-02,-1.008962148765577993e+00,-8.283216631234566196e-02,-8.489666193715825759e-01,1.315929520273682041e-01,6.739411887949695590e-01,-3.400698510781750006e-01
2.275482644448740377e+00,-1.594821114120378081e+00,2.411470977996989784e-01,1.055142416963380514e+00,-1.611536389983690531e+00,1.621264400152380825e+00,-1.759287905244576455e+00,5.352961325889545874e-01,-3.604561290894872094e-01,-1.225907253077082870e-01
1.204484655865222020e+00,-5.245503068352659337e-01,4.539235975264505063e-01,-3.018875990755509608e-03,-7.737107758799133261e-01,8.240325739427091234e-01,-7.176357521455763999e-01,4.413482787236572280e-01,-1.728352325275918644e-01,1.113856734131880993e-01
