1.395184207439387758e-01,3.279818723358915444e-02,-8.195643733537701925e-01,-1.726828219727209124e+00,-1.111482886813432991e-01,-4.550787236741689057e-01,9.002667468047632626e-01,-7.525833723700475764e-02,8.015413553534302959e-01,-4.174326388617437544e-01
-2.615540637130584489e+00,1.396672469101734704e+00,3.390142413914654651e-01,1.740726357439739136e+00,2.838965091681140418e-01,3.558661172623791003e-01,-1.597944061521066050e+00,1.144370263925904851e-02,-2.651144299579491825e+00,-2.325265453013943162e+00
1.511425848321446885e+00,-5.169457032932150975e-01,-9.681629734400163390e-01,-2.649071166909024555e+00,-5.408671048226070255e-01,-4.713529998627883355e-01,1.297885007006750246e+00,-3.334747516881319540e-01,2.753187464089014824e+00,1.261545992840626518e+00
1.007185723915494879e+00,-1.483806878754298841e+00,2.409459444717922949e+00,4.731106184623767419e+00,1.117389740678478960e+00,7.437772159421056628e-01,-6.346721499856030624e-01,1.059317792741309550e+00,-2.969627002766479063e+00,1.185132012448040673e+00
-9.682254664194249738e-01,-1.405374254969473657e-01,2.248995319032756068e+00,5.111001121788023127e+00,9.277185383132110497e-01,9.783805459918966108e-01,-1.929792477231401460e+00,7.115666894998631253e-01,-3.899916268578806910e+00,-3.047919716793576761e-01
1.383754580967117009e+00,-1.567111624944007797e+00,9.258054463915148524e-01,1.582641543315058019e+00,1.017777398783399789e+00,-1.496490324913340997e-01,1.217964655826812015e+00,1.025476793150798649e+00,-1.638987124114011706e+00,3.756306700307037172e-01
2.638005684408737950e-01,4.852894782864950463e-01,-1.927260933182585845e+00,-4.172202921108246088e+00,-8.228126215079416550e-01,-7.576163682870373783e-01,1.266324157426651720e+00,-6.862659480241258825e-01,2.994375781524308611e+00,-1.670856932021106411e-01
-8.653928047748862817e-02,-9.553060109649602616e-01,-8.090530988427784287e-01,-1.205456519584011676e+00,1.603008999233885401e+00,-1.353858078857981262e+00,3.225991248646327580e+00,1.441054554677518862e+00,-2.894126800499128738e+00,-3.246984496192424352e+00
-9.830077463581539110e-01,9.859886439415186388e-01,-3.483362024002915058e-01,-4.620123227345064310e-01,-5.552541301827735865e-01,2.036051168028241987e-01,-9.909336549909080194e-01,-5.824713840235579143e-01,6.405193619126690052e-01,-2.599539470319663370e-01
1.224140229862585860e+00,-1.453874435250823716e+00,1.515980301541428155e+00,2.811492156308845303e+00,9.446160086735854167e-01,2.681666340590973530e-01,3.120150646906112435e-01,9.369104056380053169e-01,-1.943199410359134571e+00,8.638429558613394121e-01
