-1.929790662251117395e-01,9.251618132200202516e-02,4.218978577117185047e-01,1.233271204349636052e-01,8.613080183063186179e-02,2.853429210761376233e-01,-1.611224274468879281e-01,-3.824591084692546272e-01,4.802307255475845582e-01,1.334588665521356521e-01
1.346681695128235656e-01,3.462985654289246984e+00,1.431074661818913629e+00,9.425197235130776396e-02,-5.590764047400660630e-02,4.359134586535339473e+00,-4.202738237995697901e-01,-4.298222966423128177e+00,2.413252497012469799e+00,2.008149249941062031e+00
8.052629430758939666e-01,1.145766543116639724e+00,1.481858743866311556e+00,-7.508240223467858854e-02,5.241057931253495505e-01,3.338341835072315966e+00,-9.172389897294428440e-01,-2.675541059795723875e+00,2.105228772050660169e+00,1.718923965779082241e+00
-1.544829662473348630e+00,2.735086563745197541e+00,-1.065178228909241936e-01,4.430427214516139411e-01,-8.852567276822320697e-01,3.008269726343422712e-01,8.385499923166492842e-01,-1.548165430566093237e+00,1.828625310297287143e-01,-1.822652539817987971e-01
-1.421749118246771859e+00,-6.835365451937512882e-01,8.689369544378993115e-01,6.110992527920001693e-01,7.713112009066599994e-02,-1.269027114848299886e+00,-1.246795001588132945e-01,3.919546719778393973e-01,6.364477620313665485e-01,-6.893745792199764688e-01
-1.129586640555586996e+00,2.550545518577220339e+00,3.105229884285597985e-01,3.693535937746801889e-01,-6.045400371385786231e-01,1.053261087577938016e+00,4.651290687044107308e-01,-1.953948770553330272e+00,7.019707983731199308e-01,2.598415941023927145e-01
-7.884649907008773884e-01,-2.230722618645966104e+00,1.997418997067088142e+00,5.950821502310803535e-01,8.968653122385958909e-01,-6.202684723064956218e-01,-1.108639157752777882e+00,3.904967063507510661e-01,1.741989240377996850e+00,-1.612152116803020063e-01
-1.306525496707435563e+00,4.382171957105437166e+00,-2.952268847572937283e+00,-8.090285120650921036e-02,-2.116380708101321506e+00,-1.034153495385856880e+00,2.507456914446699603e+00,-4.296634602467672703e-01,-2.764298739160796270e+00,-1.040339382355714548e+00
1.688315344771613269e+00,-2.264061638542154586e+00,9.788708574716624700e-01,-3.735528459856333749e-01,1.147928764006725721e+00,1.127466133025597728e+00,-1.302582324482291831e+00,2.873829615862537601e-01,9.589358981084266098e-01,9.087902816285845509e-01
4.843931769178582564e-02,-1.310979308415038513e+00,-8.849686211123943824e-01,-1.183947334114654332e-01,-7.590529538895821049e-02,-1.888198247102353289e+00,3.161797858507496839e-01,1.899491155646361840e+00,-1.298307260316092115e+00,-8.821598756027455579e-01
