-7.450251267082361739e-01,5.262934864415702574e-01,1.869251211764798581e-01,-5.773525057626771595e-01,7.024800053671486078e-01,3.580314324611030830e-01,-1.215541592842771967e+00,-1.381969470000286693e+00,-1.254482506811387676e-01,2.374341069718323372e+00
1.352562069081344326e-02,-2.585903431271439623e-01,1.628405997839453612e+00,-5.024078084446165909e-02,-1.462129007124033597e+00,-2.167911696864113669e+00,-6.512782910665726455e-01,-1.658370823124650562e+00,6.982481038160361607e-03,1.182222110273008164e+00
-1.332968117234767380e+00,5.029247224931143734e-01,1.268793466507869006e-01,-1.292943619832817026e+00,1.136326501986715698e+00,1.048212104052881566e+00,-1.255550020259146526e+00,-1.847136768748582236e+00,-4.830858393442929999e-01,3.450771447858016927e+00
6.790041068494148124e-01,7.506546743322782822e-01,9.478023675797384584e-01,1.281872206181358997e+00,-7.253460442848111978e-01,-2.202645531938925760e+00,-1.836356906607129025e+00,-1.119055148560905044e+00,8.861008064741801027e-01,5.861673394656187197e-01
1.087535499348402102e+00,-3.102684776769370698e-03,5.628562366994539490e-01,1.319711617575026308e+00,-1.189117982350486935e+00,-1.881448574669131402e+00,-1.525093833231856155e-01,3.745634606762530683e-01,6.752448098323825532e-01,-1.621007595008001845e+00
6.238077427222016302e-01,3.992719378366055838e-01,1.482419102517237741e+00,1.042786246977306597e+00,-1.337362524159103838e+00,-2.778189742535695395e+00,-1.590328227978700104e+00,-1.486846553576676611e+00,7.077544652612289822e-01,7.291546234474642896e-01
-2.571430755747429742e-01,-2.927180606263576346e-01,-2.125935879848949994e-01,-4.829916949705792550e-01,1.537137772541922187e-01,6.363930992886851490e-01,6.104291782398999500e-01,2.606662190940701174e-01,-3.275279514842800999e-01,-9.314701300999543576e-02
-2.884195093540478982e+00,-4.533168713309507769e-01,1.344000639304879785e+00,-3.621785460870643014e+00,6.154492397382895774e-01,1.240364982636086744e+00,-7.153600791621003152e-01,-3.894861396235101747e+00,-1.798302974646479591e+00,6.390067361339927032e+00
-2.287488619653884614e-01,5.227035720387346318e-01,3.264534193981319943e-01,4.160010631646040430e-02,2.373779344117425139e-01,-3.599293063559025341e-01,-1.196976392674216960e+00,-1.053554431062674990e+00,1.828864575652937308e-01,1.479487276533467011e+00
6.863415580800399374e-01,8.159205930761452841e-01,1.473885897963223446e+00,1.353858206630919492e+00,-1.103287089022971124e+00,-2.948046460013352466e+00,-2.309862956497870989e+00,-1.782132595355066185e+00,9.717047310825175366e-01,1.165146166795688831e+00
