-9.100289419437501692e-02,-1.416961473227239532e+00,-1.723530013978419539e+00,1.105508604898561176e+00,-5.871730273908453146e-01,1.095631717956515594e+00,-1.694588987121589563e+00,-1.278676817300670177e+00,1.028387435111911330e+00,3.205538921904747873e+00
-1.194826124560241620e+00,3.087844324841137578e+00,1.660359311737643395e+00,-1.335393999268968290e+00,-9.928166591534265395e-02,-4.414000106473490170e+00,3.270404495979787995e+00,1.640491281891471642e+00,-5.574605880258826085e-02,-2.091004368999280771e+00
-9.949392207648175557e-01,8.894171181920462743e-02,-4.805202952888556478e-01,1.009782710669113071e+00,-6.338231652277013239e-01,-1.609710067403391065e+00,1.262810902228079346e+00,5.879560243493570093e-01,6.151904713757797571e-01,7.186049852007809768e-01
-5.570476628609924985e-01,-5.804279865772252744e-01,-1.407006300184983294e+00,8.806121909359226896e-01,-7.267614207427789408e-01,-3.147681736729486257e-01,-7.229934437894915966e-01,-8.339597414271485709e-01,1.158087229381747019e+00,2.910223000010615735e+00
-6.321310278088465573e-03,2.008898677749228590e+00,1.519356243927173722e+00,-1.705154440552524520e+00,4.471342743992965385e-01,-1.683017568947204223e+00,1.213603095230837425e+00,6.551109955589471401e-01,-5.459857315169036607e-01,-2.028175273949534230e+00
6.014672732795871557e-01,-1.684000401502114386e+00,-8.691983946959954688e-01,8.044714381788804491e-01,4.348917411287389623e-02,2.323878768675773809e+00,-1.620782501873357484e+00,-7.736637432970464578e-01,5.693430475557093029e-04,1.000071725164222158e+00
5.889132906137271029e-01,1.578225590105501785e+00,1.212288997519520795e+00,-2.091211959198576498e+00,6.339442452184012033e-01,-3.768401714829939242e-01,-2.597499046186976801e-01,-2.669161798215387016e-01,-5.112090064334294803e-01,-1.202515476224563340e+00
1.974768313970526545e+00,-3.886379786219879007e-01,2.116484779961454787e+00,-1.378747651003309871e+00,1.672078793855493295e+00,3.248258988228339916e+00,-5.254891647042991831e-01,6.861510851656840160e-01,-2.448123970166143692e+00,-4.960297616584425029e+00
3.754076199344792419e-01,-1.368377745597793016e+00,-1.272480998821278853e+00,6.080743606955094638e-01,-2.148747015762357826e-01,1.760372543871049356e+00,-1.981726690720192474e+00,-1.296521884252436863e+00,5.624848838292796360e-01,2.331612339568814640e+00
-7.274413098843348635e-01,1.336784850736630892e+00,1.339374876195356667e-01,-5.064157710859670258e-01,-3.447428679195863044e-01,-2.191569148318667004e+00,9.240480174945541192e-01,1.471018807836756981e-01,5.664814299654166163e-01,5.942700125423203694e-01
