8.176566205300523915e-01,-1.296164862781468141e-01,-5.110291357555489800e-01,2.373604921420731095e-01,1.836742609105752599e-01,-4.651464484604713179e-01,1.408778103339212717e-01,-1.672814851363787492e+00,-5.821388113855412438e-01,1.039993372897697999e+00
-7.679745748509972936e-01,-6.475721220229940789e-02,2.572544905324973818e-01,1.830245566572653304e-01,4.874352195692950307e-01,-4.560772389090655965e-02,2.056049147765647289e-01,1.286230179117524575e-01,-5.701615009775669041e-01,-1.770007516242137757e-01
-2.376583243055344852e+00,-8.945100681505172013e-02,1.068606680525022945e+00,-1.611862326851359883e-01,8.798386299968478097e-01,8.434703255414501832e-01,2.132890581683427600e-01,2.179238155043943692e+00,2.504112857716522811e-01,-2.019349107619564876e+00
8.601593851326126972e-01,-1.221380601442221270e+00,-1.290898131923964298e+00,7.281796658404761091e-01,3.118384901713963764e+00,-5.935225688891401230e-01,1.254219551237601760e+00,-6.575922058341835630e+00,-1.878271460519733704e+00,1.888799187350616027e+00
-3.757468873153865241e-01,-5.423597441672415309e-01,4.829281762981491033e-02,-6.468465088115136208e-01,1.148393867532827350e+00,1.308663307058283376e+00,1.820697539322969072e-01,-3.777906294638535556e-01,1.796713988426871911e+00,-1.682547588914358849e+00
2.809386445677886535e+00,8.099857110923864845e-01,-9.945488705957650222e-01,6.447249483069741327e-01,-2.567390772064650939e+00,-2.026960043176873505e+00,-6.208035986355755487e-01,-9.023696014266567866e-01,-1.598980446975640790e+00,3.437979286335529849e+00
4.041162583799371433e-01,-3.242300478788368023e-02,-2.798074579387958005e-01,2.741841434083971407e-01,8.841686747506977140e-02,-4.720094790721811595e-01,1.153780252487558167e-01,-1.010721548490702615e+00,-7.253794074032380301e-01,8.407922709322204202e-01
3.455282633243934143e+00,-1.371962786260625400e-01,-1.457508589479517225e+00,-6.256890662736978026e-01,-1.033455721078539113e+00,1.514262384910713966e-01,-4.842018286895135581e-01,-2.497634160607032250e+00,2.040871483355211513e+00,1.128277406633479973e+00
-1.265101461098501190e+00,-6.022378478401340107e-01,4.442293762106881427e-01,-7.454416067780385013e-01,1.524591267530028826e+00,1.693410115973425167e+00,2.660061800176339863e-01,4.153105395409466549e-01,1.998304155530768789e+00,-2.521150505320644442e+00
-2.451251921111126553e+00,6.435676635176489357e-01,1.659047085517614484e+00,-6.504415749151066795e-01,-1.153800119647682809e+00,1.169826724255133232e+00,-6.029976352027328623e-01,5.817128802297929724e+00,1.560427574704251752e+00,-2.948940583632280621e+00
