2.759506684851869007e+00,1.901078542684748962e+00,-6.714370912690735826e-01,3.631180911290774915e+00,7.968581841373464369e-01,-3.124879780898373594e-01,2.559659464782871652e+00,-2.531650459854082880e-01,6.533401057507877141e-01,-1.278837398866544461e+00
2.615895074890853600e+00,1.432141969472988219e+00,-1.689958030710294601e+00,4.975332681363072496e+00,5.493550074621327717e+00,-4.236096918163087532e-01,3.269627232656288740e+00,9.468813679932809313e-01,-7.732587571716392771e-01,-1.284110775774410351e+00
-3.104240888336874171e+00,-1.269365078149593540e+00,1.306506653412621732e+00,-4.070671272775904015e+00,-2.323951008340994218e+00,-7.469234704827028004e-01,-3.556888723605629465e+00,4.678294234364633458e-02,2.862850251980060823e-01,7.422139956535923622e-01
-6.548230004498166723e-01,-1.433370509087616318e+00,-2.475295404346264661e-01,-1.283680902222855025e+00,3.344621655929619353e-01,1.472412853081380035e+00,1.180734869382032634e-02,4.266244403220104814e-02,-1.056401520993118348e+00,1.187563062304886286e+00
4.296663096026469120e+00,1.295667450839287804e+00,-1.958417207732716214e+00,5.359017158930083902e+00,3.255563429077680926e+00,1.720313414326863910e+00,5.186185759701368525e+00,-1.273225435581743226e-01,-7.715696887073670851e-01,-5.936668886574977266e-01
1.385180236583624103e+00,1.691436057408797433e+00,1.964783150979856063e-01,1.710543247251539389e+00,-1.143926701863906104e+00,-1.040429842264354088e+00,6.655603680117618826e-01,-4.165144570488131803e-01,1.271334545192575494e+00,-1.202811549960280280e+00
3.749405167494609170e+00,2.728574430254813721e-01,-1.677706568879137494e+00,3.581278365837525346e+00,1.348104785502952208e+00,3.003163802114487080e+00,4.804452012891877288e+00,-6.388059352872860197e-01,-1.008227492953814641e+00,4.278730065296295626e-01
-3.573024399550159380e+00,-3.045869920580234425e+00,7.422946430724126632e-01,-5.168808842758537025e+00,-1.300190094367410953e+00,1.319966710061335258e+00,-3.023781390265609659e+00,1.650398412274038940e-01,-1.247696946531976936e+00,2.233497975768634181e+00
-2.060139835499920913e-01,1.379541284731421902e+00,8.370260975875879472e-01,8.806700058054925395e-02,-1.660849013742260460e+00,-2.028673451068351508e+00,-1.256387014377024602e+00,-1.618550660955468956e-01,1.530701476308581332e+00,-1.203493914772511886e+00
1.943235354275390847e+00,2.263956225067769612e+00,8.867851819500469079e-02,2.619498652102375758e+00,-8.312372289055313113e-01,-1.407607426260678141e+00,1.098463798157562454e+00,-3.982058489767726361e-01,1.517648714804868515e+00,-1.653151484028432483e+00
