-6.634910362555228591e-01,-2.815831972669261773e+00,-1.779354184756916021e-02,-2.547217618303572184e-01,9.590338793223515124e-01,7.521122527986339179e-01,-5.926648132436173055e-01,1.951960781127894284e+00,-1.821572235140991092e+00,2.064463498556911303e-01
-1.170051680501237756e+00,-9.802605129825491259e-01,4.504483180471855613e-02,-1.401377411330647416e+00,2.559164109469910242e-01,5.357817985405215477e-01,-2.744594990205119767e-01,1.099156664547287221e+00,-3.688980767582584197e-01,3.228188073007757786e-01
-1.204060275125070634e+00,-1.466259920026244723e+00,-6.039052608852937265e-01,-3.270692851536648460e-01,3.943116237536836710e-01,7.049225081053429875e-02,1.288566333466146574e+00,5.462405741933533676e-01,-3.706054428689956048e-01,-4.024667145105595076e-03
-8.196771859383309433e-01,2.063229405945334882e+00,1.739154398298635995e-01,-1.779261525503770702e+00,-8.063730325650665387e-01,-9.028019660971310645e-02,1.076525580582033681e-01,-7.274337212606135639e-01,1.656671137726334786e+00,2.453291021656736071e-01
-2.339961702514786468e-01,1.473677624028255639e+00,9.182135627598159155e-01,-2.054453065861825856e+00,-5.039240444404489150e-01,5.575835610804215081e-01,-2.001215150409232812e+00,4.057284198806631603e-01,6.588231965244342181e-01,5.135202336430018111e-01
-1.920312318859083378e+00,2.173261888765625649e+00,8.077732397801563602e-01,-4.240405031235646938e+00,-9.072245235456518619e-01,7.184017662081114697e-01,-1.429856900179927948e+00,4.606453713911690118e-01,1.747110371839044607e+00,8.421792700705819090e-01
-1.028917704338413897e+00,9.328599132063616350e-01,-1.969571834805819988e-01,-1.236310413527899721e+00,-4.356520154434080916e-01,-1.263518736644026474e-01,8.067605521668624879e-01,-4.493591117523595413e-01,1.097862307041663099e+00,1.212702868555075031e-01
8.229858157613357816e-01,2.631866165721382878e+00,1.062379658238012281e+00,-1.135268845087690437e+00,-8.238374426036265685e-01,1.795570433473692995e-01,-2.165240067774540922e+00,-5.084161842367685979e-01,1.092674619176006390e+00,3.145520333885509223e-01
-8.739803262510735804e-01,-4.941549566848817410e-01,-9.190062891689644298e-01,3.970960769349030084e-01,5.496954596865101517e-02,-4.999712754325665309e-01,2.317274602300253949e+00,-5.930245123915612870e-01,3.948118526560631669e-01,-2.701094639741287162e-01
-2.553415592807576351e-01,3.075723444113475757e+00,4.776357974304808462e-01,-1.726311857169518182e+00,-1.107566663390205042e+00,-1.749761414588947850e-01,-4.707366338701864383e-01,-1.155468004953287720e+00,2.054886627730203141e+00,2.515224687783290669e-01
