-1.068858110903132763e+00,3.373090610893967473e-02,-1.148902278750608463e+00,-6.135506807552981723e-01,-5.559574767244235272e-01,1.394223491417955874e+00,2.614289166928301267e+00,1.047146002442787216e+00,7.998284721884529880e-02,6.899264189600056163e-01
1.012982665942539828e+00,-1.689333009127402585e+00,2.269156485936145273e+00,-1.180941812836124649e+00,1.316575409616574932e+00,9.871291105577170155e-01,2.143765936777298542e+00,1.538336673338863925e+00,-4.899410087310789863e-01,2.453564691676068943e-01
1.797603093148745501e-01,-8.993858963471727808e-02,1.513100413044478731e+00,7.399771048345062940e-01,-6.353197115400460726e-01,-4.169223905669887653e-01,-1.267526226192048577e+00,-1.017746691841318718e+00,8.967273129520809960e-02,2.018063162183155734e-01
-6.846250192078397190e-02,2.360365309208389828e-01,9.503853147383568567e-01,8.958223963296025882e-01,-8.736959071645870045e-01,-5.197647795993016739e-01,-1.489019641022569784e+00,-1.206958649592272614e+00,1.809098751037720443e-01,1.744432653948365108e-01
1.514030163402087625e+00,-5.076259378870717764e-01,-1.966444542027655284e+00,-1.880818058540252302e+00,3.400035316619785419e+00,-4.012427528003583155e-01,8.871484398412909922e-01,2.238985398409881977e+00,-6.147126418121422464e-01,-1.574754172321031875e+00
-7.734948796494438561e-01,-5.952071482768591520e-02,-2.567974283484478093e+00,-1.568957151504096537e+00,7.340660656347901547e-01,1.553327269936304322e+00,3.641278357642700136e+00,2.269414122991219251e+00,-1.401488014899539558e-01,1.568237261635050117e-01
-5.294096498378682014e-01,-3.538662642549140758e-01,-2.971792169262104988e+00,-2.235454411597996849e+00,1.528806896240724189e+00,1.841303566210978904e+00,4.577749824812539892e+00,3.138271996023806132e+00,-3.158234959297420708e-01,-3.318835383935967581e-02
-5.072670193612280887e-01,2.469156442589555134e-01,-2.056188437445333861e+00,-8.219809309026155919e-01,4.479705801936726406e-01,6.604868843596641836e-01,1.732745010255569040e+00,1.181397477649628991e+00,-3.706085679577917485e-02,-8.867846193210218719e-02
5.249771702253455130e-01,-6.836525885646113077e-01,2.359474651640279141e+00,3.531116845170116370e-01,-2.148327999786087961e-01,-6.977797262014279189e-02,-5.375705424175836189e-01,-5.124013841734860186e-01,-7.585591907001947021e-02,3.082008670185433230e-01
-6.942587671582066688e-01,2.368300936426790126e-01,1.878937484411858705e+00,1.431865690959161386e+00,-2.159240991753685002e+00,-5.490135092542069994e-02,-1.244940288902611103e+00,-1.787735775180714581e+00,3.794967790055047696e-01,9.315969955185825491e-01
