-1.015570329583304510e+00,-1.240821681688056843e+00,2.099444318968489709e-01,1.682705494054067996e+00,-4.656735433114312928e-01,1.581289764295072953e+00,-2.225399249334222507e+00,-7.938487375779741395e-01,-3.635451809646981225e-01,-2.177847914186842981e+00
2.110303820702251532e+00,1.997630103249215860e+00,-3.933023298774108722e-01,-3.353741581763698409e+00,4.391699022530666241e-01,-3.615919578879440266e+00,4.099765138101091111e+00,1.577180309072500952e+00,7.860912144175840055e-01,3.026324709390044720e+00
5.461401495069488909e-01,-1.285198280980794472e+00,2.992941619208602244e-01,-5.825596342449210763e-01,-1.142389680092919413e+00,-1.404300683005217820e+00,-1.439296190303011924e+00,2.402788388202382885e-03,8.759822235495492992e-02,-3.737059439976201158e+00
7.820625486202326115e-03,8.393373089161767497e-01,-1.743034648376368345e+00,7.734481549333752648e-01,-1.650183963826221678e+00,-3.027598245304589319e+00,6.241245452005695249e+00,1.245725736117527571e+00,1.282718201745049580e+00,1.330929781719234928e+00
-6.247409090724642677e-01,-3.593634030446995337e-02,1.100845035410233264e+00,2.516420161839771907e-01,1.845821878775884661e+00,3.514655774245960540e+00,-4.053756563533590374e+00,-1.091179540708576257e+00,-1.070043218160948495e+00,1.043266750399129084e+00
-1.297923718088914269e+00,3.526979954393498762e-01,-1.243709520712317218e+00,2.480661077601344466e+00,-7.934804227171490254e-01,2.820046054791468526e-01,3.366624652335612033e+00,1.526843364127008496e-01,5.114060556583952533e-01,1.546350059728895276e+00
1.025452932634709491e+00,-2.259089201582944906e+00,8.553581875270351853e-01,-1.311415248834568059e+00,-1.567800982394544240e+00,-1.916605127932388353e+00,-3.556534006183719843e+00,-1.824022151327542862e-01,-8.380076423261939578e-02,-6.468989258211451876e+00
-1.279476109098325765e+00,-1.353448161190431431e-01,-1.571109828379237405e-01,1.955071133499167280e+00,2.596502188094116370e-01,2.147922078916199684e+00,-4.843026333887484602e-01,-6.084239372641083721e-01,-2.844277560216841305e-01,7.865854656566666492e-01
4.501407730783832939e-01,-1.076286262511228387e+00,7.333594080348753153e-01,-7.621629210712626001e-01,-2.610500418656684918e-01,-1.595987687786772358e-01,-2.783453909073061006e+00,-3.284125598096925280e-01,-3.093689637293610684e-01,-2.884845876469853021e+00
3.651143547472670003e-01,1.195548995167079021e+00,-9.902924254638635349e-01,-2.826307905312978042e-01,-3.827712459249574817e-01,-1.926235350436881211e+00,4.277377312951931465e+00,9.600091378448191159e-01,7.682494019848845612e-01,2.294164161893083698e+00
