-3.023763506795011047e+00,-2.763654188869399508e+00,-9.768097313414600968e-01,8.157712982050874251e-01,9.193097859906733671e-01,-1.236527097205328829e-01,-9.592088512341356843e-02,-4.443215233126387886e+00,-1.196501194782941813e+00,4.113806172594824950e-03
-2.383748258719617041e+00,-5.191740716747056616e+00,2.999075189824152443e-01,2.065035278021401854e+00,2.366835609064867008e+00,-4.220931420019259583e+00,-6.223406007647466209e-01,-3.965954064318956362e+00,3.197590676875309512e+00,1.780843920659516133e+00
1.539154739609089440e+00,5.129336818862505476e-01,1.386381317187615814e+00,1.359566059429718976e+00,-6.604775181751687541e-01,6.717815641303288565e-01,3.941183040188175890e-02,1.515255253652341594e+00,-3.622785606897069854e-01,3.210796102773056937e-01
9.372726103040910361e-01,1.707477261852236028e+00,4.583157507084233417e-01,4.286297017546525367e-01,-1.292704231965760897e+00,2.669215323985187016e+00,3.064050725666514485e-01,1.020558769238786301e+00,-2.559199930737700246e+00,-6.666537519102304632e-01
-2.670636943792063178e+00,-5.442706170448936120e+00,7.220582934837574962e-01,3.364846716040470920e+00,1.831197448253293336e+00,-2.554844390555154998e+00,-4.907747487931340413e-01,-4.938419919362623922e+00,1.072586039746700193e+00,1.589351078596268119e+00
-1.761017784117703266e-01,-1.176460172515670699e+00,2.025517256698825097e+00,4.601127260564936705e+00,-1.439729468979978666e+00,4.120074304233290796e+00,2.702007014833531784e-01,-2.248874932101124546e+00,-5.298198848538061334e+00,-1.542174084085341790e-02
3.114623135033097068e+00,4.983506726412252341e+00,1.533037644346200434e-01,-2.071264838960102050e+00,-1.999688675191716225e+00,2.750285579376856582e+00,4.613998907648875214e-01,5.005404380200928927e+00,-1.342316948815819311e+00,-1.231303112229082730e+00
-5.222583279250885280e-01,2.510452987760503518e+00,-1.467684281206122598e+00,-1.832254178736667960e+00,-1.186671465302796769e+00,3.304984342817723686e+00,4.619851784093387259e-01,-5.462257926628000249e-02,-3.397221413305740345e+00,-1.677015354588061724e+00
-4.972893255589038164e-01,-3.998078079849694544e-01,-1.138010366458280798e-02,5.075328668828791301e-01,-7.915095305052474717e-02,5.950590832918867257e-01,3.922457760076838301e-02,-9.020085243777820061e-01,-9.209559053710927312e-01,-9.182982538456946342e-02
6.005834070096716104e-02,-1.130114408744478993e+00,-6.313340506437741251e-01,-1.992627959116018976e+00,1.901330624241005740e+00,-5.052749202149065866e+00,-4.994268354667260601e-01,1.047451353957849163e+00,5.774804408503668718e+00,1.081636888247846207e+00
