-2.621710504051812052e+00,1.104479313828025333e+00,-2.657488467387948194e+00,-2.406600970185391208e+00,-1.131358633683318543e-01,3.346952793577855911e-01,4.797067957009958361e-01,-2.589030890445020106e+00,7.554760450835249497e-01,2.985497361406911132e+00
-1.986231613621468828e+00,-9.455187375661122662e-01,3.834146697448317376e-01,7.338937306757365997e-01,7.875770941126447600e-02,-7.993668761057542982e-01,-1.368109208704483049e+00,-1.528987447616185991e+00,3.158155131296662255e+00,1.324746138627446168e+00
1.795050828295305267e+00,5.291572387686044321e-01,3.601760049021170973e-01,1.792122504837183883e-01,6.733997706222362156e-01,-1.775460855005343008e-01,8.951024807395849825e-01,1.297360792850304367e+00,-1.057040608811298465e+00,-5.453048518590746241e-01
2.764432684365782045e+00,1.006520534310220150e+00,5.728744489072065127e-01,3.860866760257293251e-01,1.751687187270108526e+00,-8.855822576581878769e-01,1.538772479991772801e+00,1.784013240677265300e+00,-5.478250738710718215e-01,1.044050472302693044e-01
2.929774936768279936e+00,9.992408426807007915e-01,7.377913501208946956e-01,5.616951253753404982e-01,1.968627946560147501e+00,-1.083352415518862522e+00,1.561507129259607662e+00,1.882863006263889361e+00,-2.862202186823460948e-01,1.971921996192658733e-01
-3.011242651802810699e-01,1.515985380592065890e-01,-1.618821974189010512e-02,1.379313400184088156e-01,8.403800811946843252e-01,-7.944648334164169379e-01,4.891868649855295875e-02,-4.990490294676525052e-01,1.637648568508170088e+00,1.341430424473151417e+00
-1.355852650937414472e+00,-8.859971863028796024e-01,-2.219833127537459982e-01,-2.804742631506376149e-01,-2.066960356266150267e+00,1.434762528370561396e+00,-1.091947442750844210e+00,-4.953007914174589743e-01,-1.469077206735730057e+00,-1.690314078660771324e+00
7.527228751740482338e-01,-4.700515771777745710e-01,1.319895758702724686e+00,1.400597485954284460e+00,9.790092893633585147e-01,-1.109999276469922025e+00,-3.192437047116316595e-01,5.672255929053621193e-01,1.734098307717262255e+00,1.363331250827638230e-01
4.770227069064676861e+00,2.695251328951131509e+00,-4.023634239836667015e-01,-8.513104513222730096e-01,2.663333626135669263e+00,-6.936079482769542670e-01,3.595968730631552202e+00,2.907819018197460803e+00,-2.838172663374001203e+00,3.720896379562417811e-01
4.317598578673312204e+00,2.240304029219084558e+00,-1.079707925788114392e-01,-5.010082368343184989e-01,2.398021049176692454e+00,-7.147930729171757536e-01,3.062321387097894476e+00,2.687331153287895180e+00,-2.337309437738564366e+00,1.963609282523989530e-01
