6.556163940723999106e-01,-3.086950836497001083e-01,-3.036990382264985744e-01,-8.765973786619879471e-01,1.060592009186834606e+00,8.142539561669785986e-01,2.432873980644673750e+00,9.882526976741096147e-01,-2.269983640964181593e+00,7.722585669765082983e-01
1.075263071517921443e+00,2.528051412781772145e-01,-5.159676670696043965e-01,-6.617567849976723204e-01,-6.033780062369861197e-01,8.879937645981026417e-01,-1.105723447225321621e-01,1.494811189530710571e+00,-8.005119812916139388e-01,4.479422594548041481e-01
-3.173673495228582997e+00,-7.975723692521295705e-02,4.528449904330321019e+00,-1.984179315051887160e+00,-2.057872517512250310e-01,-4.393910226370793204e+00,1.597371070943966187e-01,-4.344271050790625033e+00,-2.998558921501442764e+00,-5.056139132160469174e+00
1.543697402294208043e+00,3.106999247341462045e-01,-2.255819099689808649e+00,1.314516766729262764e+00,-7.401896072319960052e-01,1.998307771906255415e+00,-1.599679642542119584e+00,2.065191454468301213e+00,2.627983664547585363e+00,2.212765786622210573e+00
-8.635675905485204473e-02,3.906727658223466682e-01,7.202580962455811253e-01,-5.792616098586554907e-01,-1.203992379836569482e+00,-6.280845482863574025e-01,-1.428840082105786724e+00,-1.476312100551323836e-01,-1.599063086952660362e-01,-1.166338029158945799e+00
1.173724555896269228e+00,1.077449381872982448e+00,-1.146091690476171099e+00,9.591110708949348584e-01,-3.145426781553402051e+00,7.545081743916220995e-01,-5.091389444450323154e+00,1.465359572754768802e+00,3.691665761011571512e+00,1.875065530551873749e-01
1.242542986192882587e-01,-5.617493271867664006e-01,-1.711565803730007662e+00,1.866044819053277015e+00,1.715555823488081666e+00,1.211949305430265467e+00,1.286569080028783008e+00,1.725030249490614453e-01,2.003077954042930653e+00,2.351682330063072257e+00
1.697558416757093624e+00,6.367766272779024073e-01,-6.463687228042278576e-01,-1.067499830607577360e+00,-1.682061437766874334e+00,1.182420493590813360e+00,-1.260933251934208243e+00,2.330723811553837788e+00,-8.048285893274788050e-01,2.774134751787160069e-01
5.054176611440910349e-01,7.190678987479662831e-01,-7.247072209230164264e-01,1.018003067594009492e+00,-2.147033261383293201e+00,2.773911385697239718e-01,-3.826416081359421906e+00,5.753618905402145822e-01,3.162624483150923371e+00,3.036863291535422602e-02
-8.798657146284067920e-01,-6.885967348064641058e-01,3.424008803082342900e-01,1.884221324021336519e-01,1.978419725361017401e+00,-4.010303759893670827e-01,2.589257930718328993e+00,-1.148590472296606491e+00,-9.604378812820367761e-01,2.439426790184777427e-01
