2.047992099118841391e+00,2.516670676178001664e-01,-1.278474509568946038e+00,2.937411466200355314e-01,-2.754339388065300542e-01,-1.018852944809722105e+00,5.044796236502522291e-01,-2.284505840927353759e+00,-2.594554271144211555e-01,1.246077810527883356e+00
-4.611603767243746432e+00,-4.105271851781773229e+00,1.855264790387901375e+00,-1.399257871592662461e+00,1.198886510395165583e+00,9.012761157411350865e-01,-3.513064422323038727e+00,4.780510072999335058e+00,-3.223594323530469374e+00,6.747356224667208080e-01
1.926179196930475568e+00,2.393438647936287023e+00,-4.056803547968213519e-01,-1.584486234076948330e+00,-6.564591542121585022e-01,3.248553582684107877e+00,4.288374946066536353e+00,2.843171978721180437e+00,4.946259498691796708e+00,8.372631041789119211e-02
5.130786358750157872e-01,-7.218710537462688093e-01,-6.228928812439001872e-01,9.195853271566420961e-01,7.889450764908174929e-02,-2.031580500003018486e+00,-1.434424195115085565e+00,-2.737530409555751554e+00,-2.163575811603485999e+00,6.327469317762106638e-01
-6.054724265667367433e+00,2.787212156517963613e-01,3.927232822151935476e+00,1.326805677732644240e+00,6.853980591608264117e-01,5.343266366144807655e-01,-2.833235947809667810e+00,2.767097920672556111e+00,-5.938506622452204287e-01,-5.576221323083285775e+00
-2.594569104386212466e+00,1.478586864161362646e+00,2.012756742310668923e+00,1.697662360051590102e+00,8.780663330345143958e-02,-4.650848292622784541e-01,-1.166769017847059109e+00,-4.206001011939899392e-01,1.577775156575368376e-01,-4.104586644595013212e+00
6.876093068773236894e-03,8.100957610178969315e-01,2.806877496419282192e-01,-5.104349787706361496e-01,-1.464256295846528833e-01,1.303618135875335371e+00,1.241557302347834568e+00,1.479744004651430300e+00,1.714666538551236297e+00,-4.876625584410836378e-01
-1.886456231117734084e-01,-2.275302668894531255e+00,-3.998256214876082515e-01,-2.285401751115046842e+00,3.590517989321554415e-01,1.806941533222820695e+00,2.716838673354641243e-01,3.672034990515158803e+00,-1.780620983433836013e-01,2.900340981340549185e+00
1.294002359000542723e+00,-1.111965203699780469e+00,-1.141206520613159636e+00,-5.367789931851180141e-01,2.496594624080156199e-02,-4.793681604812791708e-01,-6.686879230818060238e-02,-6.297855867197748037e-01,-9.636011036944555075e-01,2.242004353807662831e+00
4.084642528380827420e-02,4.967491734063160802e-01,1.245970278208854698e-01,3.370948036244825197e-03,-8.793956051015239250e-02,3.258694899584059224e-01,4.478887073007168373e-01,2.217901803418874107e-01,6.543955171983304453e-01,-4.118616515110974929e-01
