1.743414743005338607e+00,6.129720968364340550e+00,1.781573766204509468e+00,-4.836434398747495145e+00,-2.308456453035120592e+00,6.044401343954241002e-01,-1.157911848072617156e+00,-2.175495533515782842e+00,-3.897533965812940426e-01,-1.705898605762262044e+00
-2.979969487967328301e-01,-7.663914449764132053e-01,-1.486319411091965303e+00,3.221239959169165168e+00,-1.519959360256988579e-01,-2.886285528129628464e-02,5.954696515846981120e-01,-8.789292456200541448e-01,2.402774718846749646e+00,8.107428180310009003e-01
-3.370798343853952383e-01,-1.025110101928550899e+00,-1.827584849448308013e+00,3.908752239014604335e+00,-7.961718219045132994e-02,2.036484330829696487e-02,6.724134816823672534e-01,-1.082237523817766611e+00,2.965975703994168988e+00,1.022626456740711731e+00
-1.025167129873736149e+00,-6.299170604802273310e-01,-3.938361014037878305e-01,2.029333757277200334e+00,-9.344374295583124379e-01,-1.106730243529882252e+00,1.277831803285397028e+00,8.874014894352681981e-01,-3.952365878205494343e-01,4.671615139077733847e-02
8.217895140663817877e-01,4.313342650338951145e+00,1.402355379030488791e-01,-6.574231116168922640e-01,-2.453829801002361144e+00,4.371151826118979677e-02,1.767975219111028728e-02,-2.201207687719413553e+00,1.467445882072961671e+00,-7.656327566397032047e-01
2.295694514154377613e-02,-1.238809817328078433e-01,2.165089852777052348e-01,-4.806926977464673900e-01,1.903640734523076306e-01,3.178657405296777400e-02,-1.215879883293143060e-01,2.305973950676599993e-01,-4.205996830172940015e-01,-7.335333899177939876e-02
-2.820672921472877626e-01,-2.471986986657583873e+00,-1.586693831507723917e-03,-2.842513153295933570e-02,1.676326092861716965e+00,2.044859685844148678e-01,-2.775870717220682571e-01,1.144251776346618676e+00,-8.049020206916731590e-01,4.519475110582251154e-01
9.746236366570681930e-01,2.445839967765667478e+00,-1.428752922770208933e+00,1.955323896064727007e+00,-1.120569315884315964e+00,8.441349995768696601e-01,-2.382718220999513470e-01,-3.242934238493226928e+00,4.242742335370590645e+00,4.446181588353131930e-01
-6.298354581895138082e-01,-3.373720482526894937e+00,-1.522967537034524588e+00,3.305947748128002850e+00,1.561560490190803563e+00,1.475236619474975530e-01,3.569531464415798272e-01,3.291196292577225346e-01,1.587031482263682625e+00,1.295169149678381038e+00
-8.335846799557931064e-01,-6.825500188123549972e-01,-1.360783886537983989e+00,3.690323769773498963e+00,-8.945650308929870009e-01,-7.395065209630969916e-01,1.279961849414424702e+00,-2.349680043003646857e-01,1.646344377738828246e+00,5.844719062739005544e-01
