1.446663507605327192e-01,-3.333452812407262655e+00,1.860308909221780382e+00,-2.199701867957503332e+00,5.300531010054425618e-01,-2.011627539586859026e+00,-5.091908670808543702e-01,-9.697734672894328112e-01,-1.441549287866367601e+00,-1.147931174207698968e+00
-6.823777239902724390e-02,-1.177815754802768344e+00,1.042733548899833718e+00,-8.959636441380134375e-01,1.141273508537876236e+00,-1.877308986667153734e+00,3.963664946212330786e-01,-4.275704997868360335e-01,-1.977786338410705946e+00,-1.872268830905811088e+00
4.642303003793049054e-01,1.343383612285338202e-01,-1.600877847100745655e+00,5.737809043093407002e-01,-3.802825901452248303e+00,4.729119102267477004e+00,-2.254425233788229122e+00,3.830293426067449825e-01,5.904574154615620962e+00,5.861681561394973095e+00
1.761770053964112070e-01,-3.774595113874004149e+00,2.402571008824912813e+00,-3.218650953930094261e+00,1.528355173704134096e+00,-4.431610429679261998e+00,-4.110660349108222755e-01,-1.491454572072711704e+00,-4.152894800885378324e+00,-2.801844398442759676e+00
4.184458464089731156e-02,-1.985018670705173349e+00,4.491062311701856102e-01,4.121033551305978704e-01,-1.780770718120308738e+00,3.796600630581161706e+00,-6.266987599296268696e-01,3.505443236130236229e-01,4.973881691672136007e+00,2.718523763208095634e+00
-9.733337439432476756e-02,-2.537674246013681412e+00,1.557844271118642876e+00,-7.171850497720747564e-01,4.469553188598016091e-01,1.744814168875880728e-02,2.599536096262438090e-01,-2.535558380955465485e-01,5.525911683343838199e-01,-8.226745128793855333e-01
4.779408625025025059e-01,-4.931849613561656298e+00,2.040650388574150043e+00,-3.301525005887497421e+00,-8.955908472131576259e-01,-1.348323378837021247e+00,-1.933376673443001126e+00,-1.415233895457463031e+00,-3.860064821139695158e-03,8.527840724082067503e-01
4.482323129947329843e-01,-1.030856898437394520e+01,4.948800050462230260e+00,-5.036411103758386965e+00,-8.170352353041580029e-01,-7.875837640921481420e-01,-2.115926458995413650e+00,-2.039282006383378310e+00,1.926948247271255132e+00,4.052322132246098385e-01
-1.062940529494899700e+00,6.166947238036553536e+00,-1.608989523579777314e+00,4.898785774285020267e+00,3.127720625232865981e+00,9.285327775894257618e-01,4.288937089145621329e+00,2.108711421889130300e+00,-1.266268591693898049e+00,-4.028166424948346425e+00
9.119297334830302193e-02,1.751477536923290224e+00,-1.516660301793054222e+00,1.320481408949052637e+00,-1.612691953476833140e+00,2.686147359129669621e+00,-5.392828563451967927e-01,6.276162612257771833e-01,2.808676976241447409e+00,2.654175115322471523e+00
